%!PS-Adobe-2.0 EPSF-2.0
%%Title: 10thr.eps
%%Creator: gnuplot 5.0 patchlevel 5
%%CreationDate: Wed Mar  8 18:20:04 2017
%%DocumentFonts: (atend)
%%BoundingBox: 50 50 410 302
%%EndComments
%%BeginProlog
/gnudict 256 dict def
gnudict begin
%
% The following true/false flags may be edited by hand if desired.
% The unit line width and grayscale image gamma correction may also be changed.
%
/Color true def
/Blacktext false def
/Solid false def
/Dashlength 1 def
/Landscape false def
/Level1 false def
/Level3 false def
/Rounded false def
/ClipToBoundingBox false def
/SuppressPDFMark false def
/TransparentPatterns false def
/gnulinewidth 5.000 def
/userlinewidth gnulinewidth def
/Gamma 1.0 def
/BackgroundColor {-1.000 -1.000 -1.000} def
%
/vshift -46 def
/dl1 {
  10.0 Dashlength userlinewidth gnulinewidth div mul mul mul
  Rounded { currentlinewidth 0.75 mul sub dup 0 le { pop 0.01 } if } if
} def
/dl2 {
  10.0 Dashlength userlinewidth gnulinewidth div mul mul mul
  Rounded { currentlinewidth 0.75 mul add } if
} def
/hpt_ 31.5 def
/vpt_ 31.5 def
/hpt hpt_ def
/vpt vpt_ def
/doclip {
  ClipToBoundingBox {
    newpath 50 50 moveto 410 50 lineto 410 302 lineto 50 302 lineto closepath
    clip
  } if
} def
%
% Gnuplot Prolog Version 5.1 (Oct 2015)
%
%/SuppressPDFMark true def
%
/M {moveto} bind def
/L {lineto} bind def
/R {rmoveto} bind def
/V {rlineto} bind def
/N {newpath moveto} bind def
/Z {closepath} bind def
/C {setrgbcolor} bind def
/f {rlineto fill} bind def
/g {setgray} bind def
/Gshow {show} def   % May be redefined later in the file to support UTF-8
/vpt2 vpt 2 mul def
/hpt2 hpt 2 mul def
/Lshow {currentpoint stroke M 0 vshift R 
	Blacktext {gsave 0 setgray textshow grestore} {textshow} ifelse} def
/Rshow {currentpoint stroke M dup stringwidth pop neg vshift R
	Blacktext {gsave 0 setgray textshow grestore} {textshow} ifelse} def
/Cshow {currentpoint stroke M dup stringwidth pop -2 div vshift R 
	Blacktext {gsave 0 setgray textshow grestore} {textshow} ifelse} def
/UP {dup vpt_ mul /vpt exch def hpt_ mul /hpt exch def
  /hpt2 hpt 2 mul def /vpt2 vpt 2 mul def} def
/DL {Color {setrgbcolor Solid {pop []} if 0 setdash}
 {pop pop pop 0 setgray Solid {pop []} if 0 setdash} ifelse} def
/BL {stroke userlinewidth 2 mul setlinewidth
	Rounded {1 setlinejoin 1 setlinecap} if} def
/AL {stroke userlinewidth 2 div setlinewidth
	Rounded {1 setlinejoin 1 setlinecap} if} def
/UL {dup gnulinewidth mul /userlinewidth exch def
	dup 1 lt {pop 1} if 10 mul /udl exch def} def
/PL {stroke userlinewidth setlinewidth
	Rounded {1 setlinejoin 1 setlinecap} if} def
3.8 setmiterlimit
% Classic Line colors (version 5.0)
/LCw {1 1 1} def
/LCb {0 0 0} def
/LCa {0 0 0} def
/LC0 {1 0 0} def
/LC1 {0 1 0} def
/LC2 {0 0 1} def
/LC3 {1 0 1} def
/LC4 {0 1 1} def
/LC5 {1 1 0} def
/LC6 {0 0 0} def
/LC7 {1 0.3 0} def
/LC8 {0.5 0.5 0.5} def
% Default dash patterns (version 5.0)
/LTB {BL [] LCb DL} def
/LTw {PL [] 1 setgray} def
/LTb {PL [] LCb DL} def
/LTa {AL [1 udl mul 2 udl mul] 0 setdash LCa setrgbcolor} def
/LT0 {PL [] LC0 DL} def
/LT1 {PL [2 dl1 3 dl2] LC1 DL} def
/LT2 {PL [1 dl1 1.5 dl2] LC2 DL} def
/LT3 {PL [6 dl1 2 dl2 1 dl1 2 dl2] LC3 DL} def
/LT4 {PL [1 dl1 2 dl2 6 dl1 2 dl2 1 dl1 2 dl2] LC4 DL} def
/LT5 {PL [4 dl1 2 dl2] LC5 DL} def
/LT6 {PL [1.5 dl1 1.5 dl2 1.5 dl1 1.5 dl2 1.5 dl1 6 dl2] LC6 DL} def
/LT7 {PL [3 dl1 3 dl2 1 dl1 3 dl2] LC7 DL} def
/LT8 {PL [2 dl1 2 dl2 2 dl1 6 dl2] LC8 DL} def
/SL {[] 0 setdash} def
/Pnt {stroke [] 0 setdash gsave 1 setlinecap M 0 0 V stroke grestore} def
/Dia {stroke [] 0 setdash 2 copy vpt add M
  hpt neg vpt neg V hpt vpt neg V
  hpt vpt V hpt neg vpt V closepath stroke
  Pnt} def
/Pls {stroke [] 0 setdash vpt sub M 0 vpt2 V
  currentpoint stroke M
  hpt neg vpt neg R hpt2 0 V stroke
 } def
/Box {stroke [] 0 setdash 2 copy exch hpt sub exch vpt add M
  0 vpt2 neg V hpt2 0 V 0 vpt2 V
  hpt2 neg 0 V closepath stroke
  Pnt} def
/Crs {stroke [] 0 setdash exch hpt sub exch vpt add M
  hpt2 vpt2 neg V currentpoint stroke M
  hpt2 neg 0 R hpt2 vpt2 V stroke} def
/TriU {stroke [] 0 setdash 2 copy vpt 1.12 mul add M
  hpt neg vpt -1.62 mul V
  hpt 2 mul 0 V
  hpt neg vpt 1.62 mul V closepath stroke
  Pnt} def
/Star {2 copy Pls Crs} def
/BoxF {stroke [] 0 setdash exch hpt sub exch vpt add M
  0 vpt2 neg V hpt2 0 V 0 vpt2 V
  hpt2 neg 0 V closepath fill} def
/TriUF {stroke [] 0 setdash vpt 1.12 mul add M
  hpt neg vpt -1.62 mul V
  hpt 2 mul 0 V
  hpt neg vpt 1.62 mul V closepath fill} def
/TriD {stroke [] 0 setdash 2 copy vpt 1.12 mul sub M
  hpt neg vpt 1.62 mul V
  hpt 2 mul 0 V
  hpt neg vpt -1.62 mul V closepath stroke
  Pnt} def
/TriDF {stroke [] 0 setdash vpt 1.12 mul sub M
  hpt neg vpt 1.62 mul V
  hpt 2 mul 0 V
  hpt neg vpt -1.62 mul V closepath fill} def
/DiaF {stroke [] 0 setdash vpt add M
  hpt neg vpt neg V hpt vpt neg V
  hpt vpt V hpt neg vpt V closepath fill} def
/Pent {stroke [] 0 setdash 2 copy gsave
  translate 0 hpt M 4 {72 rotate 0 hpt L} repeat
  closepath stroke grestore Pnt} def
/PentF {stroke [] 0 setdash gsave
  translate 0 hpt M 4 {72 rotate 0 hpt L} repeat
  closepath fill grestore} def
/Circle {stroke [] 0 setdash 2 copy
  hpt 0 360 arc stroke Pnt} def
/CircleF {stroke [] 0 setdash hpt 0 360 arc fill} def
/C0 {BL [] 0 setdash 2 copy moveto vpt 90 450 arc} bind def
/C1 {BL [] 0 setdash 2 copy moveto
	2 copy vpt 0 90 arc closepath fill
	vpt 0 360 arc closepath} bind def
/C2 {BL [] 0 setdash 2 copy moveto
	2 copy vpt 90 180 arc closepath fill
	vpt 0 360 arc closepath} bind def
/C3 {BL [] 0 setdash 2 copy moveto
	2 copy vpt 0 180 arc closepath fill
	vpt 0 360 arc closepath} bind def
/C4 {BL [] 0 setdash 2 copy moveto
	2 copy vpt 180 270 arc closepath fill
	vpt 0 360 arc closepath} bind def
/C5 {BL [] 0 setdash 2 copy moveto
	2 copy vpt 0 90 arc
	2 copy moveto
	2 copy vpt 180 270 arc closepath fill
	vpt 0 360 arc} bind def
/C6 {BL [] 0 setdash 2 copy moveto
	2 copy vpt 90 270 arc closepath fill
	vpt 0 360 arc closepath} bind def
/C7 {BL [] 0 setdash 2 copy moveto
	2 copy vpt 0 270 arc closepath fill
	vpt 0 360 arc closepath} bind def
/C8 {BL [] 0 setdash 2 copy moveto
	2 copy vpt 270 360 arc closepath fill
	vpt 0 360 arc closepath} bind def
/C9 {BL [] 0 setdash 2 copy moveto
	2 copy vpt 270 450 arc closepath fill
	vpt 0 360 arc closepath} bind def
/C10 {BL [] 0 setdash 2 copy 2 copy moveto vpt 270 360 arc closepath fill
	2 copy moveto
	2 copy vpt 90 180 arc closepath fill
	vpt 0 360 arc closepath} bind def
/C11 {BL [] 0 setdash 2 copy moveto
	2 copy vpt 0 180 arc closepath fill
	2 copy moveto
	2 copy vpt 270 360 arc closepath fill
	vpt 0 360 arc closepath} bind def
/C12 {BL [] 0 setdash 2 copy moveto
	2 copy vpt 180 360 arc closepath fill
	vpt 0 360 arc closepath} bind def
/C13 {BL [] 0 setdash 2 copy moveto
	2 copy vpt 0 90 arc closepath fill
	2 copy moveto
	2 copy vpt 180 360 arc closepath fill
	vpt 0 360 arc closepath} bind def
/C14 {BL [] 0 setdash 2 copy moveto
	2 copy vpt 90 360 arc closepath fill
	vpt 0 360 arc} bind def
/C15 {BL [] 0 setdash 2 copy vpt 0 360 arc closepath fill
	vpt 0 360 arc closepath} bind def
/Rec {newpath 4 2 roll moveto 1 index 0 rlineto 0 exch rlineto
	neg 0 rlineto closepath} bind def
/Square {dup Rec} bind def
/Bsquare {vpt sub exch vpt sub exch vpt2 Square} bind def
/S0 {BL [] 0 setdash 2 copy moveto 0 vpt rlineto BL Bsquare} bind def
/S1 {BL [] 0 setdash 2 copy vpt Square fill Bsquare} bind def
/S2 {BL [] 0 setdash 2 copy exch vpt sub exch vpt Square fill Bsquare} bind def
/S3 {BL [] 0 setdash 2 copy exch vpt sub exch vpt2 vpt Rec fill Bsquare} bind def
/S4 {BL [] 0 setdash 2 copy exch vpt sub exch vpt sub vpt Square fill Bsquare} bind def
/S5 {BL [] 0 setdash 2 copy 2 copy vpt Square fill
	exch vpt sub exch vpt sub vpt Square fill Bsquare} bind def
/S6 {BL [] 0 setdash 2 copy exch vpt sub exch vpt sub vpt vpt2 Rec fill Bsquare} bind def
/S7 {BL [] 0 setdash 2 copy exch vpt sub exch vpt sub vpt vpt2 Rec fill
	2 copy vpt Square fill Bsquare} bind def
/S8 {BL [] 0 setdash 2 copy vpt sub vpt Square fill Bsquare} bind def
/S9 {BL [] 0 setdash 2 copy vpt sub vpt vpt2 Rec fill Bsquare} bind def
/S10 {BL [] 0 setdash 2 copy vpt sub vpt Square fill 2 copy exch vpt sub exch vpt Square fill
	Bsquare} bind def
/S11 {BL [] 0 setdash 2 copy vpt sub vpt Square fill 2 copy exch vpt sub exch vpt2 vpt Rec fill
	Bsquare} bind def
/S12 {BL [] 0 setdash 2 copy exch vpt sub exch vpt sub vpt2 vpt Rec fill Bsquare} bind def
/S13 {BL [] 0 setdash 2 copy exch vpt sub exch vpt sub vpt2 vpt Rec fill
	2 copy vpt Square fill Bsquare} bind def
/S14 {BL [] 0 setdash 2 copy exch vpt sub exch vpt sub vpt2 vpt Rec fill
	2 copy exch vpt sub exch vpt Square fill Bsquare} bind def
/S15 {BL [] 0 setdash 2 copy Bsquare fill Bsquare} bind def
/D0 {gsave translate 45 rotate 0 0 S0 stroke grestore} bind def
/D1 {gsave translate 45 rotate 0 0 S1 stroke grestore} bind def
/D2 {gsave translate 45 rotate 0 0 S2 stroke grestore} bind def
/D3 {gsave translate 45 rotate 0 0 S3 stroke grestore} bind def
/D4 {gsave translate 45 rotate 0 0 S4 stroke grestore} bind def
/D5 {gsave translate 45 rotate 0 0 S5 stroke grestore} bind def
/D6 {gsave translate 45 rotate 0 0 S6 stroke grestore} bind def
/D7 {gsave translate 45 rotate 0 0 S7 stroke grestore} bind def
/D8 {gsave translate 45 rotate 0 0 S8 stroke grestore} bind def
/D9 {gsave translate 45 rotate 0 0 S9 stroke grestore} bind def
/D10 {gsave translate 45 rotate 0 0 S10 stroke grestore} bind def
/D11 {gsave translate 45 rotate 0 0 S11 stroke grestore} bind def
/D12 {gsave translate 45 rotate 0 0 S12 stroke grestore} bind def
/D13 {gsave translate 45 rotate 0 0 S13 stroke grestore} bind def
/D14 {gsave translate 45 rotate 0 0 S14 stroke grestore} bind def
/D15 {gsave translate 45 rotate 0 0 S15 stroke grestore} bind def
/DiaE {stroke [] 0 setdash vpt add M
  hpt neg vpt neg V hpt vpt neg V
  hpt vpt V hpt neg vpt V closepath stroke} def
/BoxE {stroke [] 0 setdash exch hpt sub exch vpt add M
  0 vpt2 neg V hpt2 0 V 0 vpt2 V
  hpt2 neg 0 V closepath stroke} def
/TriUE {stroke [] 0 setdash vpt 1.12 mul add M
  hpt neg vpt -1.62 mul V
  hpt 2 mul 0 V
  hpt neg vpt 1.62 mul V closepath stroke} def
/TriDE {stroke [] 0 setdash vpt 1.12 mul sub M
  hpt neg vpt 1.62 mul V
  hpt 2 mul 0 V
  hpt neg vpt -1.62 mul V closepath stroke} def
/PentE {stroke [] 0 setdash gsave
  translate 0 hpt M 4 {72 rotate 0 hpt L} repeat
  closepath stroke grestore} def
/CircE {stroke [] 0 setdash 
  hpt 0 360 arc stroke} def
/Opaque {gsave closepath 1 setgray fill grestore 0 setgray closepath} def
/DiaW {stroke [] 0 setdash vpt add M
  hpt neg vpt neg V hpt vpt neg V
  hpt vpt V hpt neg vpt V Opaque stroke} def
/BoxW {stroke [] 0 setdash exch hpt sub exch vpt add M
  0 vpt2 neg V hpt2 0 V 0 vpt2 V
  hpt2 neg 0 V Opaque stroke} def
/TriUW {stroke [] 0 setdash vpt 1.12 mul add M
  hpt neg vpt -1.62 mul V
  hpt 2 mul 0 V
  hpt neg vpt 1.62 mul V Opaque stroke} def
/TriDW {stroke [] 0 setdash vpt 1.12 mul sub M
  hpt neg vpt 1.62 mul V
  hpt 2 mul 0 V
  hpt neg vpt -1.62 mul V Opaque stroke} def
/PentW {stroke [] 0 setdash gsave
  translate 0 hpt M 4 {72 rotate 0 hpt L} repeat
  Opaque stroke grestore} def
/CircW {stroke [] 0 setdash 
  hpt 0 360 arc Opaque stroke} def
/BoxFill {gsave Rec 1 setgray fill grestore} def
/Density {
  /Fillden exch def
  currentrgbcolor
  /ColB exch def /ColG exch def /ColR exch def
  /ColR ColR Fillden mul Fillden sub 1 add def
  /ColG ColG Fillden mul Fillden sub 1 add def
  /ColB ColB Fillden mul Fillden sub 1 add def
  ColR ColG ColB setrgbcolor} def
/BoxColFill {gsave Rec PolyFill} def
/PolyFill {gsave Density fill grestore grestore} def
/h {rlineto rlineto rlineto gsave closepath fill grestore} bind def
%
% PostScript Level 1 Pattern Fill routine for rectangles
% Usage: x y w h s a XX PatternFill
%	x,y = lower left corner of box to be filled
%	w,h = width and height of box
%	  a = angle in degrees between lines and x-axis
%	 XX = 0/1 for no/yes cross-hatch
%
/PatternFill {gsave /PFa [ 9 2 roll ] def
  PFa 0 get PFa 2 get 2 div add PFa 1 get PFa 3 get 2 div add translate
  PFa 2 get -2 div PFa 3 get -2 div PFa 2 get PFa 3 get Rec
  TransparentPatterns {} {gsave 1 setgray fill grestore} ifelse
  clip
  currentlinewidth 0.5 mul setlinewidth
  /PFs PFa 2 get dup mul PFa 3 get dup mul add sqrt def
  0 0 M PFa 5 get rotate PFs -2 div dup translate
  0 1 PFs PFa 4 get div 1 add floor cvi
	{PFa 4 get mul 0 M 0 PFs V} for
  0 PFa 6 get ne {
	0 1 PFs PFa 4 get div 1 add floor cvi
	{PFa 4 get mul 0 2 1 roll M PFs 0 V} for
 } if
  stroke grestore} def
%
/languagelevel where
 {pop languagelevel} {1} ifelse
dup 2 lt
	{/InterpretLevel1 true def
	 /InterpretLevel3 false def}
	{/InterpretLevel1 Level1 def
	 2 gt
	    {/InterpretLevel3 Level3 def}
	    {/InterpretLevel3 false def}
	 ifelse }
 ifelse
%
% PostScript level 2 pattern fill definitions
%
/Level2PatternFill {
/Tile8x8 {/PaintType 2 /PatternType 1 /TilingType 1 /BBox [0 0 8 8] /XStep 8 /YStep 8}
	bind def
/KeepColor {currentrgbcolor [/Pattern /DeviceRGB] setcolorspace} bind def
<< Tile8x8
 /PaintProc {0.5 setlinewidth pop 0 0 M 8 8 L 0 8 M 8 0 L stroke} 
>> matrix makepattern
/Pat1 exch def
<< Tile8x8
 /PaintProc {0.5 setlinewidth pop 0 0 M 8 8 L 0 8 M 8 0 L stroke
	0 4 M 4 8 L 8 4 L 4 0 L 0 4 L stroke}
>> matrix makepattern
/Pat2 exch def
<< Tile8x8
 /PaintProc {0.5 setlinewidth pop 0 0 M 0 8 L
	8 8 L 8 0 L 0 0 L fill}
>> matrix makepattern
/Pat3 exch def
<< Tile8x8
 /PaintProc {0.5 setlinewidth pop -4 8 M 8 -4 L
	0 12 M 12 0 L stroke}
>> matrix makepattern
/Pat4 exch def
<< Tile8x8
 /PaintProc {0.5 setlinewidth pop -4 0 M 8 12 L
	0 -4 M 12 8 L stroke}
>> matrix makepattern
/Pat5 exch def
<< Tile8x8
 /PaintProc {0.5 setlinewidth pop -2 8 M 4 -4 L
	0 12 M 8 -4 L 4 12 M 10 0 L stroke}
>> matrix makepattern
/Pat6 exch def
<< Tile8x8
 /PaintProc {0.5 setlinewidth pop -2 0 M 4 12 L
	0 -4 M 8 12 L 4 -4 M 10 8 L stroke}
>> matrix makepattern
/Pat7 exch def
<< Tile8x8
 /PaintProc {0.5 setlinewidth pop 8 -2 M -4 4 L
	12 0 M -4 8 L 12 4 M 0 10 L stroke}
>> matrix makepattern
/Pat8 exch def
<< Tile8x8
 /PaintProc {0.5 setlinewidth pop 0 -2 M 12 4 L
	-4 0 M 12 8 L -4 4 M 8 10 L stroke}
>> matrix makepattern
/Pat9 exch def
/Pattern1 {PatternBgnd KeepColor Pat1 setpattern} bind def
/Pattern2 {PatternBgnd KeepColor Pat2 setpattern} bind def
/Pattern3 {PatternBgnd KeepColor Pat3 setpattern} bind def
/Pattern4 {PatternBgnd KeepColor Landscape {Pat5} {Pat4} ifelse setpattern} bind def
/Pattern5 {PatternBgnd KeepColor Landscape {Pat4} {Pat5} ifelse setpattern} bind def
/Pattern6 {PatternBgnd KeepColor Landscape {Pat9} {Pat6} ifelse setpattern} bind def
/Pattern7 {PatternBgnd KeepColor Landscape {Pat8} {Pat7} ifelse setpattern} bind def
} def
%
%
%End of PostScript Level 2 code
%
/PatternBgnd {
  TransparentPatterns {} {gsave 1 setgray fill grestore} ifelse
} def
%
% Substitute for Level 2 pattern fill codes with
% grayscale if Level 2 support is not selected.
%
/Level1PatternFill {
/Pattern1 {0.250 Density} bind def
/Pattern2 {0.500 Density} bind def
/Pattern3 {0.750 Density} bind def
/Pattern4 {0.125 Density} bind def
/Pattern5 {0.375 Density} bind def
/Pattern6 {0.625 Density} bind def
/Pattern7 {0.875 Density} bind def
} def
%
% Now test for support of Level 2 code
%
Level1 {Level1PatternFill} {Level2PatternFill} ifelse
%
/Symbol-Oblique /Symbol findfont [1 0 .167 1 0 0] makefont
dup length dict begin {1 index /FID eq {pop pop} {def} ifelse} forall
currentdict end definefont pop
%
/MFshow {
   { dup 5 get 3 ge
     { 5 get 3 eq {gsave} {grestore} ifelse }
     {dup dup 0 get findfont exch 1 get scalefont setfont
     [ currentpoint ] exch dup 2 get 0 exch R dup 5 get 2 ne {dup dup 6
     get exch 4 get {textshow} {stringwidth pop 0 R} ifelse }if dup 5 get 0 eq
     {dup 3 get {2 get neg 0 exch R pop} {pop aload pop M} ifelse} {dup 5
     get 1 eq {dup 2 get exch dup 3 get exch 6 get stringwidth pop -2 div
     dup 0 R} {dup 6 get stringwidth pop -2 div 0 R 6 get
     textshow 2 index {aload pop M neg 3 -1 roll neg R pop pop} {pop pop pop
     pop aload pop M} ifelse }ifelse }ifelse }
     ifelse }
   forall} def
/Gswidth {dup type /stringtype eq {stringwidth} {pop (n) stringwidth} ifelse} def
/MFwidth {0 exch { dup 5 get 3 ge { 5 get 3 eq { 0 } { pop } ifelse }
 {dup 3 get{dup dup 0 get findfont exch 1 get scalefont setfont
     6 get Gswidth pop add} {pop} ifelse} ifelse} forall} def
/MLshow { currentpoint stroke M
  0 exch R
  Blacktext {gsave 0 setgray MFshow grestore} {MFshow} ifelse } bind def
/MRshow { currentpoint stroke M
  exch dup MFwidth neg 3 -1 roll R
  Blacktext {gsave 0 setgray MFshow grestore} {MFshow} ifelse } bind def
/MCshow { currentpoint stroke M
  exch dup MFwidth -2 div 3 -1 roll R
  Blacktext {gsave 0 setgray MFshow grestore} {MFshow} ifelse } bind def
/XYsave    { [( ) 1 2 true false 3 ()] } bind def
/XYrestore { [( ) 1 2 true false 4 ()] } bind def
Level1 SuppressPDFMark or 
{} {
/SDict 10 dict def
systemdict /pdfmark known not {
  userdict /pdfmark systemdict /cleartomark get put
} if
SDict begin [
  /Title (10thr.eps)
  /Subject (gnuplot plot)
  /Creator (gnuplot 5.0 patchlevel 5)
  /Author (lbedogni)
%  /Producer (gnuplot)
%  /Keywords ()
  /CreationDate (Wed Mar  8 18:20:04 2017)
  /DOCINFO pdfmark
end
} ifelse
%
% Support for boxed text - Ethan A Merritt May 2005
%
/InitTextBox { userdict /TBy2 3 -1 roll put userdict /TBx2 3 -1 roll put
           userdict /TBy1 3 -1 roll put userdict /TBx1 3 -1 roll put
	   /Boxing true def } def
/ExtendTextBox { Boxing
    { gsave dup false charpath pathbbox
      dup TBy2 gt {userdict /TBy2 3 -1 roll put} {pop} ifelse
      dup TBx2 gt {userdict /TBx2 3 -1 roll put} {pop} ifelse
      dup TBy1 lt {userdict /TBy1 3 -1 roll put} {pop} ifelse
      dup TBx1 lt {userdict /TBx1 3 -1 roll put} {pop} ifelse
      grestore } if } def
/PopTextBox { newpath TBx1 TBxmargin sub TBy1 TBymargin sub M
               TBx1 TBxmargin sub TBy2 TBymargin add L
	       TBx2 TBxmargin add TBy2 TBymargin add L
	       TBx2 TBxmargin add TBy1 TBymargin sub L closepath } def
/DrawTextBox { PopTextBox stroke /Boxing false def} def
/FillTextBox { gsave PopTextBox 1 1 1 setrgbcolor fill grestore /Boxing false def} def
0 0 0 0 InitTextBox
/TBxmargin 20 def
/TBymargin 20 def
/Boxing false def
/textshow { ExtendTextBox Gshow } def
%
% redundant definitions for compatibility with prologue.ps older than 5.0.2
/LTB {BL [] LCb DL} def
/LTb {PL [] LCb DL} def
end
%%EndProlog
%%Page: 1 1
gnudict begin
gsave
doclip
50 50 translate
0.050 0.050 scale
0 setgray
newpath
(Helvetica) findfont 140 scalefont setfont
BackgroundColor 0 lt 3 1 roll 0 lt exch 0 lt or or not {BackgroundColor C 1.000 0 0 7200.00 5040.00 BoxColFill} if
/Helvetica findfont 140 scalefont setfont
/vshift -46 def
/Helvetica findfont 140 scalefont setfont
/Helvetica findfont 140 scalefont setfont
/Helvetica findfont 140 scalefont setfont
/Helvetica findfont 140 scalefont setfont
/Helvetica findfont 140 scalefont setfont
/Helvetica findfont 140 scalefont setfont
/Helvetica findfont 140 scalefont setfont
/Helvetica findfont 140 scalefont setfont
/Helvetica findfont 140 scalefont setfont
/Helvetica findfont 140 scalefont setfont
/Helvetica findfont 140 scalefont setfont
/Helvetica findfont 140 scalefont setfont
/Helvetica findfont 140 scalefont setfont
/Helvetica findfont 140 scalefont setfont
/Helvetica findfont 140 scalefont setfont
/Helvetica findfont 140 scalefont setfont
/Helvetica findfont 140 scalefont setfont
/Helvetica findfont 140 scalefont setfont
/Helvetica findfont 140 scalefont setfont
1.000 UL
LTb
LCb setrgbcolor
630 280 M
63 0 V
6254 0 R
-63 0 V
stroke
546 280 M
[ [(Helvetica) 140.0 0.0 true true 0 ( 0)]
] -46.7 MRshow
1.000 UL
LTb
LCb setrgbcolor
630 790 M
63 0 V
6254 0 R
-63 0 V
stroke
546 790 M
[ [(Helvetica) 140.0 0.0 true true 0 ( 1x10)]
[(Helvetica) 112.0 70.0 true true 0 (6)]
] -60.7 MRshow
1.000 UL
LTb
LCb setrgbcolor
630 1300 M
63 0 V
6254 0 R
-63 0 V
stroke
546 1300 M
[ [(Helvetica) 140.0 0.0 true true 0 ( 2x10)]
[(Helvetica) 112.0 70.0 true true 0 (6)]
] -60.7 MRshow
1.000 UL
LTb
LCb setrgbcolor
630 1810 M
63 0 V
6254 0 R
-63 0 V
stroke
546 1810 M
[ [(Helvetica) 140.0 0.0 true true 0 ( 3x10)]
[(Helvetica) 112.0 70.0 true true 0 (6)]
] -60.7 MRshow
1.000 UL
LTb
LCb setrgbcolor
630 2320 M
63 0 V
6254 0 R
-63 0 V
stroke
546 2320 M
[ [(Helvetica) 140.0 0.0 true true 0 ( 4x10)]
[(Helvetica) 112.0 70.0 true true 0 (6)]
] -60.7 MRshow
1.000 UL
LTb
LCb setrgbcolor
630 2831 M
63 0 V
6254 0 R
-63 0 V
stroke
546 2831 M
[ [(Helvetica) 140.0 0.0 true true 0 ( 5x10)]
[(Helvetica) 112.0 70.0 true true 0 (6)]
] -60.7 MRshow
1.000 UL
LTb
LCb setrgbcolor
630 3341 M
63 0 V
6254 0 R
-63 0 V
stroke
546 3341 M
[ [(Helvetica) 140.0 0.0 true true 0 ( 6x10)]
[(Helvetica) 112.0 70.0 true true 0 (6)]
] -60.7 MRshow
1.000 UL
LTb
LCb setrgbcolor
630 3851 M
63 0 V
6254 0 R
-63 0 V
stroke
546 3851 M
[ [(Helvetica) 140.0 0.0 true true 0 ( 7x10)]
[(Helvetica) 112.0 70.0 true true 0 (6)]
] -60.7 MRshow
1.000 UL
LTb
LCb setrgbcolor
630 4361 M
63 0 V
6254 0 R
-63 0 V
stroke
546 4361 M
[ [(Helvetica) 140.0 0.0 true true 0 ( 8x10)]
[(Helvetica) 112.0 70.0 true true 0 (6)]
] -60.7 MRshow
1.000 UL
LTb
LCb setrgbcolor
630 4871 M
63 0 V
6254 0 R
-63 0 V
stroke
546 4871 M
[ [(Helvetica) 140.0 0.0 true true 0 ( 9x10)]
[(Helvetica) 112.0 70.0 true true 0 (6)]
] -60.7 MRshow
1.000 UL
LTb
LCb setrgbcolor
630 280 M
0 63 V
0 4528 R
0 -63 V
stroke
630 140 M
[ [(Helvetica) 140.0 0.0 true true 0 ( 0)]
] -46.7 MCshow
1.000 UL
LTb
LCb setrgbcolor
1683 280 M
0 63 V
0 4528 R
0 -63 V
stroke
1683 140 M
[ [(Helvetica) 140.0 0.0 true true 0 ( 10)]
] -46.7 MCshow
1.000 UL
LTb
LCb setrgbcolor
2736 280 M
0 63 V
0 4528 R
0 -63 V
stroke
2736 140 M
[ [(Helvetica) 140.0 0.0 true true 0 ( 20)]
] -46.7 MCshow
1.000 UL
LTb
LCb setrgbcolor
3789 280 M
0 63 V
0 4528 R
0 -63 V
stroke
3789 140 M
[ [(Helvetica) 140.0 0.0 true true 0 ( 30)]
] -46.7 MCshow
1.000 UL
LTb
LCb setrgbcolor
4841 280 M
0 63 V
0 4528 R
0 -63 V
stroke
4841 140 M
[ [(Helvetica) 140.0 0.0 true true 0 ( 40)]
] -46.7 MCshow
1.000 UL
LTb
LCb setrgbcolor
5894 280 M
0 63 V
0 4528 R
0 -63 V
stroke
5894 140 M
[ [(Helvetica) 140.0 0.0 true true 0 ( 50)]
] -46.7 MCshow
1.000 UL
LTb
LCb setrgbcolor
6947 280 M
0 63 V
0 4528 R
0 -63 V
stroke
6947 140 M
[ [(Helvetica) 140.0 0.0 true true 0 ( 60)]
] -46.7 MCshow
1.000 UL
LTb
LCb setrgbcolor
1.000 UL
LTB
LCb setrgbcolor
630 4871 N
630 280 L
6317 0 V
0 4591 V
-6317 0 V
Z stroke
1.000 UP
1.000 UL
LTb
LCb setrgbcolor
% Begin plot #1
1.000 UL
LTb
0.58 0.00 0.83 C /Helvetica findfont 140 scalefont setfont
LCb setrgbcolor
6296 4738 M
('bunny_1174238bps' u 1:5) Rshow
1.000 UL
LTb
0.58 0.00 0.83 C 6380 4738 M
399 0 V
841 1045 M
946 994 L
105 153 V
105 0 V
1262 943 L
105 51 V
105 0 V
1578 790 L
1683 690 L
105 151 V
105 204 V
106 0 V
105 102 V
105 -102 V
2315 943 L
105 51 V
2525 841 L
105 255 V
2736 892 L
105 0 V
105 153 V
3052 892 L
105 -51 V
105 255 V
3367 994 L
106 0 V
105 102 V
3683 943 L
106 51 V
105 51 V
105 51 V
105 -51 V
4210 943 L
105 153 V
105 51 V
105 0 V
4631 943 L
4736 714 L
105 127 V
106 0 V
105 204 V
105 51 V
105 0 V
5368 892 L
105 0 V
105 153 V
5684 943 L
5789 790 L
105 153 V
105 204 V
106 0 V
105 0 V
105 -51 V
106 51 V
105 0 V
105 0 V
6736 943 L
6842 616 L
105 31 V
% End plot #1
% Begin plot #2
stroke
LTb
0.00 0.62 0.45 C /Helvetica findfont 140 scalefont setfont
LCb setrgbcolor
6296 4598 M
('bunny_127412bps' u 1:5) Rshow
1.000 UL
LTb
0.00 0.62 0.45 C 6380 4598 M
399 0 V
841 362 M
105 -5 V
105 14 V
105 -4 V
106 -14 V
105 5 V
105 -1 V
106 -8 V
105 -8 V
105 16 V
105 9 V
106 0 V
105 1 V
105 -10 V
106 -2 V
105 7 V
105 -9 V
105 15 V
106 -14 V
105 4 V
105 12 V
106 -21 V
105 5 V
105 10 V
105 -5 V
106 3 V
105 5 V
105 -16 V
106 7 V
105 -4 V
105 10 V
105 0 V
106 -2 V
105 1 V
105 2 V
105 1 V
106 -16 V
105 -16 V
105 24 V
106 -4 V
105 6 V
105 7 V
105 -1 V
106 -8 V
105 0 V
105 1 V
106 -6 V
105 -15 V
105 10 V
105 22 V
106 1 V
105 -2 V
105 -1 V
106 4 V
105 0 V
105 -4 V
105 -12 V
106 -20 V
105 -1 V
% End plot #2
% Begin plot #3
stroke
LTb
0.34 0.71 0.91 C /Helvetica findfont 140 scalefont setfont
LCb setrgbcolor
6296 4458 M
('bunny_1431232bps' u 1:5) Rshow
1.000 UL
LTb
0.34 0.71 0.91 C 6380 4458 M
399 0 V
841 1198 M
105 0 V
105 255 V
105 -102 V
106 -204 V
105 -51 V
105 102 V
1578 841 L
1683 717 L
105 175 V
105 306 V
106 -51 V
105 51 V
105 -51 V
2315 994 L
105 51 V
2525 892 L
105 459 V
106 -306 V
105 -51 V
105 255 V
3052 994 L
3157 841 L
105 510 V
105 -204 V
106 -51 V
105 255 V
105 -306 V
106 51 V
105 153 V
105 153 V
105 -102 V
106 -255 V
105 306 V
105 102 V
105 -51 V
106 -306 V
4736 749 L
105 194 V
106 -51 V
105 306 V
105 153 V
105 0 V
5368 994 L
105 -51 V
105 357 V
5684 994 L
5789 790 L
105 255 V
105 357 V
106 51 V
105 0 V
105 -51 V
106 51 V
105 0 V
105 51 V
6736 994 L
6842 619 L
105 29 V
% End plot #3
% Begin plot #4
stroke
LTb
0.90 0.62 0.00 C /Helvetica findfont 140 scalefont setfont
LCb setrgbcolor
6296 4318 M
('bunny_176780bps' u 1:5) Rshow
1.000 UL
LTb
0.90 0.62 0.00 C 6380 4318 M
399 0 V
841 398 M
946 387 L
105 13 V
105 -2 V
106 -10 V
105 0 V
105 -1 V
106 -2 V
105 -9 V
105 12 V
105 7 V
106 0 V
105 2 V
105 -9 V
106 2 V
105 2 V
105 -5 V
105 10 V
106 -12 V
105 4 V
105 10 V
106 -21 V
105 11 V
105 6 V
105 -7 V
106 6 V
105 3 V
105 -8 V
106 0 V
105 -12 V
105 19 V
105 0 V
106 -4 V
105 -1 V
105 5 V
105 -3 V
106 -13 V
105 -12 V
105 16 V
106 -6 V
105 10 V
105 6 V
105 2 V
106 -5 V
105 0 V
105 -10 V
106 4 V
105 -9 V
105 9 V
105 16 V
106 -1 V
105 -2 V
105 0 V
106 -2 V
105 3 V
105 1 V
105 -7 V
106 -27 V
105 -9 V
% End plot #4
% Begin plot #5
stroke
LTb
0.94 0.89 0.26 C /Helvetica findfont 140 scalefont setfont
LCb setrgbcolor
6296 4178 M
('bunny_2070985bps' u 1:5) Rshow
1.000 UL
LTb
0.94 0.89 0.26 C 6380 4178 M
399 0 V
841 1606 M
946 1504 L
105 255 V
105 0 V
106 -255 V
105 102 V
105 -51 V
106 -357 V
1683 994 L
105 357 V
105 255 V
106 51 V
105 102 V
105 -153 V
106 -153 V
105 102 V
105 -255 V
105 408 V
106 -306 V
105 0 V
105 255 V
106 -306 V
105 0 V
105 306 V
105 -153 V
106 0 V
105 204 V
105 -153 V
106 0 V
105 0 V
105 153 V
105 -102 V
106 -102 V
105 204 V
105 51 V
105 -51 V
106 -153 V
105 -459 V
105 255 V
106 0 V
105 306 V
105 51 V
105 -51 V
106 -357 V
105 102 V
105 153 V
106 -102 V
105 -255 V
105 357 V
105 255 V
106 0 V
105 -51 V
105 -51 V
106 51 V
105 51 V
105 0 V
105 -306 V
6842 943 L
105 0 V
% End plot #5
% Begin plot #6
stroke
LTb
0.00 0.45 0.70 C /Helvetica findfont 140 scalefont setfont
LCb setrgbcolor
6296 4038 M
('bunny_216536bps' u 1:5) Rshow
1.000 UL
LTb
0.00 0.45 0.70 C 6380 4038 M
399 0 V
841 424 M
946 412 L
105 19 V
105 -4 V
106 -17 V
105 2 V
105 -1 V
106 -12 V
105 -13 V
105 25 V
105 12 V
106 2 V
105 3 V
105 -16 V
106 -3 V
105 8 V
105 -13 V
105 22 V
106 -22 V
105 9 V
105 16 V
106 -32 V
105 14 V
105 12 V
105 -9 V
106 7 V
105 5 V
105 -21 V
106 6 V
105 -8 V
105 23 V
105 -4 V
106 -7 V
105 3 V
105 8 V
105 -4 V
106 -20 V
105 -27 V
105 32 V
106 -5 V
105 13 V
105 8 V
105 1 V
106 -8 V
105 -3 V
105 -7 V
106 1 V
105 -17 V
105 19 V
105 21 V
106 0 V
105 -3 V
105 3 V
106 -1 V
105 1 V
105 0 V
105 -11 V
106 -40 V
105 -3 V
% End plot #6
% Begin plot #7
stroke
LTb
0.90 0.12 0.06 C /Helvetica findfont 140 scalefont setfont
LCb setrgbcolor
6296 3898 M
('bunny_2384387bps' u 1:5) Rshow
1.000 UL
LTb
0.90 0.12 0.06 C 6380 3898 M
399 0 V
841 1810 M
946 1708 L
105 357 V
105 -51 V
106 -357 V
105 102 V
105 0 V
106 -510 V
105 -204 V
105 357 V
105 408 V
106 0 V
105 204 V
105 -204 V
106 -204 V
105 102 V
105 -255 V
105 510 V
106 -408 V
105 -51 V
105 357 V
106 -357 V
105 -102 V
105 510 V
105 -204 V
106 0 V
105 255 V
105 -255 V
106 0 V
105 102 V
105 153 V
105 -102 V
106 -255 V
105 357 V
105 51 V
105 0 V
106 -255 V
105 -612 V
105 306 V
106 -51 V
105 408 V
105 153 V
105 -51 V
106 -459 V
105 51 V
105 306 V
106 -255 V
105 -306 V
105 459 V
105 408 V
106 0 V
105 -102 V
105 0 V
106 51 V
105 0 V
105 51 V
105 -561 V
6842 943 L
105 51 V
% End plot #7
% Begin plot #8
stroke
LTb
0.00 0.00 0.00 C /Helvetica findfont 140 scalefont setfont
LCb setrgbcolor
6296 3758 M
('bunny_252988bps' u 1:5) Rshow
1.000 UL
LTb
0.00 0.00 0.00 C 6380 3758 M
399 0 V
841 445 M
946 433 L
105 28 V
105 -4 V
106 -29 V
105 6 V
105 -3 V
106 -21 V
105 -19 V
105 38 V
105 22 V
106 0 V
105 8 V
105 -23 V
106 -10 V
105 15 V
105 -21 V
105 34 V
106 -32 V
105 10 V
105 28 V
106 -45 V
105 6 V
105 31 V
105 -16 V
106 8 V
105 9 V
105 -30 V
106 7 V
105 0 V
105 25 V
105 -6 V
106 -11 V
105 9 V
105 8 V
105 -4 V
106 -32 V
105 -37 V
105 42 V
106 -2 V
105 27 V
105 4 V
105 0 V
106 -19 V
105 0 V
105 -3 V
106 -4 V
105 -28 V
105 27 V
105 35 V
106 -1 V
105 -4 V
105 3 V
106 3 V
105 -2 V
105 1 V
105 -24 V
106 -55 V
105 4 V
% End plot #8
% Begin plot #9
stroke
LTb
0.58 0.00 0.83 C /Helvetica findfont 140 scalefont setfont
LCb setrgbcolor
6296 3618 M
('bunny_2884382bps' u 1:5) Rshow
1.000 UL
LTb
0.58 0.00 0.83 C 6380 3618 M
399 0 V
841 2218 M
946 2116 L
105 562 V
105 -205 V
106 -408 V
105 -102 V
105 204 V
106 -816 V
105 -255 V
105 408 V
105 561 V
106 -51 V
105 102 V
105 -102 V
106 -306 V
105 153 V
105 -306 V
105 816 V
106 -561 V
105 -153 V
105 510 V
106 -408 V
105 -306 V
105 918 V
105 -357 V
106 -102 V
105 612 V
105 -561 V
106 -102 V
105 408 V
105 255 V
105 -204 V
106 -510 V
105 714 V
105 103 V
105 -51 V
106 -562 V
105 -816 V
105 357 V
106 -51 V
105 459 V
105 459 V
105 -102 V
106 -663 V
105 -51 V
105 714 V
106 -612 V
105 -408 V
105 561 V
105 766 V
106 102 V
105 -102 V
105 -51 V
106 102 V
105 0 V
105 51 V
6736 1555 L
6842 943 L
105 51 V
% End plot #9
% Begin plot #10
stroke
LTb
0.00 0.62 0.45 C /Helvetica findfont 140 scalefont setfont
LCb setrgbcolor
6296 3478 M
('bunny_317328bps' u 1:5) Rshow
1.000 UL
LTb
0.00 0.62 0.45 C 6380 3478 M
399 0 V
841 487 M
946 474 L
105 48 V
105 -9 V
106 -49 V
105 12 V
105 -3 V
106 -37 V
105 -40 V
105 53 V
105 49 V
106 -7 V
105 23 V
105 -37 V
106 -11 V
105 9 V
105 -30 V
105 63 V
106 -55 V
105 9 V
105 49 V
106 -67 V
105 -7 V
105 65 V
105 -27 V
106 0 V
105 34 V
105 -64 V
106 22 V
105 19 V
105 24 V
105 -12 V
106 -17 V
105 21 V
105 7 V
105 -3 V
106 -55 V
105 -56 V
105 48 V
106 2 V
105 61 V
105 3 V
105 -2 V
106 -41 V
105 3 V
105 8 V
106 -17 V
105 -50 V
105 32 V
105 80 V
106 -3 V
105 -2 V
105 3 V
106 3 V
105 0 V
105 -6 V
105 -59 V
106 -75 V
105 4 V
% End plot #10
% Begin plot #11
stroke
LTb
0.34 0.71 0.91 C /Helvetica findfont 140 scalefont setfont
LCb setrgbcolor
6296 3338 M
('bunny_3245900bps' u 1:5) Rshow
1.000 UL
LTb
0.34 0.71 0.91 C 6380 3338 M
399 0 V
841 2473 M
105 51 V
105 562 V
105 -459 V
106 -256 V
105 -408 V
105 561 V
1578 1402 L
105 -255 V
105 357 V
105 714 V
106 -102 V
105 51 V
105 -153 V
106 -255 V
105 255 V
105 -459 V
105 1072 V
106 -613 V
105 -306 V
105 714 V
106 -561 V
105 -408 V
105 1225 V
105 -511 V
106 -153 V
105 868 V
105 -766 V
106 -153 V
105 613 V
105 306 V
105 -255 V
106 -766 V
105 1123 V
105 153 V
105 0 V
106 -970 V
105 -918 V
105 408 V
106 -153 V
105 510 V
105 817 V
105 -204 V
106 -817 V
105 -153 V
105 1225 V
5684 1759 L
105 -408 V
105 612 V
105 919 V
106 357 V
105 -51 V
105 -51 V
106 153 V
105 51 V
105 -306 V
6736 1555 L
6842 943 L
105 51 V
% End plot #11
% Begin plot #12
stroke
LTb
0.90 0.62 0.00 C /Helvetica findfont 140 scalefont setfont
LCb setrgbcolor
6296 3198 M
('bunny_3493765bps' u 1:5) Rshow
1.000 UL
LTb
0.90 0.62 0.00 C 6380 3198 M
399 0 V
841 2780 M
105 153 V
105 408 V
105 -612 V
106 -256 V
105 -459 V
105 817 V
1578 1453 L
105 -306 V
105 357 V
105 867 V
106 -204 V
105 0 V
105 -102 V
106 -306 V
105 306 V
105 -459 V
105 1072 V
106 -562 V
105 -357 V
105 714 V
106 -459 V
105 -561 V
105 1480 V
105 -715 V
106 -102 V
105 1021 V
105 -970 V
106 -153 V
105 817 V
105 153 V
105 -204 V
106 -868 V
105 1531 V
105 255 V
105 -102 V
4631 2218 L
105 -969 V
105 459 V
106 -153 V
105 459 V
105 1174 V
105 -255 V
5368 1912 L
105 -255 V
105 1684 V
5684 1759 L
105 -408 V
105 714 V
105 919 V
106 408 V
105 51 V
105 153 V
106 -153 V
105 510 V
105 -663 V
6736 1606 L
6842 943 L
105 51 V
% End plot #12
% Begin plot #13
stroke
LTb
0.94 0.89 0.26 C /Helvetica findfont 140 scalefont setfont
LCb setrgbcolor
6296 3058 M
('bunny_368912bps' u 1:5) Rshow
1.000 UL
LTb
0.94 0.89 0.26 C 6380 3058 M
399 0 V
841 522 M
105 -8 V
105 69 V
105 -17 V
106 -69 V
105 7 V
105 12 V
106 -66 V
105 -51 V
105 57 V
105 68 V
106 -12 V
105 18 V
105 -35 V
106 -5 V
105 7 V
105 -38 V
105 104 V
106 -80 V
105 -5 V
105 71 V
106 -81 V
105 -26 V
105 108 V
105 -43 V
106 -14 V
105 66 V
3683 455 L
106 39 V
105 36 V
105 32 V
105 -18 V
106 -39 V
105 50 V
105 9 V
105 -9 V
106 -88 V
105 -60 V
105 51 V
106 0 V
105 81 V
105 18 V
105 -2 V
106 -64 V
105 0 V
105 38 V
106 -47 V
105 -65 V
105 37 V
105 120 V
106 8 V
105 -3 V
105 1 V
106 4 V
105 -1 V
105 -26 V
105 -95 V
106 -78 V
105 4 V
% End plot #13
% Begin plot #14
stroke
LTb
0.00 0.45 0.70 C /Helvetica findfont 140 scalefont setfont
LCb setrgbcolor
6296 2918 M
('bunny_3792491bps' u 1:5) Rshow
1.000 UL
LTb
0.00 0.45 0.70 C 6380 2918 M
399 0 V
841 3188 M
105 612 V
105 51 V
105 -867 V
106 -460 V
105 -510 V
105 1378 V
1578 1504 L
105 -255 V
105 255 V
105 969 V
106 -306 V
105 0 V
105 -102 V
106 -306 V
105 306 V
105 -459 V
105 1123 V
106 -511 V
105 -459 V
105 765 V
106 -306 V
105 -765 V
105 1684 V
105 -868 V
106 -102 V
105 1174 V
3683 2218 L
106 -153 V
105 1327 V
105 -357 V
105 -102 V
106 -970 V
105 1939 V
105 561 V
105 -51 V
4631 2371 L
4736 1249 L
105 510 V
106 -204 V
105 459 V
105 1786 V
105 -459 V
5368 2116 L
105 -459 V
105 2296 V
5684 1759 L
105 -408 V
105 765 V
105 970 V
106 306 V
105 255 V
105 102 V
106 -255 V
105 1173 V
6631 3392 L
6736 1606 L
6842 943 L
105 51 V
% End plot #14
% Begin plot #15
stroke
LTb
0.90 0.12 0.06 C /Helvetica findfont 140 scalefont setfont
LCb setrgbcolor
6296 2778 M
('bunny_45373bps' u 1:5) Rshow
1.000 UL
LTb
0.90 0.12 0.06 C 6380 2778 M
399 0 V
841 309 M
105 -1 V
105 2 V
105 -1 V
106 -1 V
105 1 V
105 -1 V
106 2 V
105 -2 V
105 0 V
105 2 V
106 -1 V
105 0 V
105 -2 V
106 0 V
105 2 V
105 0 V
105 0 V
106 -1 V
105 1 V
105 1 V
106 -2 V
105 -1 V
105 2 V
105 -1 V
106 1 V
105 1 V
105 -2 V
106 0 V
105 -3 V
105 4 V
105 -1 V
106 2 V
105 -2 V
105 1 V
105 0 V
106 0 V
105 -2 V
105 3 V
106 -5 V
105 1 V
105 3 V
105 0 V
106 -2 V
105 1 V
105 -2 V
106 1 V
105 1 V
105 -1 V
105 4 V
106 0 V
105 -2 V
105 0 V
106 0 V
105 2 V
105 -1 V
105 0 V
106 -6 V
105 -5 V
% End plot #15
% Begin plot #16
stroke
LTb
0.00 0.00 0.00 C /Helvetica findfont 140 scalefont setfont
LCb setrgbcolor
6296 2638 M
('bunny_503270bps' u 1:5) Rshow
1.000 UL
LTb
0.00 0.00 0.00 C 6380 2638 M
399 0 V
841 612 M
946 585 L
105 54 V
105 -3 V
106 -59 V
105 8 V
105 -4 V
106 -50 V
105 -40 V
105 77 V
105 43 V
106 7 V
105 23 V
105 -42 V
106 -19 V
105 19 V
105 -56 V
105 78 V
106 -61 V
105 15 V
105 54 V
106 -83 V
105 11 V
105 65 V
105 -38 V
106 12 V
105 33 V
105 -50 V
106 11 V
105 4 V
105 31 V
105 -11 V
106 -28 V
105 29 V
105 21 V
105 -15 V
106 -54 V
105 -80 V
105 73 V
106 2 V
105 60 V
105 2 V
105 3 V
106 -49 V
105 -7 V
105 18 V
106 -11 V
105 -64 V
105 79 V
105 46 V
106 -4 V
105 -1 V
105 -5 V
106 17 V
105 1 V
105 -2 V
105 -44 V
6842 479 L
105 3 V
% End plot #16
% Begin plot #17
stroke
LTb
0.58 0.00 0.83 C /Helvetica findfont 140 scalefont setfont
LCb setrgbcolor
6296 2498 M
('bunny_568500bps' u 1:5) Rshow
1.000 UL
LTb
0.58 0.00 0.83 C 6380 2498 M
399 0 V
841 652 M
946 625 L
105 70 V
105 -2 V
106 -83 V
105 16 V
105 -2 V
106 -75 V
105 -54 V
105 91 V
105 71 V
106 5 V
105 40 V
105 -55 V
106 -32 V
105 17 V
105 -62 V
105 107 V
106 -87 V
105 13 V
105 74 V
106 -98 V
105 -10 V
105 105 V
105 -50 V
106 7 V
105 56 V
105 -77 V
106 17 V
105 22 V
105 31 V
105 -20 V
106 -33 V
105 45 V
105 19 V
105 -11 V
106 -81 V
105 -98 V
105 74 V
106 9 V
105 99 V
105 -1 V
105 -1 V
106 -73 V
105 -4 V
105 37 V
106 -30 V
105 -83 V
105 97 V
105 76 V
106 -6 V
105 -1 V
105 -7 V
106 20 V
105 1 V
105 -4 V
105 -86 V
6842 480 L
105 4 V
% End plot #17
% Begin plot #18
stroke
LTb
0.00 0.62 0.45 C /Helvetica findfont 140 scalefont setfont
LCb setrgbcolor
6296 2358 M
('bunny_771359bps' u 1:5) Rshow
1.000 UL
LTb
0.00 0.62 0.45 C 6380 2358 M
399 0 V
841 790 M
946 747 L
105 43 V
105 0 V
106 -39 V
105 6 V
105 7 V
106 -83 V
105 -32 V
105 91 V
105 35 V
106 15 V
105 0 V
105 -15 V
106 -15 V
105 7 V
105 -75 V
105 98 V
106 -79 V
105 30 V
105 49 V
106 -92 V
105 41 V
105 51 V
105 -43 V
106 14 V
105 29 V
105 -16 V
106 -27 V
105 3 V
105 40 V
105 0 V
106 -50 V
105 50 V
105 0 V
105 0 V
106 -54 V
105 -98 V
105 75 V
106 -3 V
105 80 V
105 0 V
105 0 V
106 -63 V
105 0 V
105 9 V
106 28 V
105 -87 V
105 77 V
105 36 V
106 0 V
105 0 V
105 0 V
106 0 V
105 0 V
105 51 V
105 -51 V
6842 611 L
105 2 V
% End plot #18
% Begin plot #19
stroke
LTb
0.34 0.71 0.91 C /Helvetica findfont 140 scalefont setfont
LCb setrgbcolor
6296 2218 M
('bunny_88482bps' u 1:5) Rshow
1.000 UL
LTb
0.34 0.71 0.91 C 6380 2218 M
399 0 V
841 339 M
105 -5 V
105 7 V
105 -4 V
106 -3 V
105 2 V
105 -2 V
106 0 V
105 -5 V
105 4 V
105 5 V
106 -2 V
105 1 V
105 -2 V
106 -3 V
105 5 V
105 -1 V
105 3 V
106 -5 V
105 1 V
105 5 V
106 -11 V
105 5 V
105 3 V
105 -3 V
106 3 V
105 1 V
105 -4 V
106 -1 V
105 -5 V
105 8 V
105 1 V
106 0 V
105 0 V
105 0 V
105 1 V
106 -7 V
105 -7 V
105 14 V
106 -7 V
105 3 V
105 4 V
105 0 V
106 -4 V
105 2 V
105 -3 V
106 -2 V
105 -6 V
105 8 V
105 7 V
106 1 V
105 -2 V
105 -1 V
106 0 V
105 1 V
105 2 V
105 -4 V
106 -13 V
105 -5 V
% End plot #19
% Begin plot #20
stroke
LTb
0.90 0.62 0.00 C /Helvetica findfont 140 scalefont setfont
LCb setrgbcolor
6296 2078 M
('bunny_987061bps' u 1:5) Rshow
1.000 UL
LTb
0.90 0.62 0.00 C 6380 2078 M
399 0 V
841 892 M
946 841 L
105 153 V
105 0 V
1262 841 L
105 51 V
105 0 V
1578 744 L
105 -70 V
105 167 V
105 51 V
106 51 V
105 51 V
2209 892 L
106 -51 V
105 51 V
2525 790 L
105 153 V
2736 790 L
105 51 V
105 102 V
3052 790 L
105 0 V
105 153 V
3367 841 L
106 51 V
105 51 V
105 -51 V
106 0 V
105 0 V
105 51 V
105 -51 V
106 -51 V
105 102 V
105 0 V
105 0 V
4631 841 L
4736 683 L
105 107 V
106 0 V
105 153 V
105 0 V
105 0 V
5368 790 L
105 51 V
105 51 V
106 -51 V
105 -99 V
105 150 V
105 102 V
106 -51 V
105 0 V
105 0 V
106 51 V
105 0 V
105 0 V
6736 892 L
6842 615 L
105 29 V
% End plot #20
stroke
2.000 UL
LTb
LCb setrgbcolor
1.000 UL
LTB
LCb setrgbcolor
630 4871 N
630 280 L
6317 0 V
0 4591 V
-6317 0 V
Z stroke
1.000 UP
1.000 UL
LTb
LCb setrgbcolor
stroke
grestore
end
showpage
%%Trailer
%%DocumentFonts: Helvetica
