%!PS-Adobe-2.0 EPSF-2.0
%%Title: thr1.eps
%%Creator: gnuplot 5.0 patchlevel 5
%%CreationDate: Wed May 31 18:04:40 2017
%%DocumentFonts: (atend)
%%BoundingBox: 50 50 410 302
%%EndComments
%%BeginProlog
/gnudict 256 dict def
gnudict begin
%
% The following true/false flags may be edited by hand if desired.
% The unit line width and grayscale image gamma correction may also be changed.
%
/Color true def
/Blacktext false def
/Solid false def
/Dashlength 1 def
/Landscape false def
/Level1 false def
/Level3 false def
/Rounded false def
/ClipToBoundingBox false def
/SuppressPDFMark false def
/TransparentPatterns false def
/gnulinewidth 5.000 def
/userlinewidth gnulinewidth def
/Gamma 1.0 def
/BackgroundColor {-1.000 -1.000 -1.000} def
%
/vshift -46 def
/dl1 {
  10.0 Dashlength userlinewidth gnulinewidth div mul mul mul
  Rounded { currentlinewidth 0.75 mul sub dup 0 le { pop 0.01 } if } if
} def
/dl2 {
  10.0 Dashlength userlinewidth gnulinewidth div mul mul mul
  Rounded { currentlinewidth 0.75 mul add } if
} def
/hpt_ 31.5 def
/vpt_ 31.5 def
/hpt hpt_ def
/vpt vpt_ def
/doclip {
  ClipToBoundingBox {
    newpath 50 50 moveto 410 50 lineto 410 302 lineto 50 302 lineto closepath
    clip
  } if
} def
%
% Gnuplot Prolog Version 5.1 (Oct 2015)
%
%/SuppressPDFMark true def
%
/M {moveto} bind def
/L {lineto} bind def
/R {rmoveto} bind def
/V {rlineto} bind def
/N {newpath moveto} bind def
/Z {closepath} bind def
/C {setrgbcolor} bind def
/f {rlineto fill} bind def
/g {setgray} bind def
/Gshow {show} def   % May be redefined later in the file to support UTF-8
/vpt2 vpt 2 mul def
/hpt2 hpt 2 mul def
/Lshow {currentpoint stroke M 0 vshift R 
	Blacktext {gsave 0 setgray textshow grestore} {textshow} ifelse} def
/Rshow {currentpoint stroke M dup stringwidth pop neg vshift R
	Blacktext {gsave 0 setgray textshow grestore} {textshow} ifelse} def
/Cshow {currentpoint stroke M dup stringwidth pop -2 div vshift R 
	Blacktext {gsave 0 setgray textshow grestore} {textshow} ifelse} def
/UP {dup vpt_ mul /vpt exch def hpt_ mul /hpt exch def
  /hpt2 hpt 2 mul def /vpt2 vpt 2 mul def} def
/DL {Color {setrgbcolor Solid {pop []} if 0 setdash}
 {pop pop pop 0 setgray Solid {pop []} if 0 setdash} ifelse} def
/BL {stroke userlinewidth 2 mul setlinewidth
	Rounded {1 setlinejoin 1 setlinecap} if} def
/AL {stroke userlinewidth 2 div setlinewidth
	Rounded {1 setlinejoin 1 setlinecap} if} def
/UL {dup gnulinewidth mul /userlinewidth exch def
	dup 1 lt {pop 1} if 10 mul /udl exch def} def
/PL {stroke userlinewidth setlinewidth
	Rounded {1 setlinejoin 1 setlinecap} if} def
3.8 setmiterlimit
% Classic Line colors (version 5.0)
/LCw {1 1 1} def
/LCb {0 0 0} def
/LCa {0 0 0} def
/LC0 {1 0 0} def
/LC1 {0 1 0} def
/LC2 {0 0 1} def
/LC3 {1 0 1} def
/LC4 {0 1 1} def
/LC5 {1 1 0} def
/LC6 {0 0 0} def
/LC7 {1 0.3 0} def
/LC8 {0.5 0.5 0.5} def
% Default dash patterns (version 5.0)
/LTB {BL [] LCb DL} def
/LTw {PL [] 1 setgray} def
/LTb {PL [] LCb DL} def
/LTa {AL [1 udl mul 2 udl mul] 0 setdash LCa setrgbcolor} def
/LT0 {PL [] LC0 DL} def
/LT1 {PL [2 dl1 3 dl2] LC1 DL} def
/LT2 {PL [1 dl1 1.5 dl2] LC2 DL} def
/LT3 {PL [6 dl1 2 dl2 1 dl1 2 dl2] LC3 DL} def
/LT4 {PL [1 dl1 2 dl2 6 dl1 2 dl2 1 dl1 2 dl2] LC4 DL} def
/LT5 {PL [4 dl1 2 dl2] LC5 DL} def
/LT6 {PL [1.5 dl1 1.5 dl2 1.5 dl1 1.5 dl2 1.5 dl1 6 dl2] LC6 DL} def
/LT7 {PL [3 dl1 3 dl2 1 dl1 3 dl2] LC7 DL} def
/LT8 {PL [2 dl1 2 dl2 2 dl1 6 dl2] LC8 DL} def
/SL {[] 0 setdash} def
/Pnt {stroke [] 0 setdash gsave 1 setlinecap M 0 0 V stroke grestore} def
/Dia {stroke [] 0 setdash 2 copy vpt add M
  hpt neg vpt neg V hpt vpt neg V
  hpt vpt V hpt neg vpt V closepath stroke
  Pnt} def
/Pls {stroke [] 0 setdash vpt sub M 0 vpt2 V
  currentpoint stroke M
  hpt neg vpt neg R hpt2 0 V stroke
 } def
/Box {stroke [] 0 setdash 2 copy exch hpt sub exch vpt add M
  0 vpt2 neg V hpt2 0 V 0 vpt2 V
  hpt2 neg 0 V closepath stroke
  Pnt} def
/Crs {stroke [] 0 setdash exch hpt sub exch vpt add M
  hpt2 vpt2 neg V currentpoint stroke M
  hpt2 neg 0 R hpt2 vpt2 V stroke} def
/TriU {stroke [] 0 setdash 2 copy vpt 1.12 mul add M
  hpt neg vpt -1.62 mul V
  hpt 2 mul 0 V
  hpt neg vpt 1.62 mul V closepath stroke
  Pnt} def
/Star {2 copy Pls Crs} def
/BoxF {stroke [] 0 setdash exch hpt sub exch vpt add M
  0 vpt2 neg V hpt2 0 V 0 vpt2 V
  hpt2 neg 0 V closepath fill} def
/TriUF {stroke [] 0 setdash vpt 1.12 mul add M
  hpt neg vpt -1.62 mul V
  hpt 2 mul 0 V
  hpt neg vpt 1.62 mul V closepath fill} def
/TriD {stroke [] 0 setdash 2 copy vpt 1.12 mul sub M
  hpt neg vpt 1.62 mul V
  hpt 2 mul 0 V
  hpt neg vpt -1.62 mul V closepath stroke
  Pnt} def
/TriDF {stroke [] 0 setdash vpt 1.12 mul sub M
  hpt neg vpt 1.62 mul V
  hpt 2 mul 0 V
  hpt neg vpt -1.62 mul V closepath fill} def
/DiaF {stroke [] 0 setdash vpt add M
  hpt neg vpt neg V hpt vpt neg V
  hpt vpt V hpt neg vpt V closepath fill} def
/Pent {stroke [] 0 setdash 2 copy gsave
  translate 0 hpt M 4 {72 rotate 0 hpt L} repeat
  closepath stroke grestore Pnt} def
/PentF {stroke [] 0 setdash gsave
  translate 0 hpt M 4 {72 rotate 0 hpt L} repeat
  closepath fill grestore} def
/Circle {stroke [] 0 setdash 2 copy
  hpt 0 360 arc stroke Pnt} def
/CircleF {stroke [] 0 setdash hpt 0 360 arc fill} def
/C0 {BL [] 0 setdash 2 copy moveto vpt 90 450 arc} bind def
/C1 {BL [] 0 setdash 2 copy moveto
	2 copy vpt 0 90 arc closepath fill
	vpt 0 360 arc closepath} bind def
/C2 {BL [] 0 setdash 2 copy moveto
	2 copy vpt 90 180 arc closepath fill
	vpt 0 360 arc closepath} bind def
/C3 {BL [] 0 setdash 2 copy moveto
	2 copy vpt 0 180 arc closepath fill
	vpt 0 360 arc closepath} bind def
/C4 {BL [] 0 setdash 2 copy moveto
	2 copy vpt 180 270 arc closepath fill
	vpt 0 360 arc closepath} bind def
/C5 {BL [] 0 setdash 2 copy moveto
	2 copy vpt 0 90 arc
	2 copy moveto
	2 copy vpt 180 270 arc closepath fill
	vpt 0 360 arc} bind def
/C6 {BL [] 0 setdash 2 copy moveto
	2 copy vpt 90 270 arc closepath fill
	vpt 0 360 arc closepath} bind def
/C7 {BL [] 0 setdash 2 copy moveto
	2 copy vpt 0 270 arc closepath fill
	vpt 0 360 arc closepath} bind def
/C8 {BL [] 0 setdash 2 copy moveto
	2 copy vpt 270 360 arc closepath fill
	vpt 0 360 arc closepath} bind def
/C9 {BL [] 0 setdash 2 copy moveto
	2 copy vpt 270 450 arc closepath fill
	vpt 0 360 arc closepath} bind def
/C10 {BL [] 0 setdash 2 copy 2 copy moveto vpt 270 360 arc closepath fill
	2 copy moveto
	2 copy vpt 90 180 arc closepath fill
	vpt 0 360 arc closepath} bind def
/C11 {BL [] 0 setdash 2 copy moveto
	2 copy vpt 0 180 arc closepath fill
	2 copy moveto
	2 copy vpt 270 360 arc closepath fill
	vpt 0 360 arc closepath} bind def
/C12 {BL [] 0 setdash 2 copy moveto
	2 copy vpt 180 360 arc closepath fill
	vpt 0 360 arc closepath} bind def
/C13 {BL [] 0 setdash 2 copy moveto
	2 copy vpt 0 90 arc closepath fill
	2 copy moveto
	2 copy vpt 180 360 arc closepath fill
	vpt 0 360 arc closepath} bind def
/C14 {BL [] 0 setdash 2 copy moveto
	2 copy vpt 90 360 arc closepath fill
	vpt 0 360 arc} bind def
/C15 {BL [] 0 setdash 2 copy vpt 0 360 arc closepath fill
	vpt 0 360 arc closepath} bind def
/Rec {newpath 4 2 roll moveto 1 index 0 rlineto 0 exch rlineto
	neg 0 rlineto closepath} bind def
/Square {dup Rec} bind def
/Bsquare {vpt sub exch vpt sub exch vpt2 Square} bind def
/S0 {BL [] 0 setdash 2 copy moveto 0 vpt rlineto BL Bsquare} bind def
/S1 {BL [] 0 setdash 2 copy vpt Square fill Bsquare} bind def
/S2 {BL [] 0 setdash 2 copy exch vpt sub exch vpt Square fill Bsquare} bind def
/S3 {BL [] 0 setdash 2 copy exch vpt sub exch vpt2 vpt Rec fill Bsquare} bind def
/S4 {BL [] 0 setdash 2 copy exch vpt sub exch vpt sub vpt Square fill Bsquare} bind def
/S5 {BL [] 0 setdash 2 copy 2 copy vpt Square fill
	exch vpt sub exch vpt sub vpt Square fill Bsquare} bind def
/S6 {BL [] 0 setdash 2 copy exch vpt sub exch vpt sub vpt vpt2 Rec fill Bsquare} bind def
/S7 {BL [] 0 setdash 2 copy exch vpt sub exch vpt sub vpt vpt2 Rec fill
	2 copy vpt Square fill Bsquare} bind def
/S8 {BL [] 0 setdash 2 copy vpt sub vpt Square fill Bsquare} bind def
/S9 {BL [] 0 setdash 2 copy vpt sub vpt vpt2 Rec fill Bsquare} bind def
/S10 {BL [] 0 setdash 2 copy vpt sub vpt Square fill 2 copy exch vpt sub exch vpt Square fill
	Bsquare} bind def
/S11 {BL [] 0 setdash 2 copy vpt sub vpt Square fill 2 copy exch vpt sub exch vpt2 vpt Rec fill
	Bsquare} bind def
/S12 {BL [] 0 setdash 2 copy exch vpt sub exch vpt sub vpt2 vpt Rec fill Bsquare} bind def
/S13 {BL [] 0 setdash 2 copy exch vpt sub exch vpt sub vpt2 vpt Rec fill
	2 copy vpt Square fill Bsquare} bind def
/S14 {BL [] 0 setdash 2 copy exch vpt sub exch vpt sub vpt2 vpt Rec fill
	2 copy exch vpt sub exch vpt Square fill Bsquare} bind def
/S15 {BL [] 0 setdash 2 copy Bsquare fill Bsquare} bind def
/D0 {gsave translate 45 rotate 0 0 S0 stroke grestore} bind def
/D1 {gsave translate 45 rotate 0 0 S1 stroke grestore} bind def
/D2 {gsave translate 45 rotate 0 0 S2 stroke grestore} bind def
/D3 {gsave translate 45 rotate 0 0 S3 stroke grestore} bind def
/D4 {gsave translate 45 rotate 0 0 S4 stroke grestore} bind def
/D5 {gsave translate 45 rotate 0 0 S5 stroke grestore} bind def
/D6 {gsave translate 45 rotate 0 0 S6 stroke grestore} bind def
/D7 {gsave translate 45 rotate 0 0 S7 stroke grestore} bind def
/D8 {gsave translate 45 rotate 0 0 S8 stroke grestore} bind def
/D9 {gsave translate 45 rotate 0 0 S9 stroke grestore} bind def
/D10 {gsave translate 45 rotate 0 0 S10 stroke grestore} bind def
/D11 {gsave translate 45 rotate 0 0 S11 stroke grestore} bind def
/D12 {gsave translate 45 rotate 0 0 S12 stroke grestore} bind def
/D13 {gsave translate 45 rotate 0 0 S13 stroke grestore} bind def
/D14 {gsave translate 45 rotate 0 0 S14 stroke grestore} bind def
/D15 {gsave translate 45 rotate 0 0 S15 stroke grestore} bind def
/DiaE {stroke [] 0 setdash vpt add M
  hpt neg vpt neg V hpt vpt neg V
  hpt vpt V hpt neg vpt V closepath stroke} def
/BoxE {stroke [] 0 setdash exch hpt sub exch vpt add M
  0 vpt2 neg V hpt2 0 V 0 vpt2 V
  hpt2 neg 0 V closepath stroke} def
/TriUE {stroke [] 0 setdash vpt 1.12 mul add M
  hpt neg vpt -1.62 mul V
  hpt 2 mul 0 V
  hpt neg vpt 1.62 mul V closepath stroke} def
/TriDE {stroke [] 0 setdash vpt 1.12 mul sub M
  hpt neg vpt 1.62 mul V
  hpt 2 mul 0 V
  hpt neg vpt -1.62 mul V closepath stroke} def
/PentE {stroke [] 0 setdash gsave
  translate 0 hpt M 4 {72 rotate 0 hpt L} repeat
  closepath stroke grestore} def
/CircE {stroke [] 0 setdash 
  hpt 0 360 arc stroke} def
/Opaque {gsave closepath 1 setgray fill grestore 0 setgray closepath} def
/DiaW {stroke [] 0 setdash vpt add M
  hpt neg vpt neg V hpt vpt neg V
  hpt vpt V hpt neg vpt V Opaque stroke} def
/BoxW {stroke [] 0 setdash exch hpt sub exch vpt add M
  0 vpt2 neg V hpt2 0 V 0 vpt2 V
  hpt2 neg 0 V Opaque stroke} def
/TriUW {stroke [] 0 setdash vpt 1.12 mul add M
  hpt neg vpt -1.62 mul V
  hpt 2 mul 0 V
  hpt neg vpt 1.62 mul V Opaque stroke} def
/TriDW {stroke [] 0 setdash vpt 1.12 mul sub M
  hpt neg vpt 1.62 mul V
  hpt 2 mul 0 V
  hpt neg vpt -1.62 mul V Opaque stroke} def
/PentW {stroke [] 0 setdash gsave
  translate 0 hpt M 4 {72 rotate 0 hpt L} repeat
  Opaque stroke grestore} def
/CircW {stroke [] 0 setdash 
  hpt 0 360 arc Opaque stroke} def
/BoxFill {gsave Rec 1 setgray fill grestore} def
/Density {
  /Fillden exch def
  currentrgbcolor
  /ColB exch def /ColG exch def /ColR exch def
  /ColR ColR Fillden mul Fillden sub 1 add def
  /ColG ColG Fillden mul Fillden sub 1 add def
  /ColB ColB Fillden mul Fillden sub 1 add def
  ColR ColG ColB setrgbcolor} def
/BoxColFill {gsave Rec PolyFill} def
/PolyFill {gsave Density fill grestore grestore} def
/h {rlineto rlineto rlineto gsave closepath fill grestore} bind def
%
% PostScript Level 1 Pattern Fill routine for rectangles
% Usage: x y w h s a XX PatternFill
%	x,y = lower left corner of box to be filled
%	w,h = width and height of box
%	  a = angle in degrees between lines and x-axis
%	 XX = 0/1 for no/yes cross-hatch
%
/PatternFill {gsave /PFa [ 9 2 roll ] def
  PFa 0 get PFa 2 get 2 div add PFa 1 get PFa 3 get 2 div add translate
  PFa 2 get -2 div PFa 3 get -2 div PFa 2 get PFa 3 get Rec
  TransparentPatterns {} {gsave 1 setgray fill grestore} ifelse
  clip
  currentlinewidth 0.5 mul setlinewidth
  /PFs PFa 2 get dup mul PFa 3 get dup mul add sqrt def
  0 0 M PFa 5 get rotate PFs -2 div dup translate
  0 1 PFs PFa 4 get div 1 add floor cvi
	{PFa 4 get mul 0 M 0 PFs V} for
  0 PFa 6 get ne {
	0 1 PFs PFa 4 get div 1 add floor cvi
	{PFa 4 get mul 0 2 1 roll M PFs 0 V} for
 } if
  stroke grestore} def
%
/languagelevel where
 {pop languagelevel} {1} ifelse
dup 2 lt
	{/InterpretLevel1 true def
	 /InterpretLevel3 false def}
	{/InterpretLevel1 Level1 def
	 2 gt
	    {/InterpretLevel3 Level3 def}
	    {/InterpretLevel3 false def}
	 ifelse }
 ifelse
%
% PostScript level 2 pattern fill definitions
%
/Level2PatternFill {
/Tile8x8 {/PaintType 2 /PatternType 1 /TilingType 1 /BBox [0 0 8 8] /XStep 8 /YStep 8}
	bind def
/KeepColor {currentrgbcolor [/Pattern /DeviceRGB] setcolorspace} bind def
<< Tile8x8
 /PaintProc {0.5 setlinewidth pop 0 0 M 8 8 L 0 8 M 8 0 L stroke} 
>> matrix makepattern
/Pat1 exch def
<< Tile8x8
 /PaintProc {0.5 setlinewidth pop 0 0 M 8 8 L 0 8 M 8 0 L stroke
	0 4 M 4 8 L 8 4 L 4 0 L 0 4 L stroke}
>> matrix makepattern
/Pat2 exch def
<< Tile8x8
 /PaintProc {0.5 setlinewidth pop 0 0 M 0 8 L
	8 8 L 8 0 L 0 0 L fill}
>> matrix makepattern
/Pat3 exch def
<< Tile8x8
 /PaintProc {0.5 setlinewidth pop -4 8 M 8 -4 L
	0 12 M 12 0 L stroke}
>> matrix makepattern
/Pat4 exch def
<< Tile8x8
 /PaintProc {0.5 setlinewidth pop -4 0 M 8 12 L
	0 -4 M 12 8 L stroke}
>> matrix makepattern
/Pat5 exch def
<< Tile8x8
 /PaintProc {0.5 setlinewidth pop -2 8 M 4 -4 L
	0 12 M 8 -4 L 4 12 M 10 0 L stroke}
>> matrix makepattern
/Pat6 exch def
<< Tile8x8
 /PaintProc {0.5 setlinewidth pop -2 0 M 4 12 L
	0 -4 M 8 12 L 4 -4 M 10 8 L stroke}
>> matrix makepattern
/Pat7 exch def
<< Tile8x8
 /PaintProc {0.5 setlinewidth pop 8 -2 M -4 4 L
	12 0 M -4 8 L 12 4 M 0 10 L stroke}
>> matrix makepattern
/Pat8 exch def
<< Tile8x8
 /PaintProc {0.5 setlinewidth pop 0 -2 M 12 4 L
	-4 0 M 12 8 L -4 4 M 8 10 L stroke}
>> matrix makepattern
/Pat9 exch def
/Pattern1 {PatternBgnd KeepColor Pat1 setpattern} bind def
/Pattern2 {PatternBgnd KeepColor Pat2 setpattern} bind def
/Pattern3 {PatternBgnd KeepColor Pat3 setpattern} bind def
/Pattern4 {PatternBgnd KeepColor Landscape {Pat5} {Pat4} ifelse setpattern} bind def
/Pattern5 {PatternBgnd KeepColor Landscape {Pat4} {Pat5} ifelse setpattern} bind def
/Pattern6 {PatternBgnd KeepColor Landscape {Pat9} {Pat6} ifelse setpattern} bind def
/Pattern7 {PatternBgnd KeepColor Landscape {Pat8} {Pat7} ifelse setpattern} bind def
} def
%
%
%End of PostScript Level 2 code
%
/PatternBgnd {
  TransparentPatterns {} {gsave 1 setgray fill grestore} ifelse
} def
%
% Substitute for Level 2 pattern fill codes with
% grayscale if Level 2 support is not selected.
%
/Level1PatternFill {
/Pattern1 {0.250 Density} bind def
/Pattern2 {0.500 Density} bind def
/Pattern3 {0.750 Density} bind def
/Pattern4 {0.125 Density} bind def
/Pattern5 {0.375 Density} bind def
/Pattern6 {0.625 Density} bind def
/Pattern7 {0.875 Density} bind def
} def
%
% Now test for support of Level 2 code
%
Level1 {Level1PatternFill} {Level2PatternFill} ifelse
%
/Symbol-Oblique /Symbol findfont [1 0 .167 1 0 0] makefont
dup length dict begin {1 index /FID eq {pop pop} {def} ifelse} forall
currentdict end definefont pop
%
/MFshow {
   { dup 5 get 3 ge
     { 5 get 3 eq {gsave} {grestore} ifelse }
     {dup dup 0 get findfont exch 1 get scalefont setfont
     [ currentpoint ] exch dup 2 get 0 exch R dup 5 get 2 ne {dup dup 6
     get exch 4 get {textshow} {stringwidth pop 0 R} ifelse }if dup 5 get 0 eq
     {dup 3 get {2 get neg 0 exch R pop} {pop aload pop M} ifelse} {dup 5
     get 1 eq {dup 2 get exch dup 3 get exch 6 get stringwidth pop -2 div
     dup 0 R} {dup 6 get stringwidth pop -2 div 0 R 6 get
     textshow 2 index {aload pop M neg 3 -1 roll neg R pop pop} {pop pop pop
     pop aload pop M} ifelse }ifelse }ifelse }
     ifelse }
   forall} def
/Gswidth {dup type /stringtype eq {stringwidth} {pop (n) stringwidth} ifelse} def
/MFwidth {0 exch { dup 5 get 3 ge { 5 get 3 eq { 0 } { pop } ifelse }
 {dup 3 get{dup dup 0 get findfont exch 1 get scalefont setfont
     6 get Gswidth pop add} {pop} ifelse} ifelse} forall} def
/MLshow { currentpoint stroke M
  0 exch R
  Blacktext {gsave 0 setgray MFshow grestore} {MFshow} ifelse } bind def
/MRshow { currentpoint stroke M
  exch dup MFwidth neg 3 -1 roll R
  Blacktext {gsave 0 setgray MFshow grestore} {MFshow} ifelse } bind def
/MCshow { currentpoint stroke M
  exch dup MFwidth -2 div 3 -1 roll R
  Blacktext {gsave 0 setgray MFshow grestore} {MFshow} ifelse } bind def
/XYsave    { [( ) 1 2 true false 3 ()] } bind def
/XYrestore { [( ) 1 2 true false 4 ()] } bind def
Level1 SuppressPDFMark or 
{} {
/SDict 10 dict def
systemdict /pdfmark known not {
  userdict /pdfmark systemdict /cleartomark get put
} if
SDict begin [
  /Title (thr1.eps)
  /Subject (gnuplot plot)
  /Creator (gnuplot 5.0 patchlevel 5)
  /Author (steve)
%  /Producer (gnuplot)
%  /Keywords ()
  /CreationDate (Wed May 31 18:04:40 2017)
  /DOCINFO pdfmark
end
} ifelse
%
% Support for boxed text - Ethan A Merritt May 2005
%
/InitTextBox { userdict /TBy2 3 -1 roll put userdict /TBx2 3 -1 roll put
           userdict /TBy1 3 -1 roll put userdict /TBx1 3 -1 roll put
	   /Boxing true def } def
/ExtendTextBox { Boxing
    { gsave dup false charpath pathbbox
      dup TBy2 gt {userdict /TBy2 3 -1 roll put} {pop} ifelse
      dup TBx2 gt {userdict /TBx2 3 -1 roll put} {pop} ifelse
      dup TBy1 lt {userdict /TBy1 3 -1 roll put} {pop} ifelse
      dup TBx1 lt {userdict /TBx1 3 -1 roll put} {pop} ifelse
      grestore } if } def
/PopTextBox { newpath TBx1 TBxmargin sub TBy1 TBymargin sub M
               TBx1 TBxmargin sub TBy2 TBymargin add L
	       TBx2 TBxmargin add TBy2 TBymargin add L
	       TBx2 TBxmargin add TBy1 TBymargin sub L closepath } def
/DrawTextBox { PopTextBox stroke /Boxing false def} def
/FillTextBox { gsave PopTextBox 1 1 1 setrgbcolor fill grestore /Boxing false def} def
0 0 0 0 InitTextBox
/TBxmargin 20 def
/TBymargin 20 def
/Boxing false def
/textshow { ExtendTextBox Gshow } def
%
% redundant definitions for compatibility with prologue.ps older than 5.0.2
/LTB {BL [] LCb DL} def
/LTb {PL [] LCb DL} def
end
%%EndProlog
%%Page: 1 1
gnudict begin
gsave
doclip
50 50 translate
0.050 0.050 scale
0 setgray
newpath
(Helvetica) findfont 140 scalefont setfont
BackgroundColor 0 lt 3 1 roll 0 lt exch 0 lt or or not {BackgroundColor C 1.000 0 0 7200.00 5040.00 BoxColFill} if
1.000 UL
LTb
LCb setrgbcolor
462 280 M
63 0 V
6422 0 R
-63 0 V
stroke
378 280 M
[ [(Helvetica) 140.0 0.0 true true 0 ( 0)]
] -46.7 MRshow
1.000 UL
LTb
LCb setrgbcolor
462 1045 M
63 0 V
6422 0 R
-63 0 V
stroke
378 1045 M
[ [(Helvetica) 140.0 0.0 true true 0 ( 5)]
] -46.7 MRshow
1.000 UL
LTb
LCb setrgbcolor
462 1810 M
63 0 V
6422 0 R
-63 0 V
stroke
378 1810 M
[ [(Helvetica) 140.0 0.0 true true 0 ( 10)]
] -46.7 MRshow
1.000 UL
LTb
LCb setrgbcolor
462 2576 M
63 0 V
6422 0 R
-63 0 V
stroke
378 2576 M
[ [(Helvetica) 140.0 0.0 true true 0 ( 15)]
] -46.7 MRshow
1.000 UL
LTb
LCb setrgbcolor
462 3341 M
63 0 V
6422 0 R
-63 0 V
stroke
378 3341 M
[ [(Helvetica) 140.0 0.0 true true 0 ( 20)]
] -46.7 MRshow
1.000 UL
LTb
LCb setrgbcolor
462 4106 M
63 0 V
6422 0 R
-63 0 V
stroke
378 4106 M
[ [(Helvetica) 140.0 0.0 true true 0 ( 25)]
] -46.7 MRshow
1.000 UL
LTb
LCb setrgbcolor
462 4871 M
63 0 V
6422 0 R
-63 0 V
stroke
378 4871 M
[ [(Helvetica) 140.0 0.0 true true 0 ( 30)]
] -46.7 MRshow
1.000 UL
LTb
LCb setrgbcolor
462 280 M
0 63 V
0 4528 R
0 -63 V
stroke
462 140 M
[ [(Helvetica) 140.0 0.0 true true 0 ( 0)]
] -46.7 MCshow
1.000 UL
LTb
LCb setrgbcolor
1111 280 M
0 63 V
0 4528 R
0 -63 V
stroke
1111 140 M
[ [(Helvetica) 140.0 0.0 true true 0 ( 1x10)]
[(Helvetica) 112.0 70.0 true true 0 (6)]
] -60.7 MCshow
1.000 UL
LTb
LCb setrgbcolor
1759 280 M
0 63 V
0 4528 R
0 -63 V
stroke
1759 140 M
[ [(Helvetica) 140.0 0.0 true true 0 ( 2x10)]
[(Helvetica) 112.0 70.0 true true 0 (6)]
] -60.7 MCshow
1.000 UL
LTb
LCb setrgbcolor
2408 280 M
0 63 V
0 4528 R
0 -63 V
stroke
2408 140 M
[ [(Helvetica) 140.0 0.0 true true 0 ( 3x10)]
[(Helvetica) 112.0 70.0 true true 0 (6)]
] -60.7 MCshow
1.000 UL
LTb
LCb setrgbcolor
3056 280 M
0 63 V
0 4528 R
0 -63 V
stroke
3056 140 M
[ [(Helvetica) 140.0 0.0 true true 0 ( 4x10)]
[(Helvetica) 112.0 70.0 true true 0 (6)]
] -60.7 MCshow
1.000 UL
LTb
LCb setrgbcolor
3705 280 M
0 63 V
0 4528 R
0 -63 V
stroke
3705 140 M
[ [(Helvetica) 140.0 0.0 true true 0 ( 5x10)]
[(Helvetica) 112.0 70.0 true true 0 (6)]
] -60.7 MCshow
1.000 UL
LTb
LCb setrgbcolor
4353 280 M
0 63 V
0 4528 R
0 -63 V
stroke
4353 140 M
[ [(Helvetica) 140.0 0.0 true true 0 ( 6x10)]
[(Helvetica) 112.0 70.0 true true 0 (6)]
] -60.7 MCshow
1.000 UL
LTb
LCb setrgbcolor
5002 280 M
0 63 V
0 4528 R
0 -63 V
stroke
5002 140 M
[ [(Helvetica) 140.0 0.0 true true 0 ( 7x10)]
[(Helvetica) 112.0 70.0 true true 0 (6)]
] -60.7 MCshow
1.000 UL
LTb
LCb setrgbcolor
5650 280 M
0 63 V
0 4528 R
0 -63 V
stroke
5650 140 M
[ [(Helvetica) 140.0 0.0 true true 0 ( 8x10)]
[(Helvetica) 112.0 70.0 true true 0 (6)]
] -60.7 MCshow
1.000 UL
LTb
LCb setrgbcolor
6299 280 M
0 63 V
0 4528 R
0 -63 V
stroke
6299 140 M
[ [(Helvetica) 140.0 0.0 true true 0 ( 9x10)]
[(Helvetica) 112.0 70.0 true true 0 (6)]
] -60.7 MCshow
1.000 UL
LTb
LCb setrgbcolor
6947 280 M
0 63 V
0 4528 R
0 -63 V
stroke
6947 140 M
[ [(Helvetica) 140.0 0.0 true true 0 ( 1x10)]
[(Helvetica) 112.0 70.0 true true 0 (7)]
] -60.7 MCshow
1.000 UL
LTb
LCb setrgbcolor
1.000 UL
LTB
LCb setrgbcolor
462 4871 N
462 280 L
6485 0 V
0 4591 V
-6485 0 V
Z stroke
1.000 UP
1.000 UL
LTb
LCb setrgbcolor
% Begin plot #1
1.000 UP
1.000 UL
LTb
0.58 0.00 0.83 C LCb setrgbcolor
6296 4738 M
[ [(Helvetica) 140.0 0.0 true true 0 (A 0)]
] -46.7 MRshow
1.000 UP
1.000 UL
LTb
0.58 0.00 0.83 C 527 441 Pls
1111 1810 Pls
6947 3148 Pls
1143 1810 Pls
1175 1960 Pls
1208 1960 Pls
1240 1960 Pls
1273 1959 Pls
1305 1959 Pls
1337 2109 Pls
1370 2109 Pls
1402 2109 Pls
559 603 Pls
1435 2108 Pls
1467 2108 Pls
1500 2108 Pls
1532 2108 Pls
1564 2259 Pls
1597 2258 Pls
1629 2258 Pls
1662 2258 Pls
1694 2257 Pls
1727 2257 Pls
592 757 Pls
1759 2257 Pls
1791 2257 Pls
1824 2257 Pls
1856 2256 Pls
1889 2256 Pls
1921 2408 Pls
1954 2408 Pls
1986 2408 Pls
2018 2407 Pls
2051 2407 Pls
624 909 Pls
2083 2407 Pls
2116 2407 Pls
2148 2406 Pls
2181 2558 Pls
2213 2557 Pls
2245 2557 Pls
2278 2556 Pls
2310 2556 Pls
2343 2556 Pls
2375 2556 Pls
657 1061 Pls
2408 2556 Pls
2440 2555 Pls
2472 2555 Pls
2505 2554 Pls
2537 2554 Pls
2570 2554 Pls
2602 2554 Pls
2634 2707 Pls
2667 2707 Pls
2699 2706 Pls
689 1064 Pls
2732 2706 Pls
2764 2706 Pls
2797 2705 Pls
2829 2705 Pls
2861 2705 Pls
2894 2705 Pls
2926 2705 Pls
2959 2857 Pls
2991 2856 Pls
3024 2856 Pls
721 1212 Pls
3056 2856 Pls
3088 2856 Pls
3121 2856 Pls
3153 2856 Pls
3186 2856 Pls
3218 3008 Pls
3251 3007 Pls
3283 3007 Pls
3315 3007 Pls
3348 3007 Pls
754 1361 Pls
3380 3006 Pls
3413 3006 Pls
3445 3006 Pls
3478 3006 Pls
3510 3006 Pls
3542 3159 Pls
3575 3158 Pls
3607 3158 Pls
3640 3158 Pls
3672 3158 Pls
494 294 Pls
786 1362 Pls
3705 3158 Pls
3737 3158 Pls
3769 3158 Pls
3802 3156 Pls
3834 3156 Pls
3867 3156 Pls
3899 3156 Pls
3931 3156 Pls
3964 3156 Pls
3996 3155 Pls
819 1511 Pls
4029 3155 Pls
4061 3155 Pls
4094 3155 Pls
4126 3155 Pls
4158 3155 Pls
4191 3155 Pls
4223 3154 Pls
4256 3154 Pls
4288 3154 Pls
4321 3154 Pls
851 1511 Pls
4353 3154 Pls
4385 3154 Pls
4418 3153 Pls
4450 3153 Pls
4483 3153 Pls
4515 3153 Pls
4548 3153 Pls
4580 3153 Pls
4612 3152 Pls
4645 3152 Pls
884 1661 Pls
4677 3152 Pls
4710 3152 Pls
4742 3152 Pls
4775 3152 Pls
4807 3151 Pls
4839 3151 Pls
4872 3151 Pls
4904 3151 Pls
4937 3151 Pls
4969 3151 Pls
916 1661 Pls
5002 3151 Pls
5034 3149 Pls
5066 3149 Pls
5099 3149 Pls
5131 3149 Pls
5164 3149 Pls
5196 3149 Pls
5228 3148 Pls
5261 3148 Pls
5293 3148 Pls
948 1661 Pls
5326 3148 Pls
5358 3148 Pls
5391 3148 Pls
5423 3148 Pls
5455 3148 Pls
5488 3148 Pls
5520 3148 Pls
5553 3148 Pls
5585 3148 Pls
5618 3148 Pls
981 1662 Pls
5650 3148 Pls
5682 3148 Pls
5715 3148 Pls
5747 3148 Pls
5780 3148 Pls
5812 3148 Pls
5845 3148 Pls
5877 3148 Pls
5909 3148 Pls
5942 3148 Pls
1013 1810 Pls
5974 3148 Pls
6007 3148 Pls
6039 3148 Pls
6072 3148 Pls
6104 3148 Pls
6136 3148 Pls
6169 3148 Pls
6201 3148 Pls
6234 3148 Pls
6266 3148 Pls
1046 1810 Pls
6299 3148 Pls
6331 3148 Pls
6363 3148 Pls
6396 3148 Pls
6428 3148 Pls
6461 3148 Pls
6493 3148 Pls
6525 3148 Pls
6558 3148 Pls
6590 3148 Pls
1078 1810 Pls
6623 3148 Pls
6655 3148 Pls
6688 3148 Pls
6720 3148 Pls
6752 3148 Pls
6785 3148 Pls
6817 3148 Pls
6850 3148 Pls
6882 3148 Pls
6915 3148 Pls
6579 4738 Pls
% End plot #1
% Begin plot #2
1.000 UP
1.000 UL
LTb
0.00 0.62 0.45 C LCb setrgbcolor
6296 4598 M
[ [(Helvetica) 140.0 0.0 true true 0 (A 1)]
] -46.7 MRshow
1.000 UP
1.000 UL
LTb
0.00 0.62 0.45 C 527 428 Crs
1111 1877 Crs
6947 3148 Crs
1143 1910 Crs
1175 1943 Crs
1208 1985 Crs
1240 2015 Crs
1273 2040 Crs
1305 2062 Crs
1337 2086 Crs
1370 2118 Crs
1402 2144 Crs
559 588 Crs
1435 2166 Crs
1467 2180 Crs
1500 2195 Crs
1532 2206 Crs
1564 2216 Crs
1597 2230 Crs
1629 2251 Crs
1662 2274 Crs
1694 2295 Crs
1727 2313 Crs
592 752 Crs
1759 2331 Crs
1791 2347 Crs
1824 2364 Crs
1856 2378 Crs
1889 2394 Crs
1921 2411 Crs
1954 2436 Crs
1986 2456 Crs
2018 2484 Crs
2051 2511 Crs
624 936 Crs
2083 2529 Crs
2116 2545 Crs
2148 2560 Crs
2181 2574 Crs
2213 2592 Crs
2245 2606 Crs
2278 2622 Crs
2310 2649 Crs
2343 2664 Crs
2375 2673 Crs
657 1075 Crs
2408 2689 Crs
2440 2701 Crs
2472 2708 Crs
2505 2719 Crs
2537 2725 Crs
2570 2734 Crs
2602 2739 Crs
2634 2748 Crs
2667 2756 Crs
2699 2763 Crs
689 1132 Crs
2732 2773 Crs
2764 2783 Crs
2797 2792 Crs
2829 2800 Crs
2861 2811 Crs
2894 2824 Crs
2926 2835 Crs
2959 2848 Crs
2991 2860 Crs
3024 2869 Crs
721 1240 Crs
3056 2881 Crs
3088 2892 Crs
3121 2899 Crs
3153 2907 Crs
3186 2914 Crs
3218 2920 Crs
3251 2927 Crs
3283 2935 Crs
3315 2940 Crs
3348 2947 Crs
754 1308 Crs
3380 2952 Crs
3413 2958 Crs
3445 2961 Crs
3478 2968 Crs
3510 2976 Crs
3542 2982 Crs
3575 2989 Crs
3607 2998 Crs
3640 3006 Crs
3672 3016 Crs
494 283 Crs
786 1389 Crs
3705 3021 Crs
3737 3026 Crs
3769 3030 Crs
3802 3032 Crs
3834 3037 Crs
3867 3043 Crs
3899 3047 Crs
3931 3050 Crs
3964 3052 Crs
3996 3056 Crs
819 1475 Crs
4029 3059 Crs
4061 3063 Crs
4094 3066 Crs
4126 3070 Crs
4158 3074 Crs
4191 3078 Crs
4223 3081 Crs
4256 3088 Crs
4288 3091 Crs
4321 3094 Crs
851 1548 Crs
4353 3097 Crs
4385 3100 Crs
4418 3103 Crs
4450 3104 Crs
4483 3106 Crs
4515 3108 Crs
4548 3110 Crs
4580 3110 Crs
4612 3113 Crs
4645 3115 Crs
884 1636 Crs
4677 3116 Crs
4710 3116 Crs
4742 3118 Crs
4775 3120 Crs
4807 3120 Crs
4839 3121 Crs
4872 3122 Crs
4904 3122 Crs
4937 3123 Crs
4969 3125 Crs
916 1678 Crs
5002 3125 Crs
5034 3126 Crs
5066 3126 Crs
5099 3127 Crs
5131 3128 Crs
5164 3128 Crs
5196 3129 Crs
5228 3129 Crs
5261 3130 Crs
5293 3130 Crs
948 1705 Crs
5326 3131 Crs
5358 3133 Crs
5391 3134 Crs
5423 3134 Crs
5455 3135 Crs
5488 3137 Crs
5520 3137 Crs
5553 3137 Crs
5585 3137 Crs
5618 3137 Crs
981 1741 Crs
5650 3137 Crs
5682 3148 Crs
5715 3148 Crs
5747 3148 Crs
5780 3148 Crs
5812 3148 Crs
5845 3148 Crs
5877 3148 Crs
5909 3148 Crs
5942 3148 Crs
1013 1811 Crs
5974 3148 Crs
6007 3148 Crs
6039 3148 Crs
6072 3148 Crs
6104 3148 Crs
6136 3148 Crs
6169 3148 Crs
6201 3149 Crs
6234 3149 Crs
6266 3149 Crs
1046 1840 Crs
6299 3149 Crs
6331 3148 Crs
6363 3148 Crs
6396 3148 Crs
6428 3148 Crs
6461 3149 Crs
6493 3148 Crs
6525 3148 Crs
6558 3148 Crs
6590 3148 Crs
1078 1856 Crs
6623 3148 Crs
6655 3148 Crs
6688 3148 Crs
6720 3148 Crs
6752 3148 Crs
6785 3148 Crs
6817 3148 Crs
6850 3148 Crs
6882 3148 Crs
6915 3148 Crs
6579 4598 Crs
% End plot #2
% Begin plot #3
1.000 UP
1.000 UL
LTb
0.34 0.71 0.91 C LCb setrgbcolor
6296 4458 M
[ [(Helvetica) 140.0 0.0 true true 0 (A 2)]
] -46.7 MRshow
1.000 UP
1.000 UL
LTb
0.34 0.71 0.91 C 527 475 Star
1111 1958 Star
6947 3178 Star
1143 1991 Star
1175 2021 Star
1208 2063 Star
1240 2090 Star
1273 2122 Star
1305 2156 Star
1337 2184 Star
1370 2226 Star
1402 2246 Star
559 651 Star
1435 2279 Star
1467 2304 Star
1500 2320 Star
1532 2346 Star
1564 2363 Star
1597 2385 Star
1629 2404 Star
1662 2432 Star
1694 2453 Star
1727 2472 Star
592 814 Star
1759 2487 Star
1791 2501 Star
1824 2532 Star
1856 2543 Star
1889 2561 Star
1921 2568 Star
1954 2589 Star
1986 2625 Star
2018 2641 Star
2051 2651 Star
624 989 Star
2083 2686 Star
2116 2699 Star
2148 2721 Star
2181 2741 Star
2213 2754 Star
2245 2776 Star
2278 2793 Star
2310 2817 Star
2343 2845 Star
2375 2860 Star
657 1135 Star
2408 2879 Star
2440 2895 Star
2472 2909 Star
2505 2923 Star
2537 2937 Star
2570 2945 Star
2602 2955 Star
2634 2969 Star
2667 2978 Star
2699 2982 Star
689 1225 Star
2732 2995 Star
2764 3005 Star
2797 3015 Star
2829 3023 Star
2861 3038 Star
2894 3050 Star
2926 3056 Star
2959 3065 Star
2991 3079 Star
3024 3091 Star
721 1314 Star
3056 3097 Star
3088 3101 Star
3121 3111 Star
3153 3121 Star
3186 3123 Star
3218 3132 Star
3251 3138 Star
3283 3144 Star
3315 3150 Star
3348 3154 Star
754 1391 Star
3380 3158 Star
3413 3163 Star
3445 3167 Star
3478 3169 Star
3510 3170 Star
3542 3170 Star
3575 3170 Star
3607 3169 Star
3640 3172 Star
3672 3173 Star
494 297 Star
786 1464 Star
3705 3173 Star
3737 3173 Star
3769 3173 Star
3802 3174 Star
3834 3174 Star
3867 3175 Star
3899 3175 Star
3931 3176 Star
3964 3176 Star
3996 3176 Star
819 1538 Star
4029 3176 Star
4061 3178 Star
4094 3178 Star
4126 3178 Star
4158 3179 Star
4191 3179 Star
4223 3179 Star
4256 3179 Star
4288 3179 Star
4321 3179 Star
851 1603 Star
4353 3179 Star
4385 3180 Star
4418 3179 Star
4450 3179 Star
4483 3179 Star
4515 3180 Star
4548 3180 Star
4580 3180 Star
4612 3180 Star
4645 3180 Star
884 1684 Star
4677 3180 Star
4710 3180 Star
4742 3180 Star
4775 3180 Star
4807 3180 Star
4839 3181 Star
4872 3180 Star
4904 3180 Star
4937 3180 Star
4969 3180 Star
916 1742 Star
5002 3180 Star
5034 3180 Star
5066 3180 Star
5099 3180 Star
5131 3180 Star
5164 3180 Star
5196 3180 Star
5228 3180 Star
5261 3180 Star
5293 3180 Star
948 1783 Star
5326 3180 Star
5358 3180 Star
5391 3180 Star
5423 3180 Star
5455 3180 Star
5488 3180 Star
5520 3180 Star
5553 3180 Star
5585 3180 Star
5618 3180 Star
981 1818 Star
5650 3180 Star
5682 3180 Star
5715 3180 Star
5747 3180 Star
5780 3180 Star
5812 3180 Star
5845 3180 Star
5877 3180 Star
5909 3180 Star
5942 3180 Star
1013 1873 Star
5974 3180 Star
6007 3180 Star
6039 3178 Star
6072 3178 Star
6104 3178 Star
6136 3178 Star
6169 3178 Star
6201 3178 Star
6234 3178 Star
6266 3178 Star
1046 1902 Star
6299 3178 Star
6331 3178 Star
6363 3178 Star
6396 3178 Star
6428 3178 Star
6461 3178 Star
6493 3178 Star
6525 3178 Star
6558 3178 Star
6590 3178 Star
1078 1932 Star
6623 3178 Star
6655 3178 Star
6688 3178 Star
6720 3178 Star
6752 3178 Star
6785 3178 Star
6817 3178 Star
6850 3178 Star
6882 3178 Star
6915 3178 Star
6579 4458 Star
% End plot #3
% Begin plot #4
1.000 UP
1.000 UL
LTb
0.90 0.62 0.00 C % End plot #4
2.000 UL
LTb
LCb setrgbcolor
1.000 UL
LTB
LCb setrgbcolor
462 4871 N
462 280 L
6485 0 V
0 4591 V
-6485 0 V
Z stroke
1.000 UP
1.000 UL
LTb
LCb setrgbcolor
stroke
grestore
end
showpage
%%Trailer
%%DocumentFonts: Helvetica
