%!PS-Adobe-2.0 EPSF-2.0
%%Title: thr2.eps
%%Creator: gnuplot 5.0 patchlevel 5
%%CreationDate: Wed May 31 18:04:40 2017
%%DocumentFonts: (atend)
%%BoundingBox: 50 50 410 302
%%EndComments
%%BeginProlog
/gnudict 256 dict def
gnudict begin
%
% The following true/false flags may be edited by hand if desired.
% The unit line width and grayscale image gamma correction may also be changed.
%
/Color true def
/Blacktext false def
/Solid false def
/Dashlength 1 def
/Landscape false def
/Level1 false def
/Level3 false def
/Rounded false def
/ClipToBoundingBox false def
/SuppressPDFMark false def
/TransparentPatterns false def
/gnulinewidth 5.000 def
/userlinewidth gnulinewidth def
/Gamma 1.0 def
/BackgroundColor {-1.000 -1.000 -1.000} def
%
/vshift -46 def
/dl1 {
  10.0 Dashlength userlinewidth gnulinewidth div mul mul mul
  Rounded { currentlinewidth 0.75 mul sub dup 0 le { pop 0.01 } if } if
} def
/dl2 {
  10.0 Dashlength userlinewidth gnulinewidth div mul mul mul
  Rounded { currentlinewidth 0.75 mul add } if
} def
/hpt_ 31.5 def
/vpt_ 31.5 def
/hpt hpt_ def
/vpt vpt_ def
/doclip {
  ClipToBoundingBox {
    newpath 50 50 moveto 410 50 lineto 410 302 lineto 50 302 lineto closepath
    clip
  } if
} def
%
% Gnuplot Prolog Version 5.1 (Oct 2015)
%
%/SuppressPDFMark true def
%
/M {moveto} bind def
/L {lineto} bind def
/R {rmoveto} bind def
/V {rlineto} bind def
/N {newpath moveto} bind def
/Z {closepath} bind def
/C {setrgbcolor} bind def
/f {rlineto fill} bind def
/g {setgray} bind def
/Gshow {show} def   % May be redefined later in the file to support UTF-8
/vpt2 vpt 2 mul def
/hpt2 hpt 2 mul def
/Lshow {currentpoint stroke M 0 vshift R 
	Blacktext {gsave 0 setgray textshow grestore} {textshow} ifelse} def
/Rshow {currentpoint stroke M dup stringwidth pop neg vshift R
	Blacktext {gsave 0 setgray textshow grestore} {textshow} ifelse} def
/Cshow {currentpoint stroke M dup stringwidth pop -2 div vshift R 
	Blacktext {gsave 0 setgray textshow grestore} {textshow} ifelse} def
/UP {dup vpt_ mul /vpt exch def hpt_ mul /hpt exch def
  /hpt2 hpt 2 mul def /vpt2 vpt 2 mul def} def
/DL {Color {setrgbcolor Solid {pop []} if 0 setdash}
 {pop pop pop 0 setgray Solid {pop []} if 0 setdash} ifelse} def
/BL {stroke userlinewidth 2 mul setlinewidth
	Rounded {1 setlinejoin 1 setlinecap} if} def
/AL {stroke userlinewidth 2 div setlinewidth
	Rounded {1 setlinejoin 1 setlinecap} if} def
/UL {dup gnulinewidth mul /userlinewidth exch def
	dup 1 lt {pop 1} if 10 mul /udl exch def} def
/PL {stroke userlinewidth setlinewidth
	Rounded {1 setlinejoin 1 setlinecap} if} def
3.8 setmiterlimit
% Classic Line colors (version 5.0)
/LCw {1 1 1} def
/LCb {0 0 0} def
/LCa {0 0 0} def
/LC0 {1 0 0} def
/LC1 {0 1 0} def
/LC2 {0 0 1} def
/LC3 {1 0 1} def
/LC4 {0 1 1} def
/LC5 {1 1 0} def
/LC6 {0 0 0} def
/LC7 {1 0.3 0} def
/LC8 {0.5 0.5 0.5} def
% Default dash patterns (version 5.0)
/LTB {BL [] LCb DL} def
/LTw {PL [] 1 setgray} def
/LTb {PL [] LCb DL} def
/LTa {AL [1 udl mul 2 udl mul] 0 setdash LCa setrgbcolor} def
/LT0 {PL [] LC0 DL} def
/LT1 {PL [2 dl1 3 dl2] LC1 DL} def
/LT2 {PL [1 dl1 1.5 dl2] LC2 DL} def
/LT3 {PL [6 dl1 2 dl2 1 dl1 2 dl2] LC3 DL} def
/LT4 {PL [1 dl1 2 dl2 6 dl1 2 dl2 1 dl1 2 dl2] LC4 DL} def
/LT5 {PL [4 dl1 2 dl2] LC5 DL} def
/LT6 {PL [1.5 dl1 1.5 dl2 1.5 dl1 1.5 dl2 1.5 dl1 6 dl2] LC6 DL} def
/LT7 {PL [3 dl1 3 dl2 1 dl1 3 dl2] LC7 DL} def
/LT8 {PL [2 dl1 2 dl2 2 dl1 6 dl2] LC8 DL} def
/SL {[] 0 setdash} def
/Pnt {stroke [] 0 setdash gsave 1 setlinecap M 0 0 V stroke grestore} def
/Dia {stroke [] 0 setdash 2 copy vpt add M
  hpt neg vpt neg V hpt vpt neg V
  hpt vpt V hpt neg vpt V closepath stroke
  Pnt} def
/Pls {stroke [] 0 setdash vpt sub M 0 vpt2 V
  currentpoint stroke M
  hpt neg vpt neg R hpt2 0 V stroke
 } def
/Box {stroke [] 0 setdash 2 copy exch hpt sub exch vpt add M
  0 vpt2 neg V hpt2 0 V 0 vpt2 V
  hpt2 neg 0 V closepath stroke
  Pnt} def
/Crs {stroke [] 0 setdash exch hpt sub exch vpt add M
  hpt2 vpt2 neg V currentpoint stroke M
  hpt2 neg 0 R hpt2 vpt2 V stroke} def
/TriU {stroke [] 0 setdash 2 copy vpt 1.12 mul add M
  hpt neg vpt -1.62 mul V
  hpt 2 mul 0 V
  hpt neg vpt 1.62 mul V closepath stroke
  Pnt} def
/Star {2 copy Pls Crs} def
/BoxF {stroke [] 0 setdash exch hpt sub exch vpt add M
  0 vpt2 neg V hpt2 0 V 0 vpt2 V
  hpt2 neg 0 V closepath fill} def
/TriUF {stroke [] 0 setdash vpt 1.12 mul add M
  hpt neg vpt -1.62 mul V
  hpt 2 mul 0 V
  hpt neg vpt 1.62 mul V closepath fill} def
/TriD {stroke [] 0 setdash 2 copy vpt 1.12 mul sub M
  hpt neg vpt 1.62 mul V
  hpt 2 mul 0 V
  hpt neg vpt -1.62 mul V closepath stroke
  Pnt} def
/TriDF {stroke [] 0 setdash vpt 1.12 mul sub M
  hpt neg vpt 1.62 mul V
  hpt 2 mul 0 V
  hpt neg vpt -1.62 mul V closepath fill} def
/DiaF {stroke [] 0 setdash vpt add M
  hpt neg vpt neg V hpt vpt neg V
  hpt vpt V hpt neg vpt V closepath fill} def
/Pent {stroke [] 0 setdash 2 copy gsave
  translate 0 hpt M 4 {72 rotate 0 hpt L} repeat
  closepath stroke grestore Pnt} def
/PentF {stroke [] 0 setdash gsave
  translate 0 hpt M 4 {72 rotate 0 hpt L} repeat
  closepath fill grestore} def
/Circle {stroke [] 0 setdash 2 copy
  hpt 0 360 arc stroke Pnt} def
/CircleF {stroke [] 0 setdash hpt 0 360 arc fill} def
/C0 {BL [] 0 setdash 2 copy moveto vpt 90 450 arc} bind def
/C1 {BL [] 0 setdash 2 copy moveto
	2 copy vpt 0 90 arc closepath fill
	vpt 0 360 arc closepath} bind def
/C2 {BL [] 0 setdash 2 copy moveto
	2 copy vpt 90 180 arc closepath fill
	vpt 0 360 arc closepath} bind def
/C3 {BL [] 0 setdash 2 copy moveto
	2 copy vpt 0 180 arc closepath fill
	vpt 0 360 arc closepath} bind def
/C4 {BL [] 0 setdash 2 copy moveto
	2 copy vpt 180 270 arc closepath fill
	vpt 0 360 arc closepath} bind def
/C5 {BL [] 0 setdash 2 copy moveto
	2 copy vpt 0 90 arc
	2 copy moveto
	2 copy vpt 180 270 arc closepath fill
	vpt 0 360 arc} bind def
/C6 {BL [] 0 setdash 2 copy moveto
	2 copy vpt 90 270 arc closepath fill
	vpt 0 360 arc closepath} bind def
/C7 {BL [] 0 setdash 2 copy moveto
	2 copy vpt 0 270 arc closepath fill
	vpt 0 360 arc closepath} bind def
/C8 {BL [] 0 setdash 2 copy moveto
	2 copy vpt 270 360 arc closepath fill
	vpt 0 360 arc closepath} bind def
/C9 {BL [] 0 setdash 2 copy moveto
	2 copy vpt 270 450 arc closepath fill
	vpt 0 360 arc closepath} bind def
/C10 {BL [] 0 setdash 2 copy 2 copy moveto vpt 270 360 arc closepath fill
	2 copy moveto
	2 copy vpt 90 180 arc closepath fill
	vpt 0 360 arc closepath} bind def
/C11 {BL [] 0 setdash 2 copy moveto
	2 copy vpt 0 180 arc closepath fill
	2 copy moveto
	2 copy vpt 270 360 arc closepath fill
	vpt 0 360 arc closepath} bind def
/C12 {BL [] 0 setdash 2 copy moveto
	2 copy vpt 180 360 arc closepath fill
	vpt 0 360 arc closepath} bind def
/C13 {BL [] 0 setdash 2 copy moveto
	2 copy vpt 0 90 arc closepath fill
	2 copy moveto
	2 copy vpt 180 360 arc closepath fill
	vpt 0 360 arc closepath} bind def
/C14 {BL [] 0 setdash 2 copy moveto
	2 copy vpt 90 360 arc closepath fill
	vpt 0 360 arc} bind def
/C15 {BL [] 0 setdash 2 copy vpt 0 360 arc closepath fill
	vpt 0 360 arc closepath} bind def
/Rec {newpath 4 2 roll moveto 1 index 0 rlineto 0 exch rlineto
	neg 0 rlineto closepath} bind def
/Square {dup Rec} bind def
/Bsquare {vpt sub exch vpt sub exch vpt2 Square} bind def
/S0 {BL [] 0 setdash 2 copy moveto 0 vpt rlineto BL Bsquare} bind def
/S1 {BL [] 0 setdash 2 copy vpt Square fill Bsquare} bind def
/S2 {BL [] 0 setdash 2 copy exch vpt sub exch vpt Square fill Bsquare} bind def
/S3 {BL [] 0 setdash 2 copy exch vpt sub exch vpt2 vpt Rec fill Bsquare} bind def
/S4 {BL [] 0 setdash 2 copy exch vpt sub exch vpt sub vpt Square fill Bsquare} bind def
/S5 {BL [] 0 setdash 2 copy 2 copy vpt Square fill
	exch vpt sub exch vpt sub vpt Square fill Bsquare} bind def
/S6 {BL [] 0 setdash 2 copy exch vpt sub exch vpt sub vpt vpt2 Rec fill Bsquare} bind def
/S7 {BL [] 0 setdash 2 copy exch vpt sub exch vpt sub vpt vpt2 Rec fill
	2 copy vpt Square fill Bsquare} bind def
/S8 {BL [] 0 setdash 2 copy vpt sub vpt Square fill Bsquare} bind def
/S9 {BL [] 0 setdash 2 copy vpt sub vpt vpt2 Rec fill Bsquare} bind def
/S10 {BL [] 0 setdash 2 copy vpt sub vpt Square fill 2 copy exch vpt sub exch vpt Square fill
	Bsquare} bind def
/S11 {BL [] 0 setdash 2 copy vpt sub vpt Square fill 2 copy exch vpt sub exch vpt2 vpt Rec fill
	Bsquare} bind def
/S12 {BL [] 0 setdash 2 copy exch vpt sub exch vpt sub vpt2 vpt Rec fill Bsquare} bind def
/S13 {BL [] 0 setdash 2 copy exch vpt sub exch vpt sub vpt2 vpt Rec fill
	2 copy vpt Square fill Bsquare} bind def
/S14 {BL [] 0 setdash 2 copy exch vpt sub exch vpt sub vpt2 vpt Rec fill
	2 copy exch vpt sub exch vpt Square fill Bsquare} bind def
/S15 {BL [] 0 setdash 2 copy Bsquare fill Bsquare} bind def
/D0 {gsave translate 45 rotate 0 0 S0 stroke grestore} bind def
/D1 {gsave translate 45 rotate 0 0 S1 stroke grestore} bind def
/D2 {gsave translate 45 rotate 0 0 S2 stroke grestore} bind def
/D3 {gsave translate 45 rotate 0 0 S3 stroke grestore} bind def
/D4 {gsave translate 45 rotate 0 0 S4 stroke grestore} bind def
/D5 {gsave translate 45 rotate 0 0 S5 stroke grestore} bind def
/D6 {gsave translate 45 rotate 0 0 S6 stroke grestore} bind def
/D7 {gsave translate 45 rotate 0 0 S7 stroke grestore} bind def
/D8 {gsave translate 45 rotate 0 0 S8 stroke grestore} bind def
/D9 {gsave translate 45 rotate 0 0 S9 stroke grestore} bind def
/D10 {gsave translate 45 rotate 0 0 S10 stroke grestore} bind def
/D11 {gsave translate 45 rotate 0 0 S11 stroke grestore} bind def
/D12 {gsave translate 45 rotate 0 0 S12 stroke grestore} bind def
/D13 {gsave translate 45 rotate 0 0 S13 stroke grestore} bind def
/D14 {gsave translate 45 rotate 0 0 S14 stroke grestore} bind def
/D15 {gsave translate 45 rotate 0 0 S15 stroke grestore} bind def
/DiaE {stroke [] 0 setdash vpt add M
  hpt neg vpt neg V hpt vpt neg V
  hpt vpt V hpt neg vpt V closepath stroke} def
/BoxE {stroke [] 0 setdash exch hpt sub exch vpt add M
  0 vpt2 neg V hpt2 0 V 0 vpt2 V
  hpt2 neg 0 V closepath stroke} def
/TriUE {stroke [] 0 setdash vpt 1.12 mul add M
  hpt neg vpt -1.62 mul V
  hpt 2 mul 0 V
  hpt neg vpt 1.62 mul V closepath stroke} def
/TriDE {stroke [] 0 setdash vpt 1.12 mul sub M
  hpt neg vpt 1.62 mul V
  hpt 2 mul 0 V
  hpt neg vpt -1.62 mul V closepath stroke} def
/PentE {stroke [] 0 setdash gsave
  translate 0 hpt M 4 {72 rotate 0 hpt L} repeat
  closepath stroke grestore} def
/CircE {stroke [] 0 setdash 
  hpt 0 360 arc stroke} def
/Opaque {gsave closepath 1 setgray fill grestore 0 setgray closepath} def
/DiaW {stroke [] 0 setdash vpt add M
  hpt neg vpt neg V hpt vpt neg V
  hpt vpt V hpt neg vpt V Opaque stroke} def
/BoxW {stroke [] 0 setdash exch hpt sub exch vpt add M
  0 vpt2 neg V hpt2 0 V 0 vpt2 V
  hpt2 neg 0 V Opaque stroke} def
/TriUW {stroke [] 0 setdash vpt 1.12 mul add M
  hpt neg vpt -1.62 mul V
  hpt 2 mul 0 V
  hpt neg vpt 1.62 mul V Opaque stroke} def
/TriDW {stroke [] 0 setdash vpt 1.12 mul sub M
  hpt neg vpt 1.62 mul V
  hpt 2 mul 0 V
  hpt neg vpt -1.62 mul V Opaque stroke} def
/PentW {stroke [] 0 setdash gsave
  translate 0 hpt M 4 {72 rotate 0 hpt L} repeat
  Opaque stroke grestore} def
/CircW {stroke [] 0 setdash 
  hpt 0 360 arc Opaque stroke} def
/BoxFill {gsave Rec 1 setgray fill grestore} def
/Density {
  /Fillden exch def
  currentrgbcolor
  /ColB exch def /ColG exch def /ColR exch def
  /ColR ColR Fillden mul Fillden sub 1 add def
  /ColG ColG Fillden mul Fillden sub 1 add def
  /ColB ColB Fillden mul Fillden sub 1 add def
  ColR ColG ColB setrgbcolor} def
/BoxColFill {gsave Rec PolyFill} def
/PolyFill {gsave Density fill grestore grestore} def
/h {rlineto rlineto rlineto gsave closepath fill grestore} bind def
%
% PostScript Level 1 Pattern Fill routine for rectangles
% Usage: x y w h s a XX PatternFill
%	x,y = lower left corner of box to be filled
%	w,h = width and height of box
%	  a = angle in degrees between lines and x-axis
%	 XX = 0/1 for no/yes cross-hatch
%
/PatternFill {gsave /PFa [ 9 2 roll ] def
  PFa 0 get PFa 2 get 2 div add PFa 1 get PFa 3 get 2 div add translate
  PFa 2 get -2 div PFa 3 get -2 div PFa 2 get PFa 3 get Rec
  TransparentPatterns {} {gsave 1 setgray fill grestore} ifelse
  clip
  currentlinewidth 0.5 mul setlinewidth
  /PFs PFa 2 get dup mul PFa 3 get dup mul add sqrt def
  0 0 M PFa 5 get rotate PFs -2 div dup translate
  0 1 PFs PFa 4 get div 1 add floor cvi
	{PFa 4 get mul 0 M 0 PFs V} for
  0 PFa 6 get ne {
	0 1 PFs PFa 4 get div 1 add floor cvi
	{PFa 4 get mul 0 2 1 roll M PFs 0 V} for
 } if
  stroke grestore} def
%
/languagelevel where
 {pop languagelevel} {1} ifelse
dup 2 lt
	{/InterpretLevel1 true def
	 /InterpretLevel3 false def}
	{/InterpretLevel1 Level1 def
	 2 gt
	    {/InterpretLevel3 Level3 def}
	    {/InterpretLevel3 false def}
	 ifelse }
 ifelse
%
% PostScript level 2 pattern fill definitions
%
/Level2PatternFill {
/Tile8x8 {/PaintType 2 /PatternType 1 /TilingType 1 /BBox [0 0 8 8] /XStep 8 /YStep 8}
	bind def
/KeepColor {currentrgbcolor [/Pattern /DeviceRGB] setcolorspace} bind def
<< Tile8x8
 /PaintProc {0.5 setlinewidth pop 0 0 M 8 8 L 0 8 M 8 0 L stroke} 
>> matrix makepattern
/Pat1 exch def
<< Tile8x8
 /PaintProc {0.5 setlinewidth pop 0 0 M 8 8 L 0 8 M 8 0 L stroke
	0 4 M 4 8 L 8 4 L 4 0 L 0 4 L stroke}
>> matrix makepattern
/Pat2 exch def
<< Tile8x8
 /PaintProc {0.5 setlinewidth pop 0 0 M 0 8 L
	8 8 L 8 0 L 0 0 L fill}
>> matrix makepattern
/Pat3 exch def
<< Tile8x8
 /PaintProc {0.5 setlinewidth pop -4 8 M 8 -4 L
	0 12 M 12 0 L stroke}
>> matrix makepattern
/Pat4 exch def
<< Tile8x8
 /PaintProc {0.5 setlinewidth pop -4 0 M 8 12 L
	0 -4 M 12 8 L stroke}
>> matrix makepattern
/Pat5 exch def
<< Tile8x8
 /PaintProc {0.5 setlinewidth pop -2 8 M 4 -4 L
	0 12 M 8 -4 L 4 12 M 10 0 L stroke}
>> matrix makepattern
/Pat6 exch def
<< Tile8x8
 /PaintProc {0.5 setlinewidth pop -2 0 M 4 12 L
	0 -4 M 8 12 L 4 -4 M 10 8 L stroke}
>> matrix makepattern
/Pat7 exch def
<< Tile8x8
 /PaintProc {0.5 setlinewidth pop 8 -2 M -4 4 L
	12 0 M -4 8 L 12 4 M 0 10 L stroke}
>> matrix makepattern
/Pat8 exch def
<< Tile8x8
 /PaintProc {0.5 setlinewidth pop 0 -2 M 12 4 L
	-4 0 M 12 8 L -4 4 M 8 10 L stroke}
>> matrix makepattern
/Pat9 exch def
/Pattern1 {PatternBgnd KeepColor Pat1 setpattern} bind def
/Pattern2 {PatternBgnd KeepColor Pat2 setpattern} bind def
/Pattern3 {PatternBgnd KeepColor Pat3 setpattern} bind def
/Pattern4 {PatternBgnd KeepColor Landscape {Pat5} {Pat4} ifelse setpattern} bind def
/Pattern5 {PatternBgnd KeepColor Landscape {Pat4} {Pat5} ifelse setpattern} bind def
/Pattern6 {PatternBgnd KeepColor Landscape {Pat9} {Pat6} ifelse setpattern} bind def
/Pattern7 {PatternBgnd KeepColor Landscape {Pat8} {Pat7} ifelse setpattern} bind def
} def
%
%
%End of PostScript Level 2 code
%
/PatternBgnd {
  TransparentPatterns {} {gsave 1 setgray fill grestore} ifelse
} def
%
% Substitute for Level 2 pattern fill codes with
% grayscale if Level 2 support is not selected.
%
/Level1PatternFill {
/Pattern1 {0.250 Density} bind def
/Pattern2 {0.500 Density} bind def
/Pattern3 {0.750 Density} bind def
/Pattern4 {0.125 Density} bind def
/Pattern5 {0.375 Density} bind def
/Pattern6 {0.625 Density} bind def
/Pattern7 {0.875 Density} bind def
} def
%
% Now test for support of Level 2 code
%
Level1 {Level1PatternFill} {Level2PatternFill} ifelse
%
/Symbol-Oblique /Symbol findfont [1 0 .167 1 0 0] makefont
dup length dict begin {1 index /FID eq {pop pop} {def} ifelse} forall
currentdict end definefont pop
%
/MFshow {
   { dup 5 get 3 ge
     { 5 get 3 eq {gsave} {grestore} ifelse }
     {dup dup 0 get findfont exch 1 get scalefont setfont
     [ currentpoint ] exch dup 2 get 0 exch R dup 5 get 2 ne {dup dup 6
     get exch 4 get {textshow} {stringwidth pop 0 R} ifelse }if dup 5 get 0 eq
     {dup 3 get {2 get neg 0 exch R pop} {pop aload pop M} ifelse} {dup 5
     get 1 eq {dup 2 get exch dup 3 get exch 6 get stringwidth pop -2 div
     dup 0 R} {dup 6 get stringwidth pop -2 div 0 R 6 get
     textshow 2 index {aload pop M neg 3 -1 roll neg R pop pop} {pop pop pop
     pop aload pop M} ifelse }ifelse }ifelse }
     ifelse }
   forall} def
/Gswidth {dup type /stringtype eq {stringwidth} {pop (n) stringwidth} ifelse} def
/MFwidth {0 exch { dup 5 get 3 ge { 5 get 3 eq { 0 } { pop } ifelse }
 {dup 3 get{dup dup 0 get findfont exch 1 get scalefont setfont
     6 get Gswidth pop add} {pop} ifelse} ifelse} forall} def
/MLshow { currentpoint stroke M
  0 exch R
  Blacktext {gsave 0 setgray MFshow grestore} {MFshow} ifelse } bind def
/MRshow { currentpoint stroke M
  exch dup MFwidth neg 3 -1 roll R
  Blacktext {gsave 0 setgray MFshow grestore} {MFshow} ifelse } bind def
/MCshow { currentpoint stroke M
  exch dup MFwidth -2 div 3 -1 roll R
  Blacktext {gsave 0 setgray MFshow grestore} {MFshow} ifelse } bind def
/XYsave    { [( ) 1 2 true false 3 ()] } bind def
/XYrestore { [( ) 1 2 true false 4 ()] } bind def
Level1 SuppressPDFMark or 
{} {
/SDict 10 dict def
systemdict /pdfmark known not {
  userdict /pdfmark systemdict /cleartomark get put
} if
SDict begin [
  /Title (thr2.eps)
  /Subject (gnuplot plot)
  /Creator (gnuplot 5.0 patchlevel 5)
  /Author (steve)
%  /Producer (gnuplot)
%  /Keywords ()
  /CreationDate (Wed May 31 18:04:40 2017)
  /DOCINFO pdfmark
end
} ifelse
%
% Support for boxed text - Ethan A Merritt May 2005
%
/InitTextBox { userdict /TBy2 3 -1 roll put userdict /TBx2 3 -1 roll put
           userdict /TBy1 3 -1 roll put userdict /TBx1 3 -1 roll put
	   /Boxing true def } def
/ExtendTextBox { Boxing
    { gsave dup false charpath pathbbox
      dup TBy2 gt {userdict /TBy2 3 -1 roll put} {pop} ifelse
      dup TBx2 gt {userdict /TBx2 3 -1 roll put} {pop} ifelse
      dup TBy1 lt {userdict /TBy1 3 -1 roll put} {pop} ifelse
      dup TBx1 lt {userdict /TBx1 3 -1 roll put} {pop} ifelse
      grestore } if } def
/PopTextBox { newpath TBx1 TBxmargin sub TBy1 TBymargin sub M
               TBx1 TBxmargin sub TBy2 TBymargin add L
	       TBx2 TBxmargin add TBy2 TBymargin add L
	       TBx2 TBxmargin add TBy1 TBymargin sub L closepath } def
/DrawTextBox { PopTextBox stroke /Boxing false def} def
/FillTextBox { gsave PopTextBox 1 1 1 setrgbcolor fill grestore /Boxing false def} def
0 0 0 0 InitTextBox
/TBxmargin 20 def
/TBymargin 20 def
/Boxing false def
/textshow { ExtendTextBox Gshow } def
%
% redundant definitions for compatibility with prologue.ps older than 5.0.2
/LTB {BL [] LCb DL} def
/LTb {PL [] LCb DL} def
end
%%EndProlog
%%Page: 1 1
gnudict begin
gsave
doclip
50 50 translate
0.050 0.050 scale
0 setgray
newpath
(Helvetica) findfont 140 scalefont setfont
BackgroundColor 0 lt 3 1 roll 0 lt exch 0 lt or or not {BackgroundColor C 1.000 0 0 7200.00 5040.00 BoxColFill} if
1.000 UL
LTb
LCb setrgbcolor
462 280 M
63 0 V
6422 0 R
-63 0 V
stroke
378 280 M
[ [(Helvetica) 140.0 0.0 true true 0 ( 0)]
] -46.7 MRshow
1.000 UL
LTb
LCb setrgbcolor
462 1045 M
63 0 V
6422 0 R
-63 0 V
stroke
378 1045 M
[ [(Helvetica) 140.0 0.0 true true 0 ( 5)]
] -46.7 MRshow
1.000 UL
LTb
LCb setrgbcolor
462 1810 M
63 0 V
6422 0 R
-63 0 V
stroke
378 1810 M
[ [(Helvetica) 140.0 0.0 true true 0 ( 10)]
] -46.7 MRshow
1.000 UL
LTb
LCb setrgbcolor
462 2576 M
63 0 V
6422 0 R
-63 0 V
stroke
378 2576 M
[ [(Helvetica) 140.0 0.0 true true 0 ( 15)]
] -46.7 MRshow
1.000 UL
LTb
LCb setrgbcolor
462 3341 M
63 0 V
6422 0 R
-63 0 V
stroke
378 3341 M
[ [(Helvetica) 140.0 0.0 true true 0 ( 20)]
] -46.7 MRshow
1.000 UL
LTb
LCb setrgbcolor
462 4106 M
63 0 V
6422 0 R
-63 0 V
stroke
378 4106 M
[ [(Helvetica) 140.0 0.0 true true 0 ( 25)]
] -46.7 MRshow
1.000 UL
LTb
LCb setrgbcolor
462 4871 M
63 0 V
6422 0 R
-63 0 V
stroke
378 4871 M
[ [(Helvetica) 140.0 0.0 true true 0 ( 30)]
] -46.7 MRshow
1.000 UL
LTb
LCb setrgbcolor
462 280 M
0 63 V
0 4528 R
0 -63 V
stroke
462 140 M
[ [(Helvetica) 140.0 0.0 true true 0 ( 0)]
] -46.7 MCshow
1.000 UL
LTb
LCb setrgbcolor
1111 280 M
0 63 V
0 4528 R
0 -63 V
stroke
1111 140 M
[ [(Helvetica) 140.0 0.0 true true 0 ( 1x10)]
[(Helvetica) 112.0 70.0 true true 0 (6)]
] -60.7 MCshow
1.000 UL
LTb
LCb setrgbcolor
1759 280 M
0 63 V
0 4528 R
0 -63 V
stroke
1759 140 M
[ [(Helvetica) 140.0 0.0 true true 0 ( 2x10)]
[(Helvetica) 112.0 70.0 true true 0 (6)]
] -60.7 MCshow
1.000 UL
LTb
LCb setrgbcolor
2408 280 M
0 63 V
0 4528 R
0 -63 V
stroke
2408 140 M
[ [(Helvetica) 140.0 0.0 true true 0 ( 3x10)]
[(Helvetica) 112.0 70.0 true true 0 (6)]
] -60.7 MCshow
1.000 UL
LTb
LCb setrgbcolor
3056 280 M
0 63 V
0 4528 R
0 -63 V
stroke
3056 140 M
[ [(Helvetica) 140.0 0.0 true true 0 ( 4x10)]
[(Helvetica) 112.0 70.0 true true 0 (6)]
] -60.7 MCshow
1.000 UL
LTb
LCb setrgbcolor
3705 280 M
0 63 V
0 4528 R
0 -63 V
stroke
3705 140 M
[ [(Helvetica) 140.0 0.0 true true 0 ( 5x10)]
[(Helvetica) 112.0 70.0 true true 0 (6)]
] -60.7 MCshow
1.000 UL
LTb
LCb setrgbcolor
4353 280 M
0 63 V
0 4528 R
0 -63 V
stroke
4353 140 M
[ [(Helvetica) 140.0 0.0 true true 0 ( 6x10)]
[(Helvetica) 112.0 70.0 true true 0 (6)]
] -60.7 MCshow
1.000 UL
LTb
LCb setrgbcolor
5002 280 M
0 63 V
0 4528 R
0 -63 V
stroke
5002 140 M
[ [(Helvetica) 140.0 0.0 true true 0 ( 7x10)]
[(Helvetica) 112.0 70.0 true true 0 (6)]
] -60.7 MCshow
1.000 UL
LTb
LCb setrgbcolor
5650 280 M
0 63 V
0 4528 R
0 -63 V
stroke
5650 140 M
[ [(Helvetica) 140.0 0.0 true true 0 ( 8x10)]
[(Helvetica) 112.0 70.0 true true 0 (6)]
] -60.7 MCshow
1.000 UL
LTb
LCb setrgbcolor
6299 280 M
0 63 V
0 4528 R
0 -63 V
stroke
6299 140 M
[ [(Helvetica) 140.0 0.0 true true 0 ( 9x10)]
[(Helvetica) 112.0 70.0 true true 0 (6)]
] -60.7 MCshow
1.000 UL
LTb
LCb setrgbcolor
6947 280 M
0 63 V
0 4528 R
0 -63 V
stroke
6947 140 M
[ [(Helvetica) 140.0 0.0 true true 0 ( 1x10)]
[(Helvetica) 112.0 70.0 true true 0 (7)]
] -60.7 MCshow
1.000 UL
LTb
LCb setrgbcolor
1.000 UL
LTB
LCb setrgbcolor
462 4871 N
462 280 L
6485 0 V
0 4591 V
-6485 0 V
Z stroke
1.000 UP
1.000 UL
LTb
LCb setrgbcolor
% Begin plot #1
1.000 UP
1.000 UL
LTb
0.58 0.00 0.83 C LCb setrgbcolor
6296 4738 M
[ [(Helvetica) 140.0 0.0 true true 0 (A 0)]
] -46.7 MRshow
1.000 UP
1.000 UL
LTb
0.58 0.00 0.83 C 527 451 Pls
1111 1810 Pls
6947 3152 Pls
1143 1959 Pls
1175 1959 Pls
1208 1959 Pls
1240 1959 Pls
1273 2109 Pls
1305 2109 Pls
1337 2109 Pls
1370 2109 Pls
1402 2109 Pls
559 617 Pls
1435 2109 Pls
1467 2258 Pls
1500 2258 Pls
1532 2258 Pls
1564 2258 Pls
1597 2258 Pls
1629 2258 Pls
1662 2258 Pls
1694 2258 Pls
1727 2258 Pls
592 765 Pls
1759 2258 Pls
1791 2258 Pls
1824 2258 Pls
1856 2407 Pls
1889 2407 Pls
1921 2407 Pls
1954 2407 Pls
1986 2407 Pls
2018 2407 Pls
2051 2407 Pls
624 916 Pls
2083 2556 Pls
2116 2556 Pls
2148 2556 Pls
2181 2556 Pls
2213 2556 Pls
2245 2556 Pls
2278 2556 Pls
2310 2556 Pls
2343 2556 Pls
2375 2556 Pls
657 1065 Pls
2408 2556 Pls
2440 2556 Pls
2472 2705 Pls
2505 2705 Pls
2537 2705 Pls
2570 2705 Pls
2602 2705 Pls
2634 2705 Pls
2667 2705 Pls
2699 2705 Pls
689 1214 Pls
2732 2705 Pls
2764 2854 Pls
2797 2854 Pls
2829 2854 Pls
2861 2854 Pls
2894 2854 Pls
2926 2854 Pls
2959 3003 Pls
2991 3003 Pls
3024 3003 Pls
721 1363 Pls
3056 3003 Pls
3088 3003 Pls
3121 3003 Pls
3153 3003 Pls
3186 3003 Pls
3218 3152 Pls
3251 3152 Pls
3283 3152 Pls
3315 3152 Pls
3348 3152 Pls
754 1363 Pls
3380 3152 Pls
3413 3152 Pls
3445 3152 Pls
3478 3152 Pls
3510 3152 Pls
3542 3152 Pls
3575 3152 Pls
3607 3152 Pls
3640 3152 Pls
3672 3152 Pls
494 297 Pls
786 1363 Pls
3705 3152 Pls
3737 3152 Pls
3769 3152 Pls
3802 3152 Pls
3834 3152 Pls
3867 3152 Pls
3899 3152 Pls
3931 3152 Pls
3964 3152 Pls
3996 3152 Pls
819 1512 Pls
4029 3152 Pls
4061 3152 Pls
4094 3152 Pls
4126 3152 Pls
4158 3152 Pls
4191 3152 Pls
4223 3152 Pls
4256 3152 Pls
4288 3152 Pls
4321 3152 Pls
851 1661 Pls
4353 3152 Pls
4385 3152 Pls
4418 3152 Pls
4450 3152 Pls
4483 3152 Pls
4515 3152 Pls
4548 3152 Pls
4580 3152 Pls
4612 3152 Pls
4645 3152 Pls
884 1661 Pls
4677 3152 Pls
4710 3152 Pls
4742 3152 Pls
4775 3152 Pls
4807 3152 Pls
4839 3152 Pls
4872 3152 Pls
4904 3152 Pls
4937 3152 Pls
4969 3152 Pls
916 1661 Pls
5002 3152 Pls
5034 3152 Pls
5066 3152 Pls
5099 3152 Pls
5131 3152 Pls
5164 3152 Pls
5196 3152 Pls
5228 3152 Pls
5261 3152 Pls
5293 3152 Pls
948 1661 Pls
5326 3152 Pls
5358 3152 Pls
5391 3152 Pls
5423 3152 Pls
5455 3152 Pls
5488 3152 Pls
5520 3152 Pls
5553 3152 Pls
5585 3152 Pls
5618 3152 Pls
981 1810 Pls
5650 3152 Pls
5682 3152 Pls
5715 3152 Pls
5747 3152 Pls
5780 3152 Pls
5812 3152 Pls
5845 3152 Pls
5877 3152 Pls
5909 3152 Pls
5942 3152 Pls
1013 1810 Pls
5974 3152 Pls
6007 3152 Pls
6039 3152 Pls
6072 3152 Pls
6104 3152 Pls
6136 3152 Pls
6169 3152 Pls
6201 3152 Pls
6234 3152 Pls
6266 3152 Pls
1046 1810 Pls
6299 3152 Pls
6331 3152 Pls
6363 3152 Pls
6396 3152 Pls
6428 3152 Pls
6461 3152 Pls
6493 3152 Pls
6525 3152 Pls
6558 3152 Pls
6590 3152 Pls
1078 1810 Pls
6623 3152 Pls
6655 3152 Pls
6688 3152 Pls
6720 3152 Pls
6752 3152 Pls
6785 3152 Pls
6817 3152 Pls
6850 3152 Pls
6882 3152 Pls
6915 3152 Pls
6579 4738 Pls
% End plot #1
% Begin plot #2
1.000 UP
1.000 UL
LTb
0.00 0.62 0.45 C LCb setrgbcolor
6296 4598 M
[ [(Helvetica) 140.0 0.0 true true 0 (A 1)]
] -46.7 MRshow
1.000 UP
1.000 UL
LTb
0.00 0.62 0.45 C 527 437 Crs
1111 1917 Crs
6947 3131 Crs
1143 1949 Crs
1175 1983 Crs
1208 2043 Crs
1240 2066 Crs
1273 2092 Crs
1305 2110 Crs
1337 2128 Crs
1370 2163 Crs
1402 2197 Crs
559 608 Crs
1435 2218 Crs
1467 2233 Crs
1500 2242 Crs
1532 2253 Crs
1564 2269 Crs
1597 2281 Crs
1629 2303 Crs
1662 2324 Crs
1694 2359 Crs
1727 2379 Crs
592 791 Crs
1759 2403 Crs
1791 2425 Crs
1824 2443 Crs
1856 2465 Crs
1889 2478 Crs
1921 2498 Crs
1954 2521 Crs
1986 2549 Crs
2018 2570 Crs
2051 2591 Crs
624 966 Crs
2083 2606 Crs
2116 2625 Crs
2148 2638 Crs
2181 2649 Crs
2213 2669 Crs
2245 2686 Crs
2278 2706 Crs
2310 2723 Crs
2343 2747 Crs
2375 2762 Crs
657 1112 Crs
2408 2772 Crs
2440 2785 Crs
2472 2795 Crs
2505 2805 Crs
2537 2807 Crs
2570 2812 Crs
2602 2817 Crs
2634 2823 Crs
2667 2830 Crs
2699 2840 Crs
689 1175 Crs
2732 2846 Crs
2764 2856 Crs
2797 2865 Crs
2829 2880 Crs
2861 2889 Crs
2894 2902 Crs
2926 2910 Crs
2959 2923 Crs
2991 2933 Crs
3024 2933 Crs
721 1285 Crs
3056 2931 Crs
3088 2975 Crs
3121 2976 Crs
3153 2976 Crs
3186 2976 Crs
3218 2975 Crs
3251 2974 Crs
3283 2975 Crs
3315 2975 Crs
3348 3010 Crs
754 1338 Crs
3380 3010 Crs
3413 3010 Crs
3445 3010 Crs
3478 3010 Crs
3510 3011 Crs
3542 3010 Crs
3575 3009 Crs
3607 3047 Crs
3640 3047 Crs
3672 3047 Crs
494 281 Crs
786 1428 Crs
3705 3047 Crs
3737 3047 Crs
3769 3047 Crs
3802 3047 Crs
3834 3048 Crs
3867 3069 Crs
3899 3069 Crs
3931 3068 Crs
3964 3069 Crs
3996 3069 Crs
819 1502 Crs
4029 3068 Crs
4061 3068 Crs
4094 3069 Crs
4126 3093 Crs
4158 3092 Crs
4191 3092 Crs
4223 3092 Crs
4256 3092 Crs
4288 3092 Crs
4321 3093 Crs
851 1588 Crs
4353 3093 Crs
4385 3104 Crs
4418 3104 Crs
4450 3104 Crs
4483 3104 Crs
4515 3104 Crs
4548 3104 Crs
4580 3104 Crs
4612 3104 Crs
4645 3110 Crs
884 1644 Crs
4677 3110 Crs
4710 3109 Crs
4742 3109 Crs
4775 3109 Crs
4807 3109 Crs
4839 3109 Crs
4872 3109 Crs
4904 3116 Crs
4937 3116 Crs
4969 3115 Crs
916 1703 Crs
5002 3115 Crs
5034 3115 Crs
5066 3116 Crs
5099 3115 Crs
5131 3115 Crs
5164 3118 Crs
5196 3118 Crs
5228 3118 Crs
5261 3119 Crs
5293 3119 Crs
948 1733 Crs
5326 3119 Crs
5358 3119 Crs
5391 3119 Crs
5423 3124 Crs
5455 3124 Crs
5488 3124 Crs
5520 3124 Crs
5553 3124 Crs
5585 3124 Crs
5618 3124 Crs
981 1773 Crs
5650 3127 Crs
5682 3129 Crs
5715 3129 Crs
5747 3129 Crs
5780 3130 Crs
5812 3130 Crs
5845 3129 Crs
5877 3129 Crs
5909 3129 Crs
5942 3130 Crs
1013 1836 Crs
5974 3130 Crs
6007 3130 Crs
6039 3130 Crs
6072 3130 Crs
6104 3130 Crs
6136 3130 Crs
6169 3130 Crs
6201 3130 Crs
6234 3130 Crs
6266 3130 Crs
1046 1868 Crs
6299 3130 Crs
6331 3130 Crs
6363 3130 Crs
6396 3130 Crs
6428 3130 Crs
6461 3130 Crs
6493 3130 Crs
6525 3130 Crs
6558 3131 Crs
6590 3131 Crs
1078 1890 Crs
6623 3131 Crs
6655 3131 Crs
6688 3131 Crs
6720 3131 Crs
6752 3131 Crs
6785 3131 Crs
6817 3131 Crs
6850 3131 Crs
6882 3131 Crs
6915 3131 Crs
6579 4598 Crs
% End plot #2
% Begin plot #3
1.000 UP
1.000 UL
LTb
0.34 0.71 0.91 C LCb setrgbcolor
6296 4458 M
[ [(Helvetica) 140.0 0.0 true true 0 (A 2)]
] -46.7 MRshow
1.000 UP
1.000 UL
LTb
0.34 0.71 0.91 C 527 491 Star
1111 2030 Star
6947 3175 Star
1143 2062 Star
1175 2092 Star
1208 2127 Star
1240 2153 Star
1273 2192 Star
1305 2218 Star
1337 2242 Star
1370 2274 Star
1402 2312 Star
559 679 Star
1435 2330 Star
1467 2363 Star
1500 2382 Star
1532 2401 Star
1564 2430 Star
1597 2452 Star
1629 2468 Star
1662 2501 Star
1694 2514 Star
1727 2550 Star
592 864 Star
1759 2563 Star
1791 2597 Star
1824 2600 Star
1856 2632 Star
1889 2649 Star
1921 2664 Star
1954 2694 Star
1986 2700 Star
2018 2728 Star
2051 2750 Star
624 1043 Star
2083 2761 Star
2116 2788 Star
2148 2815 Star
2181 2834 Star
2213 2845 Star
2245 2866 Star
2278 2883 Star
2310 2907 Star
2343 2919 Star
2375 2932 Star
657 1188 Star
2408 2956 Star
2440 2966 Star
2472 2982 Star
2505 2995 Star
2537 3005 Star
2570 3021 Star
2602 3030 Star
2634 3036 Star
2667 3044 Star
2699 3057 Star
689 1278 Star
2732 3065 Star
2764 3077 Star
2797 3090 Star
2829 3102 Star
2861 3109 Star
2894 3114 Star
2926 3123 Star
2959 3125 Star
2991 3132 Star
3024 3137 Star
721 1369 Star
3056 3142 Star
3088 3151 Star
3121 3153 Star
3153 3159 Star
3186 3159 Star
3218 3161 Star
3251 3161 Star
3283 3160 Star
3315 3161 Star
3348 3163 Star
754 1456 Star
3380 3163 Star
3413 3164 Star
3445 3164 Star
3478 3165 Star
3510 3166 Star
3542 3167 Star
3575 3166 Star
3607 3170 Star
3640 3168 Star
3672 3170 Star
494 303 Star
786 1522 Star
3705 3169 Star
3737 3170 Star
3769 3170 Star
3802 3172 Star
3834 3172 Star
3867 3172 Star
3899 3173 Star
3931 3173 Star
3964 3173 Star
3996 3172 Star
819 1579 Star
4029 3172 Star
4061 3172 Star
4094 3172 Star
4126 3173 Star
4158 3173 Star
4191 3173 Star
4223 3174 Star
4256 3174 Star
4288 3174 Star
4321 3174 Star
851 1659 Star
4353 3174 Star
4385 3174 Star
4418 3174 Star
4450 3174 Star
4483 3174 Star
4515 3174 Star
4548 3174 Star
4580 3175 Star
4612 3175 Star
4645 3175 Star
884 1730 Star
4677 3175 Star
4710 3175 Star
4742 3175 Star
4775 3175 Star
4807 3175 Star
4839 3175 Star
4872 3175 Star
4904 3175 Star
4937 3175 Star
4969 3175 Star
916 1790 Star
5002 3175 Star
5034 3175 Star
5066 3175 Star
5099 3175 Star
5131 3175 Star
5164 3175 Star
5196 3175 Star
5228 3175 Star
5261 3175 Star
5293 3175 Star
948 1831 Star
5326 3175 Star
5358 3175 Star
5391 3175 Star
5423 3175 Star
5455 3175 Star
5488 3175 Star
5520 3175 Star
5553 3175 Star
5585 3175 Star
5618 3175 Star
981 1863 Star
5650 3175 Star
5682 3175 Star
5715 3175 Star
5747 3175 Star
5780 3175 Star
5812 3175 Star
5845 3175 Star
5877 3175 Star
5909 3175 Star
5942 3175 Star
1013 1910 Star
5974 3175 Star
6007 3175 Star
6039 3175 Star
6072 3175 Star
6104 3175 Star
6136 3175 Star
6169 3175 Star
6201 3175 Star
6234 3175 Star
6266 3175 Star
1046 1954 Star
6299 3175 Star
6331 3175 Star
6363 3175 Star
6396 3175 Star
6428 3175 Star
6461 3175 Star
6493 3175 Star
6525 3175 Star
6558 3175 Star
6590 3175 Star
1078 1991 Star
6623 3175 Star
6655 3175 Star
6688 3175 Star
6720 3175 Star
6752 3175 Star
6785 3175 Star
6817 3175 Star
6850 3175 Star
6882 3175 Star
6915 3175 Star
6579 4458 Star
% End plot #3
% Begin plot #4
1.000 UP
1.000 UL
LTb
0.90 0.62 0.00 C % End plot #4
2.000 UL
LTb
LCb setrgbcolor
1.000 UL
LTB
LCb setrgbcolor
462 4871 N
462 280 L
6485 0 V
0 4591 V
-6485 0 V
Z stroke
1.000 UP
1.000 UL
LTb
LCb setrgbcolor
stroke
grestore
end
showpage
%%Trailer
%%DocumentFonts: Helvetica
