%!PS-Adobe-2.0 EPSF-2.0
%%Title: 10.eps
%%Creator: gnuplot 5.0 patchlevel 5
%%CreationDate: Wed Mar  8 18:20:04 2017
%%DocumentFonts: (atend)
%%BoundingBox: 50 50 410 302
%%EndComments
%%BeginProlog
/gnudict 256 dict def
gnudict begin
%
% The following true/false flags may be edited by hand if desired.
% The unit line width and grayscale image gamma correction may also be changed.
%
/Color true def
/Blacktext false def
/Solid false def
/Dashlength 1 def
/Landscape false def
/Level1 false def
/Level3 false def
/Rounded false def
/ClipToBoundingBox false def
/SuppressPDFMark false def
/TransparentPatterns false def
/gnulinewidth 5.000 def
/userlinewidth gnulinewidth def
/Gamma 1.0 def
/BackgroundColor {-1.000 -1.000 -1.000} def
%
/vshift -46 def
/dl1 {
  10.0 Dashlength userlinewidth gnulinewidth div mul mul mul
  Rounded { currentlinewidth 0.75 mul sub dup 0 le { pop 0.01 } if } if
} def
/dl2 {
  10.0 Dashlength userlinewidth gnulinewidth div mul mul mul
  Rounded { currentlinewidth 0.75 mul add } if
} def
/hpt_ 31.5 def
/vpt_ 31.5 def
/hpt hpt_ def
/vpt vpt_ def
/doclip {
  ClipToBoundingBox {
    newpath 50 50 moveto 410 50 lineto 410 302 lineto 50 302 lineto closepath
    clip
  } if
} def
%
% Gnuplot Prolog Version 5.1 (Oct 2015)
%
%/SuppressPDFMark true def
%
/M {moveto} bind def
/L {lineto} bind def
/R {rmoveto} bind def
/V {rlineto} bind def
/N {newpath moveto} bind def
/Z {closepath} bind def
/C {setrgbcolor} bind def
/f {rlineto fill} bind def
/g {setgray} bind def
/Gshow {show} def   % May be redefined later in the file to support UTF-8
/vpt2 vpt 2 mul def
/hpt2 hpt 2 mul def
/Lshow {currentpoint stroke M 0 vshift R 
	Blacktext {gsave 0 setgray textshow grestore} {textshow} ifelse} def
/Rshow {currentpoint stroke M dup stringwidth pop neg vshift R
	Blacktext {gsave 0 setgray textshow grestore} {textshow} ifelse} def
/Cshow {currentpoint stroke M dup stringwidth pop -2 div vshift R 
	Blacktext {gsave 0 setgray textshow grestore} {textshow} ifelse} def
/UP {dup vpt_ mul /vpt exch def hpt_ mul /hpt exch def
  /hpt2 hpt 2 mul def /vpt2 vpt 2 mul def} def
/DL {Color {setrgbcolor Solid {pop []} if 0 setdash}
 {pop pop pop 0 setgray Solid {pop []} if 0 setdash} ifelse} def
/BL {stroke userlinewidth 2 mul setlinewidth
	Rounded {1 setlinejoin 1 setlinecap} if} def
/AL {stroke userlinewidth 2 div setlinewidth
	Rounded {1 setlinejoin 1 setlinecap} if} def
/UL {dup gnulinewidth mul /userlinewidth exch def
	dup 1 lt {pop 1} if 10 mul /udl exch def} def
/PL {stroke userlinewidth setlinewidth
	Rounded {1 setlinejoin 1 setlinecap} if} def
3.8 setmiterlimit
% Classic Line colors (version 5.0)
/LCw {1 1 1} def
/LCb {0 0 0} def
/LCa {0 0 0} def
/LC0 {1 0 0} def
/LC1 {0 1 0} def
/LC2 {0 0 1} def
/LC3 {1 0 1} def
/LC4 {0 1 1} def
/LC5 {1 1 0} def
/LC6 {0 0 0} def
/LC7 {1 0.3 0} def
/LC8 {0.5 0.5 0.5} def
% Default dash patterns (version 5.0)
/LTB {BL [] LCb DL} def
/LTw {PL [] 1 setgray} def
/LTb {PL [] LCb DL} def
/LTa {AL [1 udl mul 2 udl mul] 0 setdash LCa setrgbcolor} def
/LT0 {PL [] LC0 DL} def
/LT1 {PL [2 dl1 3 dl2] LC1 DL} def
/LT2 {PL [1 dl1 1.5 dl2] LC2 DL} def
/LT3 {PL [6 dl1 2 dl2 1 dl1 2 dl2] LC3 DL} def
/LT4 {PL [1 dl1 2 dl2 6 dl1 2 dl2 1 dl1 2 dl2] LC4 DL} def
/LT5 {PL [4 dl1 2 dl2] LC5 DL} def
/LT6 {PL [1.5 dl1 1.5 dl2 1.5 dl1 1.5 dl2 1.5 dl1 6 dl2] LC6 DL} def
/LT7 {PL [3 dl1 3 dl2 1 dl1 3 dl2] LC7 DL} def
/LT8 {PL [2 dl1 2 dl2 2 dl1 6 dl2] LC8 DL} def
/SL {[] 0 setdash} def
/Pnt {stroke [] 0 setdash gsave 1 setlinecap M 0 0 V stroke grestore} def
/Dia {stroke [] 0 setdash 2 copy vpt add M
  hpt neg vpt neg V hpt vpt neg V
  hpt vpt V hpt neg vpt V closepath stroke
  Pnt} def
/Pls {stroke [] 0 setdash vpt sub M 0 vpt2 V
  currentpoint stroke M
  hpt neg vpt neg R hpt2 0 V stroke
 } def
/Box {stroke [] 0 setdash 2 copy exch hpt sub exch vpt add M
  0 vpt2 neg V hpt2 0 V 0 vpt2 V
  hpt2 neg 0 V closepath stroke
  Pnt} def
/Crs {stroke [] 0 setdash exch hpt sub exch vpt add M
  hpt2 vpt2 neg V currentpoint stroke M
  hpt2 neg 0 R hpt2 vpt2 V stroke} def
/TriU {stroke [] 0 setdash 2 copy vpt 1.12 mul add M
  hpt neg vpt -1.62 mul V
  hpt 2 mul 0 V
  hpt neg vpt 1.62 mul V closepath stroke
  Pnt} def
/Star {2 copy Pls Crs} def
/BoxF {stroke [] 0 setdash exch hpt sub exch vpt add M
  0 vpt2 neg V hpt2 0 V 0 vpt2 V
  hpt2 neg 0 V closepath fill} def
/TriUF {stroke [] 0 setdash vpt 1.12 mul add M
  hpt neg vpt -1.62 mul V
  hpt 2 mul 0 V
  hpt neg vpt 1.62 mul V closepath fill} def
/TriD {stroke [] 0 setdash 2 copy vpt 1.12 mul sub M
  hpt neg vpt 1.62 mul V
  hpt 2 mul 0 V
  hpt neg vpt -1.62 mul V closepath stroke
  Pnt} def
/TriDF {stroke [] 0 setdash vpt 1.12 mul sub M
  hpt neg vpt 1.62 mul V
  hpt 2 mul 0 V
  hpt neg vpt -1.62 mul V closepath fill} def
/DiaF {stroke [] 0 setdash vpt add M
  hpt neg vpt neg V hpt vpt neg V
  hpt vpt V hpt neg vpt V closepath fill} def
/Pent {stroke [] 0 setdash 2 copy gsave
  translate 0 hpt M 4 {72 rotate 0 hpt L} repeat
  closepath stroke grestore Pnt} def
/PentF {stroke [] 0 setdash gsave
  translate 0 hpt M 4 {72 rotate 0 hpt L} repeat
  closepath fill grestore} def
/Circle {stroke [] 0 setdash 2 copy
  hpt 0 360 arc stroke Pnt} def
/CircleF {stroke [] 0 setdash hpt 0 360 arc fill} def
/C0 {BL [] 0 setdash 2 copy moveto vpt 90 450 arc} bind def
/C1 {BL [] 0 setdash 2 copy moveto
	2 copy vpt 0 90 arc closepath fill
	vpt 0 360 arc closepath} bind def
/C2 {BL [] 0 setdash 2 copy moveto
	2 copy vpt 90 180 arc closepath fill
	vpt 0 360 arc closepath} bind def
/C3 {BL [] 0 setdash 2 copy moveto
	2 copy vpt 0 180 arc closepath fill
	vpt 0 360 arc closepath} bind def
/C4 {BL [] 0 setdash 2 copy moveto
	2 copy vpt 180 270 arc closepath fill
	vpt 0 360 arc closepath} bind def
/C5 {BL [] 0 setdash 2 copy moveto
	2 copy vpt 0 90 arc
	2 copy moveto
	2 copy vpt 180 270 arc closepath fill
	vpt 0 360 arc} bind def
/C6 {BL [] 0 setdash 2 copy moveto
	2 copy vpt 90 270 arc closepath fill
	vpt 0 360 arc closepath} bind def
/C7 {BL [] 0 setdash 2 copy moveto
	2 copy vpt 0 270 arc closepath fill
	vpt 0 360 arc closepath} bind def
/C8 {BL [] 0 setdash 2 copy moveto
	2 copy vpt 270 360 arc closepath fill
	vpt 0 360 arc closepath} bind def
/C9 {BL [] 0 setdash 2 copy moveto
	2 copy vpt 270 450 arc closepath fill
	vpt 0 360 arc closepath} bind def
/C10 {BL [] 0 setdash 2 copy 2 copy moveto vpt 270 360 arc closepath fill
	2 copy moveto
	2 copy vpt 90 180 arc closepath fill
	vpt 0 360 arc closepath} bind def
/C11 {BL [] 0 setdash 2 copy moveto
	2 copy vpt 0 180 arc closepath fill
	2 copy moveto
	2 copy vpt 270 360 arc closepath fill
	vpt 0 360 arc closepath} bind def
/C12 {BL [] 0 setdash 2 copy moveto
	2 copy vpt 180 360 arc closepath fill
	vpt 0 360 arc closepath} bind def
/C13 {BL [] 0 setdash 2 copy moveto
	2 copy vpt 0 90 arc closepath fill
	2 copy moveto
	2 copy vpt 180 360 arc closepath fill
	vpt 0 360 arc closepath} bind def
/C14 {BL [] 0 setdash 2 copy moveto
	2 copy vpt 90 360 arc closepath fill
	vpt 0 360 arc} bind def
/C15 {BL [] 0 setdash 2 copy vpt 0 360 arc closepath fill
	vpt 0 360 arc closepath} bind def
/Rec {newpath 4 2 roll moveto 1 index 0 rlineto 0 exch rlineto
	neg 0 rlineto closepath} bind def
/Square {dup Rec} bind def
/Bsquare {vpt sub exch vpt sub exch vpt2 Square} bind def
/S0 {BL [] 0 setdash 2 copy moveto 0 vpt rlineto BL Bsquare} bind def
/S1 {BL [] 0 setdash 2 copy vpt Square fill Bsquare} bind def
/S2 {BL [] 0 setdash 2 copy exch vpt sub exch vpt Square fill Bsquare} bind def
/S3 {BL [] 0 setdash 2 copy exch vpt sub exch vpt2 vpt Rec fill Bsquare} bind def
/S4 {BL [] 0 setdash 2 copy exch vpt sub exch vpt sub vpt Square fill Bsquare} bind def
/S5 {BL [] 0 setdash 2 copy 2 copy vpt Square fill
	exch vpt sub exch vpt sub vpt Square fill Bsquare} bind def
/S6 {BL [] 0 setdash 2 copy exch vpt sub exch vpt sub vpt vpt2 Rec fill Bsquare} bind def
/S7 {BL [] 0 setdash 2 copy exch vpt sub exch vpt sub vpt vpt2 Rec fill
	2 copy vpt Square fill Bsquare} bind def
/S8 {BL [] 0 setdash 2 copy vpt sub vpt Square fill Bsquare} bind def
/S9 {BL [] 0 setdash 2 copy vpt sub vpt vpt2 Rec fill Bsquare} bind def
/S10 {BL [] 0 setdash 2 copy vpt sub vpt Square fill 2 copy exch vpt sub exch vpt Square fill
	Bsquare} bind def
/S11 {BL [] 0 setdash 2 copy vpt sub vpt Square fill 2 copy exch vpt sub exch vpt2 vpt Rec fill
	Bsquare} bind def
/S12 {BL [] 0 setdash 2 copy exch vpt sub exch vpt sub vpt2 vpt Rec fill Bsquare} bind def
/S13 {BL [] 0 setdash 2 copy exch vpt sub exch vpt sub vpt2 vpt Rec fill
	2 copy vpt Square fill Bsquare} bind def
/S14 {BL [] 0 setdash 2 copy exch vpt sub exch vpt sub vpt2 vpt Rec fill
	2 copy exch vpt sub exch vpt Square fill Bsquare} bind def
/S15 {BL [] 0 setdash 2 copy Bsquare fill Bsquare} bind def
/D0 {gsave translate 45 rotate 0 0 S0 stroke grestore} bind def
/D1 {gsave translate 45 rotate 0 0 S1 stroke grestore} bind def
/D2 {gsave translate 45 rotate 0 0 S2 stroke grestore} bind def
/D3 {gsave translate 45 rotate 0 0 S3 stroke grestore} bind def
/D4 {gsave translate 45 rotate 0 0 S4 stroke grestore} bind def
/D5 {gsave translate 45 rotate 0 0 S5 stroke grestore} bind def
/D6 {gsave translate 45 rotate 0 0 S6 stroke grestore} bind def
/D7 {gsave translate 45 rotate 0 0 S7 stroke grestore} bind def
/D8 {gsave translate 45 rotate 0 0 S8 stroke grestore} bind def
/D9 {gsave translate 45 rotate 0 0 S9 stroke grestore} bind def
/D10 {gsave translate 45 rotate 0 0 S10 stroke grestore} bind def
/D11 {gsave translate 45 rotate 0 0 S11 stroke grestore} bind def
/D12 {gsave translate 45 rotate 0 0 S12 stroke grestore} bind def
/D13 {gsave translate 45 rotate 0 0 S13 stroke grestore} bind def
/D14 {gsave translate 45 rotate 0 0 S14 stroke grestore} bind def
/D15 {gsave translate 45 rotate 0 0 S15 stroke grestore} bind def
/DiaE {stroke [] 0 setdash vpt add M
  hpt neg vpt neg V hpt vpt neg V
  hpt vpt V hpt neg vpt V closepath stroke} def
/BoxE {stroke [] 0 setdash exch hpt sub exch vpt add M
  0 vpt2 neg V hpt2 0 V 0 vpt2 V
  hpt2 neg 0 V closepath stroke} def
/TriUE {stroke [] 0 setdash vpt 1.12 mul add M
  hpt neg vpt -1.62 mul V
  hpt 2 mul 0 V
  hpt neg vpt 1.62 mul V closepath stroke} def
/TriDE {stroke [] 0 setdash vpt 1.12 mul sub M
  hpt neg vpt 1.62 mul V
  hpt 2 mul 0 V
  hpt neg vpt -1.62 mul V closepath stroke} def
/PentE {stroke [] 0 setdash gsave
  translate 0 hpt M 4 {72 rotate 0 hpt L} repeat
  closepath stroke grestore} def
/CircE {stroke [] 0 setdash 
  hpt 0 360 arc stroke} def
/Opaque {gsave closepath 1 setgray fill grestore 0 setgray closepath} def
/DiaW {stroke [] 0 setdash vpt add M
  hpt neg vpt neg V hpt vpt neg V
  hpt vpt V hpt neg vpt V Opaque stroke} def
/BoxW {stroke [] 0 setdash exch hpt sub exch vpt add M
  0 vpt2 neg V hpt2 0 V 0 vpt2 V
  hpt2 neg 0 V Opaque stroke} def
/TriUW {stroke [] 0 setdash vpt 1.12 mul add M
  hpt neg vpt -1.62 mul V
  hpt 2 mul 0 V
  hpt neg vpt 1.62 mul V Opaque stroke} def
/TriDW {stroke [] 0 setdash vpt 1.12 mul sub M
  hpt neg vpt 1.62 mul V
  hpt 2 mul 0 V
  hpt neg vpt -1.62 mul V Opaque stroke} def
/PentW {stroke [] 0 setdash gsave
  translate 0 hpt M 4 {72 rotate 0 hpt L} repeat
  Opaque stroke grestore} def
/CircW {stroke [] 0 setdash 
  hpt 0 360 arc Opaque stroke} def
/BoxFill {gsave Rec 1 setgray fill grestore} def
/Density {
  /Fillden exch def
  currentrgbcolor
  /ColB exch def /ColG exch def /ColR exch def
  /ColR ColR Fillden mul Fillden sub 1 add def
  /ColG ColG Fillden mul Fillden sub 1 add def
  /ColB ColB Fillden mul Fillden sub 1 add def
  ColR ColG ColB setrgbcolor} def
/BoxColFill {gsave Rec PolyFill} def
/PolyFill {gsave Density fill grestore grestore} def
/h {rlineto rlineto rlineto gsave closepath fill grestore} bind def
%
% PostScript Level 1 Pattern Fill routine for rectangles
% Usage: x y w h s a XX PatternFill
%	x,y = lower left corner of box to be filled
%	w,h = width and height of box
%	  a = angle in degrees between lines and x-axis
%	 XX = 0/1 for no/yes cross-hatch
%
/PatternFill {gsave /PFa [ 9 2 roll ] def
  PFa 0 get PFa 2 get 2 div add PFa 1 get PFa 3 get 2 div add translate
  PFa 2 get -2 div PFa 3 get -2 div PFa 2 get PFa 3 get Rec
  TransparentPatterns {} {gsave 1 setgray fill grestore} ifelse
  clip
  currentlinewidth 0.5 mul setlinewidth
  /PFs PFa 2 get dup mul PFa 3 get dup mul add sqrt def
  0 0 M PFa 5 get rotate PFs -2 div dup translate
  0 1 PFs PFa 4 get div 1 add floor cvi
	{PFa 4 get mul 0 M 0 PFs V} for
  0 PFa 6 get ne {
	0 1 PFs PFa 4 get div 1 add floor cvi
	{PFa 4 get mul 0 2 1 roll M PFs 0 V} for
 } if
  stroke grestore} def
%
/languagelevel where
 {pop languagelevel} {1} ifelse
dup 2 lt
	{/InterpretLevel1 true def
	 /InterpretLevel3 false def}
	{/InterpretLevel1 Level1 def
	 2 gt
	    {/InterpretLevel3 Level3 def}
	    {/InterpretLevel3 false def}
	 ifelse }
 ifelse
%
% PostScript level 2 pattern fill definitions
%
/Level2PatternFill {
/Tile8x8 {/PaintType 2 /PatternType 1 /TilingType 1 /BBox [0 0 8 8] /XStep 8 /YStep 8}
	bind def
/KeepColor {currentrgbcolor [/Pattern /DeviceRGB] setcolorspace} bind def
<< Tile8x8
 /PaintProc {0.5 setlinewidth pop 0 0 M 8 8 L 0 8 M 8 0 L stroke} 
>> matrix makepattern
/Pat1 exch def
<< Tile8x8
 /PaintProc {0.5 setlinewidth pop 0 0 M 8 8 L 0 8 M 8 0 L stroke
	0 4 M 4 8 L 8 4 L 4 0 L 0 4 L stroke}
>> matrix makepattern
/Pat2 exch def
<< Tile8x8
 /PaintProc {0.5 setlinewidth pop 0 0 M 0 8 L
	8 8 L 8 0 L 0 0 L fill}
>> matrix makepattern
/Pat3 exch def
<< Tile8x8
 /PaintProc {0.5 setlinewidth pop -4 8 M 8 -4 L
	0 12 M 12 0 L stroke}
>> matrix makepattern
/Pat4 exch def
<< Tile8x8
 /PaintProc {0.5 setlinewidth pop -4 0 M 8 12 L
	0 -4 M 12 8 L stroke}
>> matrix makepattern
/Pat5 exch def
<< Tile8x8
 /PaintProc {0.5 setlinewidth pop -2 8 M 4 -4 L
	0 12 M 8 -4 L 4 12 M 10 0 L stroke}
>> matrix makepattern
/Pat6 exch def
<< Tile8x8
 /PaintProc {0.5 setlinewidth pop -2 0 M 4 12 L
	0 -4 M 8 12 L 4 -4 M 10 8 L stroke}
>> matrix makepattern
/Pat7 exch def
<< Tile8x8
 /PaintProc {0.5 setlinewidth pop 8 -2 M -4 4 L
	12 0 M -4 8 L 12 4 M 0 10 L stroke}
>> matrix makepattern
/Pat8 exch def
<< Tile8x8
 /PaintProc {0.5 setlinewidth pop 0 -2 M 12 4 L
	-4 0 M 12 8 L -4 4 M 8 10 L stroke}
>> matrix makepattern
/Pat9 exch def
/Pattern1 {PatternBgnd KeepColor Pat1 setpattern} bind def
/Pattern2 {PatternBgnd KeepColor Pat2 setpattern} bind def
/Pattern3 {PatternBgnd KeepColor Pat3 setpattern} bind def
/Pattern4 {PatternBgnd KeepColor Landscape {Pat5} {Pat4} ifelse setpattern} bind def
/Pattern5 {PatternBgnd KeepColor Landscape {Pat4} {Pat5} ifelse setpattern} bind def
/Pattern6 {PatternBgnd KeepColor Landscape {Pat9} {Pat6} ifelse setpattern} bind def
/Pattern7 {PatternBgnd KeepColor Landscape {Pat8} {Pat7} ifelse setpattern} bind def
} def
%
%
%End of PostScript Level 2 code
%
/PatternBgnd {
  TransparentPatterns {} {gsave 1 setgray fill grestore} ifelse
} def
%
% Substitute for Level 2 pattern fill codes with
% grayscale if Level 2 support is not selected.
%
/Level1PatternFill {
/Pattern1 {0.250 Density} bind def
/Pattern2 {0.500 Density} bind def
/Pattern3 {0.750 Density} bind def
/Pattern4 {0.125 Density} bind def
/Pattern5 {0.375 Density} bind def
/Pattern6 {0.625 Density} bind def
/Pattern7 {0.875 Density} bind def
} def
%
% Now test for support of Level 2 code
%
Level1 {Level1PatternFill} {Level2PatternFill} ifelse
%
/Symbol-Oblique /Symbol findfont [1 0 .167 1 0 0] makefont
dup length dict begin {1 index /FID eq {pop pop} {def} ifelse} forall
currentdict end definefont pop
%
/MFshow {
   { dup 5 get 3 ge
     { 5 get 3 eq {gsave} {grestore} ifelse }
     {dup dup 0 get findfont exch 1 get scalefont setfont
     [ currentpoint ] exch dup 2 get 0 exch R dup 5 get 2 ne {dup dup 6
     get exch 4 get {textshow} {stringwidth pop 0 R} ifelse }if dup 5 get 0 eq
     {dup 3 get {2 get neg 0 exch R pop} {pop aload pop M} ifelse} {dup 5
     get 1 eq {dup 2 get exch dup 3 get exch 6 get stringwidth pop -2 div
     dup 0 R} {dup 6 get stringwidth pop -2 div 0 R 6 get
     textshow 2 index {aload pop M neg 3 -1 roll neg R pop pop} {pop pop pop
     pop aload pop M} ifelse }ifelse }ifelse }
     ifelse }
   forall} def
/Gswidth {dup type /stringtype eq {stringwidth} {pop (n) stringwidth} ifelse} def
/MFwidth {0 exch { dup 5 get 3 ge { 5 get 3 eq { 0 } { pop } ifelse }
 {dup 3 get{dup dup 0 get findfont exch 1 get scalefont setfont
     6 get Gswidth pop add} {pop} ifelse} ifelse} forall} def
/MLshow { currentpoint stroke M
  0 exch R
  Blacktext {gsave 0 setgray MFshow grestore} {MFshow} ifelse } bind def
/MRshow { currentpoint stroke M
  exch dup MFwidth neg 3 -1 roll R
  Blacktext {gsave 0 setgray MFshow grestore} {MFshow} ifelse } bind def
/MCshow { currentpoint stroke M
  exch dup MFwidth -2 div 3 -1 roll R
  Blacktext {gsave 0 setgray MFshow grestore} {MFshow} ifelse } bind def
/XYsave    { [( ) 1 2 true false 3 ()] } bind def
/XYrestore { [( ) 1 2 true false 4 ()] } bind def
Level1 SuppressPDFMark or 
{} {
/SDict 10 dict def
systemdict /pdfmark known not {
  userdict /pdfmark systemdict /cleartomark get put
} if
SDict begin [
  /Title (10.eps)
  /Subject (gnuplot plot)
  /Creator (gnuplot 5.0 patchlevel 5)
  /Author (lbedogni)
%  /Producer (gnuplot)
%  /Keywords ()
  /CreationDate (Wed Mar  8 18:20:04 2017)
  /DOCINFO pdfmark
end
} ifelse
%
% Support for boxed text - Ethan A Merritt May 2005
%
/InitTextBox { userdict /TBy2 3 -1 roll put userdict /TBx2 3 -1 roll put
           userdict /TBy1 3 -1 roll put userdict /TBx1 3 -1 roll put
	   /Boxing true def } def
/ExtendTextBox { Boxing
    { gsave dup false charpath pathbbox
      dup TBy2 gt {userdict /TBy2 3 -1 roll put} {pop} ifelse
      dup TBx2 gt {userdict /TBx2 3 -1 roll put} {pop} ifelse
      dup TBy1 lt {userdict /TBy1 3 -1 roll put} {pop} ifelse
      dup TBx1 lt {userdict /TBx1 3 -1 roll put} {pop} ifelse
      grestore } if } def
/PopTextBox { newpath TBx1 TBxmargin sub TBy1 TBymargin sub M
               TBx1 TBxmargin sub TBy2 TBymargin add L
	       TBx2 TBxmargin add TBy2 TBymargin add L
	       TBx2 TBxmargin add TBy1 TBymargin sub L closepath } def
/DrawTextBox { PopTextBox stroke /Boxing false def} def
/FillTextBox { gsave PopTextBox 1 1 1 setrgbcolor fill grestore /Boxing false def} def
0 0 0 0 InitTextBox
/TBxmargin 20 def
/TBymargin 20 def
/Boxing false def
/textshow { ExtendTextBox Gshow } def
%
% redundant definitions for compatibility with prologue.ps older than 5.0.2
/LTB {BL [] LCb DL} def
/LTb {PL [] LCb DL} def
end
%%EndProlog
%%Page: 1 1
gnudict begin
gsave
doclip
50 50 translate
0.050 0.050 scale
0 setgray
newpath
(Helvetica) findfont 140 scalefont setfont
BackgroundColor 0 lt 3 1 roll 0 lt exch 0 lt or or not {BackgroundColor C 1.000 0 0 7200.00 5040.00 BoxColFill} if
/Helvetica findfont 140 scalefont setfont
/vshift -46 def
/Helvetica findfont 140 scalefont setfont
/Helvetica findfont 140 scalefont setfont
/Helvetica findfont 140 scalefont setfont
/Helvetica findfont 140 scalefont setfont
/Helvetica findfont 140 scalefont setfont
/Helvetica findfont 140 scalefont setfont
/Helvetica findfont 140 scalefont setfont
/Helvetica findfont 140 scalefont setfont
/Helvetica findfont 140 scalefont setfont
/Helvetica findfont 140 scalefont setfont
/Helvetica findfont 140 scalefont setfont
/Helvetica findfont 140 scalefont setfont
/Helvetica findfont 140 scalefont setfont
/Helvetica findfont 140 scalefont setfont
/Helvetica findfont 140 scalefont setfont
/Helvetica findfont 140 scalefont setfont
/Helvetica findfont 140 scalefont setfont
/Helvetica findfont 140 scalefont setfont
/Helvetica findfont 140 scalefont setfont
1.000 UL
LTb
LCb setrgbcolor
546 280 M
63 0 V
6338 0 R
-63 0 V
stroke
462 280 M
[ [(Helvetica) 140.0 0.0 true true 0 ( 0)]
] -46.7 MRshow
1.000 UL
LTb
LCb setrgbcolor
546 1045 M
63 0 V
6338 0 R
-63 0 V
stroke
462 1045 M
[ [(Helvetica) 140.0 0.0 true true 0 ( 0.5)]
] -46.7 MRshow
1.000 UL
LTb
LCb setrgbcolor
546 1810 M
63 0 V
6338 0 R
-63 0 V
stroke
462 1810 M
[ [(Helvetica) 140.0 0.0 true true 0 ( 1)]
] -46.7 MRshow
1.000 UL
LTb
LCb setrgbcolor
546 2576 M
63 0 V
6338 0 R
-63 0 V
stroke
462 2576 M
[ [(Helvetica) 140.0 0.0 true true 0 ( 1.5)]
] -46.7 MRshow
1.000 UL
LTb
LCb setrgbcolor
546 3341 M
63 0 V
6338 0 R
-63 0 V
stroke
462 3341 M
[ [(Helvetica) 140.0 0.0 true true 0 ( 2)]
] -46.7 MRshow
1.000 UL
LTb
LCb setrgbcolor
546 4106 M
63 0 V
6338 0 R
-63 0 V
stroke
462 4106 M
[ [(Helvetica) 140.0 0.0 true true 0 ( 2.5)]
] -46.7 MRshow
1.000 UL
LTb
LCb setrgbcolor
546 4871 M
63 0 V
6338 0 R
-63 0 V
stroke
462 4871 M
[ [(Helvetica) 140.0 0.0 true true 0 ( 3)]
] -46.7 MRshow
1.000 UL
LTb
LCb setrgbcolor
546 280 M
0 63 V
0 4528 R
0 -63 V
stroke
546 140 M
[ [(Helvetica) 140.0 0.0 true true 0 ( 0)]
] -46.7 MCshow
1.000 UL
LTb
LCb setrgbcolor
1613 280 M
0 63 V
0 4528 R
0 -63 V
stroke
1613 140 M
[ [(Helvetica) 140.0 0.0 true true 0 ( 10)]
] -46.7 MCshow
1.000 UL
LTb
LCb setrgbcolor
2680 280 M
0 63 V
0 4528 R
0 -63 V
stroke
2680 140 M
[ [(Helvetica) 140.0 0.0 true true 0 ( 20)]
] -46.7 MCshow
1.000 UL
LTb
LCb setrgbcolor
3747 280 M
0 63 V
0 4528 R
0 -63 V
stroke
3747 140 M
[ [(Helvetica) 140.0 0.0 true true 0 ( 30)]
] -46.7 MCshow
1.000 UL
LTb
LCb setrgbcolor
4813 280 M
0 63 V
0 4528 R
0 -63 V
stroke
4813 140 M
[ [(Helvetica) 140.0 0.0 true true 0 ( 40)]
] -46.7 MCshow
1.000 UL
LTb
LCb setrgbcolor
5880 280 M
0 63 V
0 4528 R
0 -63 V
stroke
5880 140 M
[ [(Helvetica) 140.0 0.0 true true 0 ( 50)]
] -46.7 MCshow
1.000 UL
LTb
LCb setrgbcolor
6947 280 M
0 63 V
0 4528 R
0 -63 V
stroke
6947 140 M
[ [(Helvetica) 140.0 0.0 true true 0 ( 60)]
] -46.7 MCshow
1.000 UL
LTb
LCb setrgbcolor
1.000 UL
LTB
LCb setrgbcolor
546 4871 N
546 280 L
6401 0 V
0 4591 V
-6401 0 V
Z stroke
1.000 UP
1.000 UL
LTb
LCb setrgbcolor
% Begin plot #1
1.000 UL
LTb
0.58 0.00 0.83 C /Helvetica findfont 140 scalefont setfont
LCb setrgbcolor
6296 4738 M
('bunny_1174238bps') Rshow
1.000 UL
LTb
0.58 0.00 0.83 C 6380 4738 M
399 0 V
759 1912 M
107 8 V
973 1540 L
106 270 V
107 471 V
107 -580 V
106 109 V
107 612 V
107 -239 V
107 -784 V
106 3 V
107 408 V
107 -180 V
106 384 V
107 32 V
107 -345 V
106 527 V
107 -896 V
107 988 V
106 -510 V
107 -306 V
107 689 V
106 -244 V
107 -617 V
107 697 V
106 -219 V
107 -191 V
107 544 V
107 -462 V
106 7 V
107 7 V
107 197 V
106 134 V
107 -523 V
107 197 V
106 90 V
107 471 V
107 337 V
4813 1464 L
107 346 V
107 -408 V
106 313 V
107 95 V
107 510 V
106 -510 V
107 -306 V
107 542 V
106 223 V
107 -812 V
107 -7 V
107 360 V
106 0 V
107 96 V
107 -186 V
106 90 V
107 0 V
107 471 V
106 1018 V
6947 1681 L
% End plot #1
% Begin plot #2
stroke
LTb
0.00 0.62 0.45 C /Helvetica findfont 140 scalefont setfont
LCb setrgbcolor
6296 4598 M
('bunny_127412bps') Rshow
1.000 UL
LTb
0.00 0.62 0.45 C 6380 4598 M
399 0 V
759 1829 M
107 83 V
973 1571 L
106 311 V
107 228 V
107 -390 V
106 100 V
107 172 V
107 24 V
107 -530 V
106 169 V
107 155 V
107 -18 V
106 222 V
107 -172 V
107 -156 V
106 306 V
107 -447 V
107 561 V
106 -366 V
107 -146 V
107 692 V
106 -581 V
107 -80 V
107 284 V
106 -156 V
107 -32 V
107 442 V
107 -484 V
106 205 V
107 -259 V
107 185 V
106 48 V
107 -67 V
107 -18 V
106 10 V
107 385 V
107 109 V
106 -940 V
107 547 V
107 -191 V
106 -8 V
107 153 V
107 122 V
106 -150 V
107 -10 V
107 117 V
106 296 V
107 -621 V
107 -162 V
107 363 V
106 52 V
107 -17 V
107 -77 V
106 51 V
107 79 V
107 176 V
106 296 V
107 -514 V
% End plot #2
% Begin plot #3
stroke
LTb
0.34 0.71 0.91 C /Helvetica findfont 140 scalefont setfont
LCb setrgbcolor
6296 4458 M
('bunny_1431232bps') Rshow
1.000 UL
LTb
0.34 0.71 0.91 C 6380 4458 M
399 0 V
759 2065 M
866 1810 L
973 1478 L
106 478 V
107 214 V
107 -264 V
106 -266 V
107 1144 V
107 -540 V
107 -871 V
106 -73 V
107 600 V
107 -175 V
106 175 V
107 238 V
107 -430 V
106 485 V
2573 1154 L
107 1268 V
106 -502 V
107 -512 V
107 949 V
106 -129 V
3213 1082 L
107 1088 V
106 -264 V
107 -460 V
107 976 V
107 -707 V
106 -146 V
107 33 V
107 361 V
106 357 V
107 -947 V
107 304 V
106 203 V
107 504 V
107 557 V
4813 1363 L
107 575 V
107 -638 V
106 292 V
107 218 V
107 766 V
106 -648 V
107 -653 V
107 1191 V
106 -44 V
5880 1300 L
107 23 V
107 421 V
106 66 V
107 70 V
107 -136 V
106 66 V
107 -63 V
107 1156 V
106 604 V
6947 1687 L
% End plot #3
% Begin plot #4
stroke
LTb
0.90 0.62 0.00 C /Helvetica findfont 140 scalefont setfont
LCb setrgbcolor
6296 4318 M
('bunny_176780bps') Rshow
1.000 UL
LTb
0.90 0.62 0.00 C 6380 4318 M
399 0 V
759 1724 M
107 239 V
973 1648 L
106 182 V
107 125 V
107 -145 V
106 22 V
107 8 V
107 100 V
107 -289 V
106 64 V
107 89 V
107 -14 V
106 143 V
107 -144 V
107 -13 V
106 115 V
107 -220 V
107 326 V
106 -251 V
107 -60 V
107 451 V
106 -478 V
107 63 V
107 189 V
106 -183 V
107 42 V
107 162 V
107 -122 V
106 177 V
107 -425 V
107 248 V
106 63 V
107 -56 V
107 -74 V
106 109 V
107 161 V
107 1 V
106 -430 V
107 314 V
107 -225 V
106 55 V
107 55 V
107 91 V
106 -57 V
107 140 V
107 -199 V
106 191 V
107 -272 V
107 -72 V
107 225 V
106 0 V
107 -13 V
107 20 V
106 -72 V
107 32 V
107 110 V
106 383 V
107 -286 V
% End plot #4
% Begin plot #5
stroke
LTb
0.94 0.89 0.26 C /Helvetica findfont 140 scalefont setfont
LCb setrgbcolor
6296 4178 M
('bunny_2070985bps') Rshow
1.000 UL
LTb
0.94 0.89 0.26 C 6380 4178 M
399 0 V
759 1869 M
107 69 V
973 1546 L
106 264 V
107 319 V
107 -436 V
106 179 V
107 533 V
107 -157 V
107 -948 V
106 216 V
107 238 V
107 -49 V
106 282 V
107 23 V
107 -322 V
106 505 V
107 -820 V
107 855 V
106 -418 V
107 -283 V
107 721 V
106 -438 V
107 -340 V
107 532 V
106 -192 V
107 -218 V
107 402 V
107 -184 V
106 0 V
107 -164 V
107 282 V
106 10 V
107 -346 V
107 166 V
106 107 V
107 129 V
107 677 V
4813 1446 L
107 364 V
107 -340 V
106 286 V
107 111 V
107 479 V
106 -675 V
107 -44 V
107 316 V
106 292 V
107 -853 V
107 173 V
107 255 V
106 53 V
107 2 V
107 -107 V
106 1 V
107 51 V
107 383 V
106 912 V
6947 1810 L
% End plot #5
% Begin plot #6
stroke
LTb
0.00 0.45 0.70 C /Helvetica findfont 140 scalefont setfont
LCb setrgbcolor
6296 4038 M
('bunny_216536bps') Rshow
1.000 UL
LTb
0.00 0.45 0.70 C 6380 4038 M
399 0 V
759 1767 M
107 179 V
973 1619 L
106 228 V
107 167 V
107 -227 V
106 41 V
107 133 V
107 42 V
107 -490 V
106 167 V
107 109 V
107 -10 V
106 220 V
107 -152 V
107 -128 V
106 255 V
107 -398 V
107 504 V
106 -364 V
107 -73 V
107 588 V
106 -582 V
107 30 V
107 236 V
106 -182 V
107 24 V
107 302 V
107 -314 V
106 160 V
107 -330 V
107 274 V
106 42 V
107 -109 V
107 -57 V
106 124 V
107 210 V
107 185 V
106 -810 V
107 434 V
107 -203 V
106 53 V
107 82 V
107 108 V
106 -62 V
107 45 V
107 -87 V
106 241 V
107 -459 V
107 1 V
107 229 V
106 21 V
107 -53 V
107 32 V
106 -11 V
107 0 V
107 135 V
106 486 V
107 -567 V
% End plot #6
% Begin plot #7
stroke
LTb
0.90 0.12 0.06 C /Helvetica findfont 140 scalefont setfont
LCb setrgbcolor
6296 3898 M
('bunny_2384387bps') Rshow
1.000 UL
LTb
0.90 0.12 0.06 C 6380 3898 M
399 0 V
759 1963 M
107 -43 V
973 1504 L
106 351 V
107 352 V
107 -502 V
106 105 V
107 806 V
107 -398 V
107 -895 V
106 79 V
107 408 V
107 -180 V
106 384 V
107 32 V
107 -345 V
106 442 V
107 -796 V
107 953 V
106 -426 V
107 -409 V
107 792 V
106 -308 V
107 -617 V
107 697 V
106 -219 V
107 -232 V
107 506 V
107 -274 V
106 -102 V
107 -37 V
107 238 V
106 196 V
107 -619 V
107 279 V
106 45 V
107 264 V
107 817 V
4813 1411 L
107 469 V
107 -478 V
106 269 V
107 187 V
107 551 V
106 -662 V
107 -243 V
107 612 V
106 178 V
107 -976 V
107 152 V
107 340 V
106 90 V
107 -90 V
107 -43 V
106 43 V
107 -42 V
107 716 V
106 739 V
6947 1701 L
% End plot #7
% Begin plot #8
stroke
LTb
0.00 0.00 0.00 C /Helvetica findfont 140 scalefont setfont
LCb setrgbcolor
6296 3758 M
('bunny_252988bps') Rshow
1.000 UL
LTb
0.00 0.00 0.00 C 6380 3758 M
399 0 V
759 1843 M
107 95 V
973 1573 L
106 268 V
107 264 V
107 -346 V
106 77 V
107 220 V
107 22 V
107 -665 V
106 205 V
107 192 V
107 -69 V
106 300 V
107 -129 V
107 -243 V
106 370 V
107 -529 V
107 647 V
106 -445 V
107 -144 V
107 751 V
106 -570 V
107 -216 V
107 432 V
106 -226 V
107 -10 V
107 404 V
107 -400 V
106 77 V
107 -218 V
107 274 V
106 53 V
107 -188 V
107 8 V
106 103 V
107 321 V
107 216 V
4813 1360 L
107 467 V
107 -261 V
106 208 V
107 41 V
107 183 V
106 -183 V
107 21 V
107 11 V
106 323 V
107 -642 V
107 -7 V
107 298 V
106 18 V
107 -44 V
107 -13 V
106 52 V
107 -35 V
107 247 V
106 605 V
107 -898 V
% End plot #8
% Begin plot #9
stroke
LTb
0.58 0.00 0.83 C /Helvetica findfont 140 scalefont setfont
LCb setrgbcolor
6296 3618 M
('bunny_2884382bps') Rshow
1.000 UL
LTb
0.58 0.00 0.83 C 6380 3618 M
399 0 V
759 2052 M
866 1895 L
973 1452 L
106 501 V
107 207 V
107 -257 V
106 -258 V
107 1331 V
107 -687 V
107 -989 V
106 29 V
107 526 V
107 -130 V
106 175 V
107 238 V
107 -476 V
106 516 V
107 -965 V
107 1158 V
106 -391 V
107 -583 V
107 835 V
106 -22 V
3213 1138 L
107 987 V
106 -219 V
107 -513 V
107 927 V
107 -411 V
106 -413 V
107 140 V
107 327 V
106 357 V
107 -997 V
107 421 V
106 100 V
107 461 V
107 866 V
4813 1382 L
107 492 V
107 -481 V
106 89 V
107 405 V
107 660 V
106 -678 V
107 -594 V
107 1191 V
106 -44 V
5880 1267 L
107 44 V
107 436 V
106 130 V
107 -33 V
107 -99 V
106 65 V
107 -32 V
107 1440 V
106 5 V
6947 1701 L
% End plot #9
% Begin plot #10
stroke
LTb
0.00 0.62 0.45 C /Helvetica findfont 140 scalefont setfont
LCb setrgbcolor
6296 3478 M
('bunny_317328bps') Rshow
1.000 UL
LTb
0.00 0.62 0.45 C 6380 3478 M
399 0 V
759 1927 M
107 -20 V
973 1507 L
106 364 V
107 346 V
107 -498 V
106 112 V
107 351 V
107 145 V
107 -996 V
106 139 V
107 388 V
107 -195 V
106 428 V
107 -188 V
107 -161 V
106 348 V
107 -702 V
107 905 V
106 -556 V
107 -252 V
107 943 V
106 -543 V
107 -527 V
107 669 V
106 -221 V
107 -221 V
107 822 V
107 -780 V
106 43 V
107 -19 V
107 242 V
106 45 V
107 -268 V
107 96 V
106 58 V
107 484 V
107 250 V
4813 1359 L
107 428 V
107 -388 V
106 391 V
107 34 V
107 322 V
106 -356 V
107 -47 V
107 219 V
106 439 V
107 -899 V
107 -197 V
107 528 V
106 -9 V
107 -33 V
107 -3 V
106 26 V
107 36 V
107 465 V
106 622 V
6947 1745 L
% End plot #10
% Begin plot #11
stroke
LTb
0.34 0.71 0.91 C /Helvetica findfont 140 scalefont setfont
LCb setrgbcolor
6296 3338 M
('bunny_3245900bps') Rshow
1.000 UL
LTb
0.34 0.71 0.91 C 6380 3338 M
399 0 V
759 2166 M
866 1776 L
973 1504 L
106 606 V
107 -113 V
107 184 V
106 -753 V
107 1913 V
1613 2260 L
107 -896 V
106 -117 V
107 648 V
107 -126 V
106 176 V
107 129 V
107 -489 V
106 776 V
2573 1112 L
107 1238 V
106 -212 V
107 -838 V
107 1053 V
106 -10 V
3213 1029 L
107 1195 V
106 -279 V
107 -645 V
107 1148 V
107 -499 V
106 -547 V
107 228 V
107 347 V
106 574 V
4280 1175 L
107 553 V
106 82 V
107 786 V
107 664 V
4813 1357 L
107 645 V
107 -642 V
106 -39 V
107 622 V
107 684 V
106 -647 V
107 -890 V
107 1881 V
106 -578 V
5880 1254 L
107 16 V
107 356 V
106 211 V
107 1 V
107 -105 V
106 52 V
107 195 V
107 1606 V
106 -363 V
6947 1701 L
% End plot #11
% Begin plot #12
stroke
LTb
0.90 0.62 0.00 C /Helvetica findfont 140 scalefont setfont
LCb setrgbcolor
6296 3198 M
('bunny_3493765bps') Rshow
1.000 UL
LTb
0.90 0.62 0.00 C 6380 3198 M
399 0 V
759 2154 M
866 1722 L
973 1606 L
106 587 V
107 -205 V
107 227 V
106 -894 V
107 2286 V
1613 2350 L
107 -986 V
106 -188 V
107 800 V
107 -166 V
106 88 V
107 229 V
107 -579 V
106 792 V
2573 1127 L
107 1151 V
106 -98 V
107 -868 V
107 903 V
106 327 V
3213 957 L
107 1417 V
106 -479 V
107 -631 V
107 1332 V
107 -651 V
106 -624 V
107 403 V
107 211 V
106 688 V
4280 1070 L
107 626 V
106 161 V
107 1041 V
107 443 V
4813 1318 L
107 676 V
107 -589 V
106 -212 V
107 764 V
107 810 V
106 -673 V
5560 969 L
107 2477 V
5773 2393 L
5880 1198 L
107 93 V
107 319 V
106 176 V
107 -46 V
107 144 V
106 -286 V
107 550 V
107 1605 V
106 -412 V
6947 1701 L
% End plot #12
% Begin plot #13
stroke
LTb
0.94 0.89 0.26 C /Helvetica findfont 140 scalefont setfont
LCb setrgbcolor
6296 3058 M
('bunny_368912bps') Rshow
1.000 UL
LTb
0.94 0.89 0.26 C 6380 3058 M
399 0 V
759 2010 M
866 1867 L
973 1460 L
106 440 V
107 400 V
107 -538 V
106 -28 V
107 663 V
107 77 V
1720 1311 L
106 74 V
107 506 V
107 -190 V
106 360 V
107 -213 V
107 -92 V
106 381 V
107 -889 V
107 1166 V
106 -568 V
107 -439 V
107 1069 V
106 -419 V
107 -862 V
107 908 V
106 -194 V
107 -457 V
107 1257 V
3747 1533 L
106 56 V
107 52 V
107 270 V
106 162 V
107 -538 V
107 229 V
106 95 V
107 675 V
107 -5 V
4813 1372 L
107 438 V
107 -479 V
106 381 V
107 107 V
107 457 V
106 -462 V
107 -239 V
107 591 V
106 375 V
5880 1483 L
107 -297 V
107 580 V
106 63 V
107 -26 V
107 -8 V
106 18 V
107 141 V
107 654 V
106 363 V
6947 1752 L
% End plot #13
% Begin plot #14
stroke
LTb
0.00 0.45 0.70 C /Helvetica findfont 140 scalefont setfont
LCb setrgbcolor
6296 2918 M
('bunny_3792491bps') Rshow
1.000 UL
LTb
0.00 0.45 0.70 C 6380 2918 M
399 0 V
759 2052 M
866 1544 L
107 244 V
106 513 V
107 -178 V
107 137 V
1399 1133 L
107 3037 V
1613 2213 L
107 -721 V
106 -358 V
107 924 V
107 -248 V
106 88 V
107 229 V
107 -579 V
106 792 V
2573 1109 L
107 1104 V
106 72 V
107 -996 V
107 763 V
106 756 V
3213 909 L
107 1568 V
106 -584 V
107 -669 V
107 1472 V
107 -754 V
106 -784 V
107 851 V
107 -140 V
106 822 V
4280 991 L
107 614 V
106 224 V
107 1474 V
107 279 V
4813 1283 L
107 772 V
107 -650 V
106 -371 V
107 1006 V
107 791 V
106 -511 V
5560 854 L
107 3225 V
5773 2393 L
5880 1173 L
107 109 V
107 378 V
106 34 V
107 71 V
107 167 V
106 -531 V
107 1037 V
107 1432 V
106 -529 V
6947 1701 L
% End plot #14
% Begin plot #15
stroke
LTb
0.90 0.12 0.06 C /Helvetica findfont 140 scalefont setfont
LCb setrgbcolor
6296 2778 M
('bunny_45373bps') Rshow
1.000 UL
LTb
0.90 0.12 0.06 C 6380 2778 M
399 0 V
759 1783 M
107 55 V
973 1707 L
106 185 V
107 -54 V
107 -55 V
106 55 V
107 -107 V
107 193 V
107 -114 V
106 -105 V
107 160 V
107 -55 V
106 118 V
107 -118 V
107 -109 V
106 109 V
107 -27 V
107 112 V
106 -165 V
107 28 V
107 194 V
106 -113 V
107 -136 V
107 192 V
106 -139 V
107 2 V
107 166 V
107 -141 V
106 215 V
107 -379 V
107 219 V
106 -107 V
107 163 V
107 -111 V
106 0 V
107 55 V
107 59 V
106 -219 V
107 413 V
107 -341 V
106 -76 V
107 136 V
107 118 V
106 -174 V
107 146 V
107 -119 V
106 -54 V
107 172 V
107 -293 V
107 204 V
106 81 V
107 -81 V
107 0 V
106 -76 V
107 102 V
107 -26 V
106 351 V
107 52 V
% End plot #15
% Begin plot #16
stroke
LTb
0.00 0.00 0.00 C /Helvetica findfont 140 scalefont setfont
LCb setrgbcolor
6296 2638 M
('bunny_503270bps') Rshow
1.000 UL
LTb
0.00 0.00 0.00 C 6380 2638 M
399 0 V
759 1789 M
107 157 V
973 1580 L
106 246 V
107 287 V
107 -341 V
106 54 V
107 292 V
107 -19 V
107 -698 V
106 213 V
107 162 V
107 -61 V
106 296 V
107 -107 V
107 -182 V
106 415 V
107 -679 V
107 687 V
106 -414 V
107 -157 V
107 718 V
106 -544 V
107 -230 V
107 488 V
106 -257 V
107 -82 V
107 399 V
107 -309 V
106 33 V
107 -120 V
107 194 V
106 84 V
107 -270 V
107 42 V
106 157 V
107 221 V
107 304 V
106 -988 V
107 385 V
107 -258 V
106 260 V
107 -4 V
107 262 V
106 -208 V
107 -132 V
107 149 V
106 363 V
107 -809 V
107 195 V
107 211 V
106 -15 V
107 20 V
107 -95 V
106 70 V
107 9 V
107 205 V
106 726 V
107 -961 V
% End plot #16
% Begin plot #17
stroke
LTb
0.58 0.00 0.83 C /Helvetica findfont 140 scalefont setfont
LCb setrgbcolor
6296 2498 M
('bunny_568500bps') Rshow
1.000 UL
LTb
0.58 0.00 0.83 C 6380 2498 M
399 0 V
759 1856 M
107 74 V
973 1553 L
106 265 V
107 378 V
107 -458 V
106 81 V
107 421 V
107 -49 V
107 -835 V
106 166 V
107 270 V
107 -130 V
106 380 V
107 -85 V
107 -224 V
106 409 V
107 -746 V
107 848 V
106 -499 V
107 -220 V
107 786 V
106 -444 V
107 -466 V
107 632 V
106 -254 V
107 -178 V
107 569 V
107 -436 V
106 -15 V
107 -28 V
107 199 V
106 64 V
107 -319 V
107 107 V
106 107 V
107 350 V
107 293 V
4813 1424 L
107 345 V
107 -336 V
106 381 V
107 -2 V
107 341 V
106 -323 V
107 -177 V
107 296 V
106 375 V
107 -945 V
107 157 V
107 297 V
106 -19 V
107 23 V
107 -102 V
106 72 V
107 18 V
107 378 V
106 655 V
6947 1787 L
% End plot #17
% Begin plot #18
stroke
LTb
0.00 0.62 0.45 C /Helvetica findfont 140 scalefont setfont
LCb setrgbcolor
6296 2358 M
('bunny_771359bps') Rshow
1.000 UL
LTb
0.00 0.62 0.45 C 6380 2358 M
399 0 V
759 1746 M
107 205 V
973 1682 L
106 128 V
107 128 V
107 -149 V
106 2 V
107 335 V
107 -185 V
107 -431 V
106 191 V
107 63 V
107 46 V
106 46 V
107 5 V
107 -73 V
106 301 V
107 -574 V
107 576 V
106 -381 V
107 -47 V
107 483 V
106 -472 V
107 -17 V
107 295 V
106 -187 V
107 -42 V
107 138 V
107 38 V
106 -100 V
107 -108 V
107 119 V
106 168 V
107 -319 V
107 151 V
106 0 V
107 184 V
107 233 V
106 -682 V
107 276 V
107 -251 V
106 240 V
107 0 V
107 217 V
106 -218 V
107 -26 V
107 -63 V
106 427 V
107 -587 V
107 143 V
107 107 V
106 0 V
107 0 V
107 0 V
106 0 V
107 -139 V
107 292 V
106 675 V
107 -837 V
% End plot #18
% Begin plot #19
stroke
LTb
0.34 0.71 0.91 C /Helvetica findfont 140 scalefont setfont
LCb setrgbcolor
6296 2218 M
('bunny_88482bps') Rshow
1.000 UL
LTb
0.34 0.71 0.91 C 6380 2218 M
399 0 V
759 1730 M
107 210 V
973 1643 L
106 263 V
107 -9 V
107 -142 V
106 113 V
107 -58 V
107 160 V
107 -277 V
106 -5 V
107 164 V
107 -55 V
106 71 V
107 33 V
107 -229 V
106 166 V
107 -120 V
107 253 V
106 -203 V
107 -87 V
107 480 V
106 -495 V
107 62 V
107 169 V
106 -169 V
107 69 V
107 130 V
107 -87 V
106 99 V
107 -337 V
107 181 V
106 27 V
107 14 V
107 -14 V
106 -27 V
107 226 V
107 50 V
106 -614 V
107 564 V
107 -272 V
106 -47 V
107 134 V
107 87 V
106 -156 V
107 144 V
107 -27 V
106 147 V
107 -432 V
107 29 V
107 181 V
106 53 V
107 1 V
107 -54 V
106 -13 V
107 -12 V
107 134 V
106 367 V
107 -261 V
% End plot #19
% Begin plot #20
stroke
LTb
0.90 0.62 0.00 C /Helvetica findfont 140 scalefont setfont
LCb setrgbcolor
6296 2078 M
('bunny_987061bps') Rshow
1.000 UL
LTb
0.90 0.62 0.00 C 6380 2078 M
399 0 V
759 1938 M
107 11 V
973 1482 L
106 328 V
107 418 V
107 -545 V
106 127 V
107 488 V
107 -214 V
107 -730 V
106 329 V
107 10 V
107 8 V
106 364 V
107 -116 V
107 -266 V
106 433 V
107 -659 V
107 812 V
106 -598 V
107 -96 V
107 694 V
106 -459 V
107 -353 V
107 632 V
106 -406 V
107 10 V
107 245 V
107 -128 V
106 0 V
107 -117 V
107 245 V
106 11 V
107 -374 V
107 235 V
106 0 V
107 279 V
107 322 V
106 -922 V
107 321 V
107 -353 V
106 353 V
107 0 V
107 459 V
106 -598 V
107 12 V
107 266 V
106 191 V
107 -706 V
107 158 V
107 336 V
106 -118 V
107 0 V
107 -109 V
106 109 V
107 0 V
107 255 V
106 1014 V
6947 1688 L
% End plot #20
stroke
2.000 UL
LTb
LCb setrgbcolor
1.000 UL
LTB
LCb setrgbcolor
546 4871 N
546 280 L
6401 0 V
0 4591 V
-6401 0 V
Z stroke
1.000 UP
1.000 UL
LTb
LCb setrgbcolor
stroke
grestore
end
showpage
%%Trailer
%%DocumentFonts: Helvetica
