%!PS-Adobe-2.0 EPSF-2.0
%%Title: 10perc.eps
%%Creator: gnuplot 5.0 patchlevel 5
%%CreationDate: Wed Mar  8 18:20:04 2017
%%DocumentFonts: (atend)
%%BoundingBox: 50 50 410 302
%%EndComments
%%BeginProlog
/gnudict 256 dict def
gnudict begin
%
% The following true/false flags may be edited by hand if desired.
% The unit line width and grayscale image gamma correction may also be changed.
%
/Color true def
/Blacktext false def
/Solid false def
/Dashlength 1 def
/Landscape false def
/Level1 false def
/Level3 false def
/Rounded false def
/ClipToBoundingBox false def
/SuppressPDFMark false def
/TransparentPatterns false def
/gnulinewidth 5.000 def
/userlinewidth gnulinewidth def
/Gamma 1.0 def
/BackgroundColor {-1.000 -1.000 -1.000} def
%
/vshift -46 def
/dl1 {
  10.0 Dashlength userlinewidth gnulinewidth div mul mul mul
  Rounded { currentlinewidth 0.75 mul sub dup 0 le { pop 0.01 } if } if
} def
/dl2 {
  10.0 Dashlength userlinewidth gnulinewidth div mul mul mul
  Rounded { currentlinewidth 0.75 mul add } if
} def
/hpt_ 31.5 def
/vpt_ 31.5 def
/hpt hpt_ def
/vpt vpt_ def
/doclip {
  ClipToBoundingBox {
    newpath 50 50 moveto 410 50 lineto 410 302 lineto 50 302 lineto closepath
    clip
  } if
} def
%
% Gnuplot Prolog Version 5.1 (Oct 2015)
%
%/SuppressPDFMark true def
%
/M {moveto} bind def
/L {lineto} bind def
/R {rmoveto} bind def
/V {rlineto} bind def
/N {newpath moveto} bind def
/Z {closepath} bind def
/C {setrgbcolor} bind def
/f {rlineto fill} bind def
/g {setgray} bind def
/Gshow {show} def   % May be redefined later in the file to support UTF-8
/vpt2 vpt 2 mul def
/hpt2 hpt 2 mul def
/Lshow {currentpoint stroke M 0 vshift R 
	Blacktext {gsave 0 setgray textshow grestore} {textshow} ifelse} def
/Rshow {currentpoint stroke M dup stringwidth pop neg vshift R
	Blacktext {gsave 0 setgray textshow grestore} {textshow} ifelse} def
/Cshow {currentpoint stroke M dup stringwidth pop -2 div vshift R 
	Blacktext {gsave 0 setgray textshow grestore} {textshow} ifelse} def
/UP {dup vpt_ mul /vpt exch def hpt_ mul /hpt exch def
  /hpt2 hpt 2 mul def /vpt2 vpt 2 mul def} def
/DL {Color {setrgbcolor Solid {pop []} if 0 setdash}
 {pop pop pop 0 setgray Solid {pop []} if 0 setdash} ifelse} def
/BL {stroke userlinewidth 2 mul setlinewidth
	Rounded {1 setlinejoin 1 setlinecap} if} def
/AL {stroke userlinewidth 2 div setlinewidth
	Rounded {1 setlinejoin 1 setlinecap} if} def
/UL {dup gnulinewidth mul /userlinewidth exch def
	dup 1 lt {pop 1} if 10 mul /udl exch def} def
/PL {stroke userlinewidth setlinewidth
	Rounded {1 setlinejoin 1 setlinecap} if} def
3.8 setmiterlimit
% Classic Line colors (version 5.0)
/LCw {1 1 1} def
/LCb {0 0 0} def
/LCa {0 0 0} def
/LC0 {1 0 0} def
/LC1 {0 1 0} def
/LC2 {0 0 1} def
/LC3 {1 0 1} def
/LC4 {0 1 1} def
/LC5 {1 1 0} def
/LC6 {0 0 0} def
/LC7 {1 0.3 0} def
/LC8 {0.5 0.5 0.5} def
% Default dash patterns (version 5.0)
/LTB {BL [] LCb DL} def
/LTw {PL [] 1 setgray} def
/LTb {PL [] LCb DL} def
/LTa {AL [1 udl mul 2 udl mul] 0 setdash LCa setrgbcolor} def
/LT0 {PL [] LC0 DL} def
/LT1 {PL [2 dl1 3 dl2] LC1 DL} def
/LT2 {PL [1 dl1 1.5 dl2] LC2 DL} def
/LT3 {PL [6 dl1 2 dl2 1 dl1 2 dl2] LC3 DL} def
/LT4 {PL [1 dl1 2 dl2 6 dl1 2 dl2 1 dl1 2 dl2] LC4 DL} def
/LT5 {PL [4 dl1 2 dl2] LC5 DL} def
/LT6 {PL [1.5 dl1 1.5 dl2 1.5 dl1 1.5 dl2 1.5 dl1 6 dl2] LC6 DL} def
/LT7 {PL [3 dl1 3 dl2 1 dl1 3 dl2] LC7 DL} def
/LT8 {PL [2 dl1 2 dl2 2 dl1 6 dl2] LC8 DL} def
/SL {[] 0 setdash} def
/Pnt {stroke [] 0 setdash gsave 1 setlinecap M 0 0 V stroke grestore} def
/Dia {stroke [] 0 setdash 2 copy vpt add M
  hpt neg vpt neg V hpt vpt neg V
  hpt vpt V hpt neg vpt V closepath stroke
  Pnt} def
/Pls {stroke [] 0 setdash vpt sub M 0 vpt2 V
  currentpoint stroke M
  hpt neg vpt neg R hpt2 0 V stroke
 } def
/Box {stroke [] 0 setdash 2 copy exch hpt sub exch vpt add M
  0 vpt2 neg V hpt2 0 V 0 vpt2 V
  hpt2 neg 0 V closepath stroke
  Pnt} def
/Crs {stroke [] 0 setdash exch hpt sub exch vpt add M
  hpt2 vpt2 neg V currentpoint stroke M
  hpt2 neg 0 R hpt2 vpt2 V stroke} def
/TriU {stroke [] 0 setdash 2 copy vpt 1.12 mul add M
  hpt neg vpt -1.62 mul V
  hpt 2 mul 0 V
  hpt neg vpt 1.62 mul V closepath stroke
  Pnt} def
/Star {2 copy Pls Crs} def
/BoxF {stroke [] 0 setdash exch hpt sub exch vpt add M
  0 vpt2 neg V hpt2 0 V 0 vpt2 V
  hpt2 neg 0 V closepath fill} def
/TriUF {stroke [] 0 setdash vpt 1.12 mul add M
  hpt neg vpt -1.62 mul V
  hpt 2 mul 0 V
  hpt neg vpt 1.62 mul V closepath fill} def
/TriD {stroke [] 0 setdash 2 copy vpt 1.12 mul sub M
  hpt neg vpt 1.62 mul V
  hpt 2 mul 0 V
  hpt neg vpt -1.62 mul V closepath stroke
  Pnt} def
/TriDF {stroke [] 0 setdash vpt 1.12 mul sub M
  hpt neg vpt 1.62 mul V
  hpt 2 mul 0 V
  hpt neg vpt -1.62 mul V closepath fill} def
/DiaF {stroke [] 0 setdash vpt add M
  hpt neg vpt neg V hpt vpt neg V
  hpt vpt V hpt neg vpt V closepath fill} def
/Pent {stroke [] 0 setdash 2 copy gsave
  translate 0 hpt M 4 {72 rotate 0 hpt L} repeat
  closepath stroke grestore Pnt} def
/PentF {stroke [] 0 setdash gsave
  translate 0 hpt M 4 {72 rotate 0 hpt L} repeat
  closepath fill grestore} def
/Circle {stroke [] 0 setdash 2 copy
  hpt 0 360 arc stroke Pnt} def
/CircleF {stroke [] 0 setdash hpt 0 360 arc fill} def
/C0 {BL [] 0 setdash 2 copy moveto vpt 90 450 arc} bind def
/C1 {BL [] 0 setdash 2 copy moveto
	2 copy vpt 0 90 arc closepath fill
	vpt 0 360 arc closepath} bind def
/C2 {BL [] 0 setdash 2 copy moveto
	2 copy vpt 90 180 arc closepath fill
	vpt 0 360 arc closepath} bind def
/C3 {BL [] 0 setdash 2 copy moveto
	2 copy vpt 0 180 arc closepath fill
	vpt 0 360 arc closepath} bind def
/C4 {BL [] 0 setdash 2 copy moveto
	2 copy vpt 180 270 arc closepath fill
	vpt 0 360 arc closepath} bind def
/C5 {BL [] 0 setdash 2 copy moveto
	2 copy vpt 0 90 arc
	2 copy moveto
	2 copy vpt 180 270 arc closepath fill
	vpt 0 360 arc} bind def
/C6 {BL [] 0 setdash 2 copy moveto
	2 copy vpt 90 270 arc closepath fill
	vpt 0 360 arc closepath} bind def
/C7 {BL [] 0 setdash 2 copy moveto
	2 copy vpt 0 270 arc closepath fill
	vpt 0 360 arc closepath} bind def
/C8 {BL [] 0 setdash 2 copy moveto
	2 copy vpt 270 360 arc closepath fill
	vpt 0 360 arc closepath} bind def
/C9 {BL [] 0 setdash 2 copy moveto
	2 copy vpt 270 450 arc closepath fill
	vpt 0 360 arc closepath} bind def
/C10 {BL [] 0 setdash 2 copy 2 copy moveto vpt 270 360 arc closepath fill
	2 copy moveto
	2 copy vpt 90 180 arc closepath fill
	vpt 0 360 arc closepath} bind def
/C11 {BL [] 0 setdash 2 copy moveto
	2 copy vpt 0 180 arc closepath fill
	2 copy moveto
	2 copy vpt 270 360 arc closepath fill
	vpt 0 360 arc closepath} bind def
/C12 {BL [] 0 setdash 2 copy moveto
	2 copy vpt 180 360 arc closepath fill
	vpt 0 360 arc closepath} bind def
/C13 {BL [] 0 setdash 2 copy moveto
	2 copy vpt 0 90 arc closepath fill
	2 copy moveto
	2 copy vpt 180 360 arc closepath fill
	vpt 0 360 arc closepath} bind def
/C14 {BL [] 0 setdash 2 copy moveto
	2 copy vpt 90 360 arc closepath fill
	vpt 0 360 arc} bind def
/C15 {BL [] 0 setdash 2 copy vpt 0 360 arc closepath fill
	vpt 0 360 arc closepath} bind def
/Rec {newpath 4 2 roll moveto 1 index 0 rlineto 0 exch rlineto
	neg 0 rlineto closepath} bind def
/Square {dup Rec} bind def
/Bsquare {vpt sub exch vpt sub exch vpt2 Square} bind def
/S0 {BL [] 0 setdash 2 copy moveto 0 vpt rlineto BL Bsquare} bind def
/S1 {BL [] 0 setdash 2 copy vpt Square fill Bsquare} bind def
/S2 {BL [] 0 setdash 2 copy exch vpt sub exch vpt Square fill Bsquare} bind def
/S3 {BL [] 0 setdash 2 copy exch vpt sub exch vpt2 vpt Rec fill Bsquare} bind def
/S4 {BL [] 0 setdash 2 copy exch vpt sub exch vpt sub vpt Square fill Bsquare} bind def
/S5 {BL [] 0 setdash 2 copy 2 copy vpt Square fill
	exch vpt sub exch vpt sub vpt Square fill Bsquare} bind def
/S6 {BL [] 0 setdash 2 copy exch vpt sub exch vpt sub vpt vpt2 Rec fill Bsquare} bind def
/S7 {BL [] 0 setdash 2 copy exch vpt sub exch vpt sub vpt vpt2 Rec fill
	2 copy vpt Square fill Bsquare} bind def
/S8 {BL [] 0 setdash 2 copy vpt sub vpt Square fill Bsquare} bind def
/S9 {BL [] 0 setdash 2 copy vpt sub vpt vpt2 Rec fill Bsquare} bind def
/S10 {BL [] 0 setdash 2 copy vpt sub vpt Square fill 2 copy exch vpt sub exch vpt Square fill
	Bsquare} bind def
/S11 {BL [] 0 setdash 2 copy vpt sub vpt Square fill 2 copy exch vpt sub exch vpt2 vpt Rec fill
	Bsquare} bind def
/S12 {BL [] 0 setdash 2 copy exch vpt sub exch vpt sub vpt2 vpt Rec fill Bsquare} bind def
/S13 {BL [] 0 setdash 2 copy exch vpt sub exch vpt sub vpt2 vpt Rec fill
	2 copy vpt Square fill Bsquare} bind def
/S14 {BL [] 0 setdash 2 copy exch vpt sub exch vpt sub vpt2 vpt Rec fill
	2 copy exch vpt sub exch vpt Square fill Bsquare} bind def
/S15 {BL [] 0 setdash 2 copy Bsquare fill Bsquare} bind def
/D0 {gsave translate 45 rotate 0 0 S0 stroke grestore} bind def
/D1 {gsave translate 45 rotate 0 0 S1 stroke grestore} bind def
/D2 {gsave translate 45 rotate 0 0 S2 stroke grestore} bind def
/D3 {gsave translate 45 rotate 0 0 S3 stroke grestore} bind def
/D4 {gsave translate 45 rotate 0 0 S4 stroke grestore} bind def
/D5 {gsave translate 45 rotate 0 0 S5 stroke grestore} bind def
/D6 {gsave translate 45 rotate 0 0 S6 stroke grestore} bind def
/D7 {gsave translate 45 rotate 0 0 S7 stroke grestore} bind def
/D8 {gsave translate 45 rotate 0 0 S8 stroke grestore} bind def
/D9 {gsave translate 45 rotate 0 0 S9 stroke grestore} bind def
/D10 {gsave translate 45 rotate 0 0 S10 stroke grestore} bind def
/D11 {gsave translate 45 rotate 0 0 S11 stroke grestore} bind def
/D12 {gsave translate 45 rotate 0 0 S12 stroke grestore} bind def
/D13 {gsave translate 45 rotate 0 0 S13 stroke grestore} bind def
/D14 {gsave translate 45 rotate 0 0 S14 stroke grestore} bind def
/D15 {gsave translate 45 rotate 0 0 S15 stroke grestore} bind def
/DiaE {stroke [] 0 setdash vpt add M
  hpt neg vpt neg V hpt vpt neg V
  hpt vpt V hpt neg vpt V closepath stroke} def
/BoxE {stroke [] 0 setdash exch hpt sub exch vpt add M
  0 vpt2 neg V hpt2 0 V 0 vpt2 V
  hpt2 neg 0 V closepath stroke} def
/TriUE {stroke [] 0 setdash vpt 1.12 mul add M
  hpt neg vpt -1.62 mul V
  hpt 2 mul 0 V
  hpt neg vpt 1.62 mul V closepath stroke} def
/TriDE {stroke [] 0 setdash vpt 1.12 mul sub M
  hpt neg vpt 1.62 mul V
  hpt 2 mul 0 V
  hpt neg vpt -1.62 mul V closepath stroke} def
/PentE {stroke [] 0 setdash gsave
  translate 0 hpt M 4 {72 rotate 0 hpt L} repeat
  closepath stroke grestore} def
/CircE {stroke [] 0 setdash 
  hpt 0 360 arc stroke} def
/Opaque {gsave closepath 1 setgray fill grestore 0 setgray closepath} def
/DiaW {stroke [] 0 setdash vpt add M
  hpt neg vpt neg V hpt vpt neg V
  hpt vpt V hpt neg vpt V Opaque stroke} def
/BoxW {stroke [] 0 setdash exch hpt sub exch vpt add M
  0 vpt2 neg V hpt2 0 V 0 vpt2 V
  hpt2 neg 0 V Opaque stroke} def
/TriUW {stroke [] 0 setdash vpt 1.12 mul add M
  hpt neg vpt -1.62 mul V
  hpt 2 mul 0 V
  hpt neg vpt 1.62 mul V Opaque stroke} def
/TriDW {stroke [] 0 setdash vpt 1.12 mul sub M
  hpt neg vpt 1.62 mul V
  hpt 2 mul 0 V
  hpt neg vpt -1.62 mul V Opaque stroke} def
/PentW {stroke [] 0 setdash gsave
  translate 0 hpt M 4 {72 rotate 0 hpt L} repeat
  Opaque stroke grestore} def
/CircW {stroke [] 0 setdash 
  hpt 0 360 arc Opaque stroke} def
/BoxFill {gsave Rec 1 setgray fill grestore} def
/Density {
  /Fillden exch def
  currentrgbcolor
  /ColB exch def /ColG exch def /ColR exch def
  /ColR ColR Fillden mul Fillden sub 1 add def
  /ColG ColG Fillden mul Fillden sub 1 add def
  /ColB ColB Fillden mul Fillden sub 1 add def
  ColR ColG ColB setrgbcolor} def
/BoxColFill {gsave Rec PolyFill} def
/PolyFill {gsave Density fill grestore grestore} def
/h {rlineto rlineto rlineto gsave closepath fill grestore} bind def
%
% PostScript Level 1 Pattern Fill routine for rectangles
% Usage: x y w h s a XX PatternFill
%	x,y = lower left corner of box to be filled
%	w,h = width and height of box
%	  a = angle in degrees between lines and x-axis
%	 XX = 0/1 for no/yes cross-hatch
%
/PatternFill {gsave /PFa [ 9 2 roll ] def
  PFa 0 get PFa 2 get 2 div add PFa 1 get PFa 3 get 2 div add translate
  PFa 2 get -2 div PFa 3 get -2 div PFa 2 get PFa 3 get Rec
  TransparentPatterns {} {gsave 1 setgray fill grestore} ifelse
  clip
  currentlinewidth 0.5 mul setlinewidth
  /PFs PFa 2 get dup mul PFa 3 get dup mul add sqrt def
  0 0 M PFa 5 get rotate PFs -2 div dup translate
  0 1 PFs PFa 4 get div 1 add floor cvi
	{PFa 4 get mul 0 M 0 PFs V} for
  0 PFa 6 get ne {
	0 1 PFs PFa 4 get div 1 add floor cvi
	{PFa 4 get mul 0 2 1 roll M PFs 0 V} for
 } if
  stroke grestore} def
%
/languagelevel where
 {pop languagelevel} {1} ifelse
dup 2 lt
	{/InterpretLevel1 true def
	 /InterpretLevel3 false def}
	{/InterpretLevel1 Level1 def
	 2 gt
	    {/InterpretLevel3 Level3 def}
	    {/InterpretLevel3 false def}
	 ifelse }
 ifelse
%
% PostScript level 2 pattern fill definitions
%
/Level2PatternFill {
/Tile8x8 {/PaintType 2 /PatternType 1 /TilingType 1 /BBox [0 0 8 8] /XStep 8 /YStep 8}
	bind def
/KeepColor {currentrgbcolor [/Pattern /DeviceRGB] setcolorspace} bind def
<< Tile8x8
 /PaintProc {0.5 setlinewidth pop 0 0 M 8 8 L 0 8 M 8 0 L stroke} 
>> matrix makepattern
/Pat1 exch def
<< Tile8x8
 /PaintProc {0.5 setlinewidth pop 0 0 M 8 8 L 0 8 M 8 0 L stroke
	0 4 M 4 8 L 8 4 L 4 0 L 0 4 L stroke}
>> matrix makepattern
/Pat2 exch def
<< Tile8x8
 /PaintProc {0.5 setlinewidth pop 0 0 M 0 8 L
	8 8 L 8 0 L 0 0 L fill}
>> matrix makepattern
/Pat3 exch def
<< Tile8x8
 /PaintProc {0.5 setlinewidth pop -4 8 M 8 -4 L
	0 12 M 12 0 L stroke}
>> matrix makepattern
/Pat4 exch def
<< Tile8x8
 /PaintProc {0.5 setlinewidth pop -4 0 M 8 12 L
	0 -4 M 12 8 L stroke}
>> matrix makepattern
/Pat5 exch def
<< Tile8x8
 /PaintProc {0.5 setlinewidth pop -2 8 M 4 -4 L
	0 12 M 8 -4 L 4 12 M 10 0 L stroke}
>> matrix makepattern
/Pat6 exch def
<< Tile8x8
 /PaintProc {0.5 setlinewidth pop -2 0 M 4 12 L
	0 -4 M 8 12 L 4 -4 M 10 8 L stroke}
>> matrix makepattern
/Pat7 exch def
<< Tile8x8
 /PaintProc {0.5 setlinewidth pop 8 -2 M -4 4 L
	12 0 M -4 8 L 12 4 M 0 10 L stroke}
>> matrix makepattern
/Pat8 exch def
<< Tile8x8
 /PaintProc {0.5 setlinewidth pop 0 -2 M 12 4 L
	-4 0 M 12 8 L -4 4 M 8 10 L stroke}
>> matrix makepattern
/Pat9 exch def
/Pattern1 {PatternBgnd KeepColor Pat1 setpattern} bind def
/Pattern2 {PatternBgnd KeepColor Pat2 setpattern} bind def
/Pattern3 {PatternBgnd KeepColor Pat3 setpattern} bind def
/Pattern4 {PatternBgnd KeepColor Landscape {Pat5} {Pat4} ifelse setpattern} bind def
/Pattern5 {PatternBgnd KeepColor Landscape {Pat4} {Pat5} ifelse setpattern} bind def
/Pattern6 {PatternBgnd KeepColor Landscape {Pat9} {Pat6} ifelse setpattern} bind def
/Pattern7 {PatternBgnd KeepColor Landscape {Pat8} {Pat7} ifelse setpattern} bind def
} def
%
%
%End of PostScript Level 2 code
%
/PatternBgnd {
  TransparentPatterns {} {gsave 1 setgray fill grestore} ifelse
} def
%
% Substitute for Level 2 pattern fill codes with
% grayscale if Level 2 support is not selected.
%
/Level1PatternFill {
/Pattern1 {0.250 Density} bind def
/Pattern2 {0.500 Density} bind def
/Pattern3 {0.750 Density} bind def
/Pattern4 {0.125 Density} bind def
/Pattern5 {0.375 Density} bind def
/Pattern6 {0.625 Density} bind def
/Pattern7 {0.875 Density} bind def
} def
%
% Now test for support of Level 2 code
%
Level1 {Level1PatternFill} {Level2PatternFill} ifelse
%
/Symbol-Oblique /Symbol findfont [1 0 .167 1 0 0] makefont
dup length dict begin {1 index /FID eq {pop pop} {def} ifelse} forall
currentdict end definefont pop
%
/MFshow {
   { dup 5 get 3 ge
     { 5 get 3 eq {gsave} {grestore} ifelse }
     {dup dup 0 get findfont exch 1 get scalefont setfont
     [ currentpoint ] exch dup 2 get 0 exch R dup 5 get 2 ne {dup dup 6
     get exch 4 get {textshow} {stringwidth pop 0 R} ifelse }if dup 5 get 0 eq
     {dup 3 get {2 get neg 0 exch R pop} {pop aload pop M} ifelse} {dup 5
     get 1 eq {dup 2 get exch dup 3 get exch 6 get stringwidth pop -2 div
     dup 0 R} {dup 6 get stringwidth pop -2 div 0 R 6 get
     textshow 2 index {aload pop M neg 3 -1 roll neg R pop pop} {pop pop pop
     pop aload pop M} ifelse }ifelse }ifelse }
     ifelse }
   forall} def
/Gswidth {dup type /stringtype eq {stringwidth} {pop (n) stringwidth} ifelse} def
/MFwidth {0 exch { dup 5 get 3 ge { 5 get 3 eq { 0 } { pop } ifelse }
 {dup 3 get{dup dup 0 get findfont exch 1 get scalefont setfont
     6 get Gswidth pop add} {pop} ifelse} ifelse} forall} def
/MLshow { currentpoint stroke M
  0 exch R
  Blacktext {gsave 0 setgray MFshow grestore} {MFshow} ifelse } bind def
/MRshow { currentpoint stroke M
  exch dup MFwidth neg 3 -1 roll R
  Blacktext {gsave 0 setgray MFshow grestore} {MFshow} ifelse } bind def
/MCshow { currentpoint stroke M
  exch dup MFwidth -2 div 3 -1 roll R
  Blacktext {gsave 0 setgray MFshow grestore} {MFshow} ifelse } bind def
/XYsave    { [( ) 1 2 true false 3 ()] } bind def
/XYrestore { [( ) 1 2 true false 4 ()] } bind def
Level1 SuppressPDFMark or 
{} {
/SDict 10 dict def
systemdict /pdfmark known not {
  userdict /pdfmark systemdict /cleartomark get put
} if
SDict begin [
  /Title (10perc.eps)
  /Subject (gnuplot plot)
  /Creator (gnuplot 5.0 patchlevel 5)
  /Author (lbedogni)
%  /Producer (gnuplot)
%  /Keywords ()
  /CreationDate (Wed Mar  8 18:20:04 2017)
  /DOCINFO pdfmark
end
} ifelse
%
% Support for boxed text - Ethan A Merritt May 2005
%
/InitTextBox { userdict /TBy2 3 -1 roll put userdict /TBx2 3 -1 roll put
           userdict /TBy1 3 -1 roll put userdict /TBx1 3 -1 roll put
	   /Boxing true def } def
/ExtendTextBox { Boxing
    { gsave dup false charpath pathbbox
      dup TBy2 gt {userdict /TBy2 3 -1 roll put} {pop} ifelse
      dup TBx2 gt {userdict /TBx2 3 -1 roll put} {pop} ifelse
      dup TBy1 lt {userdict /TBy1 3 -1 roll put} {pop} ifelse
      dup TBx1 lt {userdict /TBx1 3 -1 roll put} {pop} ifelse
      grestore } if } def
/PopTextBox { newpath TBx1 TBxmargin sub TBy1 TBymargin sub M
               TBx1 TBxmargin sub TBy2 TBymargin add L
	       TBx2 TBxmargin add TBy2 TBymargin add L
	       TBx2 TBxmargin add TBy1 TBymargin sub L closepath } def
/DrawTextBox { PopTextBox stroke /Boxing false def} def
/FillTextBox { gsave PopTextBox 1 1 1 setrgbcolor fill grestore /Boxing false def} def
0 0 0 0 InitTextBox
/TBxmargin 20 def
/TBymargin 20 def
/Boxing false def
/textshow { ExtendTextBox Gshow } def
%
% redundant definitions for compatibility with prologue.ps older than 5.0.2
/LTB {BL [] LCb DL} def
/LTb {PL [] LCb DL} def
end
%%EndProlog
%%Page: 1 1
gnudict begin
gsave
doclip
50 50 translate
0.050 0.050 scale
0 setgray
newpath
(Helvetica) findfont 140 scalefont setfont
BackgroundColor 0 lt 3 1 roll 0 lt exch 0 lt or or not {BackgroundColor C 1.000 0 0 7200.00 5040.00 BoxColFill} if
/Helvetica findfont 140 scalefont setfont
/vshift -46 def
/Helvetica findfont 140 scalefont setfont
/Helvetica findfont 140 scalefont setfont
/Helvetica findfont 140 scalefont setfont
/Helvetica findfont 140 scalefont setfont
/Helvetica findfont 140 scalefont setfont
/Helvetica findfont 140 scalefont setfont
/Helvetica findfont 140 scalefont setfont
/Helvetica findfont 140 scalefont setfont
/Helvetica findfont 140 scalefont setfont
/Helvetica findfont 140 scalefont setfont
/Helvetica findfont 140 scalefont setfont
/Helvetica findfont 140 scalefont setfont
/Helvetica findfont 140 scalefont setfont
/Helvetica findfont 140 scalefont setfont
/Helvetica findfont 140 scalefont setfont
/Helvetica findfont 140 scalefont setfont
/Helvetica findfont 140 scalefont setfont
/Helvetica findfont 140 scalefont setfont
/Helvetica findfont 140 scalefont setfont
1.000 UL
LTb
LCb setrgbcolor
546 280 M
63 0 V
6338 0 R
-63 0 V
stroke
462 280 M
[ [(Helvetica) 140.0 0.0 true true 0 ( 0.2)]
] -46.7 MRshow
1.000 UL
LTb
LCb setrgbcolor
546 790 M
63 0 V
6338 0 R
-63 0 V
stroke
462 790 M
[ [(Helvetica) 140.0 0.0 true true 0 ( 0.4)]
] -46.7 MRshow
1.000 UL
LTb
LCb setrgbcolor
546 1300 M
63 0 V
6338 0 R
-63 0 V
stroke
462 1300 M
[ [(Helvetica) 140.0 0.0 true true 0 ( 0.6)]
] -46.7 MRshow
1.000 UL
LTb
LCb setrgbcolor
546 1810 M
63 0 V
6338 0 R
-63 0 V
stroke
462 1810 M
[ [(Helvetica) 140.0 0.0 true true 0 ( 0.8)]
] -46.7 MRshow
1.000 UL
LTb
LCb setrgbcolor
546 2320 M
63 0 V
6338 0 R
-63 0 V
stroke
462 2320 M
[ [(Helvetica) 140.0 0.0 true true 0 ( 1)]
] -46.7 MRshow
1.000 UL
LTb
LCb setrgbcolor
546 2831 M
63 0 V
6338 0 R
-63 0 V
stroke
462 2831 M
[ [(Helvetica) 140.0 0.0 true true 0 ( 1.2)]
] -46.7 MRshow
1.000 UL
LTb
LCb setrgbcolor
546 3341 M
63 0 V
6338 0 R
-63 0 V
stroke
462 3341 M
[ [(Helvetica) 140.0 0.0 true true 0 ( 1.4)]
] -46.7 MRshow
1.000 UL
LTb
LCb setrgbcolor
546 3851 M
63 0 V
6338 0 R
-63 0 V
stroke
462 3851 M
[ [(Helvetica) 140.0 0.0 true true 0 ( 1.6)]
] -46.7 MRshow
1.000 UL
LTb
LCb setrgbcolor
546 4361 M
63 0 V
6338 0 R
-63 0 V
stroke
462 4361 M
[ [(Helvetica) 140.0 0.0 true true 0 ( 1.8)]
] -46.7 MRshow
1.000 UL
LTb
LCb setrgbcolor
546 4871 M
63 0 V
6338 0 R
-63 0 V
stroke
462 4871 M
[ [(Helvetica) 140.0 0.0 true true 0 ( 2)]
] -46.7 MRshow
1.000 UL
LTb
LCb setrgbcolor
546 280 M
0 63 V
0 4528 R
0 -63 V
stroke
546 140 M
[ [(Helvetica) 140.0 0.0 true true 0 ( 0)]
] -46.7 MCshow
1.000 UL
LTb
LCb setrgbcolor
1613 280 M
0 63 V
0 4528 R
0 -63 V
stroke
1613 140 M
[ [(Helvetica) 140.0 0.0 true true 0 ( 10)]
] -46.7 MCshow
1.000 UL
LTb
LCb setrgbcolor
2680 280 M
0 63 V
0 4528 R
0 -63 V
stroke
2680 140 M
[ [(Helvetica) 140.0 0.0 true true 0 ( 20)]
] -46.7 MCshow
1.000 UL
LTb
LCb setrgbcolor
3747 280 M
0 63 V
0 4528 R
0 -63 V
stroke
3747 140 M
[ [(Helvetica) 140.0 0.0 true true 0 ( 30)]
] -46.7 MCshow
1.000 UL
LTb
LCb setrgbcolor
4813 280 M
0 63 V
0 4528 R
0 -63 V
stroke
4813 140 M
[ [(Helvetica) 140.0 0.0 true true 0 ( 40)]
] -46.7 MCshow
1.000 UL
LTb
LCb setrgbcolor
5880 280 M
0 63 V
0 4528 R
0 -63 V
stroke
5880 140 M
[ [(Helvetica) 140.0 0.0 true true 0 ( 50)]
] -46.7 MCshow
1.000 UL
LTb
LCb setrgbcolor
6947 280 M
0 63 V
0 4528 R
0 -63 V
stroke
6947 140 M
[ [(Helvetica) 140.0 0.0 true true 0 ( 60)]
] -46.7 MCshow
1.000 UL
LTb
LCb setrgbcolor
1.000 UL
LTB
LCb setrgbcolor
546 4871 N
546 280 L
6401 0 V
0 4591 V
-6401 0 V
Z stroke
1.000 UP
1.000 UL
LTb
LCb setrgbcolor
% Begin plot #1
1.000 UL
LTb
0.58 0.00 0.83 C /Helvetica findfont 140 scalefont setfont
LCb setrgbcolor
6296 4738 M
('bunny_1174238bps' u 1:3) Rshow
1.000 UL
LTb
0.58 0.00 0.83 C 6380 4738 M
399 0 V
759 2550 M
866 2376 L
973 2203 L
106 521 V
107 0 V
107 -695 V
106 174 V
107 0 V
107 -695 V
107 -341 V
106 514 V
107 695 V
107 0 V
106 348 V
107 -348 V
107 -347 V
106 174 V
107 -522 V
107 869 V
106 -695 V
107 0 V
107 521 V
106 -521 V
107 -174 V
107 869 V
106 -347 V
107 0 V
107 347 V
107 -521 V
106 174 V
107 173 V
107 174 V
106 -174 V
107 -347 V
107 521 V
106 174 V
107 0 V
107 -695 V
106 -780 V
107 432 V
107 0 V
106 695 V
107 174 V
107 0 V
106 -695 V
107 0 V
107 521 V
106 -347 V
107 -521 V
107 521 V
107 695 V
106 0 V
107 0 V
107 -174 V
106 174 V
107 0 V
107 0 V
106 -695 V
6947 915 L
% End plot #1
% Begin plot #2
stroke
LTb
0.00 0.62 0.45 C /Helvetica findfont 140 scalefont setfont
LCb setrgbcolor
6296 4598 M
('bunny_127412bps' u 1:3) Rshow
1.000 UL
LTb
0.00 0.62 0.45 C 6380 4598 M
399 0 V
759 2380 M
107 -32 V
973 2188 L
106 448 V
107 -128 V
107 -448 V
106 144 V
107 -16 V
107 -256 V
107 -256 V
106 512 V
107 272 V
107 0 V
106 32 V
107 -320 V
107 -48 V
106 208 V
107 -272 V
107 480 V
106 -448 V
107 112 V
107 400 V
106 -672 V
107 160 V
107 320 V
106 -160 V
107 96 V
107 160 V
107 -512 V
106 208 V
107 -112 V
107 320 V
106 0 V
107 -80 V
107 32 V
106 64 V
107 48 V
107 -512 V
106 -513 V
107 753 V
107 -112 V
106 192 V
107 224 V
107 -48 V
106 -240 V
107 0 V
107 16 V
106 -160 V
107 -480 V
107 304 V
107 704 V
106 32 V
107 -64 V
107 -32 V
106 113 V
107 16 V
107 -129 V
106 -384 V
107 -625 V
% End plot #2
% Begin plot #3
stroke
LTb
0.34 0.71 0.91 C /Helvetica findfont 140 scalefont setfont
LCb setrgbcolor
6296 4458 M
('bunny_1431232bps' u 1:3) Rshow
1.000 UL
LTb
0.34 0.71 0.91 C 6380 4458 M
399 0 V
759 2764 M
866 2336 L
107 0 V
106 713 V
107 -285 V
107 -570 V
106 -143 V
107 285 V
107 -998 V
1720 992 L
106 489 V
107 855 V
107 -142 V
106 142 V
107 -142 V
107 -428 V
106 142 V
107 -427 V
107 1283 V
106 -856 V
107 -142 V
107 713 V
106 -713 V
107 -428 V
107 1426 V
106 -570 V
107 -143 V
107 713 V
107 -856 V
106 143 V
107 428 V
107 427 V
106 -285 V
107 -713 V
107 856 V
106 285 V
107 -143 V
107 -855 V
106 -970 V
107 542 V
107 -142 V
106 855 V
107 428 V
107 0 V
106 -998 V
107 -143 V
107 998 V
106 -855 V
107 -570 V
107 712 V
107 998 V
106 143 V
107 0 V
107 -143 V
106 143 V
107 0 V
107 142 V
6840 1766 L
6947 717 L
% End plot #3
% Begin plot #4
stroke
LTb
0.90 0.62 0.00 C /Helvetica findfont 140 scalefont setfont
LCb setrgbcolor
6296 4318 M
('bunny_176780bps' u 1:3) Rshow
1.000 UL
LTb
0.90 0.62 0.00 C 6380 4318 M
399 0 V
759 2286 M
107 150 V
973 2194 L
106 288 V
107 -34 V
107 -231 V
106 0 V
107 -35 V
107 -46 V
107 -185 V
106 254 V
107 162 V
107 11 V
106 35 V
107 -196 V
107 34 V
106 58 V
107 -127 V
107 243 V
106 -289 V
107 104 V
107 219 V
106 -473 V
107 242 V
107 150 V
106 -161 V
107 138 V
107 70 V
107 -197 V
106 0 V
107 -254 V
107 428 V
106 0 V
107 -104 V
107 -12 V
106 116 V
107 -70 V
107 -300 V
106 -265 V
107 346 V
107 -127 V
106 219 V
107 139 V
107 46 V
106 -104 V
107 -11 V
107 -220 V
106 81 V
107 -196 V
107 208 V
107 369 V
106 -35 V
107 -34 V
107 -12 V
106 -46 V
107 81 V
107 23 V
106 -162 V
107 -611 V
% End plot #4
% Begin plot #5
stroke
LTb
0.94 0.89 0.26 C /Helvetica findfont 140 scalefont setfont
LCb setrgbcolor
6296 4178 M
('bunny_2070985bps' u 1:3) Rshow
1.000 UL
LTb
0.94 0.89 0.26 C 6380 4178 M
399 0 V
759 2430 M
107 -98 V
973 2134 L
106 493 V
107 0 V
107 -493 V
106 198 V
107 -99 V
107 -690 V
107 -394 V
106 690 V
107 493 V
107 98 V
106 197 V
107 -295 V
107 -296 V
106 197 V
107 -493 V
107 789 V
106 -592 V
107 0 V
107 493 V
106 -591 V
107 0 V
107 591 V
106 -296 V
107 0 V
107 395 V
107 -296 V
106 0 V
107 0 V
107 296 V
106 -197 V
107 -198 V
107 395 V
106 98 V
107 -98 V
107 -296 V
106 -887 V
107 493 V
107 0 V
106 591 V
107 99 V
107 -99 V
106 -690 V
107 197 V
107 296 V
106 -197 V
107 -493 V
107 690 V
107 493 V
106 0 V
107 -99 V
107 -98 V
106 98 V
107 99 V
107 0 V
106 -592 V
6947 1051 L
% End plot #5
% Begin plot #6
stroke
LTb
0.00 0.45 0.70 C /Helvetica findfont 140 scalefont setfont
LCb setrgbcolor
6296 4038 M
('bunny_216536bps' u 1:3) Rshow
1.000 UL
LTb
0.00 0.45 0.70 C 6380 4038 M
399 0 V
759 2352 M
107 75 V
973 2210 L
106 349 V
107 -66 V
107 -320 V
106 37 V
107 -28 V
107 -217 V
107 -245 V
106 472 V
107 226 V
107 37 V
106 57 V
107 -302 V
107 -56 V
106 151 V
107 -245 V
107 414 V
106 -405 V
107 151 V
107 301 V
106 -593 V
107 254 V
107 226 V
106 -169 V
107 132 V
107 94 V
107 -377 V
106 104 V
107 -142 V
107 415 V
106 -66 V
107 -132 V
107 47 V
106 151 V
107 -66 V
107 -368 V
106 -499 V
107 575 V
107 -85 V
106 236 V
107 160 V
107 19 V
106 -161 V
107 -56 V
107 -123 V
106 10 V
107 -311 V
107 349 V
107 405 V
106 -10 V
107 -47 V
107 47 V
106 -9 V
107 9 V
107 10 V
106 -217 V
107 -735 V
% End plot #6
% Begin plot #7
stroke
LTb
0.90 0.12 0.06 C /Helvetica findfont 140 scalefont setfont
LCb setrgbcolor
6296 3898 M
('bunny_2384387bps' u 1:3) Rshow
1.000 UL
LTb
0.90 0.12 0.06 C 6380 3898 M
399 0 V
759 2594 M
866 2337 L
973 2166 L
106 599 V
107 -86 V
107 -599 V
106 172 V
107 0 V
107 -856 V
107 -342 V
106 599 V
107 684 V
107 0 V
106 342 V
107 -342 V
107 -342 V
106 171 V
107 -428 V
107 856 V
106 -685 V
107 -85 V
107 599 V
106 -599 V
107 -171 V
107 855 V
106 -342 V
107 0 V
107 428 V
107 -428 V
106 0 V
107 171 V
107 257 V
106 -171 V
107 -428 V
107 599 V
106 85 V
107 0 V
107 -427 V
4813 1225 L
107 513 V
107 -85 V
106 684 V
107 257 V
107 -86 V
106 -770 V
107 86 V
107 513 V
106 -428 V
107 -513 V
107 770 V
107 685 V
106 0 V
107 -172 V
107 0 V
106 86 V
107 0 V
107 86 V
106 -942 V
6947 882 L
% End plot #7
% Begin plot #8
stroke
LTb
0.00 0.00 0.00 C /Helvetica findfont 140 scalefont setfont
LCb setrgbcolor
6296 3758 M
('bunny_252988bps' u 1:3) Rshow
1.000 UL
LTb
0.00 0.00 0.00 C 6380 3758 M
399 0 V
759 2440 M
107 -57 V
973 2181 L
106 444 V
107 -56 V
107 -452 V
106 81 V
107 -41 V
107 -330 V
107 -307 V
106 613 V
107 339 V
107 0 V
106 129 V
107 -371 V
107 -153 V
106 233 V
107 -330 V
107 540 V
106 -508 V
107 153 V
107 452 V
106 -710 V
107 89 V
107 492 V
106 -250 V
107 121 V
107 145 V
107 -476 V
106 121 V
107 0 V
107 395 V
106 -96 V
107 -178 V
107 137 V
106 129 V
107 -56 V
107 -508 V
106 -597 V
107 669 V
107 -24 V
106 428 V
107 64 V
107 -8 V
106 -298 V
107 -8 V
107 -41 V
106 -56 V
107 -444 V
107 428 V
107 540 V
106 -16 V
107 -48 V
107 32 V
106 56 V
107 -40 V
107 24 V
106 -379 V
107 -879 V
% End plot #8
% Begin plot #9
stroke
LTb
0.58 0.00 0.83 C /Helvetica findfont 140 scalefont setfont
LCb setrgbcolor
6296 3618 M
('bunny_2884382bps' u 1:3) Rshow
1.000 UL
LTb
0.58 0.00 0.83 C 6380 3618 M
399 0 V
759 2882 M
866 2458 L
973 2317 L
106 778 V
107 -283 V
107 -566 V
106 -142 V
107 283 V
1613 1255 L
1720 902 L
106 566 V
107 778 V
107 -71 V
106 142 V
107 -142 V
107 -424 V
106 212 V
107 -425 V
107 1132 V
106 -778 V
107 -212 V
107 707 V
106 -566 V
107 -424 V
107 1273 V
106 -495 V
107 -141 V
107 848 V
107 -778 V
106 -141 V
107 566 V
107 353 V
106 -282 V
107 -708 V
107 990 V
106 142 V
107 -71 V
107 -778 V
4813 1043 L
107 495 V
107 -70 V
106 636 V
107 637 V
107 -141 V
106 -920 V
107 -71 V
107 991 V
106 -849 V
107 -566 V
107 778 V
107 1061 V
106 141 V
107 -141 V
107 -71 V
106 142 V
107 0 V
107 70 V
6840 1538 L
6947 690 L
% End plot #9
% Begin plot #10
stroke
LTb
0.00 0.62 0.45 C /Helvetica findfont 140 scalefont setfont
LCb setrgbcolor
6296 3478 M
('bunny_317328bps' u 1:3) Rshow
1.000 UL
LTb
0.00 0.62 0.45 C 6380 3478 M
399 0 V
759 2573 M
866 2374 L
973 2220 L
106 604 V
107 -116 V
107 -617 V
106 148 V
107 -32 V
107 -476 V
107 -495 V
106 669 V
107 611 V
107 -84 V
106 283 V
107 -457 V
107 -141 V
106 109 V
107 -379 V
107 791 V
106 -688 V
107 109 V
107 617 V
106 -836 V
107 -96 V
107 829 V
106 -347 V
107 7 V
107 424 V
107 -810 V
106 283 V
107 238 V
107 302 V
106 -148 V
107 -212 V
107 257 V
106 84 V
107 -26 V
107 -701 V
106 -707 V
107 604 V
107 32 V
106 765 V
107 39 V
107 -26 V
106 -514 V
107 32 V
107 109 V
106 -225 V
107 -630 V
107 412 V
107 1009 V
106 -45 V
107 -26 V
107 39 V
106 45 V
107 -6 V
107 -78 V
106 -739 V
107 -952 V
% End plot #10
% Begin plot #11
stroke
LTb
0.34 0.71 0.91 C /Helvetica findfont 140 scalefont setfont
LCb setrgbcolor
6296 3338 M
('bunny_3245900bps' u 1:3) Rshow
1.000 UL
LTb
0.34 0.71 0.91 C 6380 3338 M
399 0 V
759 3102 M
866 2473 L
107 63 V
106 691 V
107 -565 V
107 -315 V
106 -503 V
107 692 V
1613 1153 L
1720 839 L
106 440 V
107 880 V
107 -126 V
106 63 V
107 -189 V
107 -314 V
106 314 V
107 -566 V
107 1321 V
106 -755 V
107 -377 V
107 880 V
106 -691 V
107 -503 V
107 1508 V
106 -628 V
107 -189 V
107 1069 V
107 -943 V
106 -189 V
107 755 V
107 377 V
106 -314 V
107 -943 V
107 1383 V
106 188 V
107 0 V
4707 2096 L
4813 964 L
107 503 V
107 -188 V
106 628 V
107 1006 V
107 -251 V
5453 1656 L
107 -189 V
107 1509 V
5773 1593 L
107 -503 V
107 754 V
107 1132 V
106 440 V
107 -63 V
107 -63 V
106 189 V
107 63 V
107 -378 V
6840 1341 L
6947 587 L
% End plot #11
% Begin plot #12
stroke
LTb
0.90 0.62 0.00 C /Helvetica findfont 140 scalefont setfont
LCb setrgbcolor
6296 3198 M
('bunny_3493765bps' u 1:3) Rshow
1.000 UL
LTb
0.90 0.62 0.00 C 6380 3198 M
399 0 V
759 3274 M
866 2632 L
107 175 V
106 467 V
107 -701 V
107 -292 V
106 -525 V
107 934 V
1613 1113 L
1720 763 L
106 409 V
107 992 V
107 -233 V
106 0 V
107 -117 V
107 -350 V
106 350 V
107 -526 V
107 1227 V
106 -643 V
107 -408 V
107 817 V
106 -525 V
107 -643 V
107 1694 V
106 -818 V
107 -117 V
107 1168 V
3747 1931 L
106 -175 V
107 934 V
107 175 V
106 -233 V
107 -993 V
107 1752 V
106 292 V
107 -117 V
4707 1989 L
4813 880 L
107 525 V
107 -175 V
106 526 V
107 1343 V
107 -292 V
5453 1639 L
107 -292 V
107 1927 V
5773 1464 L
5880 996 L
107 818 V
107 1051 V
106 467 V
107 59 V
107 175 V
106 -175 V
107 584 V
107 -759 V
6840 1288 L
6947 529 L
% End plot #12
% Begin plot #13
stroke
LTb
0.94 0.89 0.26 C /Helvetica findfont 140 scalefont setfont
LCb setrgbcolor
6296 3058 M
('bunny_368912bps' u 1:3) Rshow
1.000 UL
LTb
0.94 0.89 0.26 C 6380 3058 M
399 0 V
759 2740 M
866 2397 L
107 -94 V
106 752 V
107 -182 V
107 -752 V
106 77 V
107 127 V
107 -708 V
107 -558 V
106 625 V
107 735 V
107 -133 V
106 194 V
107 -382 V
107 -55 V
106 83 V
107 -415 V
107 1129 V
106 -869 V
107 -50 V
107 769 V
106 -885 V
107 -282 V
107 1178 V
106 -470 V
107 -149 V
107 708 V
3747 1673 L
106 420 V
107 393 V
107 337 V
106 -188 V
107 -420 V
107 536 V
106 94 V
107 -94 V
107 -957 V
106 -647 V
107 553 V
107 0 V
106 880 V
107 193 V
107 -16 V
106 -697 V
107 -6 V
107 415 V
106 -509 V
107 -708 V
107 404 V
107 1300 V
106 94 V
107 -39 V
107 17 V
106 33 V
107 -6 V
107 -282 V
6840 1744 L
6947 893 L
% End plot #13
% Begin plot #14
stroke
LTb
0.00 0.45 0.70 C /Helvetica findfont 140 scalefont setfont
LCb setrgbcolor
6296 2918 M
('bunny_3792491bps' u 1:3) Rshow
1.000 UL
LTb
0.00 0.45 0.70 C 6380 2918 M
399 0 V
759 3321 M
866 2837 L
107 645 V
106 54 V
107 -915 V
107 -484 V
106 -538 V
107 1453 V
1613 1061 L
1720 792 L
106 269 V
107 1022 V
107 -322 V
106 0 V
107 -108 V
107 -323 V
106 323 V
107 -484 V
107 1183 V
106 -538 V
107 -484 V
107 807 V
106 -323 V
107 -807 V
107 1776 V
106 -915 V
107 -107 V
107 1237 V
3747 1814 L
106 -161 V
107 1399 V
107 -377 V
106 -107 V
4280 1545 L
107 2045 V
106 592 V
107 -54 V
4707 1976 L
4813 792 L
107 538 V
107 -215 V
106 484 V
107 1883 V
107 -484 V
5453 1707 L
107 -484 V
107 2421 V
5773 1330 L
5880 900 L
107 807 V
107 1022 V
106 323 V
107 269 V
107 107 V
106 -269 V
107 1238 V
6734 3052 L
6840 1169 L
6947 469 L
% End plot #14
% Begin plot #15
stroke
LTb
0.90 0.12 0.06 C /Helvetica findfont 140 scalefont setfont
LCb setrgbcolor
6296 2778 M
('bunny_45373bps' u 1:3) Rshow
1.000 UL
LTb
0.90 0.12 0.06 C 6380 2778 M
399 0 V
759 2243 M
107 45 V
107 -45 V
106 180 V
107 -135 V
107 -45 V
106 45 V
107 -45 V
107 135 V
107 -180 V
106 0 V
107 180 V
107 -90 V
106 0 V
107 -180 V
107 0 V
106 180 V
107 0 V
107 45 V
106 -135 V
107 135 V
107 90 V
106 -225 V
107 -45 V
107 180 V
106 -135 V
107 90 V
107 90 V
107 -180 V
106 45 V
107 -270 V
107 315 V
106 -45 V
107 135 V
107 -135 V
106 45 V
107 45 V
107 -45 V
106 -135 V
107 225 V
107 -405 V
106 90 V
107 225 V
107 0 V
106 -180 V
107 90 V
107 -135 V
106 45 V
107 135 V
107 -135 V
107 360 V
106 0 V
107 -135 V
107 0 V
106 0 V
107 135 V
107 -45 V
106 0 V
107 -495 V
% End plot #15
% Begin plot #16
stroke
LTb
0.00 0.00 0.00 C /Helvetica findfont 140 scalefont setfont
LCb setrgbcolor
6296 2638 M
('bunny_503270bps' u 1:3) Rshow
1.000 UL
LTb
0.00 0.00 0.00 C 6380 2638 M
399 0 V
759 2373 M
107 36 V
973 2194 L
106 430 V
107 -28 V
107 -466 V
106 60 V
107 -24 V
107 -401 V
107 -317 V
106 613 V
107 336 V
107 61 V
106 178 V
107 -332 V
107 -146 V
106 146 V
107 -446 V
107 624 V
106 -486 V
107 121 V
107 430 V
106 -665 V
107 89 V
107 519 V
106 -308 V
107 102 V
107 259 V
107 -397 V
106 85 V
107 32 V
107 252 V
106 -94 V
107 -218 V
107 231 V
106 166 V
107 -118 V
107 -429 V
106 -637 V
107 576 V
107 16 V
106 478 V
107 17 V
107 24 V
106 -385 V
107 -61 V
107 146 V
106 -89 V
107 -511 V
107 632 V
107 361 V
106 -32 V
107 -4 V
107 -41 V
106 138 V
107 4 V
107 -12 V
106 -353 V
107 -969 V
% End plot #16
% Begin plot #17
stroke
LTb
0.58 0.00 0.83 C /Helvetica findfont 140 scalefont setfont
LCb setrgbcolor
6296 2498 M
('bunny_568500bps' u 1:3) Rshow
1.000 UL
LTb
0.58 0.00 0.83 C 6380 2498 M
399 0 V
759 2469 M
107 -79 V
973 2200 L
106 491 V
107 -14 V
107 -585 V
106 115 V
107 -14 V
107 -532 V
107 -376 V
106 638 V
107 499 V
107 33 V
106 287 V
107 -391 V
107 -227 V
106 126 V
107 -441 V
107 757 V
106 -617 V
107 96 V
107 521 V
106 -689 V
107 -76 V
107 743 V
106 -351 V
107 50 V
107 391 V
107 -546 V
106 123 V
107 154 V
107 219 V
106 -140 V
107 -230 V
107 316 V
106 129 V
107 -72 V
107 -570 V
106 -693 V
107 524 V
107 57 V
106 700 V
107 -7 V
107 -3 V
106 -517 V
107 -29 V
107 262 V
106 -212 V
107 -585 V
107 686 V
107 531 V
106 -43 V
107 -7 V
107 -51 V
106 148 V
107 7 V
107 -29 V
106 -610 V
107 -966 V
% End plot #17
% Begin plot #18
stroke
LTb
0.00 0.62 0.45 C /Helvetica findfont 140 scalefont setfont
LCb setrgbcolor
6296 2358 M
('bunny_771359bps' u 1:3) Rshow
1.000 UL
LTb
0.00 0.62 0.45 C 6380 2358 M
399 0 V
759 2304 M
107 111 V
973 2193 L
106 222 V
107 0 V
107 -204 V
106 35 V
107 32 V
107 -429 V
107 -164 V
106 468 V
107 183 V
107 79 V
106 0 V
107 -77 V
107 -82 V
106 37 V
107 -388 V
107 510 V
106 -410 V
107 156 V
107 254 V
106 -476 V
107 212 V
107 264 V
106 -225 V
107 74 V
107 151 V
107 -85 V
106 -140 V
107 19 V
107 206 V
106 0 V
107 -262 V
107 262 V
106 0 V
107 0 V
107 -283 V
106 -505 V
107 389 V
107 -16 V
106 415 V
107 0 V
107 0 V
106 -328 V
107 3 V
107 42 V
106 148 V
107 -452 V
107 402 V
107 185 V
106 0 V
107 0 V
107 0 V
106 0 V
107 0 V
107 265 V
106 -265 V
107 -928 V
% End plot #18
% Begin plot #19
stroke
LTb
0.34 0.71 0.91 C /Helvetica findfont 140 scalefont setfont
LCb setrgbcolor
6296 2218 M
('bunny_88482bps' u 1:3) Rshow
1.000 UL
LTb
0.34 0.71 0.91 C 6380 2218 M
399 0 V
759 2283 M
107 139 V
973 2214 L
106 300 V
107 -161 V
107 -139 V
106 93 V
107 -93 V
107 0 V
107 -230 V
106 184 V
107 208 V
107 -69 V
106 23 V
107 -93 V
107 -138 V
106 231 V
107 -47 V
107 162 V
106 -254 V
107 69 V
107 231 V
106 -507 V
107 230 V
107 139 V
106 -139 V
107 139 V
107 23 V
107 -185 V
106 -46 V
107 -184 V
107 346 V
106 46 V
107 0 V
107 -23 V
106 0 V
107 46 V
107 -300 V
106 -323 V
107 623 V
107 -300 V
106 115 V
107 208 V
107 -23 V
106 -162 V
107 93 V
107 -139 V
106 -92 V
107 -277 V
107 346 V
107 346 V
106 23 V
107 -69 V
107 -69 V
106 23 V
107 46 V
107 69 V
106 -161 V
107 -600 V
% End plot #19
% Begin plot #20
stroke
LTb
0.90 0.62 0.00 C /Helvetica findfont 140 scalefont setfont
LCb setrgbcolor
6296 2078 M
('bunny_987061bps' u 1:3) Rshow
1.000 UL
LTb
0.90 0.62 0.00 C 6380 2078 M
399 0 V
759 2457 M
866 2251 L
973 2044 L
106 620 V
107 0 V
107 -620 V
106 207 V
107 0 V
107 -600 V
107 -285 V
106 678 V
107 207 V
107 206 V
106 207 V
107 -413 V
107 -207 V
106 207 V
107 -414 V
107 620 V
106 -620 V
107 207 V
107 413 V
106 -620 V
107 0 V
107 620 V
106 -413 V
107 207 V
107 206 V
107 -206 V
106 0 V
107 0 V
107 206 V
106 -206 V
107 -207 V
107 413 V
106 0 V
107 0 V
107 -413 V
106 -641 V
107 434 V
107 0 V
106 620 V
107 0 V
107 0 V
106 -620 V
107 207 V
107 207 V
106 -207 V
107 -403 V
107 610 V
107 413 V
106 -207 V
107 0 V
107 0 V
106 207 V
107 0 V
107 0 V
106 -413 V
6947 1126 L
% End plot #20
stroke
2.000 UL
LTb
LCb setrgbcolor
1.000 UL
LTB
LCb setrgbcolor
546 4871 N
546 280 L
6401 0 V
0 4591 V
-6401 0 V
Z stroke
1.000 UP
1.000 UL
LTb
LCb setrgbcolor
stroke
grestore
end
showpage
%%Trailer
%%DocumentFonts: Helvetica
