\relax 
\select@language{italian}
\@writefile{toc}{\select@language{italian}}
\@writefile{lof}{\select@language{italian}}
\@writefile{lot}{\select@language{italian}}
\select@language{italian}
\@writefile{toc}{\select@language{italian}}
\@writefile{lof}{\select@language{italian}}
\@writefile{lot}{\select@language{italian}}
\citation{K1}
\citation{K1}
\citation{K1}
\@writefile{toc}{\contentsline {chapter}{\numberline {1}Introduzione}{7}}
\@writefile{lof}{\addvspace {10\p@ }}
\@writefile{lot}{\addvspace {10\p@ }}
\@writefile{toc}{\contentsline {section}{\numberline {1.1}Presentazione Panorama attuale}{7}}
\citation{K1}
\@writefile{lof}{\contentsline {figure}{\numberline {1.1}{\ignorespaces Crescita Mensile del download di contenuti. Fonte: CISCO \cite  {K1} \relax }}{8}}
\providecommand*\caption@xref[2]{\@setref\relax\@undefined{#1}}
\newlabel{Crescita Mensile del download di contenuti. Fonte: CISCO}{{1.1}{8}}
\citation{K2}
\@writefile{toc}{\contentsline {section}{\numberline {1.2}Terminologia}{9}}
\@writefile{toc}{\contentsline {subsection}{\numberline {1.2.1}Standard e Protocolli di comunicazione}{9}}
\citation{K24}
\@writefile{toc}{\contentsline {subsection}{\numberline {1.2.2}Protocolli usati nell'ambito dello Streaming Multimediale}{10}}
\citation{K23}
\citation{K19}
\citation{K3}
\@writefile{toc}{\contentsline {section}{\numberline {1.3}DASH: Dynamic Adaptive Streaming Over HTTP}{12}}
\@writefile{toc}{\contentsline {subsection}{\numberline {1.3.1}MPEG-DASH}{13}}
\@writefile{toc}{\contentsline {subsection}{\numberline {1.3.2}Tecniche e algoritmi di compressione}{13}}
\@writefile{lof}{\contentsline {figure}{\numberline {1.2}{\ignorespaces Esempio di file MPD. Fonte iTec.\relax }}{15}}
\newlabel{fig:mpd}{{1.2}{15}}
\@writefile{toc}{\contentsline {section}{\numberline {1.4}Media Presentation File}{15}}
\@writefile{lof}{\contentsline {figure}{\numberline {1.3}{\ignorespaces Struttura a livelli Media Representation\relax }}{16}}
\newlabel{fig:strutturaMPD}{{1.3}{16}}
\@writefile{lof}{\contentsline {figure}{\numberline {1.4}{\ignorespaces Come lavora DASH\relax }}{17}}
\newlabel{fig:dash-esempio1}{{1.4}{17}}
\@writefile{toc}{\contentsline {section}{\numberline {1.5}Un esempio di funzionamento di DASH}{17}}
\@writefile{lof}{\contentsline {figure}{\numberline {1.5}{\ignorespaces Trick Mode\relax }}{18}}
\newlabel{fig:dash-trick}{{1.5}{18}}
\citation{K4}
\@writefile{toc}{\contentsline {chapter}{\numberline {2}Stato dell'Arte}{19}}
\@writefile{lof}{\addvspace {10\p@ }}
\@writefile{lot}{\addvspace {10\p@ }}
\@writefile{toc}{\contentsline {section}{\numberline {2.1}Storia}{19}}
\@writefile{toc}{\contentsline {section}{\numberline {2.2}Sistemi Proprietari}{20}}
\citation{K5}
\citation{K22}
\@writefile{toc}{\contentsline {section}{\numberline {2.3}Algoritmi di Rate Adaptation}{21}}
\@writefile{toc}{\contentsline {subsection}{\numberline {2.3.1}Tipologie di algoritmi di Rate Adaptation}{21}}
\@writefile{toc}{\contentsline {section}{\numberline {2.4}La lunghezza del Segmento}{21}}
\@writefile{toc}{\contentsline {subsection}{\numberline {2.4.1}Segmento Fissato}{22}}
\@writefile{toc}{\contentsline {subsection}{\numberline {2.4.2}Segmento Dinamico}{23}}
\citation{K25}
\@writefile{toc}{\contentsline {chapter}{\numberline {3}Proposta}{25}}
\@writefile{lof}{\addvspace {10\p@ }}
\@writefile{lot}{\addvspace {10\p@ }}
\@writefile{toc}{\contentsline {section}{\numberline {3.1}Caratteristiche Tecniche Simulatore}{25}}
\@writefile{toc}{\contentsline {subsection}{\numberline {3.1.1}Il linuguaggio Python}{25}}
\@writefile{toc}{\contentsline {subsection}{\numberline {3.1.2}Struttura delle cartelle e organizzazione dei file}{26}}
\@writefile{toc}{\contentsline {subsection}{\numberline {3.1.3}Throughput Dataset}{26}}
\@writefile{toc}{\contentsline {section}{\numberline {3.2}Esecuzione del simulatore e file di output}{27}}
\@writefile{toc}{\contentsline {subsection}{\numberline {3.2.1}Buffertime}{28}}
\@writefile{lot}{\contentsline {table}{\numberline {3.1}{\ignorespaces Esempio di file output intermedio\relax }}{30}}
\@writefile{toc}{\contentsline {section}{\numberline {3.3}Descrizione degli algoritmi}{30}}
\@writefile{toc}{\contentsline {subsection}{\numberline {3.3.1}Instantaneous algorithm}{30}}
\@writefile{toc}{\contentsline {subsection}{\numberline {3.3.2}Oracolo Greedy}{30}}
\@writefile{toc}{\contentsline {subsection}{\numberline {3.3.3}Oracolo Smart}{31}}
\@writefile{toc}{\contentsline {subsection}{\numberline {3.3.4}Dynamic SS}{31}}
\citation{K10}
\@writefile{toc}{\contentsline {chapter}{\numberline {4}Valutazioni}{33}}
\@writefile{lof}{\addvspace {10\p@ }}
\@writefile{lot}{\addvspace {10\p@ }}
\@writefile{toc}{\contentsline {section}{\numberline {4.1}Criteri di valutazione}{33}}
\@writefile{toc}{\contentsline {section}{\numberline {4.2}Analisi dei dati}{34}}
\@writefile{toc}{\contentsline {subsection}{\numberline {4.2.1}Custom Dataset}{34}}
\@writefile{lot}{\contentsline {table}{\numberline {4.1}{\ignorespaces Tabella Quality Index. I valori sono espressi in bps.\relax }}{35}}
\@writefile{toc}{\contentsline {subsection}{\numberline {4.2.2}Test su segmento fissato}{36}}
\@writefile{lof}{\contentsline {figure}{\numberline {4.1}{\ignorespaces Grafici che riportano la media del bitrate e del buffer level per ogni lunghezza di segmento\relax }}{37}}
\newlabel{fig:BitrateAndBuffer}{{4.1}{37}}
\newlabel{fig:QIF}{{4.2a}{38}}
\newlabel{sub@fig:QIF}{{a}{38}}
\newlabel{fig:QI3}{{4.2b}{38}}
\newlabel{sub@fig:QI3}{{b}{38}}
\newlabel{fig:QI1}{{4.2c}{38}}
\newlabel{sub@fig:QI1}{{c}{38}}
\@writefile{lof}{\contentsline {figure}{\numberline {4.2}{\ignorespaces Medie Quality Index per 10mbps, 3mps, 1mbps per segmenti statici\relax }}{38}}
\newlabel{fig:QI-ss-fix}{{4.2}{38}}
\@writefile{toc}{\contentsline {subsection}{\numberline {4.2.3}Test Dynamic SS + Algoritmi di Rate Adaptation}{39}}
\newlabel{fig:10BitInst}{{4.3a}{42}}
\newlabel{sub@fig:10BitInst}{{a}{42}}
\newlabel{fig:10BitGreedy}{{4.3c}{42}}
\newlabel{sub@fig:10BitGreedy}{{c}{42}}
\@writefile{lof}{\contentsline {figure}{\numberline {4.3}{\ignorespaces Grafici relativi a 10Mbps (Free Mbps) che riportano bitrate e buffer level per ogni algoritmo con segmento dinamico\relax }}{42}}
\newlabel{fig:Dynamic10BitrateAndBuffer}{{4.3}{42}}
\@writefile{lof}{\contentsline {figure}{\numberline {4.4}{\ignorespaces Grafici relativi a 3Mbps (Free Mbps) che riportano bitrate e buffer level per ogni algoritmo con segmento dinamico\relax }}{43}}
\newlabel{fig:Dynamic3BitrateAndBuffer}{{4.4}{43}}
\@writefile{lof}{\contentsline {figure}{\numberline {4.5}{\ignorespaces Grafici relativi a 1Mbps (Free Mbps) che riportano bitrate e buffer level per ogni algoritmo con segmento dinamico\relax }}{44}}
\newlabel{fig:Dynamic1BitrateAndBuffer}{{4.5}{44}}
\@writefile{lof}{\contentsline {figure}{\numberline {4.6}{\ignorespaces 10Mbps Quality Index Instantaneous+Dynamic\relax }}{45}}
\newlabel{fig:QIF-dyn-inst}{{4.6}{45}}
\@writefile{lof}{\contentsline {figure}{\numberline {4.7}{\ignorespaces 3Mbps Quality Index Instantaneous+Dynamic\relax }}{45}}
\newlabel{fig:QI-dyn-inst}{{4.7}{45}}
\@writefile{lof}{\contentsline {figure}{\numberline {4.8}{\ignorespaces 1Mbps Quality Index Instantaneous+Dynamic\relax }}{45}}
\newlabel{fig:QI1-dyn-inst}{{4.8}{45}}
\@writefile{lof}{\contentsline {figure}{\numberline {4.9}{\ignorespaces 10Mbps Quality Index Greedy+Dynamic\relax }}{45}}
\newlabel{fig:QIF-dyn-greedy}{{4.9}{45}}
\@writefile{lof}{\contentsline {figure}{\numberline {4.10}{\ignorespaces 3Mbps Quality Index Greedy+Dynamic\relax }}{45}}
\newlabel{fig:QI-dyn-greedy}{{4.10}{45}}
\@writefile{lof}{\contentsline {figure}{\numberline {4.11}{\ignorespaces 1Mbps Quality Index Greedy+Dynamic\relax }}{45}}
\newlabel{fig:QI1-dyn-greedy}{{4.11}{45}}
\@writefile{lof}{\contentsline {figure}{\numberline {4.12}{\ignorespaces 10Mbps Quality Index Smart+Dynamic\relax }}{45}}
\newlabel{fig:QIF-dyn-smart}{{4.12}{45}}
\@writefile{lof}{\contentsline {figure}{\numberline {4.13}{\ignorespaces 3Mbps Quality Index Smart+Dynamic\relax }}{45}}
\newlabel{fig:QI-dyn-smart}{{4.13}{45}}
\@writefile{lof}{\contentsline {figure}{\numberline {4.14}{\ignorespaces 1Mbps Quality Index Smart+Dynamic\relax }}{45}}
\newlabel{fig:QI1-dyn-smart}{{4.14}{45}}
\@writefile{lof}{\contentsline {figure}{\numberline {4.15}{\ignorespaces Confronto dei 3 algoritmi con Dynamic - Bitrate\relax }}{45}}
\newlabel{fig:awesome_image1}{{4.15}{45}}
\@writefile{lof}{\contentsline {figure}{\numberline {4.16}{\ignorespaces Confronto dei 3 algoritmi con Dynamic - Buffer\relax }}{45}}
\newlabel{fig:awesome_image2}{{4.16}{45}}
\@writefile{lof}{\contentsline {figure}{\numberline {4.17}{\ignorespaces Confronto dei 3 algoritmi con Dynamic - QI\relax }}{45}}
\newlabel{fig:awesome_image3}{{4.17}{45}}
\newlabel{fig:QIF-dyn-smart}{{4.18a}{46}}
\newlabel{sub@fig:QIF-dyn-smart}{{a}{46}}
\newlabel{fig:QI-dyn-smart}{{4.18b}{46}}
\newlabel{sub@fig:QI-dyn-smart}{{b}{46}}
\newlabel{fig:QI1-dyn-smart}{{4.18c}{46}}
\newlabel{sub@fig:QI1-dyn-smart}{{c}{46}}
\@writefile{lof}{\contentsline {figure}{\numberline {4.18}{\ignorespaces Grafici di confronto del tempo di pausa per Instantaneous, Greedy e Smart con Dynamic a supporto\relax }}{46}}
\newlabel{fig:QIGenDSmart}{{4.18}{46}}
\@writefile{lof}{\contentsline {figure}{\numberline {4.19}{\ignorespaces Livello del buffer per ogni lunghezza di segmento disponibile con algoritmi a confronto\relax }}{47}}
\newlabel{fig:Dynamic1BitrateAndBuffer}{{4.19}{47}}
\@writefile{lof}{\contentsline {figure}{\numberline {4.20}{\ignorespaces Livello del buffer per SS0 Segmento Dinamico\relax }}{48}}
\@writefile{toc}{\contentsline {section}{\numberline {4.3}Dataset Colorado}{49}}
\@writefile{toc}{\contentsline {subsection}{\numberline {4.3.1}Segmento Fissato}{49}}
\newlabel{fig:colorado-QIFull}{{4.21a}{51}}
\newlabel{sub@fig:colorado-QIFull}{{a}{51}}
\newlabel{fig:colorado-BufferFull}{{4.21b}{51}}
\newlabel{sub@fig:colorado-BufferFull}{{b}{51}}
\@writefile{lof}{\contentsline {figure}{\numberline {4.21}{\ignorespaces Medie Quality Index e Buffer su tutto il dataset colorado per segmenti fissati\relax }}{51}}
\newlabel{fig:colorado-Free-ss-fix}{{4.21}{51}}
\@writefile{toc}{\contentsline {subsection}{\numberline {4.3.2}Dynamic SS + Algoritmi di Rate Adaptation}{52}}
\newlabel{fig:DynamicColoradoQIAndBufferA}{{4.22a}{54}}
\newlabel{sub@fig:DynamicColoradoQIAndBufferA}{{a}{54}}
\newlabel{fig:DynamicColoradoQIAndBufferB}{{4.22b}{54}}
\newlabel{sub@fig:DynamicColoradoQIAndBufferB}{{b}{54}}
\newlabel{fig:DynamicColoradoQIAndBufferC}{{4.22c}{54}}
\newlabel{sub@fig:DynamicColoradoQIAndBufferC}{{c}{54}}
\newlabel{fig:DynamicColoradoQIAndBufferD}{{4.22d}{54}}
\newlabel{sub@fig:DynamicColoradoQIAndBufferD}{{d}{54}}
\newlabel{fig:DynamicColoradoQIAndBufferE}{{4.22e}{54}}
\newlabel{sub@fig:DynamicColoradoQIAndBufferE}{{e}{54}}
\newlabel{fig:DynamicColoradoQIAndBufferF}{{4.22f}{54}}
\newlabel{sub@fig:DynamicColoradoQIAndBufferF}{{f}{54}}
\@writefile{lof}{\contentsline {figure}{\numberline {4.22}{\ignorespaces Grafici relativi al dataset colorado che riportano Quality Index e buffer level per ogni algoritmo con segmento dinamico\relax }}{54}}
\newlabel{fig:DynamicColoradoQIAndBuffer}{{4.22}{54}}
\newlabel{fig:colorado-Bitrate-dyn-inst}{{4.23a}{55}}
\newlabel{sub@fig:colorado-Bitrate-dyn-inst}{{a}{55}}
\newlabel{fig:colorado-Bitrate-dyn-greedy}{{4.23b}{55}}
\newlabel{sub@fig:colorado-Bitrate-dyn-greedy}{{b}{55}}
\newlabel{fig:colorado-Bitrate-dyn-smart}{{4.23c}{55}}
\newlabel{sub@fig:colorado-Bitrate-dyn-smart}{{c}{55}}
\@writefile{lof}{\contentsline {figure}{\numberline {4.23}{\ignorespaces Grafici che riportano il Bitrate del Dynamic per ogni algoritmo\relax }}{55}}
\newlabel{fig:colorado-Bitrate-dyn}{{4.23}{55}}
\newlabel{fig:colorado-QIF-dyn-smart}{{4.24a}{56}}
\newlabel{sub@fig:colorado-QIF-dyn-smart}{{a}{56}}
\newlabel{fig:colorado-buffer-dyn-smart}{{4.24b}{56}}
\newlabel{sub@fig:colorado-buffer-dyn-smart}{{b}{56}}
\@writefile{lof}{\contentsline {figure}{\numberline {4.24}{\ignorespaces Grafici di confronto del QI degli algoritmi Instantaneous, Greedy e Smart con Dynamic a supporto\relax }}{56}}
\newlabel{fig:coloradoDynamic3confrontoQIBuffer}{{4.24}{56}}
\newlabel{fig:colorado-time-pause-instantaneous}{{4.25a}{57}}
\newlabel{sub@fig:colorado-time-pause-instantaneous}{{a}{57}}
\newlabel{fig:colorado-time-pause-greedy}{{4.25b}{57}}
\newlabel{sub@fig:colorado-time-pause-greedy}{{b}{57}}
\newlabel{fig:colorado-time-pause-smart}{{4.25c}{57}}
\newlabel{sub@fig:colorado-time-pause-smart}{{c}{57}}
\@writefile{lof}{\contentsline {figure}{\numberline {4.25}{\ignorespaces Grafici di confronto del tempo di pausa per Instantaneous, Greedy e Smart con Dynamic a supporto\relax }}{57}}
\newlabel{fig:colorado-time-pause-algorithms}{{4.25}{57}}
\@writefile{lof}{\contentsline {figure}{\numberline {4.26}{\ignorespaces Livello del buffer per ogni SS disponibile con algoritmi a confronto\relax }}{58}}
\newlabel{fig:colorado-buffer}{{4.26}{58}}
\@writefile{lof}{\contentsline {figure}{\numberline {4.27}{\ignorespaces Livello del buffer per SS0 Segmento Dinamico\relax }}{59}}
\newlabel{fig:colorado-dynamic-buffer}{{4.27}{59}}
\@writefile{lof}{\contentsline {figure}{\numberline {4.28}{\ignorespaces Confronto del numero di pause per SS\relax }}{60}}
\newlabel{fig:colorado-ss-fixed-time-pauses}{{4.28}{60}}
\@writefile{lof}{\contentsline {figure}{\numberline {4.29}{\ignorespaces Numero di pause per SS0 Segmento Dinamico\relax }}{61}}
\newlabel{fig:colorado-dynamic-time-pauses}{{4.29}{61}}
\@writefile{toc}{\contentsline {chapter}{Conclusioni}{64}}
\@writefile{toc}{\contentsline {chapter}{\numberline {A}Instantaneous Algorithm}{65}}
\@writefile{lof}{\addvspace {10\p@ }}
\@writefile{lot}{\addvspace {10\p@ }}
\@writefile{toc}{\contentsline {chapter}{\numberline {B}Oracolo Greedy}{67}}
\@writefile{lof}{\addvspace {10\p@ }}
\@writefile{lot}{\addvspace {10\p@ }}
\@writefile{toc}{\contentsline {chapter}{\numberline {C}Oracolo Smart}{69}}
\@writefile{lof}{\addvspace {10\p@ }}
\@writefile{lot}{\addvspace {10\p@ }}
\bibcite{K1}{1}
\bibcite{K2}{2}
\bibcite{K3}{3}
\bibcite{K4}{4}
\bibcite{K5}{5}
\bibcite{K6}{6}
\bibcite{K7}{7}
\bibcite{K8}{8}
\bibcite{K9}{9}
\@writefile{toc}{\contentsline {chapter}{Bibliografia}{71}}
\bibcite{K10}{10}
\bibcite{K11}{11}
\bibcite{K12}{12}
\bibcite{K13}{13}
\bibcite{K14}{14}
\bibcite{K15}{15}
\bibcite{K16}{16}
\bibcite{K17}{17}
\bibcite{K18}{18}
\bibcite{K19}{19}
\bibcite{K20}{20}
\bibcite{K22}{21}
\bibcite{K23}{22}
\bibcite{K24}{23}
\bibcite{K25}{24}
\bibcite{K26}{25}
\gdef\minted@oldcachelist{,
  default.pygstyle,
  default-pyg-prefix.pygstyle,
  B1D86A0EAC0AD429AF2E0EF470516DC7E467A04735DDE1AC3A953F999ACCFE73.pygtex,
  18F92D48CFCD519C741B70570F1B8DDDF78C94DAA39B6CE0AF2B607DD1640EBB.pygtex,
  FDF5D304F3266387403F12396AC6D663F78C94DAA39B6CE0AF2B607DD1640EBB.pygtex,
  EF988CF6C6B7C30015D508EBFC90B97AF78C94DAA39B6CE0AF2B607DD1640EBB.pygtex}
