%!PS-Adobe-2.0 EPSF-2.0
%%Title: q_thr4.eps
%%Creator: gnuplot 5.2 patchlevel 0
%%CreationDate: Fri Nov 24 15:10:57 2017
%%DocumentFonts: (atend)
%%BoundingBox: 50 50 410 302
%%EndComments
%%BeginProlog
/gnudict 256 dict def
gnudict begin
%
% The following true/false flags may be edited by hand if desired.
% The unit line width and grayscale image gamma correction may also be changed.
%
/Color true def
/Blacktext false def
/Solid false def
/Dashlength 1 def
/Landscape false def
/Level1 false def
/Level3 false def
/Rounded false def
/ClipToBoundingBox false def
/SuppressPDFMark false def
/TransparentPatterns false def
/gnulinewidth 5.000 def
/userlinewidth gnulinewidth def
/Gamma 1.0 def
/BackgroundColor {-1.000 -1.000 -1.000} def
%
/vshift -46 def
/dl1 {
  10.0 Dashlength userlinewidth gnulinewidth div mul mul mul
  Rounded { currentlinewidth 0.75 mul sub dup 0 le { pop 0.01 } if } if
} def
/dl2 {
  10.0 Dashlength userlinewidth gnulinewidth div mul mul mul
  Rounded { currentlinewidth 0.75 mul add } if
} def
/hpt_ 31.5 def
/vpt_ 31.5 def
/hpt hpt_ def
/vpt vpt_ def
/doclip {
  ClipToBoundingBox {
    newpath 50 50 moveto 410 50 lineto 410 302 lineto 50 302 lineto closepath
    clip
  } if
} def
%
% Gnuplot Prolog Version 5.1 (Oct 2015)
%
%/SuppressPDFMark true def
%
/M {moveto} bind def
/L {lineto} bind def
/R {rmoveto} bind def
/V {rlineto} bind def
/N {newpath moveto} bind def
/Z {closepath} bind def
/C {setrgbcolor} bind def
/f {rlineto fill} bind def
/g {setgray} bind def
/Gshow {show} def   % May be redefined later in the file to support UTF-8
/vpt2 vpt 2 mul def
/hpt2 hpt 2 mul def
/Lshow {currentpoint stroke M 0 vshift R 
	Blacktext {gsave 0 setgray textshow grestore} {textshow} ifelse} def
/Rshow {currentpoint stroke M dup stringwidth pop neg vshift R
	Blacktext {gsave 0 setgray textshow grestore} {textshow} ifelse} def
/Cshow {currentpoint stroke M dup stringwidth pop -2 div vshift R 
	Blacktext {gsave 0 setgray textshow grestore} {textshow} ifelse} def
/UP {dup vpt_ mul /vpt exch def hpt_ mul /hpt exch def
  /hpt2 hpt 2 mul def /vpt2 vpt 2 mul def} def
/DL {Color {setrgbcolor Solid {pop []} if 0 setdash}
 {pop pop pop 0 setgray Solid {pop []} if 0 setdash} ifelse} def
/BL {stroke userlinewidth 2 mul setlinewidth
	Rounded {1 setlinejoin 1 setlinecap} if} def
/AL {stroke userlinewidth 2 div setlinewidth
	Rounded {1 setlinejoin 1 setlinecap} if} def
/UL {dup gnulinewidth mul /userlinewidth exch def
	dup 1 lt {pop 1} if 10 mul /udl exch def} def
/PL {stroke userlinewidth setlinewidth
	Rounded {1 setlinejoin 1 setlinecap} if} def
3.8 setmiterlimit
% Classic Line colors (version 5.0)
/LCw {1 1 1} def
/LCb {0 0 0} def
/LCa {0 0 0} def
/LC0 {1 0 0} def
/LC1 {0 1 0} def
/LC2 {0 0 1} def
/LC3 {1 0 1} def
/LC4 {0 1 1} def
/LC5 {1 1 0} def
/LC6 {0 0 0} def
/LC7 {1 0.3 0} def
/LC8 {0.5 0.5 0.5} def
% Default dash patterns (version 5.0)
/LTB {BL [] LCb DL} def
/LTw {PL [] 1 setgray} def
/LTb {PL [] LCb DL} def
/LTa {AL [1 udl mul 2 udl mul] 0 setdash LCa setrgbcolor} def
/LT0 {PL [] LC0 DL} def
/LT1 {PL [2 dl1 3 dl2] LC1 DL} def
/LT2 {PL [1 dl1 1.5 dl2] LC2 DL} def
/LT3 {PL [6 dl1 2 dl2 1 dl1 2 dl2] LC3 DL} def
/LT4 {PL [1 dl1 2 dl2 6 dl1 2 dl2 1 dl1 2 dl2] LC4 DL} def
/LT5 {PL [4 dl1 2 dl2] LC5 DL} def
/LT6 {PL [1.5 dl1 1.5 dl2 1.5 dl1 1.5 dl2 1.5 dl1 6 dl2] LC6 DL} def
/LT7 {PL [3 dl1 3 dl2 1 dl1 3 dl2] LC7 DL} def
/LT8 {PL [2 dl1 2 dl2 2 dl1 6 dl2] LC8 DL} def
/SL {[] 0 setdash} def
/Pnt {stroke [] 0 setdash gsave 1 setlinecap M 0 0 V stroke grestore} def
/Dia {stroke [] 0 setdash 2 copy vpt add M
  hpt neg vpt neg V hpt vpt neg V
  hpt vpt V hpt neg vpt V closepath stroke
  Pnt} def
/Pls {stroke [] 0 setdash vpt sub M 0 vpt2 V
  currentpoint stroke M
  hpt neg vpt neg R hpt2 0 V stroke
 } def
/Box {stroke [] 0 setdash 2 copy exch hpt sub exch vpt add M
  0 vpt2 neg V hpt2 0 V 0 vpt2 V
  hpt2 neg 0 V closepath stroke
  Pnt} def
/Crs {stroke [] 0 setdash exch hpt sub exch vpt add M
  hpt2 vpt2 neg V currentpoint stroke M
  hpt2 neg 0 R hpt2 vpt2 V stroke} def
/TriU {stroke [] 0 setdash 2 copy vpt 1.12 mul add M
  hpt neg vpt -1.62 mul V
  hpt 2 mul 0 V
  hpt neg vpt 1.62 mul V closepath stroke
  Pnt} def
/Star {2 copy Pls Crs} def
/BoxF {stroke [] 0 setdash exch hpt sub exch vpt add M
  0 vpt2 neg V hpt2 0 V 0 vpt2 V
  hpt2 neg 0 V closepath fill} def
/TriUF {stroke [] 0 setdash vpt 1.12 mul add M
  hpt neg vpt -1.62 mul V
  hpt 2 mul 0 V
  hpt neg vpt 1.62 mul V closepath fill} def
/TriD {stroke [] 0 setdash 2 copy vpt 1.12 mul sub M
  hpt neg vpt 1.62 mul V
  hpt 2 mul 0 V
  hpt neg vpt -1.62 mul V closepath stroke
  Pnt} def
/TriDF {stroke [] 0 setdash vpt 1.12 mul sub M
  hpt neg vpt 1.62 mul V
  hpt 2 mul 0 V
  hpt neg vpt -1.62 mul V closepath fill} def
/DiaF {stroke [] 0 setdash vpt add M
  hpt neg vpt neg V hpt vpt neg V
  hpt vpt V hpt neg vpt V closepath fill} def
/Pent {stroke [] 0 setdash 2 copy gsave
  translate 0 hpt M 4 {72 rotate 0 hpt L} repeat
  closepath stroke grestore Pnt} def
/PentF {stroke [] 0 setdash gsave
  translate 0 hpt M 4 {72 rotate 0 hpt L} repeat
  closepath fill grestore} def
/Circle {stroke [] 0 setdash 2 copy
  hpt 0 360 arc stroke Pnt} def
/CircleF {stroke [] 0 setdash hpt 0 360 arc fill} def
/C0 {BL [] 0 setdash 2 copy moveto vpt 90 450 arc} bind def
/C1 {BL [] 0 setdash 2 copy moveto
	2 copy vpt 0 90 arc closepath fill
	vpt 0 360 arc closepath} bind def
/C2 {BL [] 0 setdash 2 copy moveto
	2 copy vpt 90 180 arc closepath fill
	vpt 0 360 arc closepath} bind def
/C3 {BL [] 0 setdash 2 copy moveto
	2 copy vpt 0 180 arc closepath fill
	vpt 0 360 arc closepath} bind def
/C4 {BL [] 0 setdash 2 copy moveto
	2 copy vpt 180 270 arc closepath fill
	vpt 0 360 arc closepath} bind def
/C5 {BL [] 0 setdash 2 copy moveto
	2 copy vpt 0 90 arc
	2 copy moveto
	2 copy vpt 180 270 arc closepath fill
	vpt 0 360 arc} bind def
/C6 {BL [] 0 setdash 2 copy moveto
	2 copy vpt 90 270 arc closepath fill
	vpt 0 360 arc closepath} bind def
/C7 {BL [] 0 setdash 2 copy moveto
	2 copy vpt 0 270 arc closepath fill
	vpt 0 360 arc closepath} bind def
/C8 {BL [] 0 setdash 2 copy moveto
	2 copy vpt 270 360 arc closepath fill
	vpt 0 360 arc closepath} bind def
/C9 {BL [] 0 setdash 2 copy moveto
	2 copy vpt 270 450 arc closepath fill
	vpt 0 360 arc closepath} bind def
/C10 {BL [] 0 setdash 2 copy 2 copy moveto vpt 270 360 arc closepath fill
	2 copy moveto
	2 copy vpt 90 180 arc closepath fill
	vpt 0 360 arc closepath} bind def
/C11 {BL [] 0 setdash 2 copy moveto
	2 copy vpt 0 180 arc closepath fill
	2 copy moveto
	2 copy vpt 270 360 arc closepath fill
	vpt 0 360 arc closepath} bind def
/C12 {BL [] 0 setdash 2 copy moveto
	2 copy vpt 180 360 arc closepath fill
	vpt 0 360 arc closepath} bind def
/C13 {BL [] 0 setdash 2 copy moveto
	2 copy vpt 0 90 arc closepath fill
	2 copy moveto
	2 copy vpt 180 360 arc closepath fill
	vpt 0 360 arc closepath} bind def
/C14 {BL [] 0 setdash 2 copy moveto
	2 copy vpt 90 360 arc closepath fill
	vpt 0 360 arc} bind def
/C15 {BL [] 0 setdash 2 copy vpt 0 360 arc closepath fill
	vpt 0 360 arc closepath} bind def
/Rec {newpath 4 2 roll moveto 1 index 0 rlineto 0 exch rlineto
	neg 0 rlineto closepath} bind def
/Square {dup Rec} bind def
/Bsquare {vpt sub exch vpt sub exch vpt2 Square} bind def
/S0 {BL [] 0 setdash 2 copy moveto 0 vpt rlineto BL Bsquare} bind def
/S1 {BL [] 0 setdash 2 copy vpt Square fill Bsquare} bind def
/S2 {BL [] 0 setdash 2 copy exch vpt sub exch vpt Square fill Bsquare} bind def
/S3 {BL [] 0 setdash 2 copy exch vpt sub exch vpt2 vpt Rec fill Bsquare} bind def
/S4 {BL [] 0 setdash 2 copy exch vpt sub exch vpt sub vpt Square fill Bsquare} bind def
/S5 {BL [] 0 setdash 2 copy 2 copy vpt Square fill
	exch vpt sub exch vpt sub vpt Square fill Bsquare} bind def
/S6 {BL [] 0 setdash 2 copy exch vpt sub exch vpt sub vpt vpt2 Rec fill Bsquare} bind def
/S7 {BL [] 0 setdash 2 copy exch vpt sub exch vpt sub vpt vpt2 Rec fill
	2 copy vpt Square fill Bsquare} bind def
/S8 {BL [] 0 setdash 2 copy vpt sub vpt Square fill Bsquare} bind def
/S9 {BL [] 0 setdash 2 copy vpt sub vpt vpt2 Rec fill Bsquare} bind def
/S10 {BL [] 0 setdash 2 copy vpt sub vpt Square fill 2 copy exch vpt sub exch vpt Square fill
	Bsquare} bind def
/S11 {BL [] 0 setdash 2 copy vpt sub vpt Square fill 2 copy exch vpt sub exch vpt2 vpt Rec fill
	Bsquare} bind def
/S12 {BL [] 0 setdash 2 copy exch vpt sub exch vpt sub vpt2 vpt Rec fill Bsquare} bind def
/S13 {BL [] 0 setdash 2 copy exch vpt sub exch vpt sub vpt2 vpt Rec fill
	2 copy vpt Square fill Bsquare} bind def
/S14 {BL [] 0 setdash 2 copy exch vpt sub exch vpt sub vpt2 vpt Rec fill
	2 copy exch vpt sub exch vpt Square fill Bsquare} bind def
/S15 {BL [] 0 setdash 2 copy Bsquare fill Bsquare} bind def
/D0 {gsave translate 45 rotate 0 0 S0 stroke grestore} bind def
/D1 {gsave translate 45 rotate 0 0 S1 stroke grestore} bind def
/D2 {gsave translate 45 rotate 0 0 S2 stroke grestore} bind def
/D3 {gsave translate 45 rotate 0 0 S3 stroke grestore} bind def
/D4 {gsave translate 45 rotate 0 0 S4 stroke grestore} bind def
/D5 {gsave translate 45 rotate 0 0 S5 stroke grestore} bind def
/D6 {gsave translate 45 rotate 0 0 S6 stroke grestore} bind def
/D7 {gsave translate 45 rotate 0 0 S7 stroke grestore} bind def
/D8 {gsave translate 45 rotate 0 0 S8 stroke grestore} bind def
/D9 {gsave translate 45 rotate 0 0 S9 stroke grestore} bind def
/D10 {gsave translate 45 rotate 0 0 S10 stroke grestore} bind def
/D11 {gsave translate 45 rotate 0 0 S11 stroke grestore} bind def
/D12 {gsave translate 45 rotate 0 0 S12 stroke grestore} bind def
/D13 {gsave translate 45 rotate 0 0 S13 stroke grestore} bind def
/D14 {gsave translate 45 rotate 0 0 S14 stroke grestore} bind def
/D15 {gsave translate 45 rotate 0 0 S15 stroke grestore} bind def
/DiaE {stroke [] 0 setdash vpt add M
  hpt neg vpt neg V hpt vpt neg V
  hpt vpt V hpt neg vpt V closepath stroke} def
/BoxE {stroke [] 0 setdash exch hpt sub exch vpt add M
  0 vpt2 neg V hpt2 0 V 0 vpt2 V
  hpt2 neg 0 V closepath stroke} def
/TriUE {stroke [] 0 setdash vpt 1.12 mul add M
  hpt neg vpt -1.62 mul V
  hpt 2 mul 0 V
  hpt neg vpt 1.62 mul V closepath stroke} def
/TriDE {stroke [] 0 setdash vpt 1.12 mul sub M
  hpt neg vpt 1.62 mul V
  hpt 2 mul 0 V
  hpt neg vpt -1.62 mul V closepath stroke} def
/PentE {stroke [] 0 setdash gsave
  translate 0 hpt M 4 {72 rotate 0 hpt L} repeat
  closepath stroke grestore} def
/CircE {stroke [] 0 setdash 
  hpt 0 360 arc stroke} def
/Opaque {gsave closepath 1 setgray fill grestore 0 setgray closepath} def
/DiaW {stroke [] 0 setdash vpt add M
  hpt neg vpt neg V hpt vpt neg V
  hpt vpt V hpt neg vpt V Opaque stroke} def
/BoxW {stroke [] 0 setdash exch hpt sub exch vpt add M
  0 vpt2 neg V hpt2 0 V 0 vpt2 V
  hpt2 neg 0 V Opaque stroke} def
/TriUW {stroke [] 0 setdash vpt 1.12 mul add M
  hpt neg vpt -1.62 mul V
  hpt 2 mul 0 V
  hpt neg vpt 1.62 mul V Opaque stroke} def
/TriDW {stroke [] 0 setdash vpt 1.12 mul sub M
  hpt neg vpt 1.62 mul V
  hpt 2 mul 0 V
  hpt neg vpt -1.62 mul V Opaque stroke} def
/PentW {stroke [] 0 setdash gsave
  translate 0 hpt M 4 {72 rotate 0 hpt L} repeat
  Opaque stroke grestore} def
/CircW {stroke [] 0 setdash 
  hpt 0 360 arc Opaque stroke} def
/BoxFill {gsave Rec 1 setgray fill grestore} def
/Density {
  /Fillden exch def
  currentrgbcolor
  /ColB exch def /ColG exch def /ColR exch def
  /ColR ColR Fillden mul Fillden sub 1 add def
  /ColG ColG Fillden mul Fillden sub 1 add def
  /ColB ColB Fillden mul Fillden sub 1 add def
  ColR ColG ColB setrgbcolor} def
/BoxColFill {gsave Rec PolyFill} def
/PolyFill {gsave Density fill grestore grestore} def
/h {rlineto rlineto rlineto gsave closepath fill grestore} bind def
%
% PostScript Level 1 Pattern Fill routine for rectangles
% Usage: x y w h s a XX PatternFill
%	x,y = lower left corner of box to be filled
%	w,h = width and height of box
%	  a = angle in degrees between lines and x-axis
%	 XX = 0/1 for no/yes cross-hatch
%
/PatternFill {gsave /PFa [ 9 2 roll ] def
  PFa 0 get PFa 2 get 2 div add PFa 1 get PFa 3 get 2 div add translate
  PFa 2 get -2 div PFa 3 get -2 div PFa 2 get PFa 3 get Rec
  TransparentPatterns {} {gsave 1 setgray fill grestore} ifelse
  clip
  currentlinewidth 0.5 mul setlinewidth
  /PFs PFa 2 get dup mul PFa 3 get dup mul add sqrt def
  0 0 M PFa 5 get rotate PFs -2 div dup translate
  0 1 PFs PFa 4 get div 1 add floor cvi
	{PFa 4 get mul 0 M 0 PFs V} for
  0 PFa 6 get ne {
	0 1 PFs PFa 4 get div 1 add floor cvi
	{PFa 4 get mul 0 2 1 roll M PFs 0 V} for
 } if
  stroke grestore} def
%
/languagelevel where
 {pop languagelevel} {1} ifelse
dup 2 lt
	{/InterpretLevel1 true def
	 /InterpretLevel3 false def}
	{/InterpretLevel1 Level1 def
	 2 gt
	    {/InterpretLevel3 Level3 def}
	    {/InterpretLevel3 false def}
	 ifelse }
 ifelse
%
% PostScript level 2 pattern fill definitions
%
/Level2PatternFill {
/Tile8x8 {/PaintType 2 /PatternType 1 /TilingType 1 /BBox [0 0 8 8] /XStep 8 /YStep 8}
	bind def
/KeepColor {currentrgbcolor [/Pattern /DeviceRGB] setcolorspace} bind def
<< Tile8x8
 /PaintProc {0.5 setlinewidth pop 0 0 M 8 8 L 0 8 M 8 0 L stroke} 
>> matrix makepattern
/Pat1 exch def
<< Tile8x8
 /PaintProc {0.5 setlinewidth pop 0 0 M 8 8 L 0 8 M 8 0 L stroke
	0 4 M 4 8 L 8 4 L 4 0 L 0 4 L stroke}
>> matrix makepattern
/Pat2 exch def
<< Tile8x8
 /PaintProc {0.5 setlinewidth pop 0 0 M 0 8 L
	8 8 L 8 0 L 0 0 L fill}
>> matrix makepattern
/Pat3 exch def
<< Tile8x8
 /PaintProc {0.5 setlinewidth pop -4 8 M 8 -4 L
	0 12 M 12 0 L stroke}
>> matrix makepattern
/Pat4 exch def
<< Tile8x8
 /PaintProc {0.5 setlinewidth pop -4 0 M 8 12 L
	0 -4 M 12 8 L stroke}
>> matrix makepattern
/Pat5 exch def
<< Tile8x8
 /PaintProc {0.5 setlinewidth pop -2 8 M 4 -4 L
	0 12 M 8 -4 L 4 12 M 10 0 L stroke}
>> matrix makepattern
/Pat6 exch def
<< Tile8x8
 /PaintProc {0.5 setlinewidth pop -2 0 M 4 12 L
	0 -4 M 8 12 L 4 -4 M 10 8 L stroke}
>> matrix makepattern
/Pat7 exch def
<< Tile8x8
 /PaintProc {0.5 setlinewidth pop 8 -2 M -4 4 L
	12 0 M -4 8 L 12 4 M 0 10 L stroke}
>> matrix makepattern
/Pat8 exch def
<< Tile8x8
 /PaintProc {0.5 setlinewidth pop 0 -2 M 12 4 L
	-4 0 M 12 8 L -4 4 M 8 10 L stroke}
>> matrix makepattern
/Pat9 exch def
/Pattern1 {PatternBgnd KeepColor Pat1 setpattern} bind def
/Pattern2 {PatternBgnd KeepColor Pat2 setpattern} bind def
/Pattern3 {PatternBgnd KeepColor Pat3 setpattern} bind def
/Pattern4 {PatternBgnd KeepColor Landscape {Pat5} {Pat4} ifelse setpattern} bind def
/Pattern5 {PatternBgnd KeepColor Landscape {Pat4} {Pat5} ifelse setpattern} bind def
/Pattern6 {PatternBgnd KeepColor Landscape {Pat9} {Pat6} ifelse setpattern} bind def
/Pattern7 {PatternBgnd KeepColor Landscape {Pat8} {Pat7} ifelse setpattern} bind def
} def
%
%
%End of PostScript Level 2 code
%
/PatternBgnd {
  TransparentPatterns {} {gsave 1 setgray fill grestore} ifelse
} def
%
% Substitute for Level 2 pattern fill codes with
% grayscale if Level 2 support is not selected.
%
/Level1PatternFill {
/Pattern1 {0.250 Density} bind def
/Pattern2 {0.500 Density} bind def
/Pattern3 {0.750 Density} bind def
/Pattern4 {0.125 Density} bind def
/Pattern5 {0.375 Density} bind def
/Pattern6 {0.625 Density} bind def
/Pattern7 {0.875 Density} bind def
} def
%
% Now test for support of Level 2 code
%
Level1 {Level1PatternFill} {Level2PatternFill} ifelse
%
/Symbol-Oblique /Symbol findfont [1 0 .167 1 0 0] makefont
dup length dict begin {1 index /FID eq {pop pop} {def} ifelse} forall
currentdict end definefont pop
%
/Metrics {ExtendTextBox Gswidth} def
/Lwidth {currentpoint stroke M 0 vshift R Metrics} def
/Rwidth {currentpoint stroke M dup stringwidth pop neg vshift R Metrics} def
/Cwidth {currentpoint stroke M dup stringwidth pop -2 div vshift R Metrics} def
/GLwidth {currentpoint stroke M 0 vshift R {ExtendTextBox} forall} def
/GRwidth {currentpoint stroke M dup Gwidth vshift R {ExtendTextBox} forall} def
/GCwidth {currentpoint stroke M dup Gwidth 2 div vshift R {ExtendTextBox} forall} def
/GLwidth2 {0 Gwidth AddGlyphWidth} def
/GRwidth2 {Gwidth -1 mul 0 AddGlyphWidth} def
/GCwidth2 {Gwidth 2 div dup -1 mul AddGlyphWidth} def
/AddGlyphWidth { dup TBx2 gt {userdict /TBx2 3 -1 roll put} {pop} ifelse
                 dup TBx1 lt {userdict /TBx1 3 -1 roll put} {pop} ifelse } def
/MFshow {
   { dup 5 get 3 ge
     { 5 get 3 eq {gsave} {grestore} ifelse }
     {dup dup 0 get findfont exch 1 get scalefont setfont
     [ currentpoint ] exch dup 2 get 0 exch R dup 5 get 2 ne {dup dup 6
     get exch 4 get {textshow} {Metrics pop 0 R} ifelse }if dup 5 get 0 eq
     {dup 3 get {2 get neg 0 exch R pop} {pop aload pop M} ifelse} {dup 5
     get 1 eq {dup 2 get exch dup 3 get exch 6 get Gswidth pop -2 div
     dup 0 R} {dup 6 get Gswidth pop -2 div 0 R 6 get
     textshow 2 index {aload pop M neg 3 -1 roll neg R pop pop} {pop pop pop
     pop aload pop M} ifelse }ifelse }ifelse }
     ifelse }
   forall} def
/Gswidth {dup type /stringtype eq {stringwidth} {pop (n) stringwidth} ifelse} def
/MFwidth {0 exch { dup 5 get 3 ge { 5 get 3 eq { 0 } { pop } ifelse }
 {dup 3 get{dup dup 0 get findfont exch 1 get scalefont setfont
     6 get Gswidth pop add} {pop} ifelse} ifelse} forall} def
/MLshow { currentpoint stroke M
  0 exch R
  Blacktext {gsave 0 setgray MFshow grestore} {MFshow} ifelse } bind def
/MRshow { currentpoint stroke M
  exch dup MFwidth neg 3 -1 roll R
  Blacktext {gsave 0 setgray MFshow grestore} {MFshow} ifelse } bind def
/MCshow { currentpoint stroke M
  exch dup MFwidth -2 div 3 -1 roll R
  Blacktext {gsave 0 setgray MFshow grestore} {MFshow} ifelse } bind def
/XYsave    { [( ) 1 2 true false 3 ()] } bind def
/XYrestore { [( ) 1 2 true false 4 ()] } bind def
Level1 SuppressPDFMark or 
{} {
/SDict 10 dict def
systemdict /pdfmark known not {
  userdict /pdfmark systemdict /cleartomark get put
} if
SDict begin [
  /Title (q_thr4.eps)
  /Subject (gnuplot plot)
  /Creator (gnuplot 5.2 patchlevel 0)
%  /Producer (gnuplot)
%  /Keywords ()
  /CreationDate (Fri Nov 24 15:10:57 2017)
  /DOCINFO pdfmark
end
} ifelse
%
% Support for boxed text - Ethan A Merritt Sep 2016
%
/InitTextBox { userdict /TBy2 3 -1 roll put userdict /TBx2 3 -1 roll put
           userdict /TBy1 3 -1 roll put userdict /TBx1 3 -1 roll put
	   /Boxing true def } def
/ExtendTextBox { dup type /stringtype eq
    { Boxing { gsave dup false charpath pathbbox
      dup TBy2 gt {userdict /TBy2 3 -1 roll put} {pop} ifelse
      dup TBx2 gt {userdict /TBx2 3 -1 roll put} {pop} ifelse
      dup TBy1 lt {userdict /TBy1 3 -1 roll put} {pop} ifelse
      dup TBx1 lt {userdict /TBx1 3 -1 roll put} {pop} ifelse
      grestore } if }
    {} ifelse} def
/PopTextBox { newpath TBx1 TBxmargin sub TBy1 TBymargin sub M
               TBx1 TBxmargin sub TBy2 TBymargin add L
	       TBx2 TBxmargin add TBy2 TBymargin add L
	       TBx2 TBxmargin add TBy1 TBymargin sub L closepath } def
/DrawTextBox { PopTextBox stroke /Boxing false def} def
/FillTextBox { gsave PopTextBox fill grestore /Boxing false def} def
0 0 0 0 InitTextBox
/TBxmargin 20 def
/TBymargin 20 def
/Boxing false def
/textshow { ExtendTextBox Gshow } def
%
end
%%EndProlog
%%Page: 1 1
gnudict begin
gsave
doclip
50 50 translate
0.050 0.050 scale
0 setgray
newpath
(Helvetica) findfont 140 scalefont setfont
BackgroundColor 0 lt 3 1 roll 0 lt exch 0 lt or or not {BackgroundColor C 1.000 0 0 7200.00 5040.00 BoxColFill} if
1.000 UL
LTb
LCb setrgbcolor
1.000 UL
LTa
0.73 0.73 0.73 C 602 448 M
5526 0 V
stroke
LTb
LCb setrgbcolor
602 448 M
63 0 V
5463 0 R
-63 0 V
stroke
518 448 M
[ [(Helvetica) 140.0 0.0 true true 0 ( 0)]
] -46.7 MRshow
1.000 UL
LTb
LCb setrgbcolor
1.000 UL
LTa
0.73 0.73 0.73 C 602 943 M
5526 0 V
stroke
LTb
LCb setrgbcolor
602 943 M
63 0 V
5463 0 R
-63 0 V
stroke
518 943 M
[ [(Helvetica) 140.0 0.0 true true 0 ( 2)]
] -46.7 MRshow
1.000 UL
LTb
LCb setrgbcolor
1.000 UL
LTa
0.73 0.73 0.73 C 602 1437 M
5526 0 V
stroke
LTb
LCb setrgbcolor
602 1437 M
63 0 V
5463 0 R
-63 0 V
stroke
518 1437 M
[ [(Helvetica) 140.0 0.0 true true 0 ( 4)]
] -46.7 MRshow
1.000 UL
LTb
LCb setrgbcolor
1.000 UL
LTa
0.73 0.73 0.73 C 602 1932 M
5526 0 V
stroke
LTb
LCb setrgbcolor
602 1932 M
63 0 V
5463 0 R
-63 0 V
stroke
518 1932 M
[ [(Helvetica) 140.0 0.0 true true 0 ( 6)]
] -46.7 MRshow
1.000 UL
LTb
LCb setrgbcolor
1.000 UL
LTa
0.73 0.73 0.73 C 602 2426 M
5526 0 V
stroke
LTb
LCb setrgbcolor
602 2426 M
63 0 V
5463 0 R
-63 0 V
stroke
518 2426 M
[ [(Helvetica) 140.0 0.0 true true 0 ( 8)]
] -46.7 MRshow
1.000 UL
LTb
LCb setrgbcolor
1.000 UL
LTa
0.73 0.73 0.73 C 602 2921 M
5526 0 V
stroke
LTb
LCb setrgbcolor
602 2921 M
63 0 V
5463 0 R
-63 0 V
stroke
518 2921 M
[ [(Helvetica) 140.0 0.0 true true 0 ( 10)]
] -46.7 MRshow
1.000 UL
LTb
LCb setrgbcolor
1.000 UL
LTa
0.73 0.73 0.73 C 602 3415 M
5526 0 V
stroke
LTb
LCb setrgbcolor
602 3415 M
63 0 V
5463 0 R
-63 0 V
stroke
518 3415 M
[ [(Helvetica) 140.0 0.0 true true 0 ( 12)]
] -46.7 MRshow
1.000 UL
LTb
LCb setrgbcolor
1.000 UL
LTa
0.73 0.73 0.73 C 602 3910 M
5526 0 V
stroke
LTb
LCb setrgbcolor
602 3910 M
63 0 V
5463 0 R
-63 0 V
stroke
518 3910 M
[ [(Helvetica) 140.0 0.0 true true 0 ( 14)]
] -46.7 MRshow
1.000 UL
LTb
LCb setrgbcolor
1.000 UL
LTa
0.73 0.73 0.73 C 602 4404 M
5526 0 V
stroke
LTb
LCb setrgbcolor
602 4404 M
63 0 V
5463 0 R
-63 0 V
stroke
518 4404 M
[ [(Helvetica) 140.0 0.0 true true 0 ( 16)]
] -46.7 MRshow
1.000 UL
LTb
LCb setrgbcolor
1.000 UL
LTa
0.73 0.73 0.73 C 602 4899 M
5526 0 V
stroke
LTb
LCb setrgbcolor
602 4899 M
63 0 V
5463 0 R
-63 0 V
stroke
518 4899 M
[ [(Helvetica) 140.0 0.0 true true 0 ( 18)]
] -46.7 MRshow
1.000 UL
LTb
LCb setrgbcolor
1.000 UL
LTa
0.73 0.73 0.73 C 602 448 M
0 4451 V
stroke
LTb
LCb setrgbcolor
602 448 M
0 63 V
0 4388 R
0 -63 V
stroke
602 308 M
[ [(Helvetica) 140.0 0.0 true true 0 ( 0)]
] -46.7 MCshow
1.000 UL
LTb
LCb setrgbcolor
1.000 UL
LTa
0.73 0.73 0.73 C 1391 448 M
0 4451 V
stroke
LTb
LCb setrgbcolor
1391 448 M
0 63 V
0 4388 R
0 -63 V
stroke
1391 308 M
[ [(Helvetica) 140.0 0.0 true true 0 ( 500)]
] -46.7 MCshow
1.000 UL
LTb
LCb setrgbcolor
1.000 UL
LTa
0.73 0.73 0.73 C 2181 448 M
0 4451 V
stroke
LTb
LCb setrgbcolor
2181 448 M
0 63 V
0 4388 R
0 -63 V
stroke
2181 308 M
[ [(Helvetica) 140.0 0.0 true true 0 ( 1000)]
] -46.7 MCshow
1.000 UL
LTb
LCb setrgbcolor
1.000 UL
LTa
0.73 0.73 0.73 C 2970 448 M
0 4451 V
stroke
LTb
LCb setrgbcolor
2970 448 M
0 63 V
0 4388 R
0 -63 V
stroke
2970 308 M
[ [(Helvetica) 140.0 0.0 true true 0 ( 1500)]
] -46.7 MCshow
1.000 UL
LTb
LCb setrgbcolor
1.000 UL
LTa
0.73 0.73 0.73 C 3760 448 M
0 4451 V
stroke
LTb
LCb setrgbcolor
3760 448 M
0 63 V
0 4388 R
0 -63 V
stroke
3760 308 M
[ [(Helvetica) 140.0 0.0 true true 0 ( 2000)]
] -46.7 MCshow
1.000 UL
LTb
LCb setrgbcolor
1.000 UL
LTa
0.73 0.73 0.73 C 4549 448 M
0 4451 V
stroke
LTb
LCb setrgbcolor
4549 448 M
0 63 V
0 4388 R
0 -63 V
stroke
4549 308 M
[ [(Helvetica) 140.0 0.0 true true 0 ( 2500)]
] -46.7 MCshow
1.000 UL
LTb
LCb setrgbcolor
1.000 UL
LTa
0.73 0.73 0.73 C 5339 448 M
0 4451 V
stroke
LTb
LCb setrgbcolor
5339 448 M
0 63 V
0 4388 R
0 -63 V
stroke
5339 308 M
[ [(Helvetica) 140.0 0.0 true true 0 ( 3000)]
] -46.7 MCshow
1.000 UL
LTb
LCb setrgbcolor
1.000 UL
LTa
0.73 0.73 0.73 C 6128 448 M
0 4451 V
stroke
LTb
LCb setrgbcolor
6128 448 M
0 63 V
0 4388 R
0 -63 V
stroke
6128 308 M
[ [(Helvetica) 140.0 0.0 true true 0 ( 3500)]
] -46.7 MCshow
1.000 UL
LTb
LCb setrgbcolor
1.000 UL
LTB
LCb setrgbcolor
602 4899 N
602 448 L
5526 0 V
0 4451 V
-5526 0 V
Z stroke
1.000 UP
1.000 UL
LTb
LCb setrgbcolor
LCb setrgbcolor
126 2673 M
currentpoint gsave translate -270 rotate 0 0 moveto
[ [(Helvetica) 140.0 0.0 true true 0 (quality Index)]
] -46.7 MCshow
grestore
LTb
LCb setrgbcolor
3365 98 M
[ [(Helvetica) 140.0 0.0 true true 0 (Throughput from dataset)]
] -46.7 MCshow
LTb
% Begin plot #1
1.000 UP
1.000 UL
LTb
0.58 0.00 0.83 C LCb setrgbcolor
6548 4829 M
[ [(Helvetica) 140.0 0.0 true true 0 (A 0)]
] -46.7 MRshow
1.000 UP
1.000 UL
LTb
0.58 0.00 0.83 C 671 448 Pls
5051 4039 Pls
5197 4206 Pls
5453 4357 Pls
2478 1958 Pls
5711 4548 Pls
5393 4296 Pls
1508 2403 Pls
5515 4391 Pls
5196 4263 Pls
5343 4367 Pls
4058 3524 Pls
2427 3052 Pls
5199 4285 Pls
5276 4284 Pls
3124 3140 Pls
1815 1410 Pls
5427 4323 Pls
4917 3924 Pls
5445 4356 Pls
602 448 Pls
5725 4556 Pls
5060 4125 Pls
5274 4194 Pls
5208 4231 Pls
4040 3570 Pls
5507 4308 Pls
5735 4550 Pls
5935 4617 Pls
1381 1076 Pls
4962 4034 Pls
4878 3921 Pls
5324 4489 Pls
5773 4560 Pls
5580 4378 Pls
5652 4574 Pls
5273 4254 Pls
5138 4223 Pls
5503 4423 Pls
5765 4520 Pls
5685 4529 Pls
5379 4350 Pls
4850 3749 Pls
1892 1500 Pls
5734 4534 Pls
5297 4253 Pls
5181 4162 Pls
5293 4276 Pls
5792 4658 Pls
5544 4497 Pls
5247 4257 Pls
5245 4256 Pls
5395 4346 Pls
4417 3803 Pls
4082 3660 Pls
5851 4652 Pls
5299 4281 Pls
5176 4148 Pls
5193 4149 Pls
5514 4445 Pls
5656 4529 Pls
5655 4594 Pls
5401 4406 Pls
1965 1824 Pls
5532 4483 Pls
3429 3454 Pls
5510 4413 Pls
5053 4019 Pls
3756 3000 Pls
5149 4154 Pls
5918 4607 Pls
5282 4306 Pls
5676 4541 Pls
1328 1015 Pls
3249 3353 Pls
4961 4022 Pls
4964 3906 Pls
5751 4528 Pls
5561 4432 Pls
5523 4494 Pls
3855 3751 Pls
5403 4433 Pls
5124 4147 Pls
5741 4507 Pls
5278 4268 Pls
5269 4386 Pls
673 453 Pls
5559 4411 Pls
3671 3561 Pls
5695 4589 Pls
5481 4466 Pls
5146 4016 Pls
5230 4359 Pls
5310 4311 Pls
5496 4323 Pls
5135 4043 Pls
5486 4395 Pls
5588 4547 Pls
5712 4591 Pls
2123 2849 Pls
2395 1888 Pls
1866 1464 Pls
5489 4448 Pls
5457 4392 Pls
5321 4412 Pls
2648 3359 Pls
4306 3451 Pls
5483 4389 Pls
3557 3475 Pls
5498 4369 Pls
3831 3740 Pls
1834 1458 Pls
1733 1350 Pls
2449 1948 Pls
5449 4420 Pls
5446 4358 Pls
5679 4529 Pls
5493 4311 Pls
3365 3461 Pls
5558 4469 Pls
4149 3295 Pls
5541 4458 Pls
5517 4464 Pls
4205 3678 Pls
5495 4531 Pls
5421 4340 Pls
5410 4282 Pls
2532 3200 Pls
4870 3920 Pls
5537 4411 Pls
5458 4303 Pls
3865 3408 Pls
5510 4412 Pls
4943 3978 Pls
602 448 Pls
746 478 Pls
602 448 Pls
602 448 Pls
602 448 Pls
602 448 Pls
1036 891 Pls
602 448 Pls
602 448 Pls
602 448 Pls
602 448 Pls
602 448 Pls
672 448 Pls
602 448 Pls
602 448 Pls
602 448 Pls
671 448 Pls
602 448 Pls
672 448 Pls
602 448 Pls
602 448 Pls
602 448 Pls
602 448 Pls
602 448 Pls
602 448 Pls
733 685 Pls
5508 4411 Pls
666 448 Pls
5237 4168 Pls
5246 4221 Pls
2999 3160 Pls
1162 1934 Pls
3982 3625 Pls
1040 1470 Pls
5613 4514 Pls
5635 4564 Pls
4670 3891 Pls
5481 4471 Pls
5408 4368 Pls
1690 1320 Pls
5314 4427 Pls
5186 4351 Pls
5466 4424 Pls
5399 4364 Pls
6004 4665 Pls
5814 4550 Pls
4917 3886 Pls
5044 4073 Pls
5066 3973 Pls
4758 3916 Pls
687 466 Pls
5133 4179 Pls
5483 4431 Pls
5649 4554 Pls
6831 4829 Pls
% End plot #1
% Begin plot #2
1.000 UP
1.000 UL
LTb
0.00 0.62 0.45 C LCb setrgbcolor
6548 4689 M
[ [(Helvetica) 140.0 0.0 true true 0 (A 1)]
] -46.7 MRshow
1.000 UP
1.000 UL
LTb
0.00 0.62 0.45 C 671 448 Crs
4861 3981 Crs
5198 4308 Crs
5247 4286 Crs
2380 1973 Crs
5327 4411 Crs
5179 4258 Crs
1300 2329 Crs
5566 4262 Crs
5388 4412 Crs
4709 4091 Crs
3824 3712 Crs
2442 3246 Crs
5223 4174 Crs
5788 4405 Crs
3103 3583 Crs
1616 1351 Crs
5055 4264 Crs
1455 1124 Crs
4793 4204 Crs
602 448 Crs
5156 4176 Crs
5218 4186 Crs
5543 4466 Crs
5012 4048 Crs
3944 3777 Crs
5108 4320 Crs
4952 4279 Crs
5055 4257 Crs
1358 1099 Crs
4377 4143 Crs
4859 4127 Crs
4967 4111 Crs
4566 3961 Crs
5095 4344 Crs
5012 4171 Crs
5128 4226 Crs
4780 4044 Crs
4867 4209 Crs
4571 4007 Crs
5115 4303 Crs
4793 4038 Crs
4657 4090 Crs
4581 3789 Crs
4955 4188 Crs
5028 4291 Crs
5512 4311 Crs
5182 4299 Crs
5575 4418 Crs
5305 4352 Crs
5186 4228 Crs
5339 4386 Crs
5153 4231 Crs
3909 3796 Crs
3932 3890 Crs
4976 4044 Crs
5096 4199 Crs
4746 3999 Crs
4964 4085 Crs
4903 4289 Crs
4886 4263 Crs
4949 4079 Crs
5018 4125 Crs
1412 1283 Crs
5187 4299 Crs
3533 3740 Crs
4918 4218 Crs
4675 4006 Crs
1939 1572 Crs
4383 4015 Crs
605 450 Crs
5235 4361 Crs
5419 4422 Crs
1327 1093 Crs
3197 3486 Crs
4631 4065 Crs
4887 4235 Crs
5536 4530 Crs
4679 3750 Crs
5152 4327 Crs
3554 3665 Crs
5279 4238 Crs
4567 3874 Crs
4868 4206 Crs
5282 4360 Crs
5159 4275 Crs
674 478 Crs
5063 4274 Crs
3605 3660 Crs
5157 4276 Crs
5095 4238 Crs
4937 4229 Crs
5178 4287 Crs
5229 4249 Crs
4842 4198 Crs
4653 3999 Crs
5010 4239 Crs
5203 4296 Crs
4193 3289 Crs
2065 3012 Crs
1926 1618 Crs
2424 1969 Crs
5254 4248 Crs
4859 4206 Crs
5552 4341 Crs
2994 3446 Crs
5135 4200 Crs
4874 4176 Crs
3427 3608 Crs
4873 4156 Crs
3758 3863 Crs
1964 1567 Crs
1993 1663 Crs
2416 1857 Crs
5058 4031 Crs
4885 4140 Crs
5358 4416 Crs
4773 4145 Crs
3263 3587 Crs
4885 4204 Crs
5157 4257 Crs
5275 4327 Crs
4923 4299 Crs
4011 3875 Crs
5439 4321 Crs
5053 4177 Crs
4730 3896 Crs
2895 3335 Crs
4961 4094 Crs
5118 4249 Crs
5258 4304 Crs
4000 3927 Crs
5206 4226 Crs
5225 4281 Crs
602 448 Crs
719 495 Crs
602 448 Crs
602 448 Crs
602 448 Crs
2968 3770 Crs
602 448 Crs
602 448 Crs
602 448 Crs
602 448 Crs
602 448 Crs
602 448 Crs
672 448 Crs
4512 4402 Crs
602 448 Crs
602 448 Crs
698 482 Crs
602 448 Crs
672 448 Crs
602 448 Crs
602 448 Crs
602 448 Crs
602 448 Crs
602 448 Crs
602 448 Crs
769 768 Crs
4990 4208 Crs
667 454 Crs
4468 3684 Crs
5306 4092 Crs
2889 3327 Crs
1110 1995 Crs
3962 3876 Crs
870 1250 Crs
4906 3900 Crs
4913 4250 Crs
4256 4018 Crs
5554 4354 Crs
5124 4222 Crs
1697 1423 Crs
5344 4284 Crs
4859 4222 Crs
5211 4262 Crs
4800 4227 Crs
5098 4391 Crs
4824 4139 Crs
4682 3940 Crs
5378 4217 Crs
5107 4309 Crs
4154 3875 Crs
696 500 Crs
4877 3991 Crs
5168 4231 Crs
4975 4154 Crs
6831 4689 Crs
% End plot #2
% Begin plot #3
1.000 UP
1.000 UL
LTb
0.34 0.71 0.91 C LCb setrgbcolor
6548 4549 M
[ [(Helvetica) 140.0 0.0 true true 0 (A 2)]
] -46.7 MRshow
1.000 UP
1.000 UL
LTb
0.34 0.71 0.91 C 671 448 Star
5144 4184 Star
5198 4238 Star
5638 4583 Star
5093 4184 Star
5325 4408 Star
4998 4180 Star
1327 2346 Star
5301 4418 Star
5347 4356 Star
5138 4273 Star
4055 3773 Star
2494 3111 Star
5352 4317 Star
5268 4341 Star
2925 3294 Star
1679 1310 Star
5122 4192 Star
4704 3798 Star
5439 4519 Star
602 448 Star
5737 4676 Star
5256 4256 Star
5618 4529 Star
5221 4252 Star
4115 3728 Star
5538 4512 Star
5240 4298 Star
5232 4260 Star
2384 1922 Star
4500 3866 Star
4614 3799 Star
5217 4327 Star
4945 4052 Star
5550 4464 Star
5270 4269 Star
5152 4200 Star
5208 4302 Star
5200 4313 Star
5465 4424 Star
5094 4172 Star
5106 4228 Star
5074 4286 Star
5355 4429 Star
5111 4144 Star
4940 4108 Star
5173 4183 Star
5447 4483 Star
5318 4388 Star
5389 4456 Star
5180 4247 Star
5182 4236 Star
5224 4262 Star
4021 3669 Star
3983 3863 Star
5387 4460 Star
5209 4265 Star
5132 4204 Star
5176 4256 Star
5120 4252 Star
4465 3655 Star
5394 4444 Star
5256 4288 Star
3880 3739 Star
5234 4330 Star
3326 3513 Star
4710 3850 Star
4892 3990 Star
2293 1854 Star
4803 3985 Star
5019 4111 Star
5235 4297 Star
5179 4201 Star
5303 4388 Star
3321 3585 Star
4778 3818 Star
1681 1342 Star
611 459 Star
5318 4306 Star
5250 4365 Star
3689 3711 Star
5289 4317 Star
5196 4373 Star
5338 4386 Star
5177 4183 Star
5104 4167 Star
685 530 Star
5031 4055 Star
3664 3643 Star
5211 4236 Star
5394 4460 Star
5088 4201 Star
5206 4314 Star
5531 4514 Star
5458 4485 Star
4798 3875 Star
5151 4265 Star
5215 4343 Star
5602 4536 Star
771 726 Star
2323 1882 Star
2400 1945 Star
5379 4392 Star
5009 4101 Star
5272 4314 Star
2921 3322 Star
5300 4289 Star
4885 4018 Star
3500 3734 Star
5089 4207 Star
3928 3907 Star
2242 1818 Star
1729 1374 Star
2529 2050 Star
2814 2235 Star
5216 4263 Star
5412 4524 Star
5092 4166 Star
3374 3553 Star
5131 4220 Star
5030 4075 Star
5287 4384 Star
3808 3125 Star
3999 3819 Star
5356 4272 Star
5135 4134 Star
5182 4181 Star
2983 3405 Star
5147 4145 Star
5195 4240 Star
5297 4354 Star
3916 3779 Star
5122 4153 Star
4746 3896 Star
602 448 Star
672 451 Star
602 448 Star
602 448 Star
602 448 Star
602 448 Star
936 794 Star
602 448 Star
602 448 Star
602 448 Star
602 448 Star
602 448 Star
672 448 Star
602 448 Star
602 448 Star
602 448 Star
671 448 Star
602 448 Star
672 448 Star
602 448 Star
602 448 Star
602 448 Star
602 448 Star
602 448 Star
602 448 Star
756 813 Star
5151 4227 Star
667 448 Star
4463 3600 Star
5092 4104 Star
3091 3477 Star
1105 1954 Star
4116 3954 Star
918 1466 Star
5258 4391 Star
5277 4326 Star
4724 4150 Star
5230 4296 Star
5204 4252 Star
4382 3540 Star
5298 4418 Star
5220 4361 Star
5217 4297 Star
4840 3992 Star
5315 4423 Star
5325 4380 Star
4313 3526 Star
5045 4161 Star
4634 3884 Star
4762 4145 Star
676 502 Star
5156 4202 Star
5192 4244 Star
5493 4481 Star
6831 4549 Star
% End plot #3
2.000 UL
LTb
LCb setrgbcolor
1.000 UL
LTB
LCb setrgbcolor
602 4899 N
602 448 L
5526 0 V
0 4451 V
-5526 0 V
Z stroke
1.000 UP
1.000 UL
LTb
LCb setrgbcolor
stroke
grestore
end
showpage
%%Trailer
%%DocumentFonts: Helvetica
