%!PS-Adobe-2.0 EPSF-2.0
%%Title: q_thr2.eps
%%Creator: gnuplot 5.2 patchlevel 0
%%CreationDate: Fri Nov 24 15:10:57 2017
%%DocumentFonts: (atend)
%%BoundingBox: 50 50 410 302
%%EndComments
%%BeginProlog
/gnudict 256 dict def
gnudict begin
%
% The following true/false flags may be edited by hand if desired.
% The unit line width and grayscale image gamma correction may also be changed.
%
/Color true def
/Blacktext false def
/Solid false def
/Dashlength 1 def
/Landscape false def
/Level1 false def
/Level3 false def
/Rounded false def
/ClipToBoundingBox false def
/SuppressPDFMark false def
/TransparentPatterns false def
/gnulinewidth 5.000 def
/userlinewidth gnulinewidth def
/Gamma 1.0 def
/BackgroundColor {-1.000 -1.000 -1.000} def
%
/vshift -46 def
/dl1 {
  10.0 Dashlength userlinewidth gnulinewidth div mul mul mul
  Rounded { currentlinewidth 0.75 mul sub dup 0 le { pop 0.01 } if } if
} def
/dl2 {
  10.0 Dashlength userlinewidth gnulinewidth div mul mul mul
  Rounded { currentlinewidth 0.75 mul add } if
} def
/hpt_ 31.5 def
/vpt_ 31.5 def
/hpt hpt_ def
/vpt vpt_ def
/doclip {
  ClipToBoundingBox {
    newpath 50 50 moveto 410 50 lineto 410 302 lineto 50 302 lineto closepath
    clip
  } if
} def
%
% Gnuplot Prolog Version 5.1 (Oct 2015)
%
%/SuppressPDFMark true def
%
/M {moveto} bind def
/L {lineto} bind def
/R {rmoveto} bind def
/V {rlineto} bind def
/N {newpath moveto} bind def
/Z {closepath} bind def
/C {setrgbcolor} bind def
/f {rlineto fill} bind def
/g {setgray} bind def
/Gshow {show} def   % May be redefined later in the file to support UTF-8
/vpt2 vpt 2 mul def
/hpt2 hpt 2 mul def
/Lshow {currentpoint stroke M 0 vshift R 
	Blacktext {gsave 0 setgray textshow grestore} {textshow} ifelse} def
/Rshow {currentpoint stroke M dup stringwidth pop neg vshift R
	Blacktext {gsave 0 setgray textshow grestore} {textshow} ifelse} def
/Cshow {currentpoint stroke M dup stringwidth pop -2 div vshift R 
	Blacktext {gsave 0 setgray textshow grestore} {textshow} ifelse} def
/UP {dup vpt_ mul /vpt exch def hpt_ mul /hpt exch def
  /hpt2 hpt 2 mul def /vpt2 vpt 2 mul def} def
/DL {Color {setrgbcolor Solid {pop []} if 0 setdash}
 {pop pop pop 0 setgray Solid {pop []} if 0 setdash} ifelse} def
/BL {stroke userlinewidth 2 mul setlinewidth
	Rounded {1 setlinejoin 1 setlinecap} if} def
/AL {stroke userlinewidth 2 div setlinewidth
	Rounded {1 setlinejoin 1 setlinecap} if} def
/UL {dup gnulinewidth mul /userlinewidth exch def
	dup 1 lt {pop 1} if 10 mul /udl exch def} def
/PL {stroke userlinewidth setlinewidth
	Rounded {1 setlinejoin 1 setlinecap} if} def
3.8 setmiterlimit
% Classic Line colors (version 5.0)
/LCw {1 1 1} def
/LCb {0 0 0} def
/LCa {0 0 0} def
/LC0 {1 0 0} def
/LC1 {0 1 0} def
/LC2 {0 0 1} def
/LC3 {1 0 1} def
/LC4 {0 1 1} def
/LC5 {1 1 0} def
/LC6 {0 0 0} def
/LC7 {1 0.3 0} def
/LC8 {0.5 0.5 0.5} def
% Default dash patterns (version 5.0)
/LTB {BL [] LCb DL} def
/LTw {PL [] 1 setgray} def
/LTb {PL [] LCb DL} def
/LTa {AL [1 udl mul 2 udl mul] 0 setdash LCa setrgbcolor} def
/LT0 {PL [] LC0 DL} def
/LT1 {PL [2 dl1 3 dl2] LC1 DL} def
/LT2 {PL [1 dl1 1.5 dl2] LC2 DL} def
/LT3 {PL [6 dl1 2 dl2 1 dl1 2 dl2] LC3 DL} def
/LT4 {PL [1 dl1 2 dl2 6 dl1 2 dl2 1 dl1 2 dl2] LC4 DL} def
/LT5 {PL [4 dl1 2 dl2] LC5 DL} def
/LT6 {PL [1.5 dl1 1.5 dl2 1.5 dl1 1.5 dl2 1.5 dl1 6 dl2] LC6 DL} def
/LT7 {PL [3 dl1 3 dl2 1 dl1 3 dl2] LC7 DL} def
/LT8 {PL [2 dl1 2 dl2 2 dl1 6 dl2] LC8 DL} def
/SL {[] 0 setdash} def
/Pnt {stroke [] 0 setdash gsave 1 setlinecap M 0 0 V stroke grestore} def
/Dia {stroke [] 0 setdash 2 copy vpt add M
  hpt neg vpt neg V hpt vpt neg V
  hpt vpt V hpt neg vpt V closepath stroke
  Pnt} def
/Pls {stroke [] 0 setdash vpt sub M 0 vpt2 V
  currentpoint stroke M
  hpt neg vpt neg R hpt2 0 V stroke
 } def
/Box {stroke [] 0 setdash 2 copy exch hpt sub exch vpt add M
  0 vpt2 neg V hpt2 0 V 0 vpt2 V
  hpt2 neg 0 V closepath stroke
  Pnt} def
/Crs {stroke [] 0 setdash exch hpt sub exch vpt add M
  hpt2 vpt2 neg V currentpoint stroke M
  hpt2 neg 0 R hpt2 vpt2 V stroke} def
/TriU {stroke [] 0 setdash 2 copy vpt 1.12 mul add M
  hpt neg vpt -1.62 mul V
  hpt 2 mul 0 V
  hpt neg vpt 1.62 mul V closepath stroke
  Pnt} def
/Star {2 copy Pls Crs} def
/BoxF {stroke [] 0 setdash exch hpt sub exch vpt add M
  0 vpt2 neg V hpt2 0 V 0 vpt2 V
  hpt2 neg 0 V closepath fill} def
/TriUF {stroke [] 0 setdash vpt 1.12 mul add M
  hpt neg vpt -1.62 mul V
  hpt 2 mul 0 V
  hpt neg vpt 1.62 mul V closepath fill} def
/TriD {stroke [] 0 setdash 2 copy vpt 1.12 mul sub M
  hpt neg vpt 1.62 mul V
  hpt 2 mul 0 V
  hpt neg vpt -1.62 mul V closepath stroke
  Pnt} def
/TriDF {stroke [] 0 setdash vpt 1.12 mul sub M
  hpt neg vpt 1.62 mul V
  hpt 2 mul 0 V
  hpt neg vpt -1.62 mul V closepath fill} def
/DiaF {stroke [] 0 setdash vpt add M
  hpt neg vpt neg V hpt vpt neg V
  hpt vpt V hpt neg vpt V closepath fill} def
/Pent {stroke [] 0 setdash 2 copy gsave
  translate 0 hpt M 4 {72 rotate 0 hpt L} repeat
  closepath stroke grestore Pnt} def
/PentF {stroke [] 0 setdash gsave
  translate 0 hpt M 4 {72 rotate 0 hpt L} repeat
  closepath fill grestore} def
/Circle {stroke [] 0 setdash 2 copy
  hpt 0 360 arc stroke Pnt} def
/CircleF {stroke [] 0 setdash hpt 0 360 arc fill} def
/C0 {BL [] 0 setdash 2 copy moveto vpt 90 450 arc} bind def
/C1 {BL [] 0 setdash 2 copy moveto
	2 copy vpt 0 90 arc closepath fill
	vpt 0 360 arc closepath} bind def
/C2 {BL [] 0 setdash 2 copy moveto
	2 copy vpt 90 180 arc closepath fill
	vpt 0 360 arc closepath} bind def
/C3 {BL [] 0 setdash 2 copy moveto
	2 copy vpt 0 180 arc closepath fill
	vpt 0 360 arc closepath} bind def
/C4 {BL [] 0 setdash 2 copy moveto
	2 copy vpt 180 270 arc closepath fill
	vpt 0 360 arc closepath} bind def
/C5 {BL [] 0 setdash 2 copy moveto
	2 copy vpt 0 90 arc
	2 copy moveto
	2 copy vpt 180 270 arc closepath fill
	vpt 0 360 arc} bind def
/C6 {BL [] 0 setdash 2 copy moveto
	2 copy vpt 90 270 arc closepath fill
	vpt 0 360 arc closepath} bind def
/C7 {BL [] 0 setdash 2 copy moveto
	2 copy vpt 0 270 arc closepath fill
	vpt 0 360 arc closepath} bind def
/C8 {BL [] 0 setdash 2 copy moveto
	2 copy vpt 270 360 arc closepath fill
	vpt 0 360 arc closepath} bind def
/C9 {BL [] 0 setdash 2 copy moveto
	2 copy vpt 270 450 arc closepath fill
	vpt 0 360 arc closepath} bind def
/C10 {BL [] 0 setdash 2 copy 2 copy moveto vpt 270 360 arc closepath fill
	2 copy moveto
	2 copy vpt 90 180 arc closepath fill
	vpt 0 360 arc closepath} bind def
/C11 {BL [] 0 setdash 2 copy moveto
	2 copy vpt 0 180 arc closepath fill
	2 copy moveto
	2 copy vpt 270 360 arc closepath fill
	vpt 0 360 arc closepath} bind def
/C12 {BL [] 0 setdash 2 copy moveto
	2 copy vpt 180 360 arc closepath fill
	vpt 0 360 arc closepath} bind def
/C13 {BL [] 0 setdash 2 copy moveto
	2 copy vpt 0 90 arc closepath fill
	2 copy moveto
	2 copy vpt 180 360 arc closepath fill
	vpt 0 360 arc closepath} bind def
/C14 {BL [] 0 setdash 2 copy moveto
	2 copy vpt 90 360 arc closepath fill
	vpt 0 360 arc} bind def
/C15 {BL [] 0 setdash 2 copy vpt 0 360 arc closepath fill
	vpt 0 360 arc closepath} bind def
/Rec {newpath 4 2 roll moveto 1 index 0 rlineto 0 exch rlineto
	neg 0 rlineto closepath} bind def
/Square {dup Rec} bind def
/Bsquare {vpt sub exch vpt sub exch vpt2 Square} bind def
/S0 {BL [] 0 setdash 2 copy moveto 0 vpt rlineto BL Bsquare} bind def
/S1 {BL [] 0 setdash 2 copy vpt Square fill Bsquare} bind def
/S2 {BL [] 0 setdash 2 copy exch vpt sub exch vpt Square fill Bsquare} bind def
/S3 {BL [] 0 setdash 2 copy exch vpt sub exch vpt2 vpt Rec fill Bsquare} bind def
/S4 {BL [] 0 setdash 2 copy exch vpt sub exch vpt sub vpt Square fill Bsquare} bind def
/S5 {BL [] 0 setdash 2 copy 2 copy vpt Square fill
	exch vpt sub exch vpt sub vpt Square fill Bsquare} bind def
/S6 {BL [] 0 setdash 2 copy exch vpt sub exch vpt sub vpt vpt2 Rec fill Bsquare} bind def
/S7 {BL [] 0 setdash 2 copy exch vpt sub exch vpt sub vpt vpt2 Rec fill
	2 copy vpt Square fill Bsquare} bind def
/S8 {BL [] 0 setdash 2 copy vpt sub vpt Square fill Bsquare} bind def
/S9 {BL [] 0 setdash 2 copy vpt sub vpt vpt2 Rec fill Bsquare} bind def
/S10 {BL [] 0 setdash 2 copy vpt sub vpt Square fill 2 copy exch vpt sub exch vpt Square fill
	Bsquare} bind def
/S11 {BL [] 0 setdash 2 copy vpt sub vpt Square fill 2 copy exch vpt sub exch vpt2 vpt Rec fill
	Bsquare} bind def
/S12 {BL [] 0 setdash 2 copy exch vpt sub exch vpt sub vpt2 vpt Rec fill Bsquare} bind def
/S13 {BL [] 0 setdash 2 copy exch vpt sub exch vpt sub vpt2 vpt Rec fill
	2 copy vpt Square fill Bsquare} bind def
/S14 {BL [] 0 setdash 2 copy exch vpt sub exch vpt sub vpt2 vpt Rec fill
	2 copy exch vpt sub exch vpt Square fill Bsquare} bind def
/S15 {BL [] 0 setdash 2 copy Bsquare fill Bsquare} bind def
/D0 {gsave translate 45 rotate 0 0 S0 stroke grestore} bind def
/D1 {gsave translate 45 rotate 0 0 S1 stroke grestore} bind def
/D2 {gsave translate 45 rotate 0 0 S2 stroke grestore} bind def
/D3 {gsave translate 45 rotate 0 0 S3 stroke grestore} bind def
/D4 {gsave translate 45 rotate 0 0 S4 stroke grestore} bind def
/D5 {gsave translate 45 rotate 0 0 S5 stroke grestore} bind def
/D6 {gsave translate 45 rotate 0 0 S6 stroke grestore} bind def
/D7 {gsave translate 45 rotate 0 0 S7 stroke grestore} bind def
/D8 {gsave translate 45 rotate 0 0 S8 stroke grestore} bind def
/D9 {gsave translate 45 rotate 0 0 S9 stroke grestore} bind def
/D10 {gsave translate 45 rotate 0 0 S10 stroke grestore} bind def
/D11 {gsave translate 45 rotate 0 0 S11 stroke grestore} bind def
/D12 {gsave translate 45 rotate 0 0 S12 stroke grestore} bind def
/D13 {gsave translate 45 rotate 0 0 S13 stroke grestore} bind def
/D14 {gsave translate 45 rotate 0 0 S14 stroke grestore} bind def
/D15 {gsave translate 45 rotate 0 0 S15 stroke grestore} bind def
/DiaE {stroke [] 0 setdash vpt add M
  hpt neg vpt neg V hpt vpt neg V
  hpt vpt V hpt neg vpt V closepath stroke} def
/BoxE {stroke [] 0 setdash exch hpt sub exch vpt add M
  0 vpt2 neg V hpt2 0 V 0 vpt2 V
  hpt2 neg 0 V closepath stroke} def
/TriUE {stroke [] 0 setdash vpt 1.12 mul add M
  hpt neg vpt -1.62 mul V
  hpt 2 mul 0 V
  hpt neg vpt 1.62 mul V closepath stroke} def
/TriDE {stroke [] 0 setdash vpt 1.12 mul sub M
  hpt neg vpt 1.62 mul V
  hpt 2 mul 0 V
  hpt neg vpt -1.62 mul V closepath stroke} def
/PentE {stroke [] 0 setdash gsave
  translate 0 hpt M 4 {72 rotate 0 hpt L} repeat
  closepath stroke grestore} def
/CircE {stroke [] 0 setdash 
  hpt 0 360 arc stroke} def
/Opaque {gsave closepath 1 setgray fill grestore 0 setgray closepath} def
/DiaW {stroke [] 0 setdash vpt add M
  hpt neg vpt neg V hpt vpt neg V
  hpt vpt V hpt neg vpt V Opaque stroke} def
/BoxW {stroke [] 0 setdash exch hpt sub exch vpt add M
  0 vpt2 neg V hpt2 0 V 0 vpt2 V
  hpt2 neg 0 V Opaque stroke} def
/TriUW {stroke [] 0 setdash vpt 1.12 mul add M
  hpt neg vpt -1.62 mul V
  hpt 2 mul 0 V
  hpt neg vpt 1.62 mul V Opaque stroke} def
/TriDW {stroke [] 0 setdash vpt 1.12 mul sub M
  hpt neg vpt 1.62 mul V
  hpt 2 mul 0 V
  hpt neg vpt -1.62 mul V Opaque stroke} def
/PentW {stroke [] 0 setdash gsave
  translate 0 hpt M 4 {72 rotate 0 hpt L} repeat
  Opaque stroke grestore} def
/CircW {stroke [] 0 setdash 
  hpt 0 360 arc Opaque stroke} def
/BoxFill {gsave Rec 1 setgray fill grestore} def
/Density {
  /Fillden exch def
  currentrgbcolor
  /ColB exch def /ColG exch def /ColR exch def
  /ColR ColR Fillden mul Fillden sub 1 add def
  /ColG ColG Fillden mul Fillden sub 1 add def
  /ColB ColB Fillden mul Fillden sub 1 add def
  ColR ColG ColB setrgbcolor} def
/BoxColFill {gsave Rec PolyFill} def
/PolyFill {gsave Density fill grestore grestore} def
/h {rlineto rlineto rlineto gsave closepath fill grestore} bind def
%
% PostScript Level 1 Pattern Fill routine for rectangles
% Usage: x y w h s a XX PatternFill
%	x,y = lower left corner of box to be filled
%	w,h = width and height of box
%	  a = angle in degrees between lines and x-axis
%	 XX = 0/1 for no/yes cross-hatch
%
/PatternFill {gsave /PFa [ 9 2 roll ] def
  PFa 0 get PFa 2 get 2 div add PFa 1 get PFa 3 get 2 div add translate
  PFa 2 get -2 div PFa 3 get -2 div PFa 2 get PFa 3 get Rec
  TransparentPatterns {} {gsave 1 setgray fill grestore} ifelse
  clip
  currentlinewidth 0.5 mul setlinewidth
  /PFs PFa 2 get dup mul PFa 3 get dup mul add sqrt def
  0 0 M PFa 5 get rotate PFs -2 div dup translate
  0 1 PFs PFa 4 get div 1 add floor cvi
	{PFa 4 get mul 0 M 0 PFs V} for
  0 PFa 6 get ne {
	0 1 PFs PFa 4 get div 1 add floor cvi
	{PFa 4 get mul 0 2 1 roll M PFs 0 V} for
 } if
  stroke grestore} def
%
/languagelevel where
 {pop languagelevel} {1} ifelse
dup 2 lt
	{/InterpretLevel1 true def
	 /InterpretLevel3 false def}
	{/InterpretLevel1 Level1 def
	 2 gt
	    {/InterpretLevel3 Level3 def}
	    {/InterpretLevel3 false def}
	 ifelse }
 ifelse
%
% PostScript level 2 pattern fill definitions
%
/Level2PatternFill {
/Tile8x8 {/PaintType 2 /PatternType 1 /TilingType 1 /BBox [0 0 8 8] /XStep 8 /YStep 8}
	bind def
/KeepColor {currentrgbcolor [/Pattern /DeviceRGB] setcolorspace} bind def
<< Tile8x8
 /PaintProc {0.5 setlinewidth pop 0 0 M 8 8 L 0 8 M 8 0 L stroke} 
>> matrix makepattern
/Pat1 exch def
<< Tile8x8
 /PaintProc {0.5 setlinewidth pop 0 0 M 8 8 L 0 8 M 8 0 L stroke
	0 4 M 4 8 L 8 4 L 4 0 L 0 4 L stroke}
>> matrix makepattern
/Pat2 exch def
<< Tile8x8
 /PaintProc {0.5 setlinewidth pop 0 0 M 0 8 L
	8 8 L 8 0 L 0 0 L fill}
>> matrix makepattern
/Pat3 exch def
<< Tile8x8
 /PaintProc {0.5 setlinewidth pop -4 8 M 8 -4 L
	0 12 M 12 0 L stroke}
>> matrix makepattern
/Pat4 exch def
<< Tile8x8
 /PaintProc {0.5 setlinewidth pop -4 0 M 8 12 L
	0 -4 M 12 8 L stroke}
>> matrix makepattern
/Pat5 exch def
<< Tile8x8
 /PaintProc {0.5 setlinewidth pop -2 8 M 4 -4 L
	0 12 M 8 -4 L 4 12 M 10 0 L stroke}
>> matrix makepattern
/Pat6 exch def
<< Tile8x8
 /PaintProc {0.5 setlinewidth pop -2 0 M 4 12 L
	0 -4 M 8 12 L 4 -4 M 10 8 L stroke}
>> matrix makepattern
/Pat7 exch def
<< Tile8x8
 /PaintProc {0.5 setlinewidth pop 8 -2 M -4 4 L
	12 0 M -4 8 L 12 4 M 0 10 L stroke}
>> matrix makepattern
/Pat8 exch def
<< Tile8x8
 /PaintProc {0.5 setlinewidth pop 0 -2 M 12 4 L
	-4 0 M 12 8 L -4 4 M 8 10 L stroke}
>> matrix makepattern
/Pat9 exch def
/Pattern1 {PatternBgnd KeepColor Pat1 setpattern} bind def
/Pattern2 {PatternBgnd KeepColor Pat2 setpattern} bind def
/Pattern3 {PatternBgnd KeepColor Pat3 setpattern} bind def
/Pattern4 {PatternBgnd KeepColor Landscape {Pat5} {Pat4} ifelse setpattern} bind def
/Pattern5 {PatternBgnd KeepColor Landscape {Pat4} {Pat5} ifelse setpattern} bind def
/Pattern6 {PatternBgnd KeepColor Landscape {Pat9} {Pat6} ifelse setpattern} bind def
/Pattern7 {PatternBgnd KeepColor Landscape {Pat8} {Pat7} ifelse setpattern} bind def
} def
%
%
%End of PostScript Level 2 code
%
/PatternBgnd {
  TransparentPatterns {} {gsave 1 setgray fill grestore} ifelse
} def
%
% Substitute for Level 2 pattern fill codes with
% grayscale if Level 2 support is not selected.
%
/Level1PatternFill {
/Pattern1 {0.250 Density} bind def
/Pattern2 {0.500 Density} bind def
/Pattern3 {0.750 Density} bind def
/Pattern4 {0.125 Density} bind def
/Pattern5 {0.375 Density} bind def
/Pattern6 {0.625 Density} bind def
/Pattern7 {0.875 Density} bind def
} def
%
% Now test for support of Level 2 code
%
Level1 {Level1PatternFill} {Level2PatternFill} ifelse
%
/Symbol-Oblique /Symbol findfont [1 0 .167 1 0 0] makefont
dup length dict begin {1 index /FID eq {pop pop} {def} ifelse} forall
currentdict end definefont pop
%
/Metrics {ExtendTextBox Gswidth} def
/Lwidth {currentpoint stroke M 0 vshift R Metrics} def
/Rwidth {currentpoint stroke M dup stringwidth pop neg vshift R Metrics} def
/Cwidth {currentpoint stroke M dup stringwidth pop -2 div vshift R Metrics} def
/GLwidth {currentpoint stroke M 0 vshift R {ExtendTextBox} forall} def
/GRwidth {currentpoint stroke M dup Gwidth vshift R {ExtendTextBox} forall} def
/GCwidth {currentpoint stroke M dup Gwidth 2 div vshift R {ExtendTextBox} forall} def
/GLwidth2 {0 Gwidth AddGlyphWidth} def
/GRwidth2 {Gwidth -1 mul 0 AddGlyphWidth} def
/GCwidth2 {Gwidth 2 div dup -1 mul AddGlyphWidth} def
/AddGlyphWidth { dup TBx2 gt {userdict /TBx2 3 -1 roll put} {pop} ifelse
                 dup TBx1 lt {userdict /TBx1 3 -1 roll put} {pop} ifelse } def
/MFshow {
   { dup 5 get 3 ge
     { 5 get 3 eq {gsave} {grestore} ifelse }
     {dup dup 0 get findfont exch 1 get scalefont setfont
     [ currentpoint ] exch dup 2 get 0 exch R dup 5 get 2 ne {dup dup 6
     get exch 4 get {textshow} {Metrics pop 0 R} ifelse }if dup 5 get 0 eq
     {dup 3 get {2 get neg 0 exch R pop} {pop aload pop M} ifelse} {dup 5
     get 1 eq {dup 2 get exch dup 3 get exch 6 get Gswidth pop -2 div
     dup 0 R} {dup 6 get Gswidth pop -2 div 0 R 6 get
     textshow 2 index {aload pop M neg 3 -1 roll neg R pop pop} {pop pop pop
     pop aload pop M} ifelse }ifelse }ifelse }
     ifelse }
   forall} def
/Gswidth {dup type /stringtype eq {stringwidth} {pop (n) stringwidth} ifelse} def
/MFwidth {0 exch { dup 5 get 3 ge { 5 get 3 eq { 0 } { pop } ifelse }
 {dup 3 get{dup dup 0 get findfont exch 1 get scalefont setfont
     6 get Gswidth pop add} {pop} ifelse} ifelse} forall} def
/MLshow { currentpoint stroke M
  0 exch R
  Blacktext {gsave 0 setgray MFshow grestore} {MFshow} ifelse } bind def
/MRshow { currentpoint stroke M
  exch dup MFwidth neg 3 -1 roll R
  Blacktext {gsave 0 setgray MFshow grestore} {MFshow} ifelse } bind def
/MCshow { currentpoint stroke M
  exch dup MFwidth -2 div 3 -1 roll R
  Blacktext {gsave 0 setgray MFshow grestore} {MFshow} ifelse } bind def
/XYsave    { [( ) 1 2 true false 3 ()] } bind def
/XYrestore { [( ) 1 2 true false 4 ()] } bind def
Level1 SuppressPDFMark or 
{} {
/SDict 10 dict def
systemdict /pdfmark known not {
  userdict /pdfmark systemdict /cleartomark get put
} if
SDict begin [
  /Title (q_thr2.eps)
  /Subject (gnuplot plot)
  /Creator (gnuplot 5.2 patchlevel 0)
%  /Producer (gnuplot)
%  /Keywords ()
  /CreationDate (Fri Nov 24 15:10:57 2017)
  /DOCINFO pdfmark
end
} ifelse
%
% Support for boxed text - Ethan A Merritt Sep 2016
%
/InitTextBox { userdict /TBy2 3 -1 roll put userdict /TBx2 3 -1 roll put
           userdict /TBy1 3 -1 roll put userdict /TBx1 3 -1 roll put
	   /Boxing true def } def
/ExtendTextBox { dup type /stringtype eq
    { Boxing { gsave dup false charpath pathbbox
      dup TBy2 gt {userdict /TBy2 3 -1 roll put} {pop} ifelse
      dup TBx2 gt {userdict /TBx2 3 -1 roll put} {pop} ifelse
      dup TBy1 lt {userdict /TBy1 3 -1 roll put} {pop} ifelse
      dup TBx1 lt {userdict /TBx1 3 -1 roll put} {pop} ifelse
      grestore } if }
    {} ifelse} def
/PopTextBox { newpath TBx1 TBxmargin sub TBy1 TBymargin sub M
               TBx1 TBxmargin sub TBy2 TBymargin add L
	       TBx2 TBxmargin add TBy2 TBymargin add L
	       TBx2 TBxmargin add TBy1 TBymargin sub L closepath } def
/DrawTextBox { PopTextBox stroke /Boxing false def} def
/FillTextBox { gsave PopTextBox fill grestore /Boxing false def} def
0 0 0 0 InitTextBox
/TBxmargin 20 def
/TBymargin 20 def
/Boxing false def
/textshow { ExtendTextBox Gshow } def
%
end
%%EndProlog
%%Page: 1 1
gnudict begin
gsave
doclip
50 50 translate
0.050 0.050 scale
0 setgray
newpath
(Helvetica) findfont 140 scalefont setfont
BackgroundColor 0 lt 3 1 roll 0 lt exch 0 lt or or not {BackgroundColor C 1.000 0 0 7200.00 5040.00 BoxColFill} if
1.000 UL
LTb
LCb setrgbcolor
1.000 UL
LTa
0.73 0.73 0.73 C 602 448 M
5526 0 V
stroke
LTb
LCb setrgbcolor
602 448 M
63 0 V
5463 0 R
-63 0 V
stroke
518 448 M
[ [(Helvetica) 140.0 0.0 true true 0 ( 0)]
] -46.7 MRshow
1.000 UL
LTb
LCb setrgbcolor
1.000 UL
LTa
0.73 0.73 0.73 C 602 943 M
5526 0 V
stroke
LTb
LCb setrgbcolor
602 943 M
63 0 V
5463 0 R
-63 0 V
stroke
518 943 M
[ [(Helvetica) 140.0 0.0 true true 0 ( 2)]
] -46.7 MRshow
1.000 UL
LTb
LCb setrgbcolor
1.000 UL
LTa
0.73 0.73 0.73 C 602 1437 M
5526 0 V
stroke
LTb
LCb setrgbcolor
602 1437 M
63 0 V
5463 0 R
-63 0 V
stroke
518 1437 M
[ [(Helvetica) 140.0 0.0 true true 0 ( 4)]
] -46.7 MRshow
1.000 UL
LTb
LCb setrgbcolor
1.000 UL
LTa
0.73 0.73 0.73 C 602 1932 M
5526 0 V
stroke
LTb
LCb setrgbcolor
602 1932 M
63 0 V
5463 0 R
-63 0 V
stroke
518 1932 M
[ [(Helvetica) 140.0 0.0 true true 0 ( 6)]
] -46.7 MRshow
1.000 UL
LTb
LCb setrgbcolor
1.000 UL
LTa
0.73 0.73 0.73 C 602 2426 M
5526 0 V
stroke
LTb
LCb setrgbcolor
602 2426 M
63 0 V
5463 0 R
-63 0 V
stroke
518 2426 M
[ [(Helvetica) 140.0 0.0 true true 0 ( 8)]
] -46.7 MRshow
1.000 UL
LTb
LCb setrgbcolor
1.000 UL
LTa
0.73 0.73 0.73 C 602 2921 M
5526 0 V
stroke
LTb
LCb setrgbcolor
602 2921 M
63 0 V
5463 0 R
-63 0 V
stroke
518 2921 M
[ [(Helvetica) 140.0 0.0 true true 0 ( 10)]
] -46.7 MRshow
1.000 UL
LTb
LCb setrgbcolor
1.000 UL
LTa
0.73 0.73 0.73 C 602 3415 M
5526 0 V
stroke
LTb
LCb setrgbcolor
602 3415 M
63 0 V
5463 0 R
-63 0 V
stroke
518 3415 M
[ [(Helvetica) 140.0 0.0 true true 0 ( 12)]
] -46.7 MRshow
1.000 UL
LTb
LCb setrgbcolor
1.000 UL
LTa
0.73 0.73 0.73 C 602 3910 M
5526 0 V
stroke
LTb
LCb setrgbcolor
602 3910 M
63 0 V
5463 0 R
-63 0 V
stroke
518 3910 M
[ [(Helvetica) 140.0 0.0 true true 0 ( 14)]
] -46.7 MRshow
1.000 UL
LTb
LCb setrgbcolor
1.000 UL
LTa
0.73 0.73 0.73 C 602 4404 M
5526 0 V
stroke
LTb
LCb setrgbcolor
602 4404 M
63 0 V
5463 0 R
-63 0 V
stroke
518 4404 M
[ [(Helvetica) 140.0 0.0 true true 0 ( 16)]
] -46.7 MRshow
1.000 UL
LTb
LCb setrgbcolor
1.000 UL
LTa
0.73 0.73 0.73 C 602 4899 M
5526 0 V
stroke
LTb
LCb setrgbcolor
602 4899 M
63 0 V
5463 0 R
-63 0 V
stroke
518 4899 M
[ [(Helvetica) 140.0 0.0 true true 0 ( 18)]
] -46.7 MRshow
1.000 UL
LTb
LCb setrgbcolor
1.000 UL
LTa
0.73 0.73 0.73 C 602 448 M
0 4451 V
stroke
LTb
LCb setrgbcolor
602 448 M
0 63 V
0 4388 R
0 -63 V
stroke
602 308 M
[ [(Helvetica) 140.0 0.0 true true 0 ( 0)]
] -46.7 MCshow
1.000 UL
LTb
LCb setrgbcolor
1.000 UL
LTa
0.73 0.73 0.73 C 1293 448 M
0 4451 V
stroke
LTb
LCb setrgbcolor
1293 448 M
0 63 V
0 4388 R
0 -63 V
stroke
1293 308 M
[ [(Helvetica) 140.0 0.0 true true 0 ( 500)]
] -46.7 MCshow
1.000 UL
LTb
LCb setrgbcolor
1.000 UL
LTa
0.73 0.73 0.73 C 1984 448 M
0 4451 V
stroke
LTb
LCb setrgbcolor
1984 448 M
0 63 V
0 4388 R
0 -63 V
stroke
1984 308 M
[ [(Helvetica) 140.0 0.0 true true 0 ( 1000)]
] -46.7 MCshow
1.000 UL
LTb
LCb setrgbcolor
1.000 UL
LTa
0.73 0.73 0.73 C 2674 448 M
0 4451 V
stroke
LTb
LCb setrgbcolor
2674 448 M
0 63 V
0 4388 R
0 -63 V
stroke
2674 308 M
[ [(Helvetica) 140.0 0.0 true true 0 ( 1500)]
] -46.7 MCshow
1.000 UL
LTb
LCb setrgbcolor
1.000 UL
LTa
0.73 0.73 0.73 C 3365 448 M
0 4451 V
stroke
LTb
LCb setrgbcolor
3365 448 M
0 63 V
0 4388 R
0 -63 V
stroke
3365 308 M
[ [(Helvetica) 140.0 0.0 true true 0 ( 2000)]
] -46.7 MCshow
1.000 UL
LTb
LCb setrgbcolor
1.000 UL
LTa
0.73 0.73 0.73 C 4056 448 M
0 4451 V
stroke
LTb
LCb setrgbcolor
4056 448 M
0 63 V
0 4388 R
0 -63 V
stroke
4056 308 M
[ [(Helvetica) 140.0 0.0 true true 0 ( 2500)]
] -46.7 MCshow
1.000 UL
LTb
LCb setrgbcolor
1.000 UL
LTa
0.73 0.73 0.73 C 4747 448 M
0 4451 V
stroke
LTb
LCb setrgbcolor
4747 448 M
0 63 V
0 4388 R
0 -63 V
stroke
4747 308 M
[ [(Helvetica) 140.0 0.0 true true 0 ( 3000)]
] -46.7 MCshow
1.000 UL
LTb
LCb setrgbcolor
1.000 UL
LTa
0.73 0.73 0.73 C 5437 448 M
0 4451 V
stroke
LTb
LCb setrgbcolor
5437 448 M
0 63 V
0 4388 R
0 -63 V
stroke
5437 308 M
[ [(Helvetica) 140.0 0.0 true true 0 ( 3500)]
] -46.7 MCshow
1.000 UL
LTb
LCb setrgbcolor
1.000 UL
LTa
0.73 0.73 0.73 C 6128 448 M
0 4451 V
stroke
LTb
LCb setrgbcolor
6128 448 M
0 63 V
0 4388 R
0 -63 V
stroke
6128 308 M
[ [(Helvetica) 140.0 0.0 true true 0 ( 4000)]
] -46.7 MCshow
1.000 UL
LTb
LCb setrgbcolor
1.000 UL
LTB
LCb setrgbcolor
602 4899 N
602 448 L
5526 0 V
0 4451 V
-5526 0 V
Z stroke
1.000 UP
1.000 UL
LTb
LCb setrgbcolor
LCb setrgbcolor
126 2673 M
currentpoint gsave translate -270 rotate 0 0 moveto
[ [(Helvetica) 140.0 0.0 true true 0 (quality Index)]
] -46.7 MCshow
grestore
LTb
LCb setrgbcolor
3365 98 M
[ [(Helvetica) 140.0 0.0 true true 0 (Throughput from dataset)]
] -46.7 MCshow
LTb
% Begin plot #1
1.000 UP
1.000 UL
LTb
0.58 0.00 0.83 C LCb setrgbcolor
6548 4829 M
[ [(Helvetica) 140.0 0.0 true true 0 (A 0)]
] -46.7 MRshow
1.000 UP
1.000 UL
LTb
0.58 0.00 0.83 C 663 448 Pls
5312 4430 Pls
4932 4165 Pls
5874 4834 Pls
4995 4247 Pls
5699 4724 Pls
5683 4728 Pls
1302 2342 Pls
5587 4689 Pls
5177 4352 Pls
5303 4437 Pls
3792 3507 Pls
2378 3197 Pls
5637 4717 Pls
5083 4327 Pls
2380 3186 Pls
5103 4382 Pls
5181 4361 Pls
2426 2031 Pls
4907 4287 Pls
602 448 Pls
5663 4722 Pls
5405 4587 Pls
5378 4458 Pls
5038 4300 Pls
4260 3915 Pls
5437 4448 Pls
5277 4297 Pls
5699 4694 Pls
3720 3090 Pls
4665 4062 Pls
4994 4221 Pls
5474 4602 Pls
5056 4349 Pls
5430 4423 Pls
5470 4540 Pls
5467 4577 Pls
5300 4522 Pls
5746 4737 Pls
5460 4573 Pls
5580 4689 Pls
5199 4385 Pls
4780 4247 Pls
5411 4509 Pls
5573 4635 Pls
5597 4634 Pls
5444 4544 Pls
5603 4641 Pls
5630 4780 Pls
5595 4651 Pls
5416 4551 Pls
5391 4517 Pls
5584 4673 Pls
4032 3783 Pls
3556 3709 Pls
5425 4482 Pls
5272 4427 Pls
4892 4158 Pls
4996 4244 Pls
5285 4493 Pls
4871 4303 Pls
5497 4597 Pls
5656 4734 Pls
2710 2777 Pls
5493 4627 Pls
3095 3510 Pls
5487 4551 Pls
5741 4753 Pls
3079 2551 Pls
4747 4125 Pls
5776 4742 Pls
5691 4690 Pls
5750 4735 Pls
5099 4231 Pls
3092 3458 Pls
4533 3996 Pls
4728 4106 Pls
5409 4482 Pls
5318 4470 Pls
4712 3989 Pls
3550 3768 Pls
5403 4547 Pls
4882 4112 Pls
5528 4525 Pls
5150 4346 Pls
5499 4624 Pls
666 455 Pls
5374 4513 Pls
3393 3562 Pls
5187 4345 Pls
5372 4575 Pls
5694 4691 Pls
5314 4561 Pls
5694 4767 Pls
5709 4688 Pls
5313 4333 Pls
4475 3678 Pls
5644 4696 Pls
5718 4809 Pls
1292 1791 Pls
3605 2926 Pls
5545 4603 Pls
5591 4725 Pls
5239 4460 Pls
5421 4579 Pls
2520 3396 Pls
5669 4673 Pls
5035 4167 Pls
3129 3502 Pls
5243 4437 Pls
3647 3810 Pls
5341 4565 Pls
3242 2834 Pls
3760 3170 Pls
5411 4503 Pls
5231 4438 Pls
5706 4723 Pls
2013 1638 Pls
3205 3583 Pls
5694 4675 Pls
4590 3902 Pls
5436 4589 Pls
5550 4650 Pls
4124 3855 Pls
4916 4240 Pls
5010 4303 Pls
5693 4710 Pls
2367 3193 Pls
5329 4450 Pls
5301 4523 Pls
5742 4755 Pls
3732 3891 Pls
5364 4512 Pls
5414 4558 Pls
602 448 Pls
671 459 Pls
602 448 Pls
602 448 Pls
602 448 Pls
602 448 Pls
1843 1816 Pls
602 448 Pls
602 448 Pls
602 448 Pls
602 448 Pls
602 448 Pls
664 448 Pls
602 448 Pls
602 448 Pls
602 448 Pls
602 448 Pls
602 448 Pls
664 448 Pls
602 448 Pls
602 448 Pls
602 448 Pls
602 448 Pls
602 448 Pls
602 448 Pls
723 693 Pls
5300 4471 Pls
656 448 Pls
5571 4625 Pls
5123 4367 Pls
2575 3455 Pls
1065 1880 Pls
3554 3736 Pls
928 1373 Pls
3545 2998 Pls
5482 4543 Pls
4163 3809 Pls
5706 4774 Pls
5235 4400 Pls
2674 2272 Pls
5522 4671 Pls
5242 4506 Pls
5073 4245 Pls
4542 4018 Pls
5670 4581 Pls
5331 4488 Pls
5465 4499 Pls
5236 4412 Pls
5790 4772 Pls
4576 4005 Pls
679 468 Pls
5191 4366 Pls
5336 4512 Pls
5176 4335 Pls
6831 4829 Pls
% End plot #1
% Begin plot #2
1.000 UP
1.000 UL
LTb
0.00 0.62 0.45 C LCb setrgbcolor
6548 4689 M
[ [(Helvetica) 140.0 0.0 true true 0 (A 1)]
] -46.7 MRshow
1.000 UP
1.000 UL
LTb
0.00 0.62 0.45 C 663 448 Crs
4642 4139 Crs
4693 4222 Crs
5083 4561 Crs
3660 3395 Crs
4931 4423 Crs
5174 4624 Crs
1235 2313 Crs
5786 4773 Crs
4647 4177 Crs
4709 4404 Crs
3603 3809 Crs
2270 3282 Crs
5274 4505 Crs
5039 4265 Crs
2813 3599 Crs
4687 4438 Crs
4689 4358 Crs
2407 2062 Crs
4599 4403 Crs
602 448 Crs
5118 4514 Crs
5115 4434 Crs
5023 4442 Crs
4762 4248 Crs
3915 4165 Crs
4821 4463 Crs
4717 4462 Crs
4851 4515 Crs
3493 3212 Crs
4167 4298 Crs
4592 4271 Crs
5040 4588 Crs
4547 4328 Crs
4917 4550 Crs
5028 4526 Crs
4901 4397 Crs
4520 4228 Crs
4925 4579 Crs
4591 4362 Crs
4877 4523 Crs
4622 4318 Crs
4372 4303 Crs
4692 4242 Crs
4791 4444 Crs
4685 4359 Crs
5690 4789 Crs
4806 4301 Crs
5605 4696 Crs
5151 4611 Crs
4906 4393 Crs
4843 4382 Crs
5032 4536 Crs
3697 3990 Crs
3704 4067 Crs
5197 4671 Crs
4732 4253 Crs
4446 4119 Crs
4697 4246 Crs
4661 4430 Crs
4738 4494 Crs
4964 4444 Crs
5114 4597 Crs
2479 2653 Crs
5109 4604 Crs
3196 3695 Crs
4797 4462 Crs
4837 4473 Crs
4387 3926 Crs
4246 4282 Crs
4559 4207 Crs
4861 4381 Crs
5096 4585 Crs
4653 4447 Crs
2994 3652 Crs
4302 4305 Crs
4562 4358 Crs
5149 4615 Crs
5047 4391 Crs
4861 4504 Crs
3582 4024 Crs
5090 4367 Crs
4431 4155 Crs
4818 4572 Crs
4767 4295 Crs
4844 4387 Crs
693 471 Crs
4708 4415 Crs
3371 3768 Crs
4912 4405 Crs
4880 4467 Crs
4917 4542 Crs
4838 4420 Crs
5171 4574 Crs
4825 4579 Crs
4724 4471 Crs
4826 4496 Crs
5071 4556 Crs
5411 4619 Crs
1274 1754 Crs
4784 4528 Crs
3114 2763 Crs
5150 4481 Crs
4666 4398 Crs
5405 4531 Crs
2761 3548 Crs
5053 4532 Crs
4685 4334 Crs
3244 3726 Crs
4742 4403 Crs
3565 4008 Crs
4686 4257 Crs
3360 3163 Crs
3726 3117 Crs
5523 4742 Crs
4657 4352 Crs
5128 4596 Crs
4499 4295 Crs
3200 3707 Crs
4900 4547 Crs
4879 4373 Crs
4944 4493 Crs
4198 3869 Crs
3750 4060 Crs
5496 4685 Crs
4736 4275 Crs
4806 4304 Crs
2697 3424 Crs
4740 4262 Crs
4898 4438 Crs
5006 4499 Crs
3732 4049 Crs
5014 4427 Crs
4930 4435 Crs
602 448 Crs
602 448 Crs
602 448 Crs
602 448 Crs
602 448 Crs
602 448 Crs
602 448 Crs
602 448 Crs
602 448 Crs
602 448 Crs
602 448 Crs
602 448 Crs
717 488 Crs
602 448 Crs
602 448 Crs
602 448 Crs
602 448 Crs
602 448 Crs
664 448 Crs
602 448 Crs
602 448 Crs
602 448 Crs
602 448 Crs
602 448 Crs
602 448 Crs
731 711 Crs
4715 4419 Crs
660 448 Crs
4909 4421 Crs
5135 4325 Crs
2895 3659 Crs
1060 1944 Crs
3724 4028 Crs
872 1274 Crs
3163 2708 Crs
2998 2752 Crs
4023 4195 Crs
5529 4642 Crs
4841 4355 Crs
2853 2649 Crs
5260 4488 Crs
4573 4360 Crs
4781 4324 Crs
4103 4119 Crs
4707 4452 Crs
4605 4254 Crs
1165 983 Crs
5599 4729 Crs
4763 4431 Crs
3952 4058 Crs
672 465 Crs
4715 4243 Crs
4966 4449 Crs
5122 4601 Crs
6831 4689 Crs
% End plot #2
% Begin plot #3
1.000 UP
1.000 UL
LTb
0.34 0.71 0.91 C LCb setrgbcolor
6548 4549 M
[ [(Helvetica) 140.0 0.0 true true 0 (A 2)]
] -46.7 MRshow
1.000 UP
1.000 UL
LTb
0.34 0.71 0.91 C 663 448 Star
2389 2005 Star
5135 4401 Star
5564 4720 Star
5216 4401 Star
5326 4576 Star
5454 4538 Star
1275 2376 Star
5682 4817 Star
5436 4610 Star
5222 4426 Star
3977 3981 Star
2495 3363 Star
5618 4740 Star
5190 4452 Star
2905 3479 Star
2664 2217 Star
5145 4355 Star
5151 4329 Star
5333 4475 Star
602 448 Star
5340 4580 Star
5571 4699 Star
5547 4652 Star
5138 4392 Star
4011 3930 Star
5568 4672 Star
5417 4507 Star
5562 4632 Star
4634 3837 Star
4712 4375 Star
5009 4199 Star
5142 4337 Star
5182 4305 Star
5153 4322 Star
5342 4526 Star
5300 4522 Star
5277 4455 Star
5351 4535 Star
5274 4403 Star
5252 4461 Star
4966 4247 Star
5061 4480 Star
5324 4578 Star
5559 4634 Star
5125 4247 Star
5047 4241 Star
5462 4635 Star
4895 4132 Star
5472 4584 Star
5273 4429 Star
5146 4401 Star
5258 4448 Star
4026 4031 Star
4055 4120 Star
5334 4499 Star
5226 4430 Star
5221 4398 Star
5140 4399 Star
5497 4662 Star
4170 3527 Star
5546 4662 Star
5603 4712 Star
944 823 Star
5303 4471 Star
3359 3760 Star
5172 4404 Star
5206 4355 Star
2292 1902 Star
4792 4349 Star
5414 4494 Star
5360 4550 Star
5194 4399 Star
5335 4501 Star
3254 3732 Star
4851 4385 Star
5197 4462 Star
5333 4527 Star
5015 4255 Star
5262 4481 Star
3824 4089 Star
5242 4472 Star
5211 4407 Star
5449 4506 Star
5653 4683 Star
5411 4600 Star
675 509 Star
5239 4413 Star
3691 3906 Star
5031 4248 Star
5573 4728 Star
5430 4570 Star
5342 4550 Star
5347 4534 Star
5450 4612 Star
5517 4617 Star
4825 4056 Star
5203 4404 Star
5701 4799 Star
1100 1354 Star
4017 3282 Star
3052 2529 Star
5355 4608 Star
5110 4308 Star
5162 4416 Star
2990 3644 Star
5240 4404 Star
5152 4346 Star
3565 4023 Star
5217 4360 Star
3664 3927 Star
3554 3019 Star
2725 2253 Star
3668 3136 Star
5116 4341 Star
5345 4445 Star
5193 4374 Star
3135 2567 Star
3368 3840 Star
5182 4390 Star
5195 4366 Star
5312 4492 Star
5239 4519 Star
4090 4118 Star
4697 4016 Star
5012 4285 Star
4981 4190 Star
2925 3515 Star
5145 4358 Star
5321 4484 Star
5358 4514 Star
3916 4013 Star
5130 4389 Star
5144 4300 Star
602 448 Star
602 448 Star
602 448 Star
602 448 Star
602 448 Star
602 448 Star
1622 1597 Star
602 448 Star
602 448 Star
602 448 Star
602 448 Star
602 448 Star
664 448 Star
602 448 Star
602 448 Star
602 448 Star
602 448 Star
602 448 Star
664 448 Star
602 448 Star
602 448 Star
602 448 Star
602 448 Star
602 448 Star
602 448 Star
737 792 Star
5260 4438 Star
660 448 Star
2978 2502 Star
5315 4543 Star
3001 3585 Star
1068 1972 Star
4071 4068 Star
879 1391 Star
5226 4457 Star
5408 4562 Star
4392 4179 Star
5676 4778 Star
5284 4425 Star
2638 2180 Star
5183 4450 Star
5485 4654 Star
5167 4393 Star
4943 4482 Star
5642 4663 Star
5480 4604 Star
5547 4682 Star
5576 4706 Star
5510 4654 Star
4579 4269 Star
669 486 Star
5026 4266 Star
5376 4547 Star
5255 4513 Star
6831 4549 Star
% End plot #3
2.000 UL
LTb
LCb setrgbcolor
1.000 UL
LTB
LCb setrgbcolor
602 4899 N
602 448 L
5526 0 V
0 4451 V
-5526 0 V
Z stroke
1.000 UP
1.000 UL
LTb
LCb setrgbcolor
stroke
grestore
end
showpage
%%Trailer
%%DocumentFonts: Helvetica
