%!PS-Adobe-2.0 EPSF-2.0
%%Title: q_thr1.eps
%%Creator: gnuplot 5.2 patchlevel 0
%%CreationDate: Fri Nov 24 15:10:57 2017
%%DocumentFonts: (atend)
%%BoundingBox: 50 50 410 302
%%EndComments
%%BeginProlog
/gnudict 256 dict def
gnudict begin
%
% The following true/false flags may be edited by hand if desired.
% The unit line width and grayscale image gamma correction may also be changed.
%
/Color true def
/Blacktext false def
/Solid false def
/Dashlength 1 def
/Landscape false def
/Level1 false def
/Level3 false def
/Rounded false def
/ClipToBoundingBox false def
/SuppressPDFMark false def
/TransparentPatterns false def
/gnulinewidth 5.000 def
/userlinewidth gnulinewidth def
/Gamma 1.0 def
/BackgroundColor {-1.000 -1.000 -1.000} def
%
/vshift -46 def
/dl1 {
  10.0 Dashlength userlinewidth gnulinewidth div mul mul mul
  Rounded { currentlinewidth 0.75 mul sub dup 0 le { pop 0.01 } if } if
} def
/dl2 {
  10.0 Dashlength userlinewidth gnulinewidth div mul mul mul
  Rounded { currentlinewidth 0.75 mul add } if
} def
/hpt_ 31.5 def
/vpt_ 31.5 def
/hpt hpt_ def
/vpt vpt_ def
/doclip {
  ClipToBoundingBox {
    newpath 50 50 moveto 410 50 lineto 410 302 lineto 50 302 lineto closepath
    clip
  } if
} def
%
% Gnuplot Prolog Version 5.1 (Oct 2015)
%
%/SuppressPDFMark true def
%
/M {moveto} bind def
/L {lineto} bind def
/R {rmoveto} bind def
/V {rlineto} bind def
/N {newpath moveto} bind def
/Z {closepath} bind def
/C {setrgbcolor} bind def
/f {rlineto fill} bind def
/g {setgray} bind def
/Gshow {show} def   % May be redefined later in the file to support UTF-8
/vpt2 vpt 2 mul def
/hpt2 hpt 2 mul def
/Lshow {currentpoint stroke M 0 vshift R 
	Blacktext {gsave 0 setgray textshow grestore} {textshow} ifelse} def
/Rshow {currentpoint stroke M dup stringwidth pop neg vshift R
	Blacktext {gsave 0 setgray textshow grestore} {textshow} ifelse} def
/Cshow {currentpoint stroke M dup stringwidth pop -2 div vshift R 
	Blacktext {gsave 0 setgray textshow grestore} {textshow} ifelse} def
/UP {dup vpt_ mul /vpt exch def hpt_ mul /hpt exch def
  /hpt2 hpt 2 mul def /vpt2 vpt 2 mul def} def
/DL {Color {setrgbcolor Solid {pop []} if 0 setdash}
 {pop pop pop 0 setgray Solid {pop []} if 0 setdash} ifelse} def
/BL {stroke userlinewidth 2 mul setlinewidth
	Rounded {1 setlinejoin 1 setlinecap} if} def
/AL {stroke userlinewidth 2 div setlinewidth
	Rounded {1 setlinejoin 1 setlinecap} if} def
/UL {dup gnulinewidth mul /userlinewidth exch def
	dup 1 lt {pop 1} if 10 mul /udl exch def} def
/PL {stroke userlinewidth setlinewidth
	Rounded {1 setlinejoin 1 setlinecap} if} def
3.8 setmiterlimit
% Classic Line colors (version 5.0)
/LCw {1 1 1} def
/LCb {0 0 0} def
/LCa {0 0 0} def
/LC0 {1 0 0} def
/LC1 {0 1 0} def
/LC2 {0 0 1} def
/LC3 {1 0 1} def
/LC4 {0 1 1} def
/LC5 {1 1 0} def
/LC6 {0 0 0} def
/LC7 {1 0.3 0} def
/LC8 {0.5 0.5 0.5} def
% Default dash patterns (version 5.0)
/LTB {BL [] LCb DL} def
/LTw {PL [] 1 setgray} def
/LTb {PL [] LCb DL} def
/LTa {AL [1 udl mul 2 udl mul] 0 setdash LCa setrgbcolor} def
/LT0 {PL [] LC0 DL} def
/LT1 {PL [2 dl1 3 dl2] LC1 DL} def
/LT2 {PL [1 dl1 1.5 dl2] LC2 DL} def
/LT3 {PL [6 dl1 2 dl2 1 dl1 2 dl2] LC3 DL} def
/LT4 {PL [1 dl1 2 dl2 6 dl1 2 dl2 1 dl1 2 dl2] LC4 DL} def
/LT5 {PL [4 dl1 2 dl2] LC5 DL} def
/LT6 {PL [1.5 dl1 1.5 dl2 1.5 dl1 1.5 dl2 1.5 dl1 6 dl2] LC6 DL} def
/LT7 {PL [3 dl1 3 dl2 1 dl1 3 dl2] LC7 DL} def
/LT8 {PL [2 dl1 2 dl2 2 dl1 6 dl2] LC8 DL} def
/SL {[] 0 setdash} def
/Pnt {stroke [] 0 setdash gsave 1 setlinecap M 0 0 V stroke grestore} def
/Dia {stroke [] 0 setdash 2 copy vpt add M
  hpt neg vpt neg V hpt vpt neg V
  hpt vpt V hpt neg vpt V closepath stroke
  Pnt} def
/Pls {stroke [] 0 setdash vpt sub M 0 vpt2 V
  currentpoint stroke M
  hpt neg vpt neg R hpt2 0 V stroke
 } def
/Box {stroke [] 0 setdash 2 copy exch hpt sub exch vpt add M
  0 vpt2 neg V hpt2 0 V 0 vpt2 V
  hpt2 neg 0 V closepath stroke
  Pnt} def
/Crs {stroke [] 0 setdash exch hpt sub exch vpt add M
  hpt2 vpt2 neg V currentpoint stroke M
  hpt2 neg 0 R hpt2 vpt2 V stroke} def
/TriU {stroke [] 0 setdash 2 copy vpt 1.12 mul add M
  hpt neg vpt -1.62 mul V
  hpt 2 mul 0 V
  hpt neg vpt 1.62 mul V closepath stroke
  Pnt} def
/Star {2 copy Pls Crs} def
/BoxF {stroke [] 0 setdash exch hpt sub exch vpt add M
  0 vpt2 neg V hpt2 0 V 0 vpt2 V
  hpt2 neg 0 V closepath fill} def
/TriUF {stroke [] 0 setdash vpt 1.12 mul add M
  hpt neg vpt -1.62 mul V
  hpt 2 mul 0 V
  hpt neg vpt 1.62 mul V closepath fill} def
/TriD {stroke [] 0 setdash 2 copy vpt 1.12 mul sub M
  hpt neg vpt 1.62 mul V
  hpt 2 mul 0 V
  hpt neg vpt -1.62 mul V closepath stroke
  Pnt} def
/TriDF {stroke [] 0 setdash vpt 1.12 mul sub M
  hpt neg vpt 1.62 mul V
  hpt 2 mul 0 V
  hpt neg vpt -1.62 mul V closepath fill} def
/DiaF {stroke [] 0 setdash vpt add M
  hpt neg vpt neg V hpt vpt neg V
  hpt vpt V hpt neg vpt V closepath fill} def
/Pent {stroke [] 0 setdash 2 copy gsave
  translate 0 hpt M 4 {72 rotate 0 hpt L} repeat
  closepath stroke grestore Pnt} def
/PentF {stroke [] 0 setdash gsave
  translate 0 hpt M 4 {72 rotate 0 hpt L} repeat
  closepath fill grestore} def
/Circle {stroke [] 0 setdash 2 copy
  hpt 0 360 arc stroke Pnt} def
/CircleF {stroke [] 0 setdash hpt 0 360 arc fill} def
/C0 {BL [] 0 setdash 2 copy moveto vpt 90 450 arc} bind def
/C1 {BL [] 0 setdash 2 copy moveto
	2 copy vpt 0 90 arc closepath fill
	vpt 0 360 arc closepath} bind def
/C2 {BL [] 0 setdash 2 copy moveto
	2 copy vpt 90 180 arc closepath fill
	vpt 0 360 arc closepath} bind def
/C3 {BL [] 0 setdash 2 copy moveto
	2 copy vpt 0 180 arc closepath fill
	vpt 0 360 arc closepath} bind def
/C4 {BL [] 0 setdash 2 copy moveto
	2 copy vpt 180 270 arc closepath fill
	vpt 0 360 arc closepath} bind def
/C5 {BL [] 0 setdash 2 copy moveto
	2 copy vpt 0 90 arc
	2 copy moveto
	2 copy vpt 180 270 arc closepath fill
	vpt 0 360 arc} bind def
/C6 {BL [] 0 setdash 2 copy moveto
	2 copy vpt 90 270 arc closepath fill
	vpt 0 360 arc closepath} bind def
/C7 {BL [] 0 setdash 2 copy moveto
	2 copy vpt 0 270 arc closepath fill
	vpt 0 360 arc closepath} bind def
/C8 {BL [] 0 setdash 2 copy moveto
	2 copy vpt 270 360 arc closepath fill
	vpt 0 360 arc closepath} bind def
/C9 {BL [] 0 setdash 2 copy moveto
	2 copy vpt 270 450 arc closepath fill
	vpt 0 360 arc closepath} bind def
/C10 {BL [] 0 setdash 2 copy 2 copy moveto vpt 270 360 arc closepath fill
	2 copy moveto
	2 copy vpt 90 180 arc closepath fill
	vpt 0 360 arc closepath} bind def
/C11 {BL [] 0 setdash 2 copy moveto
	2 copy vpt 0 180 arc closepath fill
	2 copy moveto
	2 copy vpt 270 360 arc closepath fill
	vpt 0 360 arc closepath} bind def
/C12 {BL [] 0 setdash 2 copy moveto
	2 copy vpt 180 360 arc closepath fill
	vpt 0 360 arc closepath} bind def
/C13 {BL [] 0 setdash 2 copy moveto
	2 copy vpt 0 90 arc closepath fill
	2 copy moveto
	2 copy vpt 180 360 arc closepath fill
	vpt 0 360 arc closepath} bind def
/C14 {BL [] 0 setdash 2 copy moveto
	2 copy vpt 90 360 arc closepath fill
	vpt 0 360 arc} bind def
/C15 {BL [] 0 setdash 2 copy vpt 0 360 arc closepath fill
	vpt 0 360 arc closepath} bind def
/Rec {newpath 4 2 roll moveto 1 index 0 rlineto 0 exch rlineto
	neg 0 rlineto closepath} bind def
/Square {dup Rec} bind def
/Bsquare {vpt sub exch vpt sub exch vpt2 Square} bind def
/S0 {BL [] 0 setdash 2 copy moveto 0 vpt rlineto BL Bsquare} bind def
/S1 {BL [] 0 setdash 2 copy vpt Square fill Bsquare} bind def
/S2 {BL [] 0 setdash 2 copy exch vpt sub exch vpt Square fill Bsquare} bind def
/S3 {BL [] 0 setdash 2 copy exch vpt sub exch vpt2 vpt Rec fill Bsquare} bind def
/S4 {BL [] 0 setdash 2 copy exch vpt sub exch vpt sub vpt Square fill Bsquare} bind def
/S5 {BL [] 0 setdash 2 copy 2 copy vpt Square fill
	exch vpt sub exch vpt sub vpt Square fill Bsquare} bind def
/S6 {BL [] 0 setdash 2 copy exch vpt sub exch vpt sub vpt vpt2 Rec fill Bsquare} bind def
/S7 {BL [] 0 setdash 2 copy exch vpt sub exch vpt sub vpt vpt2 Rec fill
	2 copy vpt Square fill Bsquare} bind def
/S8 {BL [] 0 setdash 2 copy vpt sub vpt Square fill Bsquare} bind def
/S9 {BL [] 0 setdash 2 copy vpt sub vpt vpt2 Rec fill Bsquare} bind def
/S10 {BL [] 0 setdash 2 copy vpt sub vpt Square fill 2 copy exch vpt sub exch vpt Square fill
	Bsquare} bind def
/S11 {BL [] 0 setdash 2 copy vpt sub vpt Square fill 2 copy exch vpt sub exch vpt2 vpt Rec fill
	Bsquare} bind def
/S12 {BL [] 0 setdash 2 copy exch vpt sub exch vpt sub vpt2 vpt Rec fill Bsquare} bind def
/S13 {BL [] 0 setdash 2 copy exch vpt sub exch vpt sub vpt2 vpt Rec fill
	2 copy vpt Square fill Bsquare} bind def
/S14 {BL [] 0 setdash 2 copy exch vpt sub exch vpt sub vpt2 vpt Rec fill
	2 copy exch vpt sub exch vpt Square fill Bsquare} bind def
/S15 {BL [] 0 setdash 2 copy Bsquare fill Bsquare} bind def
/D0 {gsave translate 45 rotate 0 0 S0 stroke grestore} bind def
/D1 {gsave translate 45 rotate 0 0 S1 stroke grestore} bind def
/D2 {gsave translate 45 rotate 0 0 S2 stroke grestore} bind def
/D3 {gsave translate 45 rotate 0 0 S3 stroke grestore} bind def
/D4 {gsave translate 45 rotate 0 0 S4 stroke grestore} bind def
/D5 {gsave translate 45 rotate 0 0 S5 stroke grestore} bind def
/D6 {gsave translate 45 rotate 0 0 S6 stroke grestore} bind def
/D7 {gsave translate 45 rotate 0 0 S7 stroke grestore} bind def
/D8 {gsave translate 45 rotate 0 0 S8 stroke grestore} bind def
/D9 {gsave translate 45 rotate 0 0 S9 stroke grestore} bind def
/D10 {gsave translate 45 rotate 0 0 S10 stroke grestore} bind def
/D11 {gsave translate 45 rotate 0 0 S11 stroke grestore} bind def
/D12 {gsave translate 45 rotate 0 0 S12 stroke grestore} bind def
/D13 {gsave translate 45 rotate 0 0 S13 stroke grestore} bind def
/D14 {gsave translate 45 rotate 0 0 S14 stroke grestore} bind def
/D15 {gsave translate 45 rotate 0 0 S15 stroke grestore} bind def
/DiaE {stroke [] 0 setdash vpt add M
  hpt neg vpt neg V hpt vpt neg V
  hpt vpt V hpt neg vpt V closepath stroke} def
/BoxE {stroke [] 0 setdash exch hpt sub exch vpt add M
  0 vpt2 neg V hpt2 0 V 0 vpt2 V
  hpt2 neg 0 V closepath stroke} def
/TriUE {stroke [] 0 setdash vpt 1.12 mul add M
  hpt neg vpt -1.62 mul V
  hpt 2 mul 0 V
  hpt neg vpt 1.62 mul V closepath stroke} def
/TriDE {stroke [] 0 setdash vpt 1.12 mul sub M
  hpt neg vpt 1.62 mul V
  hpt 2 mul 0 V
  hpt neg vpt -1.62 mul V closepath stroke} def
/PentE {stroke [] 0 setdash gsave
  translate 0 hpt M 4 {72 rotate 0 hpt L} repeat
  closepath stroke grestore} def
/CircE {stroke [] 0 setdash 
  hpt 0 360 arc stroke} def
/Opaque {gsave closepath 1 setgray fill grestore 0 setgray closepath} def
/DiaW {stroke [] 0 setdash vpt add M
  hpt neg vpt neg V hpt vpt neg V
  hpt vpt V hpt neg vpt V Opaque stroke} def
/BoxW {stroke [] 0 setdash exch hpt sub exch vpt add M
  0 vpt2 neg V hpt2 0 V 0 vpt2 V
  hpt2 neg 0 V Opaque stroke} def
/TriUW {stroke [] 0 setdash vpt 1.12 mul add M
  hpt neg vpt -1.62 mul V
  hpt 2 mul 0 V
  hpt neg vpt 1.62 mul V Opaque stroke} def
/TriDW {stroke [] 0 setdash vpt 1.12 mul sub M
  hpt neg vpt 1.62 mul V
  hpt 2 mul 0 V
  hpt neg vpt -1.62 mul V Opaque stroke} def
/PentW {stroke [] 0 setdash gsave
  translate 0 hpt M 4 {72 rotate 0 hpt L} repeat
  Opaque stroke grestore} def
/CircW {stroke [] 0 setdash 
  hpt 0 360 arc Opaque stroke} def
/BoxFill {gsave Rec 1 setgray fill grestore} def
/Density {
  /Fillden exch def
  currentrgbcolor
  /ColB exch def /ColG exch def /ColR exch def
  /ColR ColR Fillden mul Fillden sub 1 add def
  /ColG ColG Fillden mul Fillden sub 1 add def
  /ColB ColB Fillden mul Fillden sub 1 add def
  ColR ColG ColB setrgbcolor} def
/BoxColFill {gsave Rec PolyFill} def
/PolyFill {gsave Density fill grestore grestore} def
/h {rlineto rlineto rlineto gsave closepath fill grestore} bind def
%
% PostScript Level 1 Pattern Fill routine for rectangles
% Usage: x y w h s a XX PatternFill
%	x,y = lower left corner of box to be filled
%	w,h = width and height of box
%	  a = angle in degrees between lines and x-axis
%	 XX = 0/1 for no/yes cross-hatch
%
/PatternFill {gsave /PFa [ 9 2 roll ] def
  PFa 0 get PFa 2 get 2 div add PFa 1 get PFa 3 get 2 div add translate
  PFa 2 get -2 div PFa 3 get -2 div PFa 2 get PFa 3 get Rec
  TransparentPatterns {} {gsave 1 setgray fill grestore} ifelse
  clip
  currentlinewidth 0.5 mul setlinewidth
  /PFs PFa 2 get dup mul PFa 3 get dup mul add sqrt def
  0 0 M PFa 5 get rotate PFs -2 div dup translate
  0 1 PFs PFa 4 get div 1 add floor cvi
	{PFa 4 get mul 0 M 0 PFs V} for
  0 PFa 6 get ne {
	0 1 PFs PFa 4 get div 1 add floor cvi
	{PFa 4 get mul 0 2 1 roll M PFs 0 V} for
 } if
  stroke grestore} def
%
/languagelevel where
 {pop languagelevel} {1} ifelse
dup 2 lt
	{/InterpretLevel1 true def
	 /InterpretLevel3 false def}
	{/InterpretLevel1 Level1 def
	 2 gt
	    {/InterpretLevel3 Level3 def}
	    {/InterpretLevel3 false def}
	 ifelse }
 ifelse
%
% PostScript level 2 pattern fill definitions
%
/Level2PatternFill {
/Tile8x8 {/PaintType 2 /PatternType 1 /TilingType 1 /BBox [0 0 8 8] /XStep 8 /YStep 8}
	bind def
/KeepColor {currentrgbcolor [/Pattern /DeviceRGB] setcolorspace} bind def
<< Tile8x8
 /PaintProc {0.5 setlinewidth pop 0 0 M 8 8 L 0 8 M 8 0 L stroke} 
>> matrix makepattern
/Pat1 exch def
<< Tile8x8
 /PaintProc {0.5 setlinewidth pop 0 0 M 8 8 L 0 8 M 8 0 L stroke
	0 4 M 4 8 L 8 4 L 4 0 L 0 4 L stroke}
>> matrix makepattern
/Pat2 exch def
<< Tile8x8
 /PaintProc {0.5 setlinewidth pop 0 0 M 0 8 L
	8 8 L 8 0 L 0 0 L fill}
>> matrix makepattern
/Pat3 exch def
<< Tile8x8
 /PaintProc {0.5 setlinewidth pop -4 8 M 8 -4 L
	0 12 M 12 0 L stroke}
>> matrix makepattern
/Pat4 exch def
<< Tile8x8
 /PaintProc {0.5 setlinewidth pop -4 0 M 8 12 L
	0 -4 M 12 8 L stroke}
>> matrix makepattern
/Pat5 exch def
<< Tile8x8
 /PaintProc {0.5 setlinewidth pop -2 8 M 4 -4 L
	0 12 M 8 -4 L 4 12 M 10 0 L stroke}
>> matrix makepattern
/Pat6 exch def
<< Tile8x8
 /PaintProc {0.5 setlinewidth pop -2 0 M 4 12 L
	0 -4 M 8 12 L 4 -4 M 10 8 L stroke}
>> matrix makepattern
/Pat7 exch def
<< Tile8x8
 /PaintProc {0.5 setlinewidth pop 8 -2 M -4 4 L
	12 0 M -4 8 L 12 4 M 0 10 L stroke}
>> matrix makepattern
/Pat8 exch def
<< Tile8x8
 /PaintProc {0.5 setlinewidth pop 0 -2 M 12 4 L
	-4 0 M 12 8 L -4 4 M 8 10 L stroke}
>> matrix makepattern
/Pat9 exch def
/Pattern1 {PatternBgnd KeepColor Pat1 setpattern} bind def
/Pattern2 {PatternBgnd KeepColor Pat2 setpattern} bind def
/Pattern3 {PatternBgnd KeepColor Pat3 setpattern} bind def
/Pattern4 {PatternBgnd KeepColor Landscape {Pat5} {Pat4} ifelse setpattern} bind def
/Pattern5 {PatternBgnd KeepColor Landscape {Pat4} {Pat5} ifelse setpattern} bind def
/Pattern6 {PatternBgnd KeepColor Landscape {Pat9} {Pat6} ifelse setpattern} bind def
/Pattern7 {PatternBgnd KeepColor Landscape {Pat8} {Pat7} ifelse setpattern} bind def
} def
%
%
%End of PostScript Level 2 code
%
/PatternBgnd {
  TransparentPatterns {} {gsave 1 setgray fill grestore} ifelse
} def
%
% Substitute for Level 2 pattern fill codes with
% grayscale if Level 2 support is not selected.
%
/Level1PatternFill {
/Pattern1 {0.250 Density} bind def
/Pattern2 {0.500 Density} bind def
/Pattern3 {0.750 Density} bind def
/Pattern4 {0.125 Density} bind def
/Pattern5 {0.375 Density} bind def
/Pattern6 {0.625 Density} bind def
/Pattern7 {0.875 Density} bind def
} def
%
% Now test for support of Level 2 code
%
Level1 {Level1PatternFill} {Level2PatternFill} ifelse
%
/Symbol-Oblique /Symbol findfont [1 0 .167 1 0 0] makefont
dup length dict begin {1 index /FID eq {pop pop} {def} ifelse} forall
currentdict end definefont pop
%
/Metrics {ExtendTextBox Gswidth} def
/Lwidth {currentpoint stroke M 0 vshift R Metrics} def
/Rwidth {currentpoint stroke M dup stringwidth pop neg vshift R Metrics} def
/Cwidth {currentpoint stroke M dup stringwidth pop -2 div vshift R Metrics} def
/GLwidth {currentpoint stroke M 0 vshift R {ExtendTextBox} forall} def
/GRwidth {currentpoint stroke M dup Gwidth vshift R {ExtendTextBox} forall} def
/GCwidth {currentpoint stroke M dup Gwidth 2 div vshift R {ExtendTextBox} forall} def
/GLwidth2 {0 Gwidth AddGlyphWidth} def
/GRwidth2 {Gwidth -1 mul 0 AddGlyphWidth} def
/GCwidth2 {Gwidth 2 div dup -1 mul AddGlyphWidth} def
/AddGlyphWidth { dup TBx2 gt {userdict /TBx2 3 -1 roll put} {pop} ifelse
                 dup TBx1 lt {userdict /TBx1 3 -1 roll put} {pop} ifelse } def
/MFshow {
   { dup 5 get 3 ge
     { 5 get 3 eq {gsave} {grestore} ifelse }
     {dup dup 0 get findfont exch 1 get scalefont setfont
     [ currentpoint ] exch dup 2 get 0 exch R dup 5 get 2 ne {dup dup 6
     get exch 4 get {textshow} {Metrics pop 0 R} ifelse }if dup 5 get 0 eq
     {dup 3 get {2 get neg 0 exch R pop} {pop aload pop M} ifelse} {dup 5
     get 1 eq {dup 2 get exch dup 3 get exch 6 get Gswidth pop -2 div
     dup 0 R} {dup 6 get Gswidth pop -2 div 0 R 6 get
     textshow 2 index {aload pop M neg 3 -1 roll neg R pop pop} {pop pop pop
     pop aload pop M} ifelse }ifelse }ifelse }
     ifelse }
   forall} def
/Gswidth {dup type /stringtype eq {stringwidth} {pop (n) stringwidth} ifelse} def
/MFwidth {0 exch { dup 5 get 3 ge { 5 get 3 eq { 0 } { pop } ifelse }
 {dup 3 get{dup dup 0 get findfont exch 1 get scalefont setfont
     6 get Gswidth pop add} {pop} ifelse} ifelse} forall} def
/MLshow { currentpoint stroke M
  0 exch R
  Blacktext {gsave 0 setgray MFshow grestore} {MFshow} ifelse } bind def
/MRshow { currentpoint stroke M
  exch dup MFwidth neg 3 -1 roll R
  Blacktext {gsave 0 setgray MFshow grestore} {MFshow} ifelse } bind def
/MCshow { currentpoint stroke M
  exch dup MFwidth -2 div 3 -1 roll R
  Blacktext {gsave 0 setgray MFshow grestore} {MFshow} ifelse } bind def
/XYsave    { [( ) 1 2 true false 3 ()] } bind def
/XYrestore { [( ) 1 2 true false 4 ()] } bind def
Level1 SuppressPDFMark or 
{} {
/SDict 10 dict def
systemdict /pdfmark known not {
  userdict /pdfmark systemdict /cleartomark get put
} if
SDict begin [
  /Title (q_thr1.eps)
  /Subject (gnuplot plot)
  /Creator (gnuplot 5.2 patchlevel 0)
%  /Producer (gnuplot)
%  /Keywords ()
  /CreationDate (Fri Nov 24 15:10:57 2017)
  /DOCINFO pdfmark
end
} ifelse
%
% Support for boxed text - Ethan A Merritt Sep 2016
%
/InitTextBox { userdict /TBy2 3 -1 roll put userdict /TBx2 3 -1 roll put
           userdict /TBy1 3 -1 roll put userdict /TBx1 3 -1 roll put
	   /Boxing true def } def
/ExtendTextBox { dup type /stringtype eq
    { Boxing { gsave dup false charpath pathbbox
      dup TBy2 gt {userdict /TBy2 3 -1 roll put} {pop} ifelse
      dup TBx2 gt {userdict /TBx2 3 -1 roll put} {pop} ifelse
      dup TBy1 lt {userdict /TBy1 3 -1 roll put} {pop} ifelse
      dup TBx1 lt {userdict /TBx1 3 -1 roll put} {pop} ifelse
      grestore } if }
    {} ifelse} def
/PopTextBox { newpath TBx1 TBxmargin sub TBy1 TBymargin sub M
               TBx1 TBxmargin sub TBy2 TBymargin add L
	       TBx2 TBxmargin add TBy2 TBymargin add L
	       TBx2 TBxmargin add TBy1 TBymargin sub L closepath } def
/DrawTextBox { PopTextBox stroke /Boxing false def} def
/FillTextBox { gsave PopTextBox fill grestore /Boxing false def} def
0 0 0 0 InitTextBox
/TBxmargin 20 def
/TBymargin 20 def
/Boxing false def
/textshow { ExtendTextBox Gshow } def
%
end
%%EndProlog
%%Page: 1 1
gnudict begin
gsave
doclip
50 50 translate
0.050 0.050 scale
0 setgray
newpath
(Helvetica) findfont 140 scalefont setfont
BackgroundColor 0 lt 3 1 roll 0 lt exch 0 lt or or not {BackgroundColor C 1.000 0 0 7200.00 5040.00 BoxColFill} if
1.000 UL
LTb
LCb setrgbcolor
1.000 UL
LTa
0.73 0.73 0.73 C 602 448 M
5526 0 V
stroke
LTb
LCb setrgbcolor
602 448 M
63 0 V
5463 0 R
-63 0 V
stroke
518 448 M
[ [(Helvetica) 140.0 0.0 true true 0 ( 0)]
] -46.7 MRshow
1.000 UL
LTb
LCb setrgbcolor
1.000 UL
LTa
0.73 0.73 0.73 C 602 893 M
5526 0 V
stroke
LTb
LCb setrgbcolor
602 893 M
63 0 V
5463 0 R
-63 0 V
stroke
518 893 M
[ [(Helvetica) 140.0 0.0 true true 0 ( 2)]
] -46.7 MRshow
1.000 UL
LTb
LCb setrgbcolor
1.000 UL
LTa
0.73 0.73 0.73 C 602 1338 M
5526 0 V
stroke
LTb
LCb setrgbcolor
602 1338 M
63 0 V
5463 0 R
-63 0 V
stroke
518 1338 M
[ [(Helvetica) 140.0 0.0 true true 0 ( 4)]
] -46.7 MRshow
1.000 UL
LTb
LCb setrgbcolor
1.000 UL
LTa
0.73 0.73 0.73 C 602 1783 M
5526 0 V
stroke
LTb
LCb setrgbcolor
602 1783 M
63 0 V
5463 0 R
-63 0 V
stroke
518 1783 M
[ [(Helvetica) 140.0 0.0 true true 0 ( 6)]
] -46.7 MRshow
1.000 UL
LTb
LCb setrgbcolor
1.000 UL
LTa
0.73 0.73 0.73 C 602 2228 M
5526 0 V
stroke
LTb
LCb setrgbcolor
602 2228 M
63 0 V
5463 0 R
-63 0 V
stroke
518 2228 M
[ [(Helvetica) 140.0 0.0 true true 0 ( 8)]
] -46.7 MRshow
1.000 UL
LTb
LCb setrgbcolor
1.000 UL
LTa
0.73 0.73 0.73 C 602 2674 M
5526 0 V
stroke
LTb
LCb setrgbcolor
602 2674 M
63 0 V
5463 0 R
-63 0 V
stroke
518 2674 M
[ [(Helvetica) 140.0 0.0 true true 0 ( 10)]
] -46.7 MRshow
1.000 UL
LTb
LCb setrgbcolor
1.000 UL
LTa
0.73 0.73 0.73 C 602 3119 M
5526 0 V
stroke
LTb
LCb setrgbcolor
602 3119 M
63 0 V
5463 0 R
-63 0 V
stroke
518 3119 M
[ [(Helvetica) 140.0 0.0 true true 0 ( 12)]
] -46.7 MRshow
1.000 UL
LTb
LCb setrgbcolor
1.000 UL
LTa
0.73 0.73 0.73 C 602 3564 M
5526 0 V
stroke
LTb
LCb setrgbcolor
602 3564 M
63 0 V
5463 0 R
-63 0 V
stroke
518 3564 M
[ [(Helvetica) 140.0 0.0 true true 0 ( 14)]
] -46.7 MRshow
1.000 UL
LTb
LCb setrgbcolor
1.000 UL
LTa
0.73 0.73 0.73 C 602 4009 M
5526 0 V
stroke
LTb
LCb setrgbcolor
602 4009 M
63 0 V
5463 0 R
-63 0 V
stroke
518 4009 M
[ [(Helvetica) 140.0 0.0 true true 0 ( 16)]
] -46.7 MRshow
1.000 UL
LTb
LCb setrgbcolor
1.000 UL
LTa
0.73 0.73 0.73 C 602 4454 M
5526 0 V
stroke
LTb
LCb setrgbcolor
602 4454 M
63 0 V
5463 0 R
-63 0 V
stroke
518 4454 M
[ [(Helvetica) 140.0 0.0 true true 0 ( 18)]
] -46.7 MRshow
1.000 UL
LTb
LCb setrgbcolor
1.000 UL
LTa
0.73 0.73 0.73 C 602 4899 M
5526 0 V
stroke
LTb
LCb setrgbcolor
602 4899 M
63 0 V
5463 0 R
-63 0 V
stroke
518 4899 M
[ [(Helvetica) 140.0 0.0 true true 0 ( 20)]
] -46.7 MRshow
1.000 UL
LTb
LCb setrgbcolor
1.000 UL
LTa
0.73 0.73 0.73 C 602 448 M
0 4451 V
stroke
LTb
LCb setrgbcolor
602 448 M
0 63 V
0 4388 R
0 -63 V
stroke
602 308 M
[ [(Helvetica) 140.0 0.0 true true 0 ( 0)]
] -46.7 MCshow
1.000 UL
LTb
LCb setrgbcolor
1.000 UL
LTa
0.73 0.73 0.73 C 1216 448 M
0 4451 V
stroke
LTb
LCb setrgbcolor
1216 448 M
0 63 V
0 4388 R
0 -63 V
stroke
1216 308 M
[ [(Helvetica) 140.0 0.0 true true 0 ( 500)]
] -46.7 MCshow
1.000 UL
LTb
LCb setrgbcolor
1.000 UL
LTa
0.73 0.73 0.73 C 1830 448 M
0 4451 V
stroke
LTb
LCb setrgbcolor
1830 448 M
0 63 V
0 4388 R
0 -63 V
stroke
1830 308 M
[ [(Helvetica) 140.0 0.0 true true 0 ( 1000)]
] -46.7 MCshow
1.000 UL
LTb
LCb setrgbcolor
1.000 UL
LTa
0.73 0.73 0.73 C 2444 448 M
0 4451 V
stroke
LTb
LCb setrgbcolor
2444 448 M
0 63 V
0 4388 R
0 -63 V
stroke
2444 308 M
[ [(Helvetica) 140.0 0.0 true true 0 ( 1500)]
] -46.7 MCshow
1.000 UL
LTb
LCb setrgbcolor
1.000 UL
LTa
0.73 0.73 0.73 C 3058 448 M
0 4451 V
stroke
LTb
LCb setrgbcolor
3058 448 M
0 63 V
0 4388 R
0 -63 V
stroke
3058 308 M
[ [(Helvetica) 140.0 0.0 true true 0 ( 2000)]
] -46.7 MCshow
1.000 UL
LTb
LCb setrgbcolor
1.000 UL
LTa
0.73 0.73 0.73 C 3672 448 M
0 4451 V
stroke
LTb
LCb setrgbcolor
3672 448 M
0 63 V
0 4388 R
0 -63 V
stroke
3672 308 M
[ [(Helvetica) 140.0 0.0 true true 0 ( 2500)]
] -46.7 MCshow
1.000 UL
LTb
LCb setrgbcolor
1.000 UL
LTa
0.73 0.73 0.73 C 4286 448 M
0 4451 V
stroke
LTb
LCb setrgbcolor
4286 448 M
0 63 V
0 4388 R
0 -63 V
stroke
4286 308 M
[ [(Helvetica) 140.0 0.0 true true 0 ( 3000)]
] -46.7 MCshow
1.000 UL
LTb
LCb setrgbcolor
1.000 UL
LTa
0.73 0.73 0.73 C 4900 448 M
0 4451 V
stroke
LTb
LCb setrgbcolor
4900 448 M
0 63 V
0 4388 R
0 -63 V
stroke
4900 308 M
[ [(Helvetica) 140.0 0.0 true true 0 ( 3500)]
] -46.7 MCshow
1.000 UL
LTb
LCb setrgbcolor
1.000 UL
LTa
0.73 0.73 0.73 C 5514 448 M
0 4451 V
stroke
LTb
LCb setrgbcolor
5514 448 M
0 63 V
0 4388 R
0 -63 V
stroke
5514 308 M
[ [(Helvetica) 140.0 0.0 true true 0 ( 4000)]
] -46.7 MCshow
1.000 UL
LTb
LCb setrgbcolor
1.000 UL
LTa
0.73 0.73 0.73 C 6128 448 M
0 4451 V
stroke
LTb
LCb setrgbcolor
6128 448 M
0 63 V
0 4388 R
0 -63 V
stroke
6128 308 M
[ [(Helvetica) 140.0 0.0 true true 0 ( 4500)]
] -46.7 MCshow
1.000 UL
LTb
LCb setrgbcolor
1.000 UL
LTB
LCb setrgbcolor
602 4899 N
602 448 L
5526 0 V
0 4451 V
-5526 0 V
Z stroke
1.000 UP
1.000 UL
LTb
LCb setrgbcolor
LCb setrgbcolor
126 2673 M
currentpoint gsave translate -270 rotate 0 0 moveto
[ [(Helvetica) 140.0 0.0 true true 0 (quality Index)]
] -46.7 MCshow
grestore
LTb
LCb setrgbcolor
3365 98 M
[ [(Helvetica) 140.0 0.0 true true 0 (Throughput from dataset)]
] -46.7 MCshow
LTb
% Begin plot #1
1.000 UP
1.000 UL
LTb
0.58 0.00 0.83 C LCb setrgbcolor
6548 4829 M
[ [(Helvetica) 140.0 0.0 true true 0 (A 0)]
] -46.7 MRshow
1.000 UP
1.000 UL
LTb
0.58 0.00 0.83 C 659 448 Pls
5896 4401 Pls
6023 4444 Pls
5998 4422 Pls
4785 3762 Pls
5826 4323 Pls
6081 4503 Pls
1250 2171 Pls
5909 4402 Pls
5975 4408 Pls
5147 4039 Pls
3405 3432 Pls
2068 2897 Pls
5866 4437 Pls
5559 4261 Pls
2404 3044 Pls
4849 3916 Pls
5115 4020 Pls
5968 4460 Pls
4752 3878 Pls
602 448 Pls
5942 4429 Pls
5693 4356 Pls
5881 4386 Pls
5851 4395 Pls
3421 3442 Pls
5355 4168 Pls
5506 4265 Pls
5959 4432 Pls
5551 4130 Pls
4329 3783 Pls
4958 3914 Pls
5970 4447 Pls
4889 3945 Pls
5181 4057 Pls
5950 4411 Pls
5645 4226 Pls
5315 4195 Pls
5351 4189 Pls
4713 3803 Pls
5908 4394 Pls
5128 4026 Pls
4770 3880 Pls
5612 4148 Pls
5884 4376 Pls
5426 4220 Pls
5884 4384 Pls
5890 4404 Pls
6021 4532 Pls
6048 4460 Pls
5616 4215 Pls
5939 4446 Pls
5681 4267 Pls
3395 3440 Pls
3446 3498 Pls
5895 4349 Pls
5904 4393 Pls
5874 4373 Pls
5968 4426 Pls
5067 4018 Pls
4690 3853 Pls
5953 4435 Pls
5444 4070 Pls
3105 3081 Pls
6002 4479 Pls
3019 3262 Pls
4465 3473 Pls
5299 4123 Pls
5497 4086 Pls
4228 3693 Pls
607 451 Pls
5931 4420 Pls
5844 4365 Pls
5359 4185 Pls
3041 3276 Pls
4175 3700 Pls
4877 3920 Pls
5976 4411 Pls
5683 4263 Pls
5329 4160 Pls
3547 3573 Pls
5716 4378 Pls
5385 4193 Pls
4876 3958 Pls
5921 4431 Pls
5808 4331 Pls
666 456 Pls
5261 4118 Pls
3385 3391 Pls
5875 4356 Pls
5893 4370 Pls
5305 4151 Pls
5813 4345 Pls
5964 4467 Pls
5384 4182 Pls
5444 4243 Pls
5121 4007 Pls
5992 4443 Pls
5701 4255 Pls
1664 2458 Pls
5321 4145 Pls
694 507 Pls
5588 4291 Pls
5059 4017 Pls
5656 4292 Pls
2520 3203 Pls
5981 4411 Pls
5269 4139 Pls
3042 3270 Pls
4982 3956 Pls
3585 3584 Pls
4959 3719 Pls
4813 3902 Pls
4910 3742 Pls
6049 4502 Pls
5815 4292 Pls
6017 4443 Pls
3545 2753 Pls
3049 3272 Pls
5290 4146 Pls
5791 4311 Pls
5778 4318 Pls
5447 4250 Pls
3488 3512 Pls
5735 4344 Pls
5730 4285 Pls
5509 4099 Pls
2429 3083 Pls
5720 4238 Pls
5795 4314 Pls
5938 4383 Pls
3555 3576 Pls
5875 4410 Pls
5552 4189 Pls
602 448 Pls
602 448 Pls
602 448 Pls
602 448 Pls
602 448 Pls
602 448 Pls
2372 2311 Pls
602 448 Pls
602 448 Pls
602 448 Pls
602 448 Pls
602 448 Pls
688 464 Pls
602 448 Pls
602 448 Pls
602 448 Pls
602 448 Pls
602 448 Pls
659 448 Pls
602 448 Pls
602 448 Pls
602 448 Pls
602 448 Pls
602 448 Pls
602 448 Pls
724 673 Pls
5019 3972 Pls
658 448 Pls
5877 4375 Pls
5533 4217 Pls
2529 3218 Pls
1033 1742 Pls
3429 3472 Pls
844 1098 Pls
5878 4448 Pls
4439 3477 Pls
4249 3694 Pls
5736 4304 Pls
6027 4469 Pls
3776 3053 Pls
5783 4335 Pls
5192 4137 Pls
5630 4211 Pls
4207 3701 Pls
5403 4195 Pls
5397 4222 Pls
6022 4427 Pls
5664 4276 Pls
5219 4078 Pls
4227 3685 Pls
659 452 Pls
5976 4442 Pls
5849 4409 Pls
5881 4367 Pls
6831 4829 Pls
% End plot #1
% Begin plot #2
1.000 UP
1.000 UL
LTb
0.00 0.62 0.45 C LCb setrgbcolor
6548 4689 M
[ [(Helvetica) 140.0 0.0 true true 0 (A 1)]
] -46.7 MRshow
1.000 UP
1.000 UL
LTb
0.00 0.62 0.45 C 659 448 Crs
3565 2975 Crs
4692 3997 Crs
5189 4289 Crs
4314 3710 Crs
5067 4281 Crs
5009 4256 Crs
1194 2130 Crs
5950 4415 Crs
4736 4001 Crs
4586 4035 Crs
3541 3611 Crs
2187 3021 Crs
5644 4362 Crs
5347 4131 Crs
2600 3171 Crs
4429 3984 Crs
4598 3995 Crs
5155 4139 Crs
4395 3981 Crs
602 448 Crs
5217 4281 Crs
5287 4232 Crs
5250 4277 Crs
4911 4065 Crs
3579 3631 Crs
4780 4180 Crs
4716 4170 Crs
4877 4205 Crs
4781 4108 Crs
3963 3867 Crs
4591 3986 Crs
5137 4303 Crs
4393 3952 Crs
4712 4117 Crs
4833 4094 Crs
4864 4101 Crs
4589 3992 Crs
4685 4107 Crs
4566 4071 Crs
4845 4153 Crs
4596 3989 Crs
4303 4018 Crs
4982 4205 Crs
4852 4159 Crs
4828 4206 Crs
5680 4432 Crs
4941 4172 Crs
5542 4124 Crs
5170 4291 Crs
4700 4038 Crs
4747 4018 Crs
4815 4091 Crs
3548 3628 Crs
3506 3649 Crs
5063 4184 Crs
4731 4028 Crs
4558 3947 Crs
4796 4022 Crs
4595 4055 Crs
4397 4003 Crs
5166 4310 Crs
4884 4148 Crs
1142 1050 Crs
4833 4076 Crs
3031 3381 Crs
4023 3531 Crs
4802 4181 Crs
4077 3446 Crs
4041 3901 Crs
4741 4160 Crs
4970 4217 Crs
4752 4035 Crs
3705 3274 Crs
2819 3306 Crs
4210 3980 Crs
4390 3983 Crs
5153 4293 Crs
5104 4127 Crs
4708 4119 Crs
3394 3660 Crs
5348 4178 Crs
4439 3897 Crs
4651 4145 Crs
4809 4015 Crs
4753 4038 Crs
673 463 Crs
4655 4054 Crs
3225 3436 Crs
4780 4070 Crs
4806 4098 Crs
4312 3757 Crs
4817 4068 Crs
5277 4312 Crs
4647 4125 Crs
4544 4024 Crs
4769 4143 Crs
5060 4269 Crs
5405 4225 Crs
1588 2317 Crs
4431 3926 Crs
4889 4125 Crs
5535 4344 Crs
4545 4021 Crs
5482 4218 Crs
2647 3303 Crs
5137 4249 Crs
4579 4012 Crs
3067 3404 Crs
4519 3980 Crs
3307 3534 Crs
4392 3642 Crs
3979 3575 Crs
5014 3835 Crs
5631 4370 Crs
4671 4037 Crs
5160 4307 Crs
4421 3954 Crs
2918 3284 Crs
4758 4143 Crs
4744 4025 Crs
4873 4124 Crs
4768 4181 Crs
3589 3674 Crs
5939 4421 Crs
4895 4070 Crs
4772 3963 Crs
2561 3153 Crs
4691 3999 Crs
4835 4091 Crs
4907 4129 Crs
3606 3725 Crs
4924 4084 Crs
4757 4028 Crs
602 448 Crs
602 448 Crs
602 449 Crs
603 449 Crs
603 449 Crs
1844 2390 Crs
2704 2857 Crs
602 448 Crs
603 449 Crs
603 449 Crs
603 449 Crs
602 448 Crs
678 464 Crs
603 449 Crs
603 449 Crs
603 449 Crs
650 448 Crs
603 449 Crs
676 461 Crs
603 449 Crs
603 449 Crs
603 449 Crs
603 449 Crs
602 448 Crs
603 449 Crs
713 663 Crs
4635 4016 Crs
658 448 Crs
4679 3979 Crs
5537 4176 Crs
2703 3307 Crs
1014 1758 Crs
3529 3631 Crs
851 1178 Crs
5562 4327 Crs
3583 3067 Crs
3859 3804 Crs
5631 4320 Crs
4988 4218 Crs
3512 3159 Crs
5722 4326 Crs
4685 4124 Crs
4877 4124 Crs
4064 3874 Crs
4690 4120 Crs
4693 4127 Crs
4945 4226 Crs
5948 4431 Crs
4884 4227 Crs
3873 3789 Crs
661 457 Crs
4720 4005 Crs
4998 4123 Crs
4987 4218 Crs
6831 4689 Crs
% End plot #2
% Begin plot #3
1.000 UP
1.000 UL
LTb
0.34 0.71 0.91 C LCb setrgbcolor
6548 4549 M
[ [(Helvetica) 140.0 0.0 true true 0 (A 2)]
] -46.7 MRshow
1.000 UP
1.000 UL
LTb
0.34 0.71 0.91 C 659 448 Star
5603 4304 Star
5799 4368 Star
5956 4451 Star
4863 3677 Star
5875 4434 Star
5618 4262 Star
1229 2204 Star
5700 4323 Star
5744 4349 Star
5137 3999 Star
4084 3912 Star
2436 3190 Star
5445 4214 Star
5504 4255 Star
2854 3356 Star
5145 4283 Star
5568 4210 Star
5463 4167 Star
4937 4084 Star
602 448 Star
5679 4310 Star
5395 4153 Star
5852 4417 Star
5508 4244 Star
4088 3900 Star
5552 4406 Star
5338 4275 Star
5721 4313 Star
5121 3851 Star
4529 4056 Star
5249 4034 Star
5628 4234 Star
5126 4256 Star
5467 4371 Star
5798 4373 Star
5704 4305 Star
5738 4393 Star
5467 4286 Star
5257 4305 Star
5834 4382 Star
5734 4365 Star
4998 4248 Star
5710 4316 Star
5728 4304 Star
5344 4163 Star
5779 4349 Star
5708 4300 Star
5577 4294 Star
5954 4424 Star
5334 4083 Star
5561 4214 Star
5387 4114 Star
3884 3736 Star
3971 3874 Star
5593 4194 Star
5396 4115 Star
5662 4288 Star
5545 4160 Star
5576 4363 Star
5297 4330 Star
5691 4280 Star
5653 4239 Star
1131 1004 Star
5498 4139 Star
3363 3657 Star
5221 4169 Star
5510 4300 Star
4443 3319 Star
4548 4019 Star
5256 4193 Star
5506 4176 Star
5475 4159 Star
3825 3135 Star
3059 3419 Star
4757 4145 Star
4540 3800 Star
5886 4396 Star
5583 4252 Star
5017 3951 Star
3685 3815 Star
5636 4280 Star
5490 4342 Star
5231 4339 Star
5746 4343 Star
5622 4331 Star
667 495 Star
5558 4263 Star
3512 3629 Star
5388 4091 Star
5578 4220 Star
5447 4323 Star
5530 4198 Star
5606 4294 Star
5196 4232 Star
5209 4295 Star
5283 4093 Star
5510 4194 Star
609 453 Star
1783 2554 Star
4255 3422 Star
5735 4301 Star
5607 4298 Star
5155 4097 Star
5555 4223 Star
2853 3384 Star
5821 4361 Star
5341 4242 Star
3256 3547 Star
5158 4069 Star
3663 3751 Star
5540 4245 Star
4953 4125 Star
4866 3729 Star
5843 4403 Star
5349 4072 Star
5850 4373 Star
3220 2614 Star
3261 3586 Star
5372 4151 Star
5240 3989 Star
5516 4154 Star
5405 4309 Star
3945 3834 Star
5900 4487 Star
5510 4170 Star
5486 4101 Star
2791 3295 Star
5495 4192 Star
5366 4052 Star
5508 4152 Star
3816 3718 Star
5410 4113 Star
5341 4031 Star
602 448 Star
602 448 Star
602 448 Star
602 448 Star
602 448 Star
602 448 Star
2866 2916 Star
602 448 Star
602 448 Star
602 448 Star
602 448 Star
602 448 Star
659 448 Star
602 448 Star
602 448 Star
602 448 Star
650 448 Star
602 448 Star
659 448 Star
602 448 Star
602 448 Star
602 448 Star
602 448 Star
602 448 Star
602 448 Star
722 730 Star
5727 4350 Star
658 449 Star
3530 2681 Star
5544 4264 Star
3017 3470 Star
1037 1832 Star
3978 3856 Star
852 1267 Star
5624 4317 Star
4551 3454 Star
4221 3793 Star
5671 4323 Star
5788 4391 Star
612 458 Star
5452 4208 Star
5379 4203 Star
5885 4391 Star
4585 4047 Star
5196 4174 Star
5355 4223 Star
5066 3803 Star
5780 4414 Star
5277 3994 Star
4479 4032 Star
661 473 Star
5658 4260 Star
5907 4439 Star
5727 4403 Star
6831 4549 Star
% End plot #3
2.000 UL
LTb
LCb setrgbcolor
1.000 UL
LTB
LCb setrgbcolor
602 4899 N
602 448 L
5526 0 V
0 4451 V
-5526 0 V
Z stroke
1.000 UP
1.000 UL
LTb
LCb setrgbcolor
stroke
grestore
end
showpage
%%Trailer
%%DocumentFonts: Helvetica
