%!PS-Adobe-2.0 EPSF-2.0
%%Title: q_thr15.eps
%%Creator: gnuplot 5.2 patchlevel 0
%%CreationDate: Fri Nov 24 15:10:57 2017
%%DocumentFonts: (atend)
%%BoundingBox: 50 50 410 302
%%EndComments
%%BeginProlog
/gnudict 256 dict def
gnudict begin
%
% The following true/false flags may be edited by hand if desired.
% The unit line width and grayscale image gamma correction may also be changed.
%
/Color true def
/Blacktext false def
/Solid false def
/Dashlength 1 def
/Landscape false def
/Level1 false def
/Level3 false def
/Rounded false def
/ClipToBoundingBox false def
/SuppressPDFMark false def
/TransparentPatterns false def
/gnulinewidth 5.000 def
/userlinewidth gnulinewidth def
/Gamma 1.0 def
/BackgroundColor {-1.000 -1.000 -1.000} def
%
/vshift -46 def
/dl1 {
  10.0 Dashlength userlinewidth gnulinewidth div mul mul mul
  Rounded { currentlinewidth 0.75 mul sub dup 0 le { pop 0.01 } if } if
} def
/dl2 {
  10.0 Dashlength userlinewidth gnulinewidth div mul mul mul
  Rounded { currentlinewidth 0.75 mul add } if
} def
/hpt_ 31.5 def
/vpt_ 31.5 def
/hpt hpt_ def
/vpt vpt_ def
/doclip {
  ClipToBoundingBox {
    newpath 50 50 moveto 410 50 lineto 410 302 lineto 50 302 lineto closepath
    clip
  } if
} def
%
% Gnuplot Prolog Version 5.1 (Oct 2015)
%
%/SuppressPDFMark true def
%
/M {moveto} bind def
/L {lineto} bind def
/R {rmoveto} bind def
/V {rlineto} bind def
/N {newpath moveto} bind def
/Z {closepath} bind def
/C {setrgbcolor} bind def
/f {rlineto fill} bind def
/g {setgray} bind def
/Gshow {show} def   % May be redefined later in the file to support UTF-8
/vpt2 vpt 2 mul def
/hpt2 hpt 2 mul def
/Lshow {currentpoint stroke M 0 vshift R 
	Blacktext {gsave 0 setgray textshow grestore} {textshow} ifelse} def
/Rshow {currentpoint stroke M dup stringwidth pop neg vshift R
	Blacktext {gsave 0 setgray textshow grestore} {textshow} ifelse} def
/Cshow {currentpoint stroke M dup stringwidth pop -2 div vshift R 
	Blacktext {gsave 0 setgray textshow grestore} {textshow} ifelse} def
/UP {dup vpt_ mul /vpt exch def hpt_ mul /hpt exch def
  /hpt2 hpt 2 mul def /vpt2 vpt 2 mul def} def
/DL {Color {setrgbcolor Solid {pop []} if 0 setdash}
 {pop pop pop 0 setgray Solid {pop []} if 0 setdash} ifelse} def
/BL {stroke userlinewidth 2 mul setlinewidth
	Rounded {1 setlinejoin 1 setlinecap} if} def
/AL {stroke userlinewidth 2 div setlinewidth
	Rounded {1 setlinejoin 1 setlinecap} if} def
/UL {dup gnulinewidth mul /userlinewidth exch def
	dup 1 lt {pop 1} if 10 mul /udl exch def} def
/PL {stroke userlinewidth setlinewidth
	Rounded {1 setlinejoin 1 setlinecap} if} def
3.8 setmiterlimit
% Classic Line colors (version 5.0)
/LCw {1 1 1} def
/LCb {0 0 0} def
/LCa {0 0 0} def
/LC0 {1 0 0} def
/LC1 {0 1 0} def
/LC2 {0 0 1} def
/LC3 {1 0 1} def
/LC4 {0 1 1} def
/LC5 {1 1 0} def
/LC6 {0 0 0} def
/LC7 {1 0.3 0} def
/LC8 {0.5 0.5 0.5} def
% Default dash patterns (version 5.0)
/LTB {BL [] LCb DL} def
/LTw {PL [] 1 setgray} def
/LTb {PL [] LCb DL} def
/LTa {AL [1 udl mul 2 udl mul] 0 setdash LCa setrgbcolor} def
/LT0 {PL [] LC0 DL} def
/LT1 {PL [2 dl1 3 dl2] LC1 DL} def
/LT2 {PL [1 dl1 1.5 dl2] LC2 DL} def
/LT3 {PL [6 dl1 2 dl2 1 dl1 2 dl2] LC3 DL} def
/LT4 {PL [1 dl1 2 dl2 6 dl1 2 dl2 1 dl1 2 dl2] LC4 DL} def
/LT5 {PL [4 dl1 2 dl2] LC5 DL} def
/LT6 {PL [1.5 dl1 1.5 dl2 1.5 dl1 1.5 dl2 1.5 dl1 6 dl2] LC6 DL} def
/LT7 {PL [3 dl1 3 dl2 1 dl1 3 dl2] LC7 DL} def
/LT8 {PL [2 dl1 2 dl2 2 dl1 6 dl2] LC8 DL} def
/SL {[] 0 setdash} def
/Pnt {stroke [] 0 setdash gsave 1 setlinecap M 0 0 V stroke grestore} def
/Dia {stroke [] 0 setdash 2 copy vpt add M
  hpt neg vpt neg V hpt vpt neg V
  hpt vpt V hpt neg vpt V closepath stroke
  Pnt} def
/Pls {stroke [] 0 setdash vpt sub M 0 vpt2 V
  currentpoint stroke M
  hpt neg vpt neg R hpt2 0 V stroke
 } def
/Box {stroke [] 0 setdash 2 copy exch hpt sub exch vpt add M
  0 vpt2 neg V hpt2 0 V 0 vpt2 V
  hpt2 neg 0 V closepath stroke
  Pnt} def
/Crs {stroke [] 0 setdash exch hpt sub exch vpt add M
  hpt2 vpt2 neg V currentpoint stroke M
  hpt2 neg 0 R hpt2 vpt2 V stroke} def
/TriU {stroke [] 0 setdash 2 copy vpt 1.12 mul add M
  hpt neg vpt -1.62 mul V
  hpt 2 mul 0 V
  hpt neg vpt 1.62 mul V closepath stroke
  Pnt} def
/Star {2 copy Pls Crs} def
/BoxF {stroke [] 0 setdash exch hpt sub exch vpt add M
  0 vpt2 neg V hpt2 0 V 0 vpt2 V
  hpt2 neg 0 V closepath fill} def
/TriUF {stroke [] 0 setdash vpt 1.12 mul add M
  hpt neg vpt -1.62 mul V
  hpt 2 mul 0 V
  hpt neg vpt 1.62 mul V closepath fill} def
/TriD {stroke [] 0 setdash 2 copy vpt 1.12 mul sub M
  hpt neg vpt 1.62 mul V
  hpt 2 mul 0 V
  hpt neg vpt -1.62 mul V closepath stroke
  Pnt} def
/TriDF {stroke [] 0 setdash vpt 1.12 mul sub M
  hpt neg vpt 1.62 mul V
  hpt 2 mul 0 V
  hpt neg vpt -1.62 mul V closepath fill} def
/DiaF {stroke [] 0 setdash vpt add M
  hpt neg vpt neg V hpt vpt neg V
  hpt vpt V hpt neg vpt V closepath fill} def
/Pent {stroke [] 0 setdash 2 copy gsave
  translate 0 hpt M 4 {72 rotate 0 hpt L} repeat
  closepath stroke grestore Pnt} def
/PentF {stroke [] 0 setdash gsave
  translate 0 hpt M 4 {72 rotate 0 hpt L} repeat
  closepath fill grestore} def
/Circle {stroke [] 0 setdash 2 copy
  hpt 0 360 arc stroke Pnt} def
/CircleF {stroke [] 0 setdash hpt 0 360 arc fill} def
/C0 {BL [] 0 setdash 2 copy moveto vpt 90 450 arc} bind def
/C1 {BL [] 0 setdash 2 copy moveto
	2 copy vpt 0 90 arc closepath fill
	vpt 0 360 arc closepath} bind def
/C2 {BL [] 0 setdash 2 copy moveto
	2 copy vpt 90 180 arc closepath fill
	vpt 0 360 arc closepath} bind def
/C3 {BL [] 0 setdash 2 copy moveto
	2 copy vpt 0 180 arc closepath fill
	vpt 0 360 arc closepath} bind def
/C4 {BL [] 0 setdash 2 copy moveto
	2 copy vpt 180 270 arc closepath fill
	vpt 0 360 arc closepath} bind def
/C5 {BL [] 0 setdash 2 copy moveto
	2 copy vpt 0 90 arc
	2 copy moveto
	2 copy vpt 180 270 arc closepath fill
	vpt 0 360 arc} bind def
/C6 {BL [] 0 setdash 2 copy moveto
	2 copy vpt 90 270 arc closepath fill
	vpt 0 360 arc closepath} bind def
/C7 {BL [] 0 setdash 2 copy moveto
	2 copy vpt 0 270 arc closepath fill
	vpt 0 360 arc closepath} bind def
/C8 {BL [] 0 setdash 2 copy moveto
	2 copy vpt 270 360 arc closepath fill
	vpt 0 360 arc closepath} bind def
/C9 {BL [] 0 setdash 2 copy moveto
	2 copy vpt 270 450 arc closepath fill
	vpt 0 360 arc closepath} bind def
/C10 {BL [] 0 setdash 2 copy 2 copy moveto vpt 270 360 arc closepath fill
	2 copy moveto
	2 copy vpt 90 180 arc closepath fill
	vpt 0 360 arc closepath} bind def
/C11 {BL [] 0 setdash 2 copy moveto
	2 copy vpt 0 180 arc closepath fill
	2 copy moveto
	2 copy vpt 270 360 arc closepath fill
	vpt 0 360 arc closepath} bind def
/C12 {BL [] 0 setdash 2 copy moveto
	2 copy vpt 180 360 arc closepath fill
	vpt 0 360 arc closepath} bind def
/C13 {BL [] 0 setdash 2 copy moveto
	2 copy vpt 0 90 arc closepath fill
	2 copy moveto
	2 copy vpt 180 360 arc closepath fill
	vpt 0 360 arc closepath} bind def
/C14 {BL [] 0 setdash 2 copy moveto
	2 copy vpt 90 360 arc closepath fill
	vpt 0 360 arc} bind def
/C15 {BL [] 0 setdash 2 copy vpt 0 360 arc closepath fill
	vpt 0 360 arc closepath} bind def
/Rec {newpath 4 2 roll moveto 1 index 0 rlineto 0 exch rlineto
	neg 0 rlineto closepath} bind def
/Square {dup Rec} bind def
/Bsquare {vpt sub exch vpt sub exch vpt2 Square} bind def
/S0 {BL [] 0 setdash 2 copy moveto 0 vpt rlineto BL Bsquare} bind def
/S1 {BL [] 0 setdash 2 copy vpt Square fill Bsquare} bind def
/S2 {BL [] 0 setdash 2 copy exch vpt sub exch vpt Square fill Bsquare} bind def
/S3 {BL [] 0 setdash 2 copy exch vpt sub exch vpt2 vpt Rec fill Bsquare} bind def
/S4 {BL [] 0 setdash 2 copy exch vpt sub exch vpt sub vpt Square fill Bsquare} bind def
/S5 {BL [] 0 setdash 2 copy 2 copy vpt Square fill
	exch vpt sub exch vpt sub vpt Square fill Bsquare} bind def
/S6 {BL [] 0 setdash 2 copy exch vpt sub exch vpt sub vpt vpt2 Rec fill Bsquare} bind def
/S7 {BL [] 0 setdash 2 copy exch vpt sub exch vpt sub vpt vpt2 Rec fill
	2 copy vpt Square fill Bsquare} bind def
/S8 {BL [] 0 setdash 2 copy vpt sub vpt Square fill Bsquare} bind def
/S9 {BL [] 0 setdash 2 copy vpt sub vpt vpt2 Rec fill Bsquare} bind def
/S10 {BL [] 0 setdash 2 copy vpt sub vpt Square fill 2 copy exch vpt sub exch vpt Square fill
	Bsquare} bind def
/S11 {BL [] 0 setdash 2 copy vpt sub vpt Square fill 2 copy exch vpt sub exch vpt2 vpt Rec fill
	Bsquare} bind def
/S12 {BL [] 0 setdash 2 copy exch vpt sub exch vpt sub vpt2 vpt Rec fill Bsquare} bind def
/S13 {BL [] 0 setdash 2 copy exch vpt sub exch vpt sub vpt2 vpt Rec fill
	2 copy vpt Square fill Bsquare} bind def
/S14 {BL [] 0 setdash 2 copy exch vpt sub exch vpt sub vpt2 vpt Rec fill
	2 copy exch vpt sub exch vpt Square fill Bsquare} bind def
/S15 {BL [] 0 setdash 2 copy Bsquare fill Bsquare} bind def
/D0 {gsave translate 45 rotate 0 0 S0 stroke grestore} bind def
/D1 {gsave translate 45 rotate 0 0 S1 stroke grestore} bind def
/D2 {gsave translate 45 rotate 0 0 S2 stroke grestore} bind def
/D3 {gsave translate 45 rotate 0 0 S3 stroke grestore} bind def
/D4 {gsave translate 45 rotate 0 0 S4 stroke grestore} bind def
/D5 {gsave translate 45 rotate 0 0 S5 stroke grestore} bind def
/D6 {gsave translate 45 rotate 0 0 S6 stroke grestore} bind def
/D7 {gsave translate 45 rotate 0 0 S7 stroke grestore} bind def
/D8 {gsave translate 45 rotate 0 0 S8 stroke grestore} bind def
/D9 {gsave translate 45 rotate 0 0 S9 stroke grestore} bind def
/D10 {gsave translate 45 rotate 0 0 S10 stroke grestore} bind def
/D11 {gsave translate 45 rotate 0 0 S11 stroke grestore} bind def
/D12 {gsave translate 45 rotate 0 0 S12 stroke grestore} bind def
/D13 {gsave translate 45 rotate 0 0 S13 stroke grestore} bind def
/D14 {gsave translate 45 rotate 0 0 S14 stroke grestore} bind def
/D15 {gsave translate 45 rotate 0 0 S15 stroke grestore} bind def
/DiaE {stroke [] 0 setdash vpt add M
  hpt neg vpt neg V hpt vpt neg V
  hpt vpt V hpt neg vpt V closepath stroke} def
/BoxE {stroke [] 0 setdash exch hpt sub exch vpt add M
  0 vpt2 neg V hpt2 0 V 0 vpt2 V
  hpt2 neg 0 V closepath stroke} def
/TriUE {stroke [] 0 setdash vpt 1.12 mul add M
  hpt neg vpt -1.62 mul V
  hpt 2 mul 0 V
  hpt neg vpt 1.62 mul V closepath stroke} def
/TriDE {stroke [] 0 setdash vpt 1.12 mul sub M
  hpt neg vpt 1.62 mul V
  hpt 2 mul 0 V
  hpt neg vpt -1.62 mul V closepath stroke} def
/PentE {stroke [] 0 setdash gsave
  translate 0 hpt M 4 {72 rotate 0 hpt L} repeat
  closepath stroke grestore} def
/CircE {stroke [] 0 setdash 
  hpt 0 360 arc stroke} def
/Opaque {gsave closepath 1 setgray fill grestore 0 setgray closepath} def
/DiaW {stroke [] 0 setdash vpt add M
  hpt neg vpt neg V hpt vpt neg V
  hpt vpt V hpt neg vpt V Opaque stroke} def
/BoxW {stroke [] 0 setdash exch hpt sub exch vpt add M
  0 vpt2 neg V hpt2 0 V 0 vpt2 V
  hpt2 neg 0 V Opaque stroke} def
/TriUW {stroke [] 0 setdash vpt 1.12 mul add M
  hpt neg vpt -1.62 mul V
  hpt 2 mul 0 V
  hpt neg vpt 1.62 mul V Opaque stroke} def
/TriDW {stroke [] 0 setdash vpt 1.12 mul sub M
  hpt neg vpt 1.62 mul V
  hpt 2 mul 0 V
  hpt neg vpt -1.62 mul V Opaque stroke} def
/PentW {stroke [] 0 setdash gsave
  translate 0 hpt M 4 {72 rotate 0 hpt L} repeat
  Opaque stroke grestore} def
/CircW {stroke [] 0 setdash 
  hpt 0 360 arc Opaque stroke} def
/BoxFill {gsave Rec 1 setgray fill grestore} def
/Density {
  /Fillden exch def
  currentrgbcolor
  /ColB exch def /ColG exch def /ColR exch def
  /ColR ColR Fillden mul Fillden sub 1 add def
  /ColG ColG Fillden mul Fillden sub 1 add def
  /ColB ColB Fillden mul Fillden sub 1 add def
  ColR ColG ColB setrgbcolor} def
/BoxColFill {gsave Rec PolyFill} def
/PolyFill {gsave Density fill grestore grestore} def
/h {rlineto rlineto rlineto gsave closepath fill grestore} bind def
%
% PostScript Level 1 Pattern Fill routine for rectangles
% Usage: x y w h s a XX PatternFill
%	x,y = lower left corner of box to be filled
%	w,h = width and height of box
%	  a = angle in degrees between lines and x-axis
%	 XX = 0/1 for no/yes cross-hatch
%
/PatternFill {gsave /PFa [ 9 2 roll ] def
  PFa 0 get PFa 2 get 2 div add PFa 1 get PFa 3 get 2 div add translate
  PFa 2 get -2 div PFa 3 get -2 div PFa 2 get PFa 3 get Rec
  TransparentPatterns {} {gsave 1 setgray fill grestore} ifelse
  clip
  currentlinewidth 0.5 mul setlinewidth
  /PFs PFa 2 get dup mul PFa 3 get dup mul add sqrt def
  0 0 M PFa 5 get rotate PFs -2 div dup translate
  0 1 PFs PFa 4 get div 1 add floor cvi
	{PFa 4 get mul 0 M 0 PFs V} for
  0 PFa 6 get ne {
	0 1 PFs PFa 4 get div 1 add floor cvi
	{PFa 4 get mul 0 2 1 roll M PFs 0 V} for
 } if
  stroke grestore} def
%
/languagelevel where
 {pop languagelevel} {1} ifelse
dup 2 lt
	{/InterpretLevel1 true def
	 /InterpretLevel3 false def}
	{/InterpretLevel1 Level1 def
	 2 gt
	    {/InterpretLevel3 Level3 def}
	    {/InterpretLevel3 false def}
	 ifelse }
 ifelse
%
% PostScript level 2 pattern fill definitions
%
/Level2PatternFill {
/Tile8x8 {/PaintType 2 /PatternType 1 /TilingType 1 /BBox [0 0 8 8] /XStep 8 /YStep 8}
	bind def
/KeepColor {currentrgbcolor [/Pattern /DeviceRGB] setcolorspace} bind def
<< Tile8x8
 /PaintProc {0.5 setlinewidth pop 0 0 M 8 8 L 0 8 M 8 0 L stroke} 
>> matrix makepattern
/Pat1 exch def
<< Tile8x8
 /PaintProc {0.5 setlinewidth pop 0 0 M 8 8 L 0 8 M 8 0 L stroke
	0 4 M 4 8 L 8 4 L 4 0 L 0 4 L stroke}
>> matrix makepattern
/Pat2 exch def
<< Tile8x8
 /PaintProc {0.5 setlinewidth pop 0 0 M 0 8 L
	8 8 L 8 0 L 0 0 L fill}
>> matrix makepattern
/Pat3 exch def
<< Tile8x8
 /PaintProc {0.5 setlinewidth pop -4 8 M 8 -4 L
	0 12 M 12 0 L stroke}
>> matrix makepattern
/Pat4 exch def
<< Tile8x8
 /PaintProc {0.5 setlinewidth pop -4 0 M 8 12 L
	0 -4 M 12 8 L stroke}
>> matrix makepattern
/Pat5 exch def
<< Tile8x8
 /PaintProc {0.5 setlinewidth pop -2 8 M 4 -4 L
	0 12 M 8 -4 L 4 12 M 10 0 L stroke}
>> matrix makepattern
/Pat6 exch def
<< Tile8x8
 /PaintProc {0.5 setlinewidth pop -2 0 M 4 12 L
	0 -4 M 8 12 L 4 -4 M 10 8 L stroke}
>> matrix makepattern
/Pat7 exch def
<< Tile8x8
 /PaintProc {0.5 setlinewidth pop 8 -2 M -4 4 L
	12 0 M -4 8 L 12 4 M 0 10 L stroke}
>> matrix makepattern
/Pat8 exch def
<< Tile8x8
 /PaintProc {0.5 setlinewidth pop 0 -2 M 12 4 L
	-4 0 M 12 8 L -4 4 M 8 10 L stroke}
>> matrix makepattern
/Pat9 exch def
/Pattern1 {PatternBgnd KeepColor Pat1 setpattern} bind def
/Pattern2 {PatternBgnd KeepColor Pat2 setpattern} bind def
/Pattern3 {PatternBgnd KeepColor Pat3 setpattern} bind def
/Pattern4 {PatternBgnd KeepColor Landscape {Pat5} {Pat4} ifelse setpattern} bind def
/Pattern5 {PatternBgnd KeepColor Landscape {Pat4} {Pat5} ifelse setpattern} bind def
/Pattern6 {PatternBgnd KeepColor Landscape {Pat9} {Pat6} ifelse setpattern} bind def
/Pattern7 {PatternBgnd KeepColor Landscape {Pat8} {Pat7} ifelse setpattern} bind def
} def
%
%
%End of PostScript Level 2 code
%
/PatternBgnd {
  TransparentPatterns {} {gsave 1 setgray fill grestore} ifelse
} def
%
% Substitute for Level 2 pattern fill codes with
% grayscale if Level 2 support is not selected.
%
/Level1PatternFill {
/Pattern1 {0.250 Density} bind def
/Pattern2 {0.500 Density} bind def
/Pattern3 {0.750 Density} bind def
/Pattern4 {0.125 Density} bind def
/Pattern5 {0.375 Density} bind def
/Pattern6 {0.625 Density} bind def
/Pattern7 {0.875 Density} bind def
} def
%
% Now test for support of Level 2 code
%
Level1 {Level1PatternFill} {Level2PatternFill} ifelse
%
/Symbol-Oblique /Symbol findfont [1 0 .167 1 0 0] makefont
dup length dict begin {1 index /FID eq {pop pop} {def} ifelse} forall
currentdict end definefont pop
%
/Metrics {ExtendTextBox Gswidth} def
/Lwidth {currentpoint stroke M 0 vshift R Metrics} def
/Rwidth {currentpoint stroke M dup stringwidth pop neg vshift R Metrics} def
/Cwidth {currentpoint stroke M dup stringwidth pop -2 div vshift R Metrics} def
/GLwidth {currentpoint stroke M 0 vshift R {ExtendTextBox} forall} def
/GRwidth {currentpoint stroke M dup Gwidth vshift R {ExtendTextBox} forall} def
/GCwidth {currentpoint stroke M dup Gwidth 2 div vshift R {ExtendTextBox} forall} def
/GLwidth2 {0 Gwidth AddGlyphWidth} def
/GRwidth2 {Gwidth -1 mul 0 AddGlyphWidth} def
/GCwidth2 {Gwidth 2 div dup -1 mul AddGlyphWidth} def
/AddGlyphWidth { dup TBx2 gt {userdict /TBx2 3 -1 roll put} {pop} ifelse
                 dup TBx1 lt {userdict /TBx1 3 -1 roll put} {pop} ifelse } def
/MFshow {
   { dup 5 get 3 ge
     { 5 get 3 eq {gsave} {grestore} ifelse }
     {dup dup 0 get findfont exch 1 get scalefont setfont
     [ currentpoint ] exch dup 2 get 0 exch R dup 5 get 2 ne {dup dup 6
     get exch 4 get {textshow} {Metrics pop 0 R} ifelse }if dup 5 get 0 eq
     {dup 3 get {2 get neg 0 exch R pop} {pop aload pop M} ifelse} {dup 5
     get 1 eq {dup 2 get exch dup 3 get exch 6 get Gswidth pop -2 div
     dup 0 R} {dup 6 get Gswidth pop -2 div 0 R 6 get
     textshow 2 index {aload pop M neg 3 -1 roll neg R pop pop} {pop pop pop
     pop aload pop M} ifelse }ifelse }ifelse }
     ifelse }
   forall} def
/Gswidth {dup type /stringtype eq {stringwidth} {pop (n) stringwidth} ifelse} def
/MFwidth {0 exch { dup 5 get 3 ge { 5 get 3 eq { 0 } { pop } ifelse }
 {dup 3 get{dup dup 0 get findfont exch 1 get scalefont setfont
     6 get Gswidth pop add} {pop} ifelse} ifelse} forall} def
/MLshow { currentpoint stroke M
  0 exch R
  Blacktext {gsave 0 setgray MFshow grestore} {MFshow} ifelse } bind def
/MRshow { currentpoint stroke M
  exch dup MFwidth neg 3 -1 roll R
  Blacktext {gsave 0 setgray MFshow grestore} {MFshow} ifelse } bind def
/MCshow { currentpoint stroke M
  exch dup MFwidth -2 div 3 -1 roll R
  Blacktext {gsave 0 setgray MFshow grestore} {MFshow} ifelse } bind def
/XYsave    { [( ) 1 2 true false 3 ()] } bind def
/XYrestore { [( ) 1 2 true false 4 ()] } bind def
Level1 SuppressPDFMark or 
{} {
/SDict 10 dict def
systemdict /pdfmark known not {
  userdict /pdfmark systemdict /cleartomark get put
} if
SDict begin [
  /Title (q_thr15.eps)
  /Subject (gnuplot plot)
  /Creator (gnuplot 5.2 patchlevel 0)
%  /Producer (gnuplot)
%  /Keywords ()
  /CreationDate (Fri Nov 24 15:10:57 2017)
  /DOCINFO pdfmark
end
} ifelse
%
% Support for boxed text - Ethan A Merritt Sep 2016
%
/InitTextBox { userdict /TBy2 3 -1 roll put userdict /TBx2 3 -1 roll put
           userdict /TBy1 3 -1 roll put userdict /TBx1 3 -1 roll put
	   /Boxing true def } def
/ExtendTextBox { dup type /stringtype eq
    { Boxing { gsave dup false charpath pathbbox
      dup TBy2 gt {userdict /TBy2 3 -1 roll put} {pop} ifelse
      dup TBx2 gt {userdict /TBx2 3 -1 roll put} {pop} ifelse
      dup TBy1 lt {userdict /TBy1 3 -1 roll put} {pop} ifelse
      dup TBx1 lt {userdict /TBx1 3 -1 roll put} {pop} ifelse
      grestore } if }
    {} ifelse} def
/PopTextBox { newpath TBx1 TBxmargin sub TBy1 TBymargin sub M
               TBx1 TBxmargin sub TBy2 TBymargin add L
	       TBx2 TBxmargin add TBy2 TBymargin add L
	       TBx2 TBxmargin add TBy1 TBymargin sub L closepath } def
/DrawTextBox { PopTextBox stroke /Boxing false def} def
/FillTextBox { gsave PopTextBox fill grestore /Boxing false def} def
0 0 0 0 InitTextBox
/TBxmargin 20 def
/TBymargin 20 def
/Boxing false def
/textshow { ExtendTextBox Gshow } def
%
end
%%EndProlog
%%Page: 1 1
gnudict begin
gsave
doclip
50 50 translate
0.050 0.050 scale
0 setgray
newpath
(Helvetica) findfont 140 scalefont setfont
BackgroundColor 0 lt 3 1 roll 0 lt exch 0 lt or or not {BackgroundColor C 1.000 0 0 7200.00 5040.00 BoxColFill} if
1.000 UL
LTb
LCb setrgbcolor
1.000 UL
LTa
0.73 0.73 0.73 C 602 448 M
5526 0 V
stroke
LTb
LCb setrgbcolor
602 448 M
63 0 V
5463 0 R
-63 0 V
stroke
518 448 M
[ [(Helvetica) 140.0 0.0 true true 0 ( 0)]
] -46.7 MRshow
1.000 UL
LTb
LCb setrgbcolor
1.000 UL
LTa
0.73 0.73 0.73 C 602 943 M
5526 0 V
stroke
LTb
LCb setrgbcolor
602 943 M
63 0 V
5463 0 R
-63 0 V
stroke
518 943 M
[ [(Helvetica) 140.0 0.0 true true 0 ( 2)]
] -46.7 MRshow
1.000 UL
LTb
LCb setrgbcolor
1.000 UL
LTa
0.73 0.73 0.73 C 602 1437 M
5526 0 V
stroke
LTb
LCb setrgbcolor
602 1437 M
63 0 V
5463 0 R
-63 0 V
stroke
518 1437 M
[ [(Helvetica) 140.0 0.0 true true 0 ( 4)]
] -46.7 MRshow
1.000 UL
LTb
LCb setrgbcolor
1.000 UL
LTa
0.73 0.73 0.73 C 602 1932 M
5526 0 V
stroke
LTb
LCb setrgbcolor
602 1932 M
63 0 V
5463 0 R
-63 0 V
stroke
518 1932 M
[ [(Helvetica) 140.0 0.0 true true 0 ( 6)]
] -46.7 MRshow
1.000 UL
LTb
LCb setrgbcolor
1.000 UL
LTa
0.73 0.73 0.73 C 602 2426 M
5526 0 V
stroke
LTb
LCb setrgbcolor
602 2426 M
63 0 V
5463 0 R
-63 0 V
stroke
518 2426 M
[ [(Helvetica) 140.0 0.0 true true 0 ( 8)]
] -46.7 MRshow
1.000 UL
LTb
LCb setrgbcolor
1.000 UL
LTa
0.73 0.73 0.73 C 602 2921 M
5526 0 V
stroke
LTb
LCb setrgbcolor
602 2921 M
63 0 V
5463 0 R
-63 0 V
stroke
518 2921 M
[ [(Helvetica) 140.0 0.0 true true 0 ( 10)]
] -46.7 MRshow
1.000 UL
LTb
LCb setrgbcolor
1.000 UL
LTa
0.73 0.73 0.73 C 602 3415 M
5526 0 V
stroke
LTb
LCb setrgbcolor
602 3415 M
63 0 V
5463 0 R
-63 0 V
stroke
518 3415 M
[ [(Helvetica) 140.0 0.0 true true 0 ( 12)]
] -46.7 MRshow
1.000 UL
LTb
LCb setrgbcolor
1.000 UL
LTa
0.73 0.73 0.73 C 602 3910 M
5526 0 V
stroke
LTb
LCb setrgbcolor
602 3910 M
63 0 V
5463 0 R
-63 0 V
stroke
518 3910 M
[ [(Helvetica) 140.0 0.0 true true 0 ( 14)]
] -46.7 MRshow
1.000 UL
LTb
LCb setrgbcolor
1.000 UL
LTa
0.73 0.73 0.73 C 602 4404 M
5526 0 V
stroke
LTb
LCb setrgbcolor
602 4404 M
63 0 V
5463 0 R
-63 0 V
stroke
518 4404 M
[ [(Helvetica) 140.0 0.0 true true 0 ( 16)]
] -46.7 MRshow
1.000 UL
LTb
LCb setrgbcolor
1.000 UL
LTa
0.73 0.73 0.73 C 602 4899 M
5526 0 V
stroke
LTb
LCb setrgbcolor
602 4899 M
63 0 V
5463 0 R
-63 0 V
stroke
518 4899 M
[ [(Helvetica) 140.0 0.0 true true 0 ( 18)]
] -46.7 MRshow
1.000 UL
LTb
LCb setrgbcolor
1.000 UL
LTa
0.73 0.73 0.73 C 602 448 M
0 4451 V
stroke
LTb
LCb setrgbcolor
602 448 M
0 63 V
0 4388 R
0 -63 V
stroke
602 308 M
[ [(Helvetica) 140.0 0.0 true true 0 ( 0)]
] -46.7 MCshow
1.000 UL
LTb
LCb setrgbcolor
1.000 UL
LTa
0.73 0.73 0.73 C 1391 448 M
0 4451 V
stroke
LTb
LCb setrgbcolor
1391 448 M
0 63 V
0 4388 R
0 -63 V
stroke
1391 308 M
[ [(Helvetica) 140.0 0.0 true true 0 ( 500)]
] -46.7 MCshow
1.000 UL
LTb
LCb setrgbcolor
1.000 UL
LTa
0.73 0.73 0.73 C 2181 448 M
0 4451 V
stroke
LTb
LCb setrgbcolor
2181 448 M
0 63 V
0 4388 R
0 -63 V
stroke
2181 308 M
[ [(Helvetica) 140.0 0.0 true true 0 ( 1000)]
] -46.7 MCshow
1.000 UL
LTb
LCb setrgbcolor
1.000 UL
LTa
0.73 0.73 0.73 C 2970 448 M
0 4451 V
stroke
LTb
LCb setrgbcolor
2970 448 M
0 63 V
0 4388 R
0 -63 V
stroke
2970 308 M
[ [(Helvetica) 140.0 0.0 true true 0 ( 1500)]
] -46.7 MCshow
1.000 UL
LTb
LCb setrgbcolor
1.000 UL
LTa
0.73 0.73 0.73 C 3760 448 M
0 4451 V
stroke
LTb
LCb setrgbcolor
3760 448 M
0 63 V
0 4388 R
0 -63 V
stroke
3760 308 M
[ [(Helvetica) 140.0 0.0 true true 0 ( 2000)]
] -46.7 MCshow
1.000 UL
LTb
LCb setrgbcolor
1.000 UL
LTa
0.73 0.73 0.73 C 4549 448 M
0 4451 V
stroke
LTb
LCb setrgbcolor
4549 448 M
0 63 V
0 4388 R
0 -63 V
stroke
4549 308 M
[ [(Helvetica) 140.0 0.0 true true 0 ( 2500)]
] -46.7 MCshow
1.000 UL
LTb
LCb setrgbcolor
1.000 UL
LTa
0.73 0.73 0.73 C 5339 448 M
0 4451 V
stroke
LTb
LCb setrgbcolor
5339 448 M
0 63 V
0 4388 R
0 -63 V
stroke
5339 308 M
[ [(Helvetica) 140.0 0.0 true true 0 ( 3000)]
] -46.7 MCshow
1.000 UL
LTb
LCb setrgbcolor
1.000 UL
LTa
0.73 0.73 0.73 C 6128 448 M
0 4451 V
stroke
LTb
LCb setrgbcolor
6128 448 M
0 63 V
0 4388 R
0 -63 V
stroke
6128 308 M
[ [(Helvetica) 140.0 0.0 true true 0 ( 3500)]
] -46.7 MCshow
1.000 UL
LTb
LCb setrgbcolor
1.000 UL
LTB
LCb setrgbcolor
602 4899 N
602 448 L
5526 0 V
0 4451 V
-5526 0 V
Z stroke
1.000 UP
1.000 UL
LTb
LCb setrgbcolor
LCb setrgbcolor
126 2673 M
currentpoint gsave translate -270 rotate 0 0 moveto
[ [(Helvetica) 140.0 0.0 true true 0 (quality Index)]
] -46.7 MCshow
grestore
LTb
LCb setrgbcolor
3365 98 M
[ [(Helvetica) 140.0 0.0 true true 0 (Throughput from dataset)]
] -46.7 MCshow
LTb
% Begin plot #1
1.000 UP
1.000 UL
LTb
0.58 0.00 0.83 C LCb setrgbcolor
6548 4829 M
[ [(Helvetica) 140.0 0.0 true true 0 (A 0)]
] -46.7 MRshow
1.000 UP
1.000 UL
LTb
0.58 0.00 0.83 C 669 448 Pls
4954 3958 Pls
5405 4422 Pls
5117 4221 Pls
5236 4337 Pls
5295 4268 Pls
5478 4497 Pls
1286 2224 Pls
4913 4148 Pls
5203 4208 Pls
5216 4341 Pls
4151 3485 Pls
2515 3053 Pls
5241 4529 Pls
5040 4226 Pls
3511 3415 Pls
5140 4092 Pls
4665 3946 Pls
5016 4219 Pls
5269 4214 Pls
602 448 Pls
5117 4222 Pls
5222 4466 Pls
4225 3600 Pls
5141 4232 Pls
4057 3546 Pls
4460 3750 Pls
4801 4177 Pls
4345 3664 Pls
3154 2571 Pls
5029 4049 Pls
4296 3598 Pls
4683 3847 Pls
4984 3901 Pls
4286 3633 Pls
4940 4132 Pls
5299 4216 Pls
5180 4330 Pls
4175 3530 Pls
5016 4076 Pls
4496 3697 Pls
4823 4213 Pls
5278 4235 Pls
5312 4249 Pls
4449 3651 Pls
5080 4226 Pls
5107 4385 Pls
5248 4271 Pls
5282 4428 Pls
4994 4124 Pls
5280 4301 Pls
5424 4390 Pls
5107 4181 Pls
4010 3482 Pls
3600 3282 Pls
5367 4356 Pls
5509 4499 Pls
4862 4111 Pls
4787 3955 Pls
4980 4093 Pls
5096 4231 Pls
5374 4398 Pls
4217 3426 Pls
1777 1658 Pls
5486 4449 Pls
3353 3588 Pls
3678 2910 Pls
4924 4200 Pls
4649 3800 Pls
4250 3668 Pls
602 448 Pls
5096 4221 Pls
5313 4225 Pls
3517 3031 Pls
2997 3151 Pls
5192 4230 Pls
4820 3862 Pls
4613 3815 Pls
4995 4268 Pls
4804 4008 Pls
3795 3694 Pls
5316 4490 Pls
5038 4223 Pls
3827 3094 Pls
5417 4389 Pls
5084 4219 Pls
672 453 Pls
5002 4086 Pls
3631 3528 Pls
5374 4324 Pls
5282 4224 Pls
5063 4246 Pls
5123 4263 Pls
5324 4358 Pls
4942 4289 Pls
4135 3575 Pls
2941 2465 Pls
5345 4269 Pls
4714 4032 Pls
638 510 Pls
602 448 Pls
5256 4280 Pls
5169 4360 Pls
3938 3195 Pls
4966 4085 Pls
2363 3095 Pls
5102 4178 Pls
4732 4020 Pls
3279 3333 Pls
4884 4113 Pls
3475 3405 Pls
922 704 Pls
5137 4210 Pls
995 779 Pls
4935 4287 Pls
5229 4251 Pls
5408 4499 Pls
4934 4286 Pls
2432 2400 Pls
4824 4077 Pls
3757 3029 Pls
5059 4115 Pls
5273 4438 Pls
4346 3774 Pls
5289 4462 Pls
5272 4234 Pls
3170 2587 Pls
3084 3194 Pls
5456 4401 Pls
5142 4167 Pls
4342 3580 Pls
3855 3425 Pls
4915 4052 Pls
5251 4274 Pls
602 448 Pls
771 534 Pls
602 448 Pls
602 448 Pls
602 448 Pls
602 448 Pls
602 448 Pls
602 448 Pls
602 448 Pls
602 448 Pls
602 448 Pls
669 448 Pls
671 448 Pls
602 448 Pls
602 448 Pls
602 448 Pls
669 448 Pls
602 448 Pls
671 448 Pls
602 448 Pls
602 448 Pls
602 448 Pls
602 448 Pls
602 448 Pls
602 448 Pls
736 688 Pls
4128 3483 Pls
669 448 Pls
1190 922 Pls
4957 4085 Pls
2974 3248 Pls
1117 2011 Pls
3573 3298 Pls
1030 1471 Pls
5276 4412 Pls
5157 4364 Pls
3121 2608 Pls
5069 4347 Pls
5446 4434 Pls
2197 1684 Pls
5160 4346 Pls
5030 4340 Pls
4834 3972 Pls
5196 4128 Pls
4807 3817 Pls
4965 4127 Pls
4329 3552 Pls
4097 3427 Pls
3530 2969 Pls
4009 3316 Pls
670 448 Pls
5484 4454 Pls
5149 4141 Pls
4112 3358 Pls
6831 4829 Pls
% End plot #1
% Begin plot #2
1.000 UP
1.000 UL
LTb
0.00 0.62 0.45 C LCb setrgbcolor
6548 4689 M
[ [(Helvetica) 140.0 0.0 true true 0 (A 1)]
] -46.7 MRshow
1.000 UP
1.000 UL
LTb
0.00 0.62 0.45 C 668 448 Crs
4702 3937 Crs
5075 4226 Crs
4959 4228 Crs
4905 4275 Crs
5131 4235 Crs
4637 3914 Crs
1317 2349 Crs
5061 4179 Crs
4804 4121 Crs
4442 3919 Crs
3967 3785 Crs
2175 2957 Crs
5041 4180 Crs
5260 4273 Crs
2845 3238 Crs
4643 4122 Crs
4575 3978 Crs
3676 2977 Crs
4596 4050 Crs
602 448 Crs
4630 3870 Crs
5162 4293 Crs
4259 3621 Crs
4995 4208 Crs
3668 3537 Crs
4549 4141 Crs
4560 4096 Crs
4333 3769 Crs
3342 2779 Crs
4144 3969 Crs
4163 3725 Crs
4630 3962 Crs
3806 3418 Crs
4247 3851 Crs
4638 3847 Crs
4942 4081 Crs
4889 4237 Crs
4773 4159 Crs
4515 3971 Crs
4333 3769 Crs
4957 4262 Crs
4606 4105 Crs
4512 3758 Crs
4435 3712 Crs
4739 4177 Crs
5307 4387 Crs
4910 4078 Crs
5266 4330 Crs
4888 4177 Crs
5082 4156 Crs
5107 4218 Crs
4592 3805 Crs
3585 3490 Crs
3533 3581 Crs
4793 4011 Crs
5250 4387 Crs
4695 4149 Crs
4616 3963 Crs
4699 4275 Crs
4568 4014 Crs
4440 3798 Crs
5157 4307 Crs
602 448 Crs
5219 4327 Crs
3032 3355 Crs
4115 3588 Crs
4825 4163 Crs
4753 3982 Crs
2875 2579 Crs
4679 4146 Crs
5184 4380 Crs
5228 4490 Crs
4510 4170 Crs
2656 2948 Crs
4460 4091 Crs
4415 3934 Crs
4501 3868 Crs
4976 4233 Crs
4486 3951 Crs
3323 3621 Crs
5307 4408 Crs
4579 4031 Crs
4472 3920 Crs
4195 3630 Crs
4841 4072 Crs
686 488 Crs
3781 3234 Crs
3281 3352 Crs
5110 4196 Crs
4832 4033 Crs
4436 3972 Crs
4732 4053 Crs
4991 4263 Crs
4999 4472 Crs
3753 3312 Crs
2331 2024 Crs
5135 4290 Crs
4061 3379 Crs
654 539 Crs
2830 2496 Crs
5015 4127 Crs
5162 4303 Crs
4601 4278 Crs
5293 4352 Crs
2842 3312 Crs
4035 3384 Crs
4752 4179 Crs
2822 3001 Crs
4813 4231 Crs
3171 3271 Crs
4846 4152 Crs
614 456 Crs
3916 3139 Crs
5077 4242 Crs
5161 4261 Crs
4262 3682 Crs
4680 4099 Crs
3081 3343 Crs
4535 3961 Crs
3425 2838 Crs
5046 4267 Crs
3939 3551 Crs
3811 3722 Crs
5366 4434 Crs
4790 4020 Crs
3293 2796 Crs
2843 3261 Crs
5052 4213 Crs
5142 4292 Crs
4343 3712 Crs
3709 3739 Crs
4829 4210 Crs
4993 4141 Crs
602 448 Crs
669 448 Crs
1632 2684 Crs
602 448 Crs
5399 4694 Crs
3023 3876 Crs
4188 4333 Crs
602 448 Crs
602 448 Crs
4470 4427 Crs
5522 4872 Crs
669 448 Crs
671 448 Crs
4555 4493 Crs
5231 4802 Crs
5351 4682 Crs
668 448 Crs
4004 4262 Crs
671 448 Crs
4439 4470 Crs
4686 4616 Crs
3595 4076 Crs
4998 4708 Crs
602 448 Crs
2822 3381 Crs
739 720 Crs
4197 3624 Crs
668 448 Crs
2718 2201 Crs
4996 4140 Crs
3035 3472 Crs
1075 1919 Crs
3593 3560 Crs
922 1246 Crs
5146 4280 Crs
819 642 Crs
3233 3143 Crs
5307 4346 Crs
5230 4342 Crs
774 603 Crs
5169 4282 Crs
4633 4087 Crs
4887 4077 Crs
4230 3703 Crs
3946 3656 Crs
4693 4134 Crs
4424 3693 Crs
5385 4268 Crs
3657 3146 Crs
4212 4099 Crs
670 448 Crs
5021 4176 Crs
5089 4362 Crs
5171 4401 Crs
6831 4689 Crs
% End plot #2
% Begin plot #3
1.000 UP
1.000 UL
LTb
0.34 0.71 0.91 C LCb setrgbcolor
6548 4549 M
[ [(Helvetica) 140.0 0.0 true true 0 (A 2)]
] -46.7 MRshow
1.000 UP
1.000 UL
LTb
0.34 0.71 0.91 C 668 448 Star
4488 3646 Star
4449 3625 Star
5027 4128 Star
4419 3660 Star
4551 3966 Star
4842 3976 Star
1227 2134 Star
613 460 Star
4619 3975 Star
4438 3663 Star
3083 3033 Star
2019 2610 Star
4562 3906 Star
4662 3858 Star
2844 3404 Star
760 573 Star
4345 3602 Star
4372 3754 Star
4005 3246 Star
602 448 Star
5144 4363 Star
4530 3811 Star
4832 4215 Star
4624 3812 Star
3025 3050 Star
4668 4003 Star
3947 3492 Star
4973 4187 Star
4100 3435 Star
3604 3185 Star
4248 3571 Star
4569 3721 Star
4380 3615 Star
4398 3763 Star
4852 4119 Star
4548 3618 Star
4167 3505 Star
4308 3604 Star
4597 3899 Star
3724 3029 Star
4282 3629 Star
4021 3346 Star
1175 917 Star
4308 3514 Star
4069 3758 Star
4640 3953 Star
4464 3677 Star
4739 4003 Star
4713 3875 Star
4948 4199 Star
4512 3703 Star
4562 3706 Star
3164 3267 Star
2392 2520 Star
4675 3805 Star
4668 3803 Star
4347 3635 Star
4619 3884 Star
4328 3789 Star
4402 3598 Star
4515 3740 Star
4625 3843 Star
2993 3173 Star
4569 3769 Star
2974 3610 Star
4333 3535 Star
4364 3709 Star
2046 1602 Star
4515 3701 Star
3970 3555 Star
4591 3740 Star
4402 3493 Star
4379 3629 Star
2281 2629 Star
3949 3213 Star
4244 3577 Star
4438 3807 Star
4346 3802 Star
4350 3710 Star
2969 3297 Star
4768 4165 Star
4695 3961 Star
4309 3987 Star
4476 3638 Star
4674 3855 Star
686 526 Star
4271 3520 Star
2787 2900 Star
4567 3710 Star
4479 3633 Star
4798 4064 Star
4212 3644 Star
4631 3814 Star
4544 3865 Star
3867 3410 Star
3947 3298 Star
4532 3790 Star
4233 3632 Star
1568 2153 Star
864 687 Star
4526 3734 Star
4646 3933 Star
4488 3719 Star
4692 3868 Star
2259 2856 Star
4766 3849 Star
4116 3330 Star
2659 3173 Star
4348 3564 Star
2696 3130 Star
4355 3472 Star
4525 3864 Star
4286 3466 Star
4505 3830 Star
4304 3582 Star
4647 3873 Star
3893 3427 Star
2682 3071 Star
3953 3320 Star
4631 3977 Star
4415 3726 Star
3692 3182 Star
2795 2766 Star
4737 3824 Star
4567 3734 Star
4059 3379 Star
2430 3024 Star
4699 3845 Star
4401 3636 Star
4574 3719 Star
2805 2825 Star
4507 3728 Star
4545 3723 Star
602 448 Star
669 448 Star
602 448 Star
602 448 Star
602 448 Star
602 448 Star
602 448 Star
602 448 Star
602 448 Star
602 448 Star
602 448 Star
669 448 Star
671 448 Star
602 448 Star
602 448 Star
602 448 Star
668 448 Star
602 448 Star
671 448 Star
602 448 Star
602 448 Star
602 448 Star
602 448 Star
602 448 Star
602 448 Star
758 826 Star
4262 3593 Star
668 448 Star
609 454 Star
4684 3921 Star
2367 2836 Star
1053 1785 Star
2842 2933 Star
862 1274 Star
4586 4035 Star
611 458 Star
3411 3237 Star
4711 3920 Star
4699 3859 Star
756 570 Star
4568 3873 Star
3995 3362 Star
4899 4155 Star
3999 3291 Star
4581 3924 Star
4308 3646 Star
4430 3662 Star
4820 4185 Star
4342 3752 Star
4115 3643 Star
677 486 Star
4661 3875 Star
4672 3819 Star
4694 3850 Star
6831 4549 Star
% End plot #3
2.000 UL
LTb
LCb setrgbcolor
1.000 UL
LTB
LCb setrgbcolor
602 4899 N
602 448 L
5526 0 V
0 4451 V
-5526 0 V
Z stroke
1.000 UP
1.000 UL
LTb
LCb setrgbcolor
stroke
grestore
end
showpage
%%Trailer
%%DocumentFonts: Helvetica
