%!PS-Adobe-2.0 EPSF-2.0
%%Title: comparison_1.eps
%%Creator: gnuplot 5.2 patchlevel 0
%%CreationDate: Sun Oct 15 17:33:56 2017
%%DocumentFonts: (atend)
%%BoundingBox: 50 50 410 302
%%EndComments
%%BeginProlog
/gnudict 256 dict def
gnudict begin
%
% The following true/false flags may be edited by hand if desired.
% The unit line width and grayscale image gamma correction may also be changed.
%
/Color true def
/Blacktext false def
/Solid false def
/Dashlength 1 def
/Landscape false def
/Level1 false def
/Level3 false def
/Rounded false def
/ClipToBoundingBox false def
/SuppressPDFMark false def
/TransparentPatterns false def
/gnulinewidth 5.000 def
/userlinewidth gnulinewidth def
/Gamma 1.0 def
/BackgroundColor {-1.000 -1.000 -1.000} def
%
/vshift -46 def
/dl1 {
  10.0 Dashlength userlinewidth gnulinewidth div mul mul mul
  Rounded { currentlinewidth 0.75 mul sub dup 0 le { pop 0.01 } if } if
} def
/dl2 {
  10.0 Dashlength userlinewidth gnulinewidth div mul mul mul
  Rounded { currentlinewidth 0.75 mul add } if
} def
/hpt_ 31.5 def
/vpt_ 31.5 def
/hpt hpt_ def
/vpt vpt_ def
/doclip {
  ClipToBoundingBox {
    newpath 50 50 moveto 410 50 lineto 410 302 lineto 50 302 lineto closepath
    clip
  } if
} def
%
% Gnuplot Prolog Version 5.1 (Oct 2015)
%
%/SuppressPDFMark true def
%
/M {moveto} bind def
/L {lineto} bind def
/R {rmoveto} bind def
/V {rlineto} bind def
/N {newpath moveto} bind def
/Z {closepath} bind def
/C {setrgbcolor} bind def
/f {rlineto fill} bind def
/g {setgray} bind def
/Gshow {show} def   % May be redefined later in the file to support UTF-8
/vpt2 vpt 2 mul def
/hpt2 hpt 2 mul def
/Lshow {currentpoint stroke M 0 vshift R 
	Blacktext {gsave 0 setgray textshow grestore} {textshow} ifelse} def
/Rshow {currentpoint stroke M dup stringwidth pop neg vshift R
	Blacktext {gsave 0 setgray textshow grestore} {textshow} ifelse} def
/Cshow {currentpoint stroke M dup stringwidth pop -2 div vshift R 
	Blacktext {gsave 0 setgray textshow grestore} {textshow} ifelse} def
/UP {dup vpt_ mul /vpt exch def hpt_ mul /hpt exch def
  /hpt2 hpt 2 mul def /vpt2 vpt 2 mul def} def
/DL {Color {setrgbcolor Solid {pop []} if 0 setdash}
 {pop pop pop 0 setgray Solid {pop []} if 0 setdash} ifelse} def
/BL {stroke userlinewidth 2 mul setlinewidth
	Rounded {1 setlinejoin 1 setlinecap} if} def
/AL {stroke userlinewidth 2 div setlinewidth
	Rounded {1 setlinejoin 1 setlinecap} if} def
/UL {dup gnulinewidth mul /userlinewidth exch def
	dup 1 lt {pop 1} if 10 mul /udl exch def} def
/PL {stroke userlinewidth setlinewidth
	Rounded {1 setlinejoin 1 setlinecap} if} def
3.8 setmiterlimit
% Classic Line colors (version 5.0)
/LCw {1 1 1} def
/LCb {0 0 0} def
/LCa {0 0 0} def
/LC0 {1 0 0} def
/LC1 {0 1 0} def
/LC2 {0 0 1} def
/LC3 {1 0 1} def
/LC4 {0 1 1} def
/LC5 {1 1 0} def
/LC6 {0 0 0} def
/LC7 {1 0.3 0} def
/LC8 {0.5 0.5 0.5} def
% Default dash patterns (version 5.0)
/LTB {BL [] LCb DL} def
/LTw {PL [] 1 setgray} def
/LTb {PL [] LCb DL} def
/LTa {AL [1 udl mul 2 udl mul] 0 setdash LCa setrgbcolor} def
/LT0 {PL [] LC0 DL} def
/LT1 {PL [2 dl1 3 dl2] LC1 DL} def
/LT2 {PL [1 dl1 1.5 dl2] LC2 DL} def
/LT3 {PL [6 dl1 2 dl2 1 dl1 2 dl2] LC3 DL} def
/LT4 {PL [1 dl1 2 dl2 6 dl1 2 dl2 1 dl1 2 dl2] LC4 DL} def
/LT5 {PL [4 dl1 2 dl2] LC5 DL} def
/LT6 {PL [1.5 dl1 1.5 dl2 1.5 dl1 1.5 dl2 1.5 dl1 6 dl2] LC6 DL} def
/LT7 {PL [3 dl1 3 dl2 1 dl1 3 dl2] LC7 DL} def
/LT8 {PL [2 dl1 2 dl2 2 dl1 6 dl2] LC8 DL} def
/SL {[] 0 setdash} def
/Pnt {stroke [] 0 setdash gsave 1 setlinecap M 0 0 V stroke grestore} def
/Dia {stroke [] 0 setdash 2 copy vpt add M
  hpt neg vpt neg V hpt vpt neg V
  hpt vpt V hpt neg vpt V closepath stroke
  Pnt} def
/Pls {stroke [] 0 setdash vpt sub M 0 vpt2 V
  currentpoint stroke M
  hpt neg vpt neg R hpt2 0 V stroke
 } def
/Box {stroke [] 0 setdash 2 copy exch hpt sub exch vpt add M
  0 vpt2 neg V hpt2 0 V 0 vpt2 V
  hpt2 neg 0 V closepath stroke
  Pnt} def
/Crs {stroke [] 0 setdash exch hpt sub exch vpt add M
  hpt2 vpt2 neg V currentpoint stroke M
  hpt2 neg 0 R hpt2 vpt2 V stroke} def
/TriU {stroke [] 0 setdash 2 copy vpt 1.12 mul add M
  hpt neg vpt -1.62 mul V
  hpt 2 mul 0 V
  hpt neg vpt 1.62 mul V closepath stroke
  Pnt} def
/Star {2 copy Pls Crs} def
/BoxF {stroke [] 0 setdash exch hpt sub exch vpt add M
  0 vpt2 neg V hpt2 0 V 0 vpt2 V
  hpt2 neg 0 V closepath fill} def
/TriUF {stroke [] 0 setdash vpt 1.12 mul add M
  hpt neg vpt -1.62 mul V
  hpt 2 mul 0 V
  hpt neg vpt 1.62 mul V closepath fill} def
/TriD {stroke [] 0 setdash 2 copy vpt 1.12 mul sub M
  hpt neg vpt 1.62 mul V
  hpt 2 mul 0 V
  hpt neg vpt -1.62 mul V closepath stroke
  Pnt} def
/TriDF {stroke [] 0 setdash vpt 1.12 mul sub M
  hpt neg vpt 1.62 mul V
  hpt 2 mul 0 V
  hpt neg vpt -1.62 mul V closepath fill} def
/DiaF {stroke [] 0 setdash vpt add M
  hpt neg vpt neg V hpt vpt neg V
  hpt vpt V hpt neg vpt V closepath fill} def
/Pent {stroke [] 0 setdash 2 copy gsave
  translate 0 hpt M 4 {72 rotate 0 hpt L} repeat
  closepath stroke grestore Pnt} def
/PentF {stroke [] 0 setdash gsave
  translate 0 hpt M 4 {72 rotate 0 hpt L} repeat
  closepath fill grestore} def
/Circle {stroke [] 0 setdash 2 copy
  hpt 0 360 arc stroke Pnt} def
/CircleF {stroke [] 0 setdash hpt 0 360 arc fill} def
/C0 {BL [] 0 setdash 2 copy moveto vpt 90 450 arc} bind def
/C1 {BL [] 0 setdash 2 copy moveto
	2 copy vpt 0 90 arc closepath fill
	vpt 0 360 arc closepath} bind def
/C2 {BL [] 0 setdash 2 copy moveto
	2 copy vpt 90 180 arc closepath fill
	vpt 0 360 arc closepath} bind def
/C3 {BL [] 0 setdash 2 copy moveto
	2 copy vpt 0 180 arc closepath fill
	vpt 0 360 arc closepath} bind def
/C4 {BL [] 0 setdash 2 copy moveto
	2 copy vpt 180 270 arc closepath fill
	vpt 0 360 arc closepath} bind def
/C5 {BL [] 0 setdash 2 copy moveto
	2 copy vpt 0 90 arc
	2 copy moveto
	2 copy vpt 180 270 arc closepath fill
	vpt 0 360 arc} bind def
/C6 {BL [] 0 setdash 2 copy moveto
	2 copy vpt 90 270 arc closepath fill
	vpt 0 360 arc closepath} bind def
/C7 {BL [] 0 setdash 2 copy moveto
	2 copy vpt 0 270 arc closepath fill
	vpt 0 360 arc closepath} bind def
/C8 {BL [] 0 setdash 2 copy moveto
	2 copy vpt 270 360 arc closepath fill
	vpt 0 360 arc closepath} bind def
/C9 {BL [] 0 setdash 2 copy moveto
	2 copy vpt 270 450 arc closepath fill
	vpt 0 360 arc closepath} bind def
/C10 {BL [] 0 setdash 2 copy 2 copy moveto vpt 270 360 arc closepath fill
	2 copy moveto
	2 copy vpt 90 180 arc closepath fill
	vpt 0 360 arc closepath} bind def
/C11 {BL [] 0 setdash 2 copy moveto
	2 copy vpt 0 180 arc closepath fill
	2 copy moveto
	2 copy vpt 270 360 arc closepath fill
	vpt 0 360 arc closepath} bind def
/C12 {BL [] 0 setdash 2 copy moveto
	2 copy vpt 180 360 arc closepath fill
	vpt 0 360 arc closepath} bind def
/C13 {BL [] 0 setdash 2 copy moveto
	2 copy vpt 0 90 arc closepath fill
	2 copy moveto
	2 copy vpt 180 360 arc closepath fill
	vpt 0 360 arc closepath} bind def
/C14 {BL [] 0 setdash 2 copy moveto
	2 copy vpt 90 360 arc closepath fill
	vpt 0 360 arc} bind def
/C15 {BL [] 0 setdash 2 copy vpt 0 360 arc closepath fill
	vpt 0 360 arc closepath} bind def
/Rec {newpath 4 2 roll moveto 1 index 0 rlineto 0 exch rlineto
	neg 0 rlineto closepath} bind def
/Square {dup Rec} bind def
/Bsquare {vpt sub exch vpt sub exch vpt2 Square} bind def
/S0 {BL [] 0 setdash 2 copy moveto 0 vpt rlineto BL Bsquare} bind def
/S1 {BL [] 0 setdash 2 copy vpt Square fill Bsquare} bind def
/S2 {BL [] 0 setdash 2 copy exch vpt sub exch vpt Square fill Bsquare} bind def
/S3 {BL [] 0 setdash 2 copy exch vpt sub exch vpt2 vpt Rec fill Bsquare} bind def
/S4 {BL [] 0 setdash 2 copy exch vpt sub exch vpt sub vpt Square fill Bsquare} bind def
/S5 {BL [] 0 setdash 2 copy 2 copy vpt Square fill
	exch vpt sub exch vpt sub vpt Square fill Bsquare} bind def
/S6 {BL [] 0 setdash 2 copy exch vpt sub exch vpt sub vpt vpt2 Rec fill Bsquare} bind def
/S7 {BL [] 0 setdash 2 copy exch vpt sub exch vpt sub vpt vpt2 Rec fill
	2 copy vpt Square fill Bsquare} bind def
/S8 {BL [] 0 setdash 2 copy vpt sub vpt Square fill Bsquare} bind def
/S9 {BL [] 0 setdash 2 copy vpt sub vpt vpt2 Rec fill Bsquare} bind def
/S10 {BL [] 0 setdash 2 copy vpt sub vpt Square fill 2 copy exch vpt sub exch vpt Square fill
	Bsquare} bind def
/S11 {BL [] 0 setdash 2 copy vpt sub vpt Square fill 2 copy exch vpt sub exch vpt2 vpt Rec fill
	Bsquare} bind def
/S12 {BL [] 0 setdash 2 copy exch vpt sub exch vpt sub vpt2 vpt Rec fill Bsquare} bind def
/S13 {BL [] 0 setdash 2 copy exch vpt sub exch vpt sub vpt2 vpt Rec fill
	2 copy vpt Square fill Bsquare} bind def
/S14 {BL [] 0 setdash 2 copy exch vpt sub exch vpt sub vpt2 vpt Rec fill
	2 copy exch vpt sub exch vpt Square fill Bsquare} bind def
/S15 {BL [] 0 setdash 2 copy Bsquare fill Bsquare} bind def
/D0 {gsave translate 45 rotate 0 0 S0 stroke grestore} bind def
/D1 {gsave translate 45 rotate 0 0 S1 stroke grestore} bind def
/D2 {gsave translate 45 rotate 0 0 S2 stroke grestore} bind def
/D3 {gsave translate 45 rotate 0 0 S3 stroke grestore} bind def
/D4 {gsave translate 45 rotate 0 0 S4 stroke grestore} bind def
/D5 {gsave translate 45 rotate 0 0 S5 stroke grestore} bind def
/D6 {gsave translate 45 rotate 0 0 S6 stroke grestore} bind def
/D7 {gsave translate 45 rotate 0 0 S7 stroke grestore} bind def
/D8 {gsave translate 45 rotate 0 0 S8 stroke grestore} bind def
/D9 {gsave translate 45 rotate 0 0 S9 stroke grestore} bind def
/D10 {gsave translate 45 rotate 0 0 S10 stroke grestore} bind def
/D11 {gsave translate 45 rotate 0 0 S11 stroke grestore} bind def
/D12 {gsave translate 45 rotate 0 0 S12 stroke grestore} bind def
/D13 {gsave translate 45 rotate 0 0 S13 stroke grestore} bind def
/D14 {gsave translate 45 rotate 0 0 S14 stroke grestore} bind def
/D15 {gsave translate 45 rotate 0 0 S15 stroke grestore} bind def
/DiaE {stroke [] 0 setdash vpt add M
  hpt neg vpt neg V hpt vpt neg V
  hpt vpt V hpt neg vpt V closepath stroke} def
/BoxE {stroke [] 0 setdash exch hpt sub exch vpt add M
  0 vpt2 neg V hpt2 0 V 0 vpt2 V
  hpt2 neg 0 V closepath stroke} def
/TriUE {stroke [] 0 setdash vpt 1.12 mul add M
  hpt neg vpt -1.62 mul V
  hpt 2 mul 0 V
  hpt neg vpt 1.62 mul V closepath stroke} def
/TriDE {stroke [] 0 setdash vpt 1.12 mul sub M
  hpt neg vpt 1.62 mul V
  hpt 2 mul 0 V
  hpt neg vpt -1.62 mul V closepath stroke} def
/PentE {stroke [] 0 setdash gsave
  translate 0 hpt M 4 {72 rotate 0 hpt L} repeat
  closepath stroke grestore} def
/CircE {stroke [] 0 setdash 
  hpt 0 360 arc stroke} def
/Opaque {gsave closepath 1 setgray fill grestore 0 setgray closepath} def
/DiaW {stroke [] 0 setdash vpt add M
  hpt neg vpt neg V hpt vpt neg V
  hpt vpt V hpt neg vpt V Opaque stroke} def
/BoxW {stroke [] 0 setdash exch hpt sub exch vpt add M
  0 vpt2 neg V hpt2 0 V 0 vpt2 V
  hpt2 neg 0 V Opaque stroke} def
/TriUW {stroke [] 0 setdash vpt 1.12 mul add M
  hpt neg vpt -1.62 mul V
  hpt 2 mul 0 V
  hpt neg vpt 1.62 mul V Opaque stroke} def
/TriDW {stroke [] 0 setdash vpt 1.12 mul sub M
  hpt neg vpt 1.62 mul V
  hpt 2 mul 0 V
  hpt neg vpt -1.62 mul V Opaque stroke} def
/PentW {stroke [] 0 setdash gsave
  translate 0 hpt M 4 {72 rotate 0 hpt L} repeat
  Opaque stroke grestore} def
/CircW {stroke [] 0 setdash 
  hpt 0 360 arc Opaque stroke} def
/BoxFill {gsave Rec 1 setgray fill grestore} def
/Density {
  /Fillden exch def
  currentrgbcolor
  /ColB exch def /ColG exch def /ColR exch def
  /ColR ColR Fillden mul Fillden sub 1 add def
  /ColG ColG Fillden mul Fillden sub 1 add def
  /ColB ColB Fillden mul Fillden sub 1 add def
  ColR ColG ColB setrgbcolor} def
/BoxColFill {gsave Rec PolyFill} def
/PolyFill {gsave Density fill grestore grestore} def
/h {rlineto rlineto rlineto gsave closepath fill grestore} bind def
%
% PostScript Level 1 Pattern Fill routine for rectangles
% Usage: x y w h s a XX PatternFill
%	x,y = lower left corner of box to be filled
%	w,h = width and height of box
%	  a = angle in degrees between lines and x-axis
%	 XX = 0/1 for no/yes cross-hatch
%
/PatternFill {gsave /PFa [ 9 2 roll ] def
  PFa 0 get PFa 2 get 2 div add PFa 1 get PFa 3 get 2 div add translate
  PFa 2 get -2 div PFa 3 get -2 div PFa 2 get PFa 3 get Rec
  TransparentPatterns {} {gsave 1 setgray fill grestore} ifelse
  clip
  currentlinewidth 0.5 mul setlinewidth
  /PFs PFa 2 get dup mul PFa 3 get dup mul add sqrt def
  0 0 M PFa 5 get rotate PFs -2 div dup translate
  0 1 PFs PFa 4 get div 1 add floor cvi
	{PFa 4 get mul 0 M 0 PFs V} for
  0 PFa 6 get ne {
	0 1 PFs PFa 4 get div 1 add floor cvi
	{PFa 4 get mul 0 2 1 roll M PFs 0 V} for
 } if
  stroke grestore} def
%
/languagelevel where
 {pop languagelevel} {1} ifelse
dup 2 lt
	{/InterpretLevel1 true def
	 /InterpretLevel3 false def}
	{/InterpretLevel1 Level1 def
	 2 gt
	    {/InterpretLevel3 Level3 def}
	    {/InterpretLevel3 false def}
	 ifelse }
 ifelse
%
% PostScript level 2 pattern fill definitions
%
/Level2PatternFill {
/Tile8x8 {/PaintType 2 /PatternType 1 /TilingType 1 /BBox [0 0 8 8] /XStep 8 /YStep 8}
	bind def
/KeepColor {currentrgbcolor [/Pattern /DeviceRGB] setcolorspace} bind def
<< Tile8x8
 /PaintProc {0.5 setlinewidth pop 0 0 M 8 8 L 0 8 M 8 0 L stroke} 
>> matrix makepattern
/Pat1 exch def
<< Tile8x8
 /PaintProc {0.5 setlinewidth pop 0 0 M 8 8 L 0 8 M 8 0 L stroke
	0 4 M 4 8 L 8 4 L 4 0 L 0 4 L stroke}
>> matrix makepattern
/Pat2 exch def
<< Tile8x8
 /PaintProc {0.5 setlinewidth pop 0 0 M 0 8 L
	8 8 L 8 0 L 0 0 L fill}
>> matrix makepattern
/Pat3 exch def
<< Tile8x8
 /PaintProc {0.5 setlinewidth pop -4 8 M 8 -4 L
	0 12 M 12 0 L stroke}
>> matrix makepattern
/Pat4 exch def
<< Tile8x8
 /PaintProc {0.5 setlinewidth pop -4 0 M 8 12 L
	0 -4 M 12 8 L stroke}
>> matrix makepattern
/Pat5 exch def
<< Tile8x8
 /PaintProc {0.5 setlinewidth pop -2 8 M 4 -4 L
	0 12 M 8 -4 L 4 12 M 10 0 L stroke}
>> matrix makepattern
/Pat6 exch def
<< Tile8x8
 /PaintProc {0.5 setlinewidth pop -2 0 M 4 12 L
	0 -4 M 8 12 L 4 -4 M 10 8 L stroke}
>> matrix makepattern
/Pat7 exch def
<< Tile8x8
 /PaintProc {0.5 setlinewidth pop 8 -2 M -4 4 L
	12 0 M -4 8 L 12 4 M 0 10 L stroke}
>> matrix makepattern
/Pat8 exch def
<< Tile8x8
 /PaintProc {0.5 setlinewidth pop 0 -2 M 12 4 L
	-4 0 M 12 8 L -4 4 M 8 10 L stroke}
>> matrix makepattern
/Pat9 exch def
/Pattern1 {PatternBgnd KeepColor Pat1 setpattern} bind def
/Pattern2 {PatternBgnd KeepColor Pat2 setpattern} bind def
/Pattern3 {PatternBgnd KeepColor Pat3 setpattern} bind def
/Pattern4 {PatternBgnd KeepColor Landscape {Pat5} {Pat4} ifelse setpattern} bind def
/Pattern5 {PatternBgnd KeepColor Landscape {Pat4} {Pat5} ifelse setpattern} bind def
/Pattern6 {PatternBgnd KeepColor Landscape {Pat9} {Pat6} ifelse setpattern} bind def
/Pattern7 {PatternBgnd KeepColor Landscape {Pat8} {Pat7} ifelse setpattern} bind def
} def
%
%
%End of PostScript Level 2 code
%
/PatternBgnd {
  TransparentPatterns {} {gsave 1 setgray fill grestore} ifelse
} def
%
% Substitute for Level 2 pattern fill codes with
% grayscale if Level 2 support is not selected.
%
/Level1PatternFill {
/Pattern1 {0.250 Density} bind def
/Pattern2 {0.500 Density} bind def
/Pattern3 {0.750 Density} bind def
/Pattern4 {0.125 Density} bind def
/Pattern5 {0.375 Density} bind def
/Pattern6 {0.625 Density} bind def
/Pattern7 {0.875 Density} bind def
} def
%
% Now test for support of Level 2 code
%
Level1 {Level1PatternFill} {Level2PatternFill} ifelse
%
/Symbol-Oblique /Symbol findfont [1 0 .167 1 0 0] makefont
dup length dict begin {1 index /FID eq {pop pop} {def} ifelse} forall
currentdict end definefont pop
%
/Metrics {ExtendTextBox Gswidth} def
/Lwidth {currentpoint stroke M 0 vshift R Metrics} def
/Rwidth {currentpoint stroke M dup stringwidth pop neg vshift R Metrics} def
/Cwidth {currentpoint stroke M dup stringwidth pop -2 div vshift R Metrics} def
/GLwidth {currentpoint stroke M 0 vshift R {ExtendTextBox} forall} def
/GRwidth {currentpoint stroke M dup Gwidth vshift R {ExtendTextBox} forall} def
/GCwidth {currentpoint stroke M dup Gwidth 2 div vshift R {ExtendTextBox} forall} def
/GLwidth2 {0 Gwidth AddGlyphWidth} def
/GRwidth2 {Gwidth -1 mul 0 AddGlyphWidth} def
/GCwidth2 {Gwidth 2 div dup -1 mul AddGlyphWidth} def
/AddGlyphWidth { dup TBx2 gt {userdict /TBx2 3 -1 roll put} {pop} ifelse
                 dup TBx1 lt {userdict /TBx1 3 -1 roll put} {pop} ifelse } def
/MFshow {
   { dup 5 get 3 ge
     { 5 get 3 eq {gsave} {grestore} ifelse }
     {dup dup 0 get findfont exch 1 get scalefont setfont
     [ currentpoint ] exch dup 2 get 0 exch R dup 5 get 2 ne {dup dup 6
     get exch 4 get {textshow} {Metrics pop 0 R} ifelse }if dup 5 get 0 eq
     {dup 3 get {2 get neg 0 exch R pop} {pop aload pop M} ifelse} {dup 5
     get 1 eq {dup 2 get exch dup 3 get exch 6 get Gswidth pop -2 div
     dup 0 R} {dup 6 get Gswidth pop -2 div 0 R 6 get
     textshow 2 index {aload pop M neg 3 -1 roll neg R pop pop} {pop pop pop
     pop aload pop M} ifelse }ifelse }ifelse }
     ifelse }
   forall} def
/Gswidth {dup type /stringtype eq {stringwidth} {pop (n) stringwidth} ifelse} def
/MFwidth {0 exch { dup 5 get 3 ge { 5 get 3 eq { 0 } { pop } ifelse }
 {dup 3 get{dup dup 0 get findfont exch 1 get scalefont setfont
     6 get Gswidth pop add} {pop} ifelse} ifelse} forall} def
/MLshow { currentpoint stroke M
  0 exch R
  Blacktext {gsave 0 setgray MFshow grestore} {MFshow} ifelse } bind def
/MRshow { currentpoint stroke M
  exch dup MFwidth neg 3 -1 roll R
  Blacktext {gsave 0 setgray MFshow grestore} {MFshow} ifelse } bind def
/MCshow { currentpoint stroke M
  exch dup MFwidth -2 div 3 -1 roll R
  Blacktext {gsave 0 setgray MFshow grestore} {MFshow} ifelse } bind def
/XYsave    { [( ) 1 2 true false 3 ()] } bind def
/XYrestore { [( ) 1 2 true false 4 ()] } bind def
Level1 SuppressPDFMark or 
{} {
/SDict 10 dict def
systemdict /pdfmark known not {
  userdict /pdfmark systemdict /cleartomark get put
} if
SDict begin [
  /Title (comparison_1.eps)
  /Subject (gnuplot plot)
  /Creator (gnuplot 5.2 patchlevel 0)
%  /Producer (gnuplot)
%  /Keywords ()
  /CreationDate (Sun Oct 15 17:33:56 2017)
  /DOCINFO pdfmark
end
} ifelse
%
% Support for boxed text - Ethan A Merritt Sep 2016
%
/InitTextBox { userdict /TBy2 3 -1 roll put userdict /TBx2 3 -1 roll put
           userdict /TBy1 3 -1 roll put userdict /TBx1 3 -1 roll put
	   /Boxing true def } def
/ExtendTextBox { dup type /stringtype eq
    { Boxing { gsave dup false charpath pathbbox
      dup TBy2 gt {userdict /TBy2 3 -1 roll put} {pop} ifelse
      dup TBx2 gt {userdict /TBx2 3 -1 roll put} {pop} ifelse
      dup TBy1 lt {userdict /TBy1 3 -1 roll put} {pop} ifelse
      dup TBx1 lt {userdict /TBx1 3 -1 roll put} {pop} ifelse
      grestore } if }
    {} ifelse} def
/PopTextBox { newpath TBx1 TBxmargin sub TBy1 TBymargin sub M
               TBx1 TBxmargin sub TBy2 TBymargin add L
	       TBx2 TBxmargin add TBy2 TBymargin add L
	       TBx2 TBxmargin add TBy1 TBymargin sub L closepath } def
/DrawTextBox { PopTextBox stroke /Boxing false def} def
/FillTextBox { gsave PopTextBox fill grestore /Boxing false def} def
0 0 0 0 InitTextBox
/TBxmargin 20 def
/TBymargin 20 def
/Boxing false def
/textshow { ExtendTextBox Gshow } def
%
end
%%EndProlog
%%Page: 1 1
gnudict begin
gsave
doclip
50 50 translate
0.050 0.050 scale
0 setgray
newpath
(Helvetica) findfont 140 scalefont setfont
BackgroundColor 0 lt 3 1 roll 0 lt exch 0 lt or or not {BackgroundColor C 1.000 0 0 7200.00 5040.00 BoxColFill} if
1.000 UL
LTb
LCb setrgbcolor
462 280 M
63 0 V
6422 0 R
-63 0 V
stroke
378 280 M
[ [(Helvetica) 140.0 0.0 true true 0 ( 0)]
] -46.7 MRshow
1.000 UL
LTb
LCb setrgbcolor
462 793 M
63 0 V
6422 0 R
-63 0 V
stroke
378 793 M
[ [(Helvetica) 140.0 0.0 true true 0 ( 2)]
] -46.7 MRshow
1.000 UL
LTb
LCb setrgbcolor
462 1306 M
63 0 V
6422 0 R
-63 0 V
stroke
378 1306 M
[ [(Helvetica) 140.0 0.0 true true 0 ( 4)]
] -46.7 MRshow
1.000 UL
LTb
LCb setrgbcolor
462 1820 M
63 0 V
6422 0 R
-63 0 V
stroke
378 1820 M
[ [(Helvetica) 140.0 0.0 true true 0 ( 6)]
] -46.7 MRshow
1.000 UL
LTb
LCb setrgbcolor
462 2333 M
63 0 V
6422 0 R
-63 0 V
stroke
378 2333 M
[ [(Helvetica) 140.0 0.0 true true 0 ( 8)]
] -46.7 MRshow
1.000 UL
LTb
LCb setrgbcolor
462 2846 M
63 0 V
6422 0 R
-63 0 V
stroke
378 2846 M
[ [(Helvetica) 140.0 0.0 true true 0 ( 10)]
] -46.7 MRshow
1.000 UL
LTb
LCb setrgbcolor
462 3359 M
63 0 V
6422 0 R
-63 0 V
stroke
378 3359 M
[ [(Helvetica) 140.0 0.0 true true 0 ( 12)]
] -46.7 MRshow
1.000 UL
LTb
LCb setrgbcolor
462 3873 M
63 0 V
6422 0 R
-63 0 V
stroke
378 3873 M
[ [(Helvetica) 140.0 0.0 true true 0 ( 14)]
] -46.7 MRshow
1.000 UL
LTb
LCb setrgbcolor
462 4386 M
63 0 V
6422 0 R
-63 0 V
stroke
378 4386 M
[ [(Helvetica) 140.0 0.0 true true 0 ( 16)]
] -46.7 MRshow
1.000 UL
LTb
LCb setrgbcolor
462 4899 M
63 0 V
6422 0 R
-63 0 V
stroke
378 4899 M
[ [(Helvetica) 140.0 0.0 true true 0 ( 18)]
] -46.7 MRshow
1.000 UL
LTb
LCb setrgbcolor
462 280 M
0 63 V
0 4556 R
0 -63 V
stroke
462 140 M
[ [(Helvetica) 140.0 0.0 true true 0 ( 0)]
] -46.7 MCshow
1.000 UL
LTb
LCb setrgbcolor
1183 280 M
0 63 V
0 4556 R
0 -63 V
stroke
1183 140 M
[ [(Helvetica) 140.0 0.0 true true 0 ( 500)]
] -46.7 MCshow
1.000 UL
LTb
LCb setrgbcolor
1903 280 M
0 63 V
0 4556 R
0 -63 V
stroke
1903 140 M
[ [(Helvetica) 140.0 0.0 true true 0 ( 1000)]
] -46.7 MCshow
1.000 UL
LTb
LCb setrgbcolor
2624 280 M
0 63 V
0 4556 R
0 -63 V
stroke
2624 140 M
[ [(Helvetica) 140.0 0.0 true true 0 ( 1500)]
] -46.7 MCshow
1.000 UL
LTb
LCb setrgbcolor
3344 280 M
0 63 V
0 4556 R
0 -63 V
stroke
3344 140 M
[ [(Helvetica) 140.0 0.0 true true 0 ( 2000)]
] -46.7 MCshow
1.000 UL
LTb
LCb setrgbcolor
4065 280 M
0 63 V
0 4556 R
0 -63 V
stroke
4065 140 M
[ [(Helvetica) 140.0 0.0 true true 0 ( 2500)]
] -46.7 MCshow
1.000 UL
LTb
LCb setrgbcolor
4785 280 M
0 63 V
0 4556 R
0 -63 V
stroke
4785 140 M
[ [(Helvetica) 140.0 0.0 true true 0 ( 3000)]
] -46.7 MCshow
1.000 UL
LTb
LCb setrgbcolor
5506 280 M
0 63 V
0 4556 R
0 -63 V
stroke
5506 140 M
[ [(Helvetica) 140.0 0.0 true true 0 ( 3500)]
] -46.7 MCshow
1.000 UL
LTb
LCb setrgbcolor
6226 280 M
0 63 V
0 4556 R
0 -63 V
stroke
6226 140 M
[ [(Helvetica) 140.0 0.0 true true 0 ( 4000)]
] -46.7 MCshow
1.000 UL
LTb
LCb setrgbcolor
6947 280 M
0 63 V
0 4556 R
0 -63 V
stroke
6947 140 M
[ [(Helvetica) 140.0 0.0 true true 0 ( 4500)]
] -46.7 MCshow
1.000 UL
LTb
LCb setrgbcolor
1.000 UL
LTB
LCb setrgbcolor
462 4899 N
462 280 L
6485 0 V
0 4619 V
-6485 0 V
Z stroke
1.000 UP
1.000 UL
LTb
LCb setrgbcolor
% Begin plot #1
1.000 UL
LTb
0.58 0.00 0.83 C % End plot #1
% Begin plot #2
1.000 UL
LTb
0.00 0.62 0.45 C LCb setrgbcolor
6296 4766 M
[ [(Helvetica) 140.0 0.0 true true 0 (SS 1)]
] -46.7 MRshow
1.000 UL
LTb
0.00 0.62 0.45 C 6380 4766 M
399 0 V
462 280 M
0 1 V
1 0 V
1 0 V
54 -1 V
10 0 V
1 0 V
2 10 V
14 8 V
4 -3 V
2 3 V
42 230 V
162 593 V
190 670 V
1096 974 L
61 1245 V
462 216 V
300 85 V
403 726 V
439 153 V
46 21 V
55 152 V
66 4 V
1 -518 V
135 517 V
116 -25 V
133 112 V
41 27 V
186 36 V
97 113 V
101 145 V
132 -12 V
7 -566 V
20 545 V
14 -23 V
8 20 V
20 -753 V
16 756 V
6 -650 V
6 699 V
20 60 V
116 -520 V
181 610 V
17 -16 V
106 89 V
19 -336 V
51 -51 V
21 426 V
27 -30 V
15 -494 V
156 616 V
109 43 V
11 -300 V
2 -55 V
89 315 V
3 -394 V
1 358 V
2 33 V
3 26 V
28 -56 V
9 34 V
3 -67 V
9 -33 V
94 96 V
30 50 V
0 -3 V
16 -85 V
9 142 V
15 -68 V
8 27 V
4 -49 V
2 -8 V
5 80 V
1 -76 V
3 7 V
43 24 V
14 126 V
4 23 V
5 -105 V
19 -20 V
9 -66 V
8 147 V
0 19 V
6 -4 V
0 -140 V
2 -2 V
1 150 V
8 -103 V
10 94 V
5 -2 V
3 60 V
5 -190 V
14 27 V
6 -32 V
5 184 V
3 -155 V
5 -9 V
5 20 V
1 3 V
5 -11 V
1 133 V
12 43 V
2 -43 V
2 -208 V
10 250 V
0 -127 V
1 45 V
18 -100 V
7 183 V
4 -96 V
4 -95 V
7 87 V
2 -26 V
13 159 V
6 -150 V
0 21 V
3 -4 V
11 72 V
8 8 V
stroke 5449 4560 M
15 -68 V
10 27 V
4 93 V
1 -93 V
8 119 V
0 -91 V
6 -27 V
7 -64 V
15 68 V
4 -73 V
15 21 V
19 102 V
5 62 V
30 -10 V
14 -14 V
7 15 V
1 0 V
11 -110 V
13 154 V
5 -485 V
55 500 V
3 -98 V
4 111 V
45 -177 V
38 141 V
19 50 V
2 -177 V
6 194 V
7 3 V
5 -21 V
22 -3 V
32 -10 V
40 -4 V
31 41 V
12 -93 V
71 -117 V
1 55 V
67 54 V
90 -8 V
63 145 V
2 -194 V
5 -60 V
24 235 V
81 50 V
0 -59 V
15 49 V
42 81 V
49 -122 V
255 109 V
10 11 V
3 -18 V
% End plot #2
% Begin plot #3
stroke
LTb
0.34 0.71 0.91 C LCb setrgbcolor
6296 4626 M
[ [(Helvetica) 140.0 0.0 true true 0 (SS 2)]
] -46.7 MRshow
1.000 UL
LTb
0.34 0.71 0.91 C 6380 4626 M
399 0 V
462 280 M
60 0 V
4 0 V
9 17 V
22 7 V
25 18 V
14 231 V
147 584 V
197 696 V
1050 836 L
72 1379 V
42 -580 V
2202 3221 L
2345 1955 L
75 613 V
228 800 V
66 129 V
54 53 V
42 -986 V
43 1048 V
105 -7 V
4 -934 V
120 11 V
52 -57 V
34 1024 V
4 12 V
46 20 V
121 -584 V
11 629 V
128 -577 V
75 826 V
18 16 V
21 -223 V
60 -430 V
38 618 V
8 80 V
20 -41 V
2 -946 V
7 968 V
18 11 V
173 109 V
39 -110 V
74 141 V
83 -78 V
66 186 V
33 -445 V
50 427 V
59 24 V
73 -2 V
15 -390 V
46 237 V
15 -37 V
57 182 V
21 -69 V
28 103 V
13 -125 V
3 156 V
12 3 V
18 2 V
1 -95 V
8 137 V
6 -155 V
18 67 V
20 -186 V
5 40 V
7 280 V
4 -98 V
4 80 V
5 -33 V
20 -41 V
0 -25 V
1 -81 V
1 188 V
2 -82 V
4 -121 V
0 -20 V
4 24 V
11 214 V
1 -39 V
1 -10 V
6 14 V
1 -182 V
1 227 V
8 10 V
8 -226 V
5 22 V
1 227 V
2 -240 V
3 146 V
21 -161 V
1 191 V
4 -142 V
14 30 V
3 212 V
7 -87 V
7 18 V
9 -164 V
0 -2 V
12 281 V
4 -113 V
4 120 V
1 -86 V
12 -24 V
1 -55 V
3 -67 V
1 27 V
2 5 V
7 134 V
11 -12 V
0 -128 V
17 147 V
1 -155 V
1 98 V
19 -31 V
2 114 V
1 -156 V
5 -4 V
3 29 V
stroke 4954 4403 M
4 -17 V
5 151 V
0 -9 V
9 38 V
5 -149 V
0 -12 V
14 73 V
21 -51 V
3 5 V
41 52 V
8 -74 V
10 15 V
5 87 V
4 11 V
7 -282 V
2 335 V
7 -204 V
6 147 V
18 24 V
13 5 V
8 -201 V
5 226 V
15 20 V
5 -7 V
0 -169 V
4 82 V
4 91 V
7 -5 V
7 -281 V
15 300 V
0 -139 V
2 135 V
20 -39 V
3 52 V
24 50 V
66 -191 V
14 18 V
137 27 V
7 92 V
88 68 V
29 59 V
5 -103 V
74 89 V
6 -33 V
89 96 V
100 -17 V
% End plot #3
% Begin plot #4
stroke
LTb
0.90 0.62 0.00 C LCb setrgbcolor
6296 4486 M
[ [(Helvetica) 140.0 0.0 true true 0 (SS 4)]
] -46.7 MRshow
1.000 UL
LTb
0.90 0.62 0.00 C 6380 4486 M
399 0 V
462 280 M
3 2 V
57 4 V
3 -6 V
1 0 V
2 31 V
20 23 V
1 -19 V
20 14 V
45 283 V
92 501 V
219 773 V
174 346 V
1124 949 L
28 6 V
50 191 V
38 -165 V
147 236 V
74 75 V
209 202 V
13 -47 V
22 -6 V
26 99 V
66 1401 V
2085 1863 L
33 -121 V
7 116 V
16 1326 V
409 83 V
5 9 V
67 452 V
23 -337 V
100 143 V
86 -102 V
60 106 V
150 21 V
96 137 V
20 -78 V
46 -5 V
140 211 V
60 -157 V
78 87 V
20 98 V
12 -117 V
16 102 V
34 54 V
10 -55 V
131 0 V
36 -607 V
57 755 V
111 130 V
5 -133 V
78 -343 V
40 745 V
49 -457 V
1 -91 V
3 139 V
10 -227 V
46 286 V
20 -68 V
3 94 V
17 -87 V
3 -265 V
3 196 V
24 157 V
20 -202 V
15 107 V
24 152 V
6 -106 V
12 -6 V
1 172 V
6 25 V
22 -91 V
16 61 V
16 25 V
0 -99 V
0 82 V
1 -233 V
6 236 V
1 -3 V
4 -53 V
2 21 V
2 -191 V
7 154 V
0 67 V
1 61 V
1 -29 V
14 56 V
4 -404 V
5 364 V
5 -33 V
5 83 V
13 -72 V
11 -156 V
2 208 V
3 -94 V
6 -99 V
3 -8 V
2 26 V
7 45 V
1 -114 V
13 170 V
18 32 V
2 -198 V
0 128 V
6 -48 V
9 173 V
23 -120 V
1 91 V
1 -7 V
2 -235 V
4 253 V
30 -38 V
0 110 V
1 -150 V
2 199 V
8 -85 V
1 11 V
6 -17 V
3 -56 V
5 -28 V
4 4 V
7 -27 V
15 131 V
1 -99 V
3 -57 V
1 104 V
0 -20 V
2 18 V
stroke 4622 4251 M
8 -45 V
9 58 V
1 -30 V
3 43 V
3 -75 V
1 75 V
10 9 V
5 -13 V
3 -73 V
4 38 V
7 -79 V
4 -13 V
2 112 V
3 -33 V
6 116 V
11 -78 V
6 -40 V
4 58 V
15 24 V
4 -92 V
3 126 V
21 -7 V
0 -271 V
20 331 V
11 -26 V
5 -105 V
13 137 V
18 -207 V
9 202 V
27 11 V
19 -105 V
67 -10 V
22 228 V
6 -67 V
8 -130 V
2 13 V
11 -95 V
8 161 V
194 -13 V
% End plot #4
% Begin plot #5
stroke
LTb
0.94 0.89 0.26 C LCb setrgbcolor
6296 4346 M
[ [(Helvetica) 140.0 0.0 true true 0 (SS 6)]
] -46.7 MRshow
1.000 UL
LTb
0.94 0.89 0.26 C 6380 4346 M
399 0 V
462 280 M
62 0 V
1 0 V
0 6 V
1 -6 V
1 8 V
19 24 V
7 149 V
578 322 L
13 6 V
1 250 V
131 559 V
832 648 L
70 1177 V
1047 879 L
11 -4 V
43 1333 V
1130 924 L
294 279 V
6 4 V
79 11 V
51 175 V
261 103 V
236 1547 V
189 -185 V
219 298 V
23 30 V
125 595 V
20 -387 V
29 162 V
117 -235 V
5 -1 V
90 62 V
43 28 V
149 118 V
5 -79 V
53 -431 V
107 797 V
55 -776 V
53 670 V
17 -103 V
22 40 V
5 57 V
17 10 V
29 -449 V
38 462 V
1 47 V
6 28 V
109 -60 V
57 117 V
24 -446 V
117 -77 V
42 601 V
18 398 V
26 -601 V
17 371 V
20 -677 V
7 257 V
3 -41 V
5 300 V
6 -193 V
2 -145 V
28 14 V
29 339 V
20 -85 V
59 71 V
18 -401 V
4 189 V
7 386 V
10 -343 V
11 300 V
8 -54 V
4 -32 V
7 -129 V
5 129 V
2 51 V
3 -79 V
0 488 V
18 -348 V
1 -317 V
13 256 V
9 58 V
17 -52 V
3 -19 V
9 16 V
3 -132 V
5 -40 V
6 -3 V
3 165 V
11 -298 V
1 194 V
9 76 V
1 38 V
1 -50 V
14 176 V
1 -110 V
0 48 V
7 -37 V
1 -82 V
5 -131 V
1 197 V
3 -101 V
1 44 V
10 149 V
3 -193 V
6 102 V
1 -48 V
1 52 V
8 -32 V
5 4 V
3 2 V
7 14 V
9 -44 V
0 27 V
3 63 V
2 -12 V
12 -7 V
8 -60 V
1 27 V
3 123 V
1 -28 V
8 109 V
stroke 4376 4245 M
4 -157 V
3 5 V
1 -23 V
1 53 V
3 38 V
3 -95 V
4 66 V
17 129 V
2 -127 V
10 39 V
6 -146 V
8 118 V
2 48 V
14 -65 V
0 -27 V
10 63 V
5 -42 V
4 78 V
3 -99 V
2 39 V
0 66 V
6 -113 V
2 97 V
7 -62 V
5 121 V
10 -110 V
13 -148 V
11 196 V
0 -79 V
1 116 V
14 8 V
12 -44 V
5 16 V
6 -3 V
4 -5 V
34 -51 V
1 95 V
7 -177 V
8 415 V
13 -444 V
26 275 V
26 -256 V
0 20 V
20 96 V
18 162 V
56 -103 V
22 -23 V
13 -24 V
0 32 V
24 20 V
115 88 V
70 56 V
% End plot #5
% Begin plot #6
stroke
LTb
0.00 0.45 0.70 C LCb setrgbcolor
6296 4206 M
[ [(Helvetica) 140.0 0.0 true true 0 (SS 10)]
] -46.7 MRshow
1.000 UL
LTb
0.00 0.45 0.70 C 6380 4206 M
399 0 V
462 280 M
18 0 V
43 0 V
1 0 V
1 0 V
1 4 V
29 107 V
31 -49 V
9 247 V
606 344 L
29 108 V
742 555 L
26 38 V
2 583 V
808 610 L
81 108 V
4 1081 V
917 699 L
198 1556 V
1134 920 L
208 1710 V
142 -315 V
553 814 V
382 -63 V
18 -169 V
14 162 V
5 -222 V
65 224 V
18 146 V
20 73 V
9 -319 V
32 601 V
14 169 V
70 -1291 V
53 718 V
8 -604 V
89 208 V
26 -6 V
22 282 V
50 306 V
34 -136 V
42 105 V
18 141 V
32 -124 V
17 263 V
6 -719 V
55 1000 V
42 -873 V
31 491 V
11 27 V
50 77 V
29 -134 V
13 -291 V
60 39 V
71 16 V
32 450 V
65 -249 V
3 -132 V
45 457 V
23 -297 V
13 -151 V
45 440 V
63 532 V
37 -539 V
7 -70 V
8 -127 V
3 195 V
26 -208 V
14 132 V
97 -141 V
13 140 V
13 382 V
17 372 V
28 -524 V
10 178 V
12 -148 V
14 -171 V
5 236 V
3 451 V
14 -765 V
8 70 V
1 147 V
4 190 V
8 -136 V
13 -194 V
15 -31 V
5 373 V
25 -117 V
3 -184 V
5 283 V
9 -60 V
6 6 V
2 -226 V
3 88 V
0 -36 V
11 130 V
16 89 V
1 -208 V
3 143 V
2 475 V
2 -531 V
3 -40 V
8 -74 V
3 92 V
8 31 V
3 100 V
6 46 V
15 -142 V
10 -89 V
1 167 V
6 120 V
12 -77 V
1 -14 V
17 86 V
11 -111 V
9 -7 V
6 89 V
2 -110 V
15 213 V
12 -142 V
10 -29 V
5 -80 V
3 -14 V
6 31 V
stroke 4367 3986 M
0 230 V
2 -156 V
6 -21 V
7 -94 V
5 167 V
9 -99 V
11 120 V
12 -117 V
6 66 V
0 -21 V
3 40 V
4 77 V
2 -105 V
5 4 V
1 50 V
1 -108 V
4 103 V
12 -103 V
1 223 V
1 -140 V
0 -1 V
3 47 V
2 30 V
4 -75 V
1 14 V
0 -33 V
7 21 V
1 -6 V
18 63 V
6 -63 V
4 42 V
25 -15 V
4 111 V
2 -80 V
11 5 V
19 13 V
6 30 V
3 40 V
23 -84 V
7 -6 V
4 59 V
6 -90 V
3 139 V
35 -30 V
34 36 V
9 -8 V
24 -150 V
9 546 V
18 65 V
1 -408 V
33 347 V
9 -386 V
7 167 V
135 342 V
95 -191 V
% End plot #6
% Begin plot #7
stroke
LTb
0.90 0.12 0.06 C LCb setrgbcolor
6296 4066 M
[ [(Helvetica) 140.0 0.0 true true 0 (SS 15)]
] -46.7 MRshow
1.000 UL
LTb
0.90 0.12 0.06 C 6380 4066 M
399 0 V
462 280 M
11 9 V
36 85 V
14 -94 V
1 0 V
1 0 V
14 41 V
48 241 V
619 441 L
41 40 V
94 627 V
140 699 V
221 446 V
287 347 V
496 284 V
142 -969 V
296 959 V
57 -775 V
95 830 V
1 395 V
7 -918 V
11 846 V
0 -53 V
3 -24 V
26 -683 V
136 1346 V
8 -541 V
3 121 V
42 -134 V
82 -75 V
57 -132 V
44 216 V
10 -577 V
28 857 V
17 -874 V
76 61 V
99 771 V
47 -94 V
7 73 V
2 535 V
57 -965 V
9 405 V
8 -580 V
30 791 V
40 -444 V
25 -81 V
24 191 V
4 315 V
96 -604 V
21 427 V
6 110 V
20 133 V
33 495 V
29 -912 V
23 -5 V
50 217 V
26 396 V
17 -253 V
23 630 V
6 -729 V
3 -6 V
13 493 V
16 -411 V
16 153 V
11 -238 V
2 63 V
65 91 V
9 -60 V
66 230 V
9 -249 V
9 19 V
2 270 V
2 516 V
1 -697 V
2 126 V
16 178 V
9 349 V
3 -526 V
12 32 V
14 -86 V
8 314 V
2 -428 V
3 221 V
18 -11 V
12 187 V
6 366 V
4 -412 V
8 -85 V
7 -38 V
3 55 V
12 -235 V
3 255 V
5 237 V
4 -180 V
10 -148 V
12 -96 V
1 96 V
2 129 V
4 -180 V
1 -68 V
5 285 V
33 25 V
1 -49 V
5 536 V
6 -499 V
2 14 V
4 131 V
2 -351 V
28 121 V
6 129 V
12 1 V
1 -203 V
18 183 V
stroke 4269 4131 M
16 -144 V
3 -9 V
9 114 V
8 114 V
12 -70 V
3 48 V
3 -184 V
8 41 V
5 83 V
37 -78 V
1 104 V
1 62 V
14 39 V
5 -204 V
29 4 V
14 187 V
2 -35 V
15 5 V
14 31 V
2 -127 V
2 70 V
1 -71 V
2 590 V
1 -245 V
14 -359 V
6 52 V
18 4 V
4 90 V
6 -56 V
8 -35 V
13 49 V
2 17 V
4 -90 V
6 214 V
17 -150 V
3 -23 V
19 41 V
4 57 V
6 2 V
4 -12 V
10 28 V
3 -48 V
1 43 V
0 -10 V
7 -12 V
2 124 V
11 -21 V
33 -55 V
7 169 V
2 -154 V
1 477 V
17 -430 V
10 -118 V
5 58 V
25 24 V
12 -7 V
0 43 V
0 22 V
41 284 V
13 -257 V
18 -173 V
12 442 V
113 185 V
% End plot #7
stroke
2.000 UL
LTb
LCb setrgbcolor
1.000 UL
LTB
LCb setrgbcolor
462 4899 N
462 280 L
6485 0 V
0 4619 V
-6485 0 V
Z stroke
1.000 UP
1.000 UL
LTb
LCb setrgbcolor
stroke
grestore
end
showpage
%%Trailer
%%DocumentFonts: Helvetica
