%!PS-Adobe-2.0 EPSF-2.0
%%Title: comparison_2.eps
%%Creator: gnuplot 5.2 patchlevel 0
%%CreationDate: Sun Oct 15 17:33:56 2017
%%DocumentFonts: (atend)
%%BoundingBox: 50 50 410 302
%%EndComments
%%BeginProlog
/gnudict 256 dict def
gnudict begin
%
% The following true/false flags may be edited by hand if desired.
% The unit line width and grayscale image gamma correction may also be changed.
%
/Color true def
/Blacktext false def
/Solid false def
/Dashlength 1 def
/Landscape false def
/Level1 false def
/Level3 false def
/Rounded false def
/ClipToBoundingBox false def
/SuppressPDFMark false def
/TransparentPatterns false def
/gnulinewidth 5.000 def
/userlinewidth gnulinewidth def
/Gamma 1.0 def
/BackgroundColor {-1.000 -1.000 -1.000} def
%
/vshift -46 def
/dl1 {
  10.0 Dashlength userlinewidth gnulinewidth div mul mul mul
  Rounded { currentlinewidth 0.75 mul sub dup 0 le { pop 0.01 } if } if
} def
/dl2 {
  10.0 Dashlength userlinewidth gnulinewidth div mul mul mul
  Rounded { currentlinewidth 0.75 mul add } if
} def
/hpt_ 31.5 def
/vpt_ 31.5 def
/hpt hpt_ def
/vpt vpt_ def
/doclip {
  ClipToBoundingBox {
    newpath 50 50 moveto 410 50 lineto 410 302 lineto 50 302 lineto closepath
    clip
  } if
} def
%
% Gnuplot Prolog Version 5.1 (Oct 2015)
%
%/SuppressPDFMark true def
%
/M {moveto} bind def
/L {lineto} bind def
/R {rmoveto} bind def
/V {rlineto} bind def
/N {newpath moveto} bind def
/Z {closepath} bind def
/C {setrgbcolor} bind def
/f {rlineto fill} bind def
/g {setgray} bind def
/Gshow {show} def   % May be redefined later in the file to support UTF-8
/vpt2 vpt 2 mul def
/hpt2 hpt 2 mul def
/Lshow {currentpoint stroke M 0 vshift R 
	Blacktext {gsave 0 setgray textshow grestore} {textshow} ifelse} def
/Rshow {currentpoint stroke M dup stringwidth pop neg vshift R
	Blacktext {gsave 0 setgray textshow grestore} {textshow} ifelse} def
/Cshow {currentpoint stroke M dup stringwidth pop -2 div vshift R 
	Blacktext {gsave 0 setgray textshow grestore} {textshow} ifelse} def
/UP {dup vpt_ mul /vpt exch def hpt_ mul /hpt exch def
  /hpt2 hpt 2 mul def /vpt2 vpt 2 mul def} def
/DL {Color {setrgbcolor Solid {pop []} if 0 setdash}
 {pop pop pop 0 setgray Solid {pop []} if 0 setdash} ifelse} def
/BL {stroke userlinewidth 2 mul setlinewidth
	Rounded {1 setlinejoin 1 setlinecap} if} def
/AL {stroke userlinewidth 2 div setlinewidth
	Rounded {1 setlinejoin 1 setlinecap} if} def
/UL {dup gnulinewidth mul /userlinewidth exch def
	dup 1 lt {pop 1} if 10 mul /udl exch def} def
/PL {stroke userlinewidth setlinewidth
	Rounded {1 setlinejoin 1 setlinecap} if} def
3.8 setmiterlimit
% Classic Line colors (version 5.0)
/LCw {1 1 1} def
/LCb {0 0 0} def
/LCa {0 0 0} def
/LC0 {1 0 0} def
/LC1 {0 1 0} def
/LC2 {0 0 1} def
/LC3 {1 0 1} def
/LC4 {0 1 1} def
/LC5 {1 1 0} def
/LC6 {0 0 0} def
/LC7 {1 0.3 0} def
/LC8 {0.5 0.5 0.5} def
% Default dash patterns (version 5.0)
/LTB {BL [] LCb DL} def
/LTw {PL [] 1 setgray} def
/LTb {PL [] LCb DL} def
/LTa {AL [1 udl mul 2 udl mul] 0 setdash LCa setrgbcolor} def
/LT0 {PL [] LC0 DL} def
/LT1 {PL [2 dl1 3 dl2] LC1 DL} def
/LT2 {PL [1 dl1 1.5 dl2] LC2 DL} def
/LT3 {PL [6 dl1 2 dl2 1 dl1 2 dl2] LC3 DL} def
/LT4 {PL [1 dl1 2 dl2 6 dl1 2 dl2 1 dl1 2 dl2] LC4 DL} def
/LT5 {PL [4 dl1 2 dl2] LC5 DL} def
/LT6 {PL [1.5 dl1 1.5 dl2 1.5 dl1 1.5 dl2 1.5 dl1 6 dl2] LC6 DL} def
/LT7 {PL [3 dl1 3 dl2 1 dl1 3 dl2] LC7 DL} def
/LT8 {PL [2 dl1 2 dl2 2 dl1 6 dl2] LC8 DL} def
/SL {[] 0 setdash} def
/Pnt {stroke [] 0 setdash gsave 1 setlinecap M 0 0 V stroke grestore} def
/Dia {stroke [] 0 setdash 2 copy vpt add M
  hpt neg vpt neg V hpt vpt neg V
  hpt vpt V hpt neg vpt V closepath stroke
  Pnt} def
/Pls {stroke [] 0 setdash vpt sub M 0 vpt2 V
  currentpoint stroke M
  hpt neg vpt neg R hpt2 0 V stroke
 } def
/Box {stroke [] 0 setdash 2 copy exch hpt sub exch vpt add M
  0 vpt2 neg V hpt2 0 V 0 vpt2 V
  hpt2 neg 0 V closepath stroke
  Pnt} def
/Crs {stroke [] 0 setdash exch hpt sub exch vpt add M
  hpt2 vpt2 neg V currentpoint stroke M
  hpt2 neg 0 R hpt2 vpt2 V stroke} def
/TriU {stroke [] 0 setdash 2 copy vpt 1.12 mul add M
  hpt neg vpt -1.62 mul V
  hpt 2 mul 0 V
  hpt neg vpt 1.62 mul V closepath stroke
  Pnt} def
/Star {2 copy Pls Crs} def
/BoxF {stroke [] 0 setdash exch hpt sub exch vpt add M
  0 vpt2 neg V hpt2 0 V 0 vpt2 V
  hpt2 neg 0 V closepath fill} def
/TriUF {stroke [] 0 setdash vpt 1.12 mul add M
  hpt neg vpt -1.62 mul V
  hpt 2 mul 0 V
  hpt neg vpt 1.62 mul V closepath fill} def
/TriD {stroke [] 0 setdash 2 copy vpt 1.12 mul sub M
  hpt neg vpt 1.62 mul V
  hpt 2 mul 0 V
  hpt neg vpt -1.62 mul V closepath stroke
  Pnt} def
/TriDF {stroke [] 0 setdash vpt 1.12 mul sub M
  hpt neg vpt 1.62 mul V
  hpt 2 mul 0 V
  hpt neg vpt -1.62 mul V closepath fill} def
/DiaF {stroke [] 0 setdash vpt add M
  hpt neg vpt neg V hpt vpt neg V
  hpt vpt V hpt neg vpt V closepath fill} def
/Pent {stroke [] 0 setdash 2 copy gsave
  translate 0 hpt M 4 {72 rotate 0 hpt L} repeat
  closepath stroke grestore Pnt} def
/PentF {stroke [] 0 setdash gsave
  translate 0 hpt M 4 {72 rotate 0 hpt L} repeat
  closepath fill grestore} def
/Circle {stroke [] 0 setdash 2 copy
  hpt 0 360 arc stroke Pnt} def
/CircleF {stroke [] 0 setdash hpt 0 360 arc fill} def
/C0 {BL [] 0 setdash 2 copy moveto vpt 90 450 arc} bind def
/C1 {BL [] 0 setdash 2 copy moveto
	2 copy vpt 0 90 arc closepath fill
	vpt 0 360 arc closepath} bind def
/C2 {BL [] 0 setdash 2 copy moveto
	2 copy vpt 90 180 arc closepath fill
	vpt 0 360 arc closepath} bind def
/C3 {BL [] 0 setdash 2 copy moveto
	2 copy vpt 0 180 arc closepath fill
	vpt 0 360 arc closepath} bind def
/C4 {BL [] 0 setdash 2 copy moveto
	2 copy vpt 180 270 arc closepath fill
	vpt 0 360 arc closepath} bind def
/C5 {BL [] 0 setdash 2 copy moveto
	2 copy vpt 0 90 arc
	2 copy moveto
	2 copy vpt 180 270 arc closepath fill
	vpt 0 360 arc} bind def
/C6 {BL [] 0 setdash 2 copy moveto
	2 copy vpt 90 270 arc closepath fill
	vpt 0 360 arc closepath} bind def
/C7 {BL [] 0 setdash 2 copy moveto
	2 copy vpt 0 270 arc closepath fill
	vpt 0 360 arc closepath} bind def
/C8 {BL [] 0 setdash 2 copy moveto
	2 copy vpt 270 360 arc closepath fill
	vpt 0 360 arc closepath} bind def
/C9 {BL [] 0 setdash 2 copy moveto
	2 copy vpt 270 450 arc closepath fill
	vpt 0 360 arc closepath} bind def
/C10 {BL [] 0 setdash 2 copy 2 copy moveto vpt 270 360 arc closepath fill
	2 copy moveto
	2 copy vpt 90 180 arc closepath fill
	vpt 0 360 arc closepath} bind def
/C11 {BL [] 0 setdash 2 copy moveto
	2 copy vpt 0 180 arc closepath fill
	2 copy moveto
	2 copy vpt 270 360 arc closepath fill
	vpt 0 360 arc closepath} bind def
/C12 {BL [] 0 setdash 2 copy moveto
	2 copy vpt 180 360 arc closepath fill
	vpt 0 360 arc closepath} bind def
/C13 {BL [] 0 setdash 2 copy moveto
	2 copy vpt 0 90 arc closepath fill
	2 copy moveto
	2 copy vpt 180 360 arc closepath fill
	vpt 0 360 arc closepath} bind def
/C14 {BL [] 0 setdash 2 copy moveto
	2 copy vpt 90 360 arc closepath fill
	vpt 0 360 arc} bind def
/C15 {BL [] 0 setdash 2 copy vpt 0 360 arc closepath fill
	vpt 0 360 arc closepath} bind def
/Rec {newpath 4 2 roll moveto 1 index 0 rlineto 0 exch rlineto
	neg 0 rlineto closepath} bind def
/Square {dup Rec} bind def
/Bsquare {vpt sub exch vpt sub exch vpt2 Square} bind def
/S0 {BL [] 0 setdash 2 copy moveto 0 vpt rlineto BL Bsquare} bind def
/S1 {BL [] 0 setdash 2 copy vpt Square fill Bsquare} bind def
/S2 {BL [] 0 setdash 2 copy exch vpt sub exch vpt Square fill Bsquare} bind def
/S3 {BL [] 0 setdash 2 copy exch vpt sub exch vpt2 vpt Rec fill Bsquare} bind def
/S4 {BL [] 0 setdash 2 copy exch vpt sub exch vpt sub vpt Square fill Bsquare} bind def
/S5 {BL [] 0 setdash 2 copy 2 copy vpt Square fill
	exch vpt sub exch vpt sub vpt Square fill Bsquare} bind def
/S6 {BL [] 0 setdash 2 copy exch vpt sub exch vpt sub vpt vpt2 Rec fill Bsquare} bind def
/S7 {BL [] 0 setdash 2 copy exch vpt sub exch vpt sub vpt vpt2 Rec fill
	2 copy vpt Square fill Bsquare} bind def
/S8 {BL [] 0 setdash 2 copy vpt sub vpt Square fill Bsquare} bind def
/S9 {BL [] 0 setdash 2 copy vpt sub vpt vpt2 Rec fill Bsquare} bind def
/S10 {BL [] 0 setdash 2 copy vpt sub vpt Square fill 2 copy exch vpt sub exch vpt Square fill
	Bsquare} bind def
/S11 {BL [] 0 setdash 2 copy vpt sub vpt Square fill 2 copy exch vpt sub exch vpt2 vpt Rec fill
	Bsquare} bind def
/S12 {BL [] 0 setdash 2 copy exch vpt sub exch vpt sub vpt2 vpt Rec fill Bsquare} bind def
/S13 {BL [] 0 setdash 2 copy exch vpt sub exch vpt sub vpt2 vpt Rec fill
	2 copy vpt Square fill Bsquare} bind def
/S14 {BL [] 0 setdash 2 copy exch vpt sub exch vpt sub vpt2 vpt Rec fill
	2 copy exch vpt sub exch vpt Square fill Bsquare} bind def
/S15 {BL [] 0 setdash 2 copy Bsquare fill Bsquare} bind def
/D0 {gsave translate 45 rotate 0 0 S0 stroke grestore} bind def
/D1 {gsave translate 45 rotate 0 0 S1 stroke grestore} bind def
/D2 {gsave translate 45 rotate 0 0 S2 stroke grestore} bind def
/D3 {gsave translate 45 rotate 0 0 S3 stroke grestore} bind def
/D4 {gsave translate 45 rotate 0 0 S4 stroke grestore} bind def
/D5 {gsave translate 45 rotate 0 0 S5 stroke grestore} bind def
/D6 {gsave translate 45 rotate 0 0 S6 stroke grestore} bind def
/D7 {gsave translate 45 rotate 0 0 S7 stroke grestore} bind def
/D8 {gsave translate 45 rotate 0 0 S8 stroke grestore} bind def
/D9 {gsave translate 45 rotate 0 0 S9 stroke grestore} bind def
/D10 {gsave translate 45 rotate 0 0 S10 stroke grestore} bind def
/D11 {gsave translate 45 rotate 0 0 S11 stroke grestore} bind def
/D12 {gsave translate 45 rotate 0 0 S12 stroke grestore} bind def
/D13 {gsave translate 45 rotate 0 0 S13 stroke grestore} bind def
/D14 {gsave translate 45 rotate 0 0 S14 stroke grestore} bind def
/D15 {gsave translate 45 rotate 0 0 S15 stroke grestore} bind def
/DiaE {stroke [] 0 setdash vpt add M
  hpt neg vpt neg V hpt vpt neg V
  hpt vpt V hpt neg vpt V closepath stroke} def
/BoxE {stroke [] 0 setdash exch hpt sub exch vpt add M
  0 vpt2 neg V hpt2 0 V 0 vpt2 V
  hpt2 neg 0 V closepath stroke} def
/TriUE {stroke [] 0 setdash vpt 1.12 mul add M
  hpt neg vpt -1.62 mul V
  hpt 2 mul 0 V
  hpt neg vpt 1.62 mul V closepath stroke} def
/TriDE {stroke [] 0 setdash vpt 1.12 mul sub M
  hpt neg vpt 1.62 mul V
  hpt 2 mul 0 V
  hpt neg vpt -1.62 mul V closepath stroke} def
/PentE {stroke [] 0 setdash gsave
  translate 0 hpt M 4 {72 rotate 0 hpt L} repeat
  closepath stroke grestore} def
/CircE {stroke [] 0 setdash 
  hpt 0 360 arc stroke} def
/Opaque {gsave closepath 1 setgray fill grestore 0 setgray closepath} def
/DiaW {stroke [] 0 setdash vpt add M
  hpt neg vpt neg V hpt vpt neg V
  hpt vpt V hpt neg vpt V Opaque stroke} def
/BoxW {stroke [] 0 setdash exch hpt sub exch vpt add M
  0 vpt2 neg V hpt2 0 V 0 vpt2 V
  hpt2 neg 0 V Opaque stroke} def
/TriUW {stroke [] 0 setdash vpt 1.12 mul add M
  hpt neg vpt -1.62 mul V
  hpt 2 mul 0 V
  hpt neg vpt 1.62 mul V Opaque stroke} def
/TriDW {stroke [] 0 setdash vpt 1.12 mul sub M
  hpt neg vpt 1.62 mul V
  hpt 2 mul 0 V
  hpt neg vpt -1.62 mul V Opaque stroke} def
/PentW {stroke [] 0 setdash gsave
  translate 0 hpt M 4 {72 rotate 0 hpt L} repeat
  Opaque stroke grestore} def
/CircW {stroke [] 0 setdash 
  hpt 0 360 arc Opaque stroke} def
/BoxFill {gsave Rec 1 setgray fill grestore} def
/Density {
  /Fillden exch def
  currentrgbcolor
  /ColB exch def /ColG exch def /ColR exch def
  /ColR ColR Fillden mul Fillden sub 1 add def
  /ColG ColG Fillden mul Fillden sub 1 add def
  /ColB ColB Fillden mul Fillden sub 1 add def
  ColR ColG ColB setrgbcolor} def
/BoxColFill {gsave Rec PolyFill} def
/PolyFill {gsave Density fill grestore grestore} def
/h {rlineto rlineto rlineto gsave closepath fill grestore} bind def
%
% PostScript Level 1 Pattern Fill routine for rectangles
% Usage: x y w h s a XX PatternFill
%	x,y = lower left corner of box to be filled
%	w,h = width and height of box
%	  a = angle in degrees between lines and x-axis
%	 XX = 0/1 for no/yes cross-hatch
%
/PatternFill {gsave /PFa [ 9 2 roll ] def
  PFa 0 get PFa 2 get 2 div add PFa 1 get PFa 3 get 2 div add translate
  PFa 2 get -2 div PFa 3 get -2 div PFa 2 get PFa 3 get Rec
  TransparentPatterns {} {gsave 1 setgray fill grestore} ifelse
  clip
  currentlinewidth 0.5 mul setlinewidth
  /PFs PFa 2 get dup mul PFa 3 get dup mul add sqrt def
  0 0 M PFa 5 get rotate PFs -2 div dup translate
  0 1 PFs PFa 4 get div 1 add floor cvi
	{PFa 4 get mul 0 M 0 PFs V} for
  0 PFa 6 get ne {
	0 1 PFs PFa 4 get div 1 add floor cvi
	{PFa 4 get mul 0 2 1 roll M PFs 0 V} for
 } if
  stroke grestore} def
%
/languagelevel where
 {pop languagelevel} {1} ifelse
dup 2 lt
	{/InterpretLevel1 true def
	 /InterpretLevel3 false def}
	{/InterpretLevel1 Level1 def
	 2 gt
	    {/InterpretLevel3 Level3 def}
	    {/InterpretLevel3 false def}
	 ifelse }
 ifelse
%
% PostScript level 2 pattern fill definitions
%
/Level2PatternFill {
/Tile8x8 {/PaintType 2 /PatternType 1 /TilingType 1 /BBox [0 0 8 8] /XStep 8 /YStep 8}
	bind def
/KeepColor {currentrgbcolor [/Pattern /DeviceRGB] setcolorspace} bind def
<< Tile8x8
 /PaintProc {0.5 setlinewidth pop 0 0 M 8 8 L 0 8 M 8 0 L stroke} 
>> matrix makepattern
/Pat1 exch def
<< Tile8x8
 /PaintProc {0.5 setlinewidth pop 0 0 M 8 8 L 0 8 M 8 0 L stroke
	0 4 M 4 8 L 8 4 L 4 0 L 0 4 L stroke}
>> matrix makepattern
/Pat2 exch def
<< Tile8x8
 /PaintProc {0.5 setlinewidth pop 0 0 M 0 8 L
	8 8 L 8 0 L 0 0 L fill}
>> matrix makepattern
/Pat3 exch def
<< Tile8x8
 /PaintProc {0.5 setlinewidth pop -4 8 M 8 -4 L
	0 12 M 12 0 L stroke}
>> matrix makepattern
/Pat4 exch def
<< Tile8x8
 /PaintProc {0.5 setlinewidth pop -4 0 M 8 12 L
	0 -4 M 12 8 L stroke}
>> matrix makepattern
/Pat5 exch def
<< Tile8x8
 /PaintProc {0.5 setlinewidth pop -2 8 M 4 -4 L
	0 12 M 8 -4 L 4 12 M 10 0 L stroke}
>> matrix makepattern
/Pat6 exch def
<< Tile8x8
 /PaintProc {0.5 setlinewidth pop -2 0 M 4 12 L
	0 -4 M 8 12 L 4 -4 M 10 8 L stroke}
>> matrix makepattern
/Pat7 exch def
<< Tile8x8
 /PaintProc {0.5 setlinewidth pop 8 -2 M -4 4 L
	12 0 M -4 8 L 12 4 M 0 10 L stroke}
>> matrix makepattern
/Pat8 exch def
<< Tile8x8
 /PaintProc {0.5 setlinewidth pop 0 -2 M 12 4 L
	-4 0 M 12 8 L -4 4 M 8 10 L stroke}
>> matrix makepattern
/Pat9 exch def
/Pattern1 {PatternBgnd KeepColor Pat1 setpattern} bind def
/Pattern2 {PatternBgnd KeepColor Pat2 setpattern} bind def
/Pattern3 {PatternBgnd KeepColor Pat3 setpattern} bind def
/Pattern4 {PatternBgnd KeepColor Landscape {Pat5} {Pat4} ifelse setpattern} bind def
/Pattern5 {PatternBgnd KeepColor Landscape {Pat4} {Pat5} ifelse setpattern} bind def
/Pattern6 {PatternBgnd KeepColor Landscape {Pat9} {Pat6} ifelse setpattern} bind def
/Pattern7 {PatternBgnd KeepColor Landscape {Pat8} {Pat7} ifelse setpattern} bind def
} def
%
%
%End of PostScript Level 2 code
%
/PatternBgnd {
  TransparentPatterns {} {gsave 1 setgray fill grestore} ifelse
} def
%
% Substitute for Level 2 pattern fill codes with
% grayscale if Level 2 support is not selected.
%
/Level1PatternFill {
/Pattern1 {0.250 Density} bind def
/Pattern2 {0.500 Density} bind def
/Pattern3 {0.750 Density} bind def
/Pattern4 {0.125 Density} bind def
/Pattern5 {0.375 Density} bind def
/Pattern6 {0.625 Density} bind def
/Pattern7 {0.875 Density} bind def
} def
%
% Now test for support of Level 2 code
%
Level1 {Level1PatternFill} {Level2PatternFill} ifelse
%
/Symbol-Oblique /Symbol findfont [1 0 .167 1 0 0] makefont
dup length dict begin {1 index /FID eq {pop pop} {def} ifelse} forall
currentdict end definefont pop
%
/Metrics {ExtendTextBox Gswidth} def
/Lwidth {currentpoint stroke M 0 vshift R Metrics} def
/Rwidth {currentpoint stroke M dup stringwidth pop neg vshift R Metrics} def
/Cwidth {currentpoint stroke M dup stringwidth pop -2 div vshift R Metrics} def
/GLwidth {currentpoint stroke M 0 vshift R {ExtendTextBox} forall} def
/GRwidth {currentpoint stroke M dup Gwidth vshift R {ExtendTextBox} forall} def
/GCwidth {currentpoint stroke M dup Gwidth 2 div vshift R {ExtendTextBox} forall} def
/GLwidth2 {0 Gwidth AddGlyphWidth} def
/GRwidth2 {Gwidth -1 mul 0 AddGlyphWidth} def
/GCwidth2 {Gwidth 2 div dup -1 mul AddGlyphWidth} def
/AddGlyphWidth { dup TBx2 gt {userdict /TBx2 3 -1 roll put} {pop} ifelse
                 dup TBx1 lt {userdict /TBx1 3 -1 roll put} {pop} ifelse } def
/MFshow {
   { dup 5 get 3 ge
     { 5 get 3 eq {gsave} {grestore} ifelse }
     {dup dup 0 get findfont exch 1 get scalefont setfont
     [ currentpoint ] exch dup 2 get 0 exch R dup 5 get 2 ne {dup dup 6
     get exch 4 get {textshow} {Metrics pop 0 R} ifelse }if dup 5 get 0 eq
     {dup 3 get {2 get neg 0 exch R pop} {pop aload pop M} ifelse} {dup 5
     get 1 eq {dup 2 get exch dup 3 get exch 6 get Gswidth pop -2 div
     dup 0 R} {dup 6 get Gswidth pop -2 div 0 R 6 get
     textshow 2 index {aload pop M neg 3 -1 roll neg R pop pop} {pop pop pop
     pop aload pop M} ifelse }ifelse }ifelse }
     ifelse }
   forall} def
/Gswidth {dup type /stringtype eq {stringwidth} {pop (n) stringwidth} ifelse} def
/MFwidth {0 exch { dup 5 get 3 ge { 5 get 3 eq { 0 } { pop } ifelse }
 {dup 3 get{dup dup 0 get findfont exch 1 get scalefont setfont
     6 get Gswidth pop add} {pop} ifelse} ifelse} forall} def
/MLshow { currentpoint stroke M
  0 exch R
  Blacktext {gsave 0 setgray MFshow grestore} {MFshow} ifelse } bind def
/MRshow { currentpoint stroke M
  exch dup MFwidth neg 3 -1 roll R
  Blacktext {gsave 0 setgray MFshow grestore} {MFshow} ifelse } bind def
/MCshow { currentpoint stroke M
  exch dup MFwidth -2 div 3 -1 roll R
  Blacktext {gsave 0 setgray MFshow grestore} {MFshow} ifelse } bind def
/XYsave    { [( ) 1 2 true false 3 ()] } bind def
/XYrestore { [( ) 1 2 true false 4 ()] } bind def
Level1 SuppressPDFMark or 
{} {
/SDict 10 dict def
systemdict /pdfmark known not {
  userdict /pdfmark systemdict /cleartomark get put
} if
SDict begin [
  /Title (comparison_2.eps)
  /Subject (gnuplot plot)
  /Creator (gnuplot 5.2 patchlevel 0)
%  /Producer (gnuplot)
%  /Keywords ()
  /CreationDate (Sun Oct 15 17:33:56 2017)
  /DOCINFO pdfmark
end
} ifelse
%
% Support for boxed text - Ethan A Merritt Sep 2016
%
/InitTextBox { userdict /TBy2 3 -1 roll put userdict /TBx2 3 -1 roll put
           userdict /TBy1 3 -1 roll put userdict /TBx1 3 -1 roll put
	   /Boxing true def } def
/ExtendTextBox { dup type /stringtype eq
    { Boxing { gsave dup false charpath pathbbox
      dup TBy2 gt {userdict /TBy2 3 -1 roll put} {pop} ifelse
      dup TBx2 gt {userdict /TBx2 3 -1 roll put} {pop} ifelse
      dup TBy1 lt {userdict /TBy1 3 -1 roll put} {pop} ifelse
      dup TBx1 lt {userdict /TBx1 3 -1 roll put} {pop} ifelse
      grestore } if }
    {} ifelse} def
/PopTextBox { newpath TBx1 TBxmargin sub TBy1 TBymargin sub M
               TBx1 TBxmargin sub TBy2 TBymargin add L
	       TBx2 TBxmargin add TBy2 TBymargin add L
	       TBx2 TBxmargin add TBy1 TBymargin sub L closepath } def
/DrawTextBox { PopTextBox stroke /Boxing false def} def
/FillTextBox { gsave PopTextBox fill grestore /Boxing false def} def
0 0 0 0 InitTextBox
/TBxmargin 20 def
/TBymargin 20 def
/Boxing false def
/textshow { ExtendTextBox Gshow } def
%
end
%%EndProlog
%%Page: 1 1
gnudict begin
gsave
doclip
50 50 translate
0.050 0.050 scale
0 setgray
newpath
(Helvetica) findfont 140 scalefont setfont
BackgroundColor 0 lt 3 1 roll 0 lt exch 0 lt or or not {BackgroundColor C 1.000 0 0 7200.00 5040.00 BoxColFill} if
1.000 UL
LTb
LCb setrgbcolor
462 280 M
63 0 V
6422 0 R
-63 0 V
stroke
378 280 M
[ [(Helvetica) 140.0 0.0 true true 0 ( 0)]
] -46.7 MRshow
1.000 UL
LTb
LCb setrgbcolor
462 742 M
63 0 V
6422 0 R
-63 0 V
stroke
378 742 M
[ [(Helvetica) 140.0 0.0 true true 0 ( 2)]
] -46.7 MRshow
1.000 UL
LTb
LCb setrgbcolor
462 1204 M
63 0 V
6422 0 R
-63 0 V
stroke
378 1204 M
[ [(Helvetica) 140.0 0.0 true true 0 ( 4)]
] -46.7 MRshow
1.000 UL
LTb
LCb setrgbcolor
462 1666 M
63 0 V
6422 0 R
-63 0 V
stroke
378 1666 M
[ [(Helvetica) 140.0 0.0 true true 0 ( 6)]
] -46.7 MRshow
1.000 UL
LTb
LCb setrgbcolor
462 2128 M
63 0 V
6422 0 R
-63 0 V
stroke
378 2128 M
[ [(Helvetica) 140.0 0.0 true true 0 ( 8)]
] -46.7 MRshow
1.000 UL
LTb
LCb setrgbcolor
462 2590 M
63 0 V
6422 0 R
-63 0 V
stroke
378 2590 M
[ [(Helvetica) 140.0 0.0 true true 0 ( 10)]
] -46.7 MRshow
1.000 UL
LTb
LCb setrgbcolor
462 3051 M
63 0 V
6422 0 R
-63 0 V
stroke
378 3051 M
[ [(Helvetica) 140.0 0.0 true true 0 ( 12)]
] -46.7 MRshow
1.000 UL
LTb
LCb setrgbcolor
462 3513 M
63 0 V
6422 0 R
-63 0 V
stroke
378 3513 M
[ [(Helvetica) 140.0 0.0 true true 0 ( 14)]
] -46.7 MRshow
1.000 UL
LTb
LCb setrgbcolor
462 3975 M
63 0 V
6422 0 R
-63 0 V
stroke
378 3975 M
[ [(Helvetica) 140.0 0.0 true true 0 ( 16)]
] -46.7 MRshow
1.000 UL
LTb
LCb setrgbcolor
462 4437 M
63 0 V
6422 0 R
-63 0 V
stroke
378 4437 M
[ [(Helvetica) 140.0 0.0 true true 0 ( 18)]
] -46.7 MRshow
1.000 UL
LTb
LCb setrgbcolor
462 4899 M
63 0 V
6422 0 R
-63 0 V
stroke
378 4899 M
[ [(Helvetica) 140.0 0.0 true true 0 ( 20)]
] -46.7 MRshow
1.000 UL
LTb
LCb setrgbcolor
462 280 M
0 63 V
0 4556 R
0 -63 V
stroke
462 140 M
[ [(Helvetica) 140.0 0.0 true true 0 ( 0)]
] -46.7 MCshow
1.000 UL
LTb
LCb setrgbcolor
1183 280 M
0 63 V
0 4556 R
0 -63 V
stroke
1183 140 M
[ [(Helvetica) 140.0 0.0 true true 0 ( 500)]
] -46.7 MCshow
1.000 UL
LTb
LCb setrgbcolor
1903 280 M
0 63 V
0 4556 R
0 -63 V
stroke
1903 140 M
[ [(Helvetica) 140.0 0.0 true true 0 ( 1000)]
] -46.7 MCshow
1.000 UL
LTb
LCb setrgbcolor
2624 280 M
0 63 V
0 4556 R
0 -63 V
stroke
2624 140 M
[ [(Helvetica) 140.0 0.0 true true 0 ( 1500)]
] -46.7 MCshow
1.000 UL
LTb
LCb setrgbcolor
3344 280 M
0 63 V
0 4556 R
0 -63 V
stroke
3344 140 M
[ [(Helvetica) 140.0 0.0 true true 0 ( 2000)]
] -46.7 MCshow
1.000 UL
LTb
LCb setrgbcolor
4065 280 M
0 63 V
0 4556 R
0 -63 V
stroke
4065 140 M
[ [(Helvetica) 140.0 0.0 true true 0 ( 2500)]
] -46.7 MCshow
1.000 UL
LTb
LCb setrgbcolor
4785 280 M
0 63 V
0 4556 R
0 -63 V
stroke
4785 140 M
[ [(Helvetica) 140.0 0.0 true true 0 ( 3000)]
] -46.7 MCshow
1.000 UL
LTb
LCb setrgbcolor
5506 280 M
0 63 V
0 4556 R
0 -63 V
stroke
5506 140 M
[ [(Helvetica) 140.0 0.0 true true 0 ( 3500)]
] -46.7 MCshow
1.000 UL
LTb
LCb setrgbcolor
6226 280 M
0 63 V
0 4556 R
0 -63 V
stroke
6226 140 M
[ [(Helvetica) 140.0 0.0 true true 0 ( 4000)]
] -46.7 MCshow
1.000 UL
LTb
LCb setrgbcolor
6947 280 M
0 63 V
0 4556 R
0 -63 V
stroke
6947 140 M
[ [(Helvetica) 140.0 0.0 true true 0 ( 4500)]
] -46.7 MCshow
1.000 UL
LTb
LCb setrgbcolor
1.000 UL
LTB
LCb setrgbcolor
462 4899 N
462 280 L
6485 0 V
0 4619 V
-6485 0 V
Z stroke
1.000 UP
1.000 UL
LTb
LCb setrgbcolor
% Begin plot #1
1.000 UL
LTb
0.58 0.00 0.83 C % End plot #1
% Begin plot #2
1.000 UL
LTb
0.00 0.62 0.45 C LCb setrgbcolor
6296 4766 M
[ [(Helvetica) 140.0 0.0 true true 0 (SS 1)]
] -46.7 MRshow
1.000 UL
LTb
0.00 0.62 0.45 C 6380 4766 M
399 0 V
462 280 M
7 4 V
60 0 V
0 -4 V
13 107 V
51 154 V
188 698 V
18 72 V
293 637 V
674 702 V
916 588 V
1107 479 V
4016 2644 L
11 65 V
94 38 V
739 557 V
115 12 V
16 -31 V
54 -3 V
386 436 V
133 -77 V
110 130 V
14 -19 V
68 25 V
189 371 V
63 -67 V
43 130 V
16 -152 V
37 244 V
12 -41 V
1 -26 V
23 16 V
5 -12 V
26 -68 V
5 -87 V
3 -14 V
18 202 V
12 -8 V
55 34 V
1 -8 V
1 13 V
2 -6 V
1 39 V
29 -95 V
2 47 V
2 62 V
2 -68 V
6 43 V
13 -53 V
6 45 V
5 -118 V
1 118 V
0 -30 V
8 7 V
0 -137 V
4 108 V
5 -40 V
5 80 V
4 33 V
3 -74 V
5 3 V
5 17 V
1 18 V
1 65 V
2 -118 V
9 28 V
1 19 V
2 -16 V
6 44 V
4 -52 V
3 -18 V
0 25 V
1 24 V
0 -6 V
4 -52 V
3 96 V
7 23 V
3 -55 V
0 34 V
3 -62 V
1 1 V
6 -44 V
1 38 V
6 -2 V
5 87 V
2 -67 V
1 25 V
2 -15 V
1 -16 V
0 6 V
1 9 V
3 109 V
1 -82 V
4 -56 V
3 129 V
3 -76 V
10 5 V
2 30 V
7 -20 V
8 -17 V
1 71 V
3 -73 V
3 77 V
2 -8 V
1 -55 V
2 21 V
1 -31 V
2 64 V
2 -94 V
0 37 V
3 53 V
1 -55 V
4 -13 V
5 22 V
3 -34 V
1 21 V
1 -2 V
stroke 6526 4327 M
2 34 V
2 -34 V
5 -26 V
0 36 V
5 -30 V
1 76 V
2 2 V
8 -27 V
1 -44 V
3 17 V
4 0 V
2 9 V
2 27 V
0 53 V
2 -74 V
10 73 V
0 -10 V
7 -73 V
3 90 V
2 -96 V
7 -11 V
9 125 V
1 4 V
2 -71 V
1 38 V
15 -70 V
7 28 V
1 -12 V
2 -21 V
10 51 V
10 12 V
19 -30 V
3 12 V
1 1 V
6 33 V
2 -9 V
0 50 V
6 29 V
23 -70 V
8 -12 V
7 31 V
9 -23 V
1 18 V
26 -25 V
10 44 V
33 -46 V
15 6 V
46 53 V
% End plot #2
% Begin plot #3
stroke
LTb
0.34 0.71 0.91 C LCb setrgbcolor
6296 4626 M
[ [(Helvetica) 140.0 0.0 true true 0 (SS 2)]
] -46.7 MRshow
1.000 UL
LTb
0.34 0.71 0.91 C 6380 4626 M
399 0 V
462 280 M
64 2 V
0 -2 V
58 262 V
199 770 V
12 48 V
302 653 V
652 693 V
1929 1378 L
141 112 V
150 129 V
7 12 V
402 1638 V
91 -1272 V
222 112 V
193 202 V
469 365 V
106 24 V
35 1112 V
132 -869 V
166 64 V
39 19 V
824 653 V
153 392 V
123 -24 V
10 -11 V
26 -179 V
5 9 V
1 20 V
8 -68 V
3 187 V
27 97 V
5 -198 V
16 76 V
0 137 V
38 -55 V
9 88 V
5 -64 V
3 -50 V
2 6 V
3 -57 V
2 4 V
0 108 V
3 -55 V
10 129 V
11 -66 V
30 16 V
19 -34 V
14 -28 V
10 37 V
1 19 V
6 34 V
2 39 V
11 -89 V
0 17 V
1 2 V
8 -30 V
8 85 V
6 47 V
1 -79 V
24 10 V
0 -10 V
7 91 V
2 -81 V
2 -33 V
2 16 V
1 -17 V
2 60 V
0 -15 V
1 13 V
5 -92 V
0 -36 V
5 156 V
2 -60 V
1 34 V
0 -19 V
4 30 V
7 9 V
3 -16 V
4 43 V
1 -2 V
10 11 V
2 -85 V
5 51 V
8 -26 V
1 -17 V
1 57 V
1 27 V
5 -41 V
0 88 V
9 -148 V
1 116 V
1 -10 V
0 -24 V
1 -74 V
1 -6 V
1 -16 V
2 68 V
1 0 V
0 28 V
1 22 V
3 14 V
0 -77 V
1 30 V
4 15 V
1 22 V
0 -5 V
3 -53 V
1 52 V
2 -17 V
1 24 V
1 -69 V
1 140 V
stroke 5628 4319 M
3 -50 V
2 -78 V
9 -68 V
0 42 V
1 64 V
4 87 V
2 -62 V
3 -22 V
0 66 V
4 -96 V
1 59 V
3 -18 V
2 77 V
3 -168 V
5 88 V
5 -18 V
3 113 V
2 -102 V
4 86 V
7 -143 V
4 138 V
1 -59 V
6 1 V
3 -14 V
7 89 V
4 -73 V
2 86 V
3 -66 V
1 -82 V
3 24 V
1 20 V
1 95 V
6 -70 V
7 24 V
2 -114 V
24 91 V
1 -67 V
2 53 V
6 -37 V
5 127 V
1 -46 V
28 29 V
10 -55 V
6 50 V
26 28 V
1 -12 V
16 11 V
6 12 V
11 -112 V
0 97 V
33 -11 V
% End plot #3
% Begin plot #4
stroke
LTb
0.90 0.62 0.00 C LCb setrgbcolor
6296 4486 M
[ [(Helvetica) 140.0 0.0 true true 0 (SS 4)]
] -46.7 MRshow
1.000 UL
LTb
0.90 0.62 0.00 C 6380 4486 M
399 0 V
462 280 M
9 5 V
9 9 V
45 9 V
1 -23 V
39 204 V
21 94 V
126 492 V
77 346 V
1 -40 V
875 628 L
19 24 V
173 1398 V
1111 823 L
31 14 V
20 35 V
424 352 V
28 12 V
30 16 V
180 1586 V
1981 1550 L
285 244 V
375 1503 V
734 -623 V
152 113 V
63 1014 V
494 -274 V
105 -127 V
60 11 V
10 49 V
76 78 V
3 140 V
23 -21 V
51 62 V
1 107 V
50 -136 V
2 62 V
33 -35 V
19 -101 V
21 128 V
21 -94 V
0 105 V
21 65 V
7 -58 V
4 227 V
13 -129 V
5 -219 V
45 139 V
10 73 V
6 -69 V
15 107 V
23 -114 V
2 41 V
22 124 V
7 -41 V
10 -22 V
22 -21 V
17 -14 V
14 52 V
1 24 V
3 33 V
1 8 V
19 8 V
5 -71 V
2 81 V
1 23 V
2 1 V
6 -43 V
6 -73 V
1 95 V
3 -91 V
2 43 V
1 90 V
5 -3 V
1 62 V
1 -117 V
7 93 V
4 -184 V
0 94 V
3 7 V
1 -62 V
2 144 V
2 -121 V
2 51 V
13 59 V
3 -37 V
2 14 V
3 7 V
3 0 V
3 -42 V
4 -77 V
5 -40 V
0 188 V
0 -82 V
2 33 V
3 73 V
1 -85 V
0 -61 V
3 -15 V
0 178 V
2 -59 V
2 -7 V
3 31 V
1 -47 V
2 61 V
0 -21 V
2 -13 V
1 11 V
2 -16 V
3 88 V
6 -88 V
1 -50 V
0 -23 V
1 97 V
0 -9 V
1 51 V
6 -130 V
1 23 V
5 56 V
6 50 V
1 -11 V
1 -24 V
1 83 V
0 -27 V
1 -72 V
stroke 4977 4055 M
7 10 V
3 48 V
6 1 V
1 13 V
0 -159 V
1 143 V
1 -111 V
1 66 V
6 46 V
2 22 V
3 -49 V
1 -23 V
3 -15 V
2 19 V
7 -48 V
13 85 V
2 -82 V
8 -42 V
1 73 V
8 55 V
0 60 V
7 -81 V
4 42 V
3 -63 V
1 48 V
2 -61 V
7 -62 V
19 173 V
7 -36 V
2 3 V
6 -71 V
0 42 V
13 35 V
5 67 V
2 -13 V
3 -46 V
14 8 V
15 -27 V
67 60 V
8 29 V
11 -18 V
8 -73 V
% End plot #4
% Begin plot #5
stroke
LTb
0.94 0.89 0.26 C LCb setrgbcolor
6296 4346 M
[ [(Helvetica) 140.0 0.0 true true 0 (SS 6)]
] -46.7 MRshow
1.000 UL
LTb
0.94 0.89 0.26 C 6380 4346 M
399 0 V
462 280 M
3 2 V
4 3 V
55 -5 V
2 0 V
45 198 V
14 -88 V
2 174 V
665 462 L
31 535 V
17 74 V
768 549 L
1 769 V
20 90 V
839 600 L
180 168 V
48 1283 V
1229 944 L
137 108 V
166 139 V
75 67 V
150 1504 V
63 -1320 V
923 864 V
28 1192 V
464 -825 V
312 341 V
40 192 V
14 193 V
45 519 V
181 -488 V
5 -100 V
57 158 V
86 127 V
38 -248 V
36 130 V
17 -93 V
33 11 V
12 54 V
13 115 V
0 -157 V
2 32 V
19 117 V
10 -144 V
9 267 V
13 -123 V
59 144 V
25 -187 V
25 220 V
1 -210 V
4 115 V
3 14 V
2 -77 V
2 21 V
18 -119 V
2 263 V
16 -71 V
20 -31 V
7 106 V
3 -153 V
7 114 V
13 22 V
4 -45 V
13 22 V
10 83 V
2 -192 V
9 84 V
9 89 V
3 -67 V
15 27 V
3 -28 V
20 86 V
0 -74 V
2 -5 V
32 106 V
6 -86 V
1 -16 V
0 88 V
5 -27 V
0 -24 V
3 40 V
7 -12 V
1 18 V
20 -2 V
1 27 V
4 35 V
3 66 V
1 -54 V
2 -48 V
1 86 V
2 -27 V
3 0 V
3 42 V
6 -141 V
1 35 V
0 -10 V
5 -1 V
3 94 V
5 -34 V
1 -24 V
4 -23 V
3 9 V
3 -65 V
8 121 V
2 14 V
1 40 V
0 -101 V
7 100 V
14 -83 V
9 18 V
14 -61 V
2 79 V
1 -9 V
4 -2 V
1 -34 V
4 36 V
2 -16 V
1 4 V
0 131 V
1 -99 V
1 75 V
8 36 V
stroke 4680 4028 M
1 -132 V
3 74 V
1 -71 V
6 -6 V
6 4 V
1 91 V
6 -97 V
0 30 V
3 36 V
2 -48 V
1 -23 V
1 41 V
1 -57 V
3 89 V
6 29 V
8 -44 V
1 50 V
21 -93 V
0 41 V
5 1 V
2 19 V
9 128 V
1 -141 V
3 134 V
0 -139 V
10 83 V
4 -179 V
11 132 V
5 79 V
4 18 V
15 -25 V
17 -26 V
3 0 V
4 46 V
5 -87 V
40 70 V
15 -92 V
5 177 V
1 -82 V
25 159 V
8 -145 V
46 -59 V
7 58 V
17 21 V
19 82 V
55 7 V
% End plot #5
% Begin plot #6
stroke
LTb
0.00 0.45 0.70 C LCb setrgbcolor
6296 4206 M
[ [(Helvetica) 140.0 0.0 true true 0 (SS 10)]
] -46.7 MRshow
1.000 UL
LTb
0.00 0.45 0.70 C 6380 4206 M
399 0 V
462 280 M
36 80 V
25 -80 V
2 0 V
10 69 V
40 35 V
2 125 V
127 566 V
9 14 V
751 517 L
12 13 V
11 853 V
10 43 V
919 672 L
40 30 V
57 37 V
50 1313 V
1176 888 L
730 2024 V
646 532 V
95 -1106 V
28 -169 V
247 228 V
163 178 V
120 22 V
111 589 V
121 -152 V
32 263 V
81 -398 V
33 312 V
16 789 V
41 -754 V
8 -259 V
21 339 V
24 -2 V
19 -273 V
12 304 V
93 -13 V
34 150 V
13 -291 V
0 20 V
3 167 V
34 -52 V
11 114 V
7 -198 V
27 -86 V
17 72 V
24 235 V
6 147 V
10 -176 V
20 -145 V
9 83 V
25 -57 V
16 -12 V
3 46 V
22 139 V
5 163 V
2 -298 V
8 173 V
34 -187 V
43 72 V
9 16 V
7 -24 V
5 75 V
5 13 V
4 -32 V
6 17 V
6 85 V
7 -93 V
16 67 V
9 150 V
11 -153 V
2 -10 V
0 -18 V
7 249 V
21 -161 V
6 50 V
4 0 V
38 8 V
14 71 V
2 -92 V
5 74 V
6 -71 V
16 -87 V
0 178 V
2 -119 V
2 26 V
1 81 V
5 -107 V
7 58 V
10 -40 V
3 83 V
2 39 V
10 -108 V
10 66 V
12 -85 V
6 155 V
23 -128 V
10 185 V
6 -200 V
3 207 V
18 -72 V
4 4 V
3 -77 V
15 52 V
0 -40 V
11 64 V
9 103 V
8 -12 V
5 -77 V
1 124 V
10 6 V
1 -138 V
4 8 V
0 -6 V
3 14 V
4 -62 V
1 35 V
4 83 V
1 -26 V
2 17 V
5 24 V
stroke 4617 3870 M
2 -49 V
0 -15 V
1 121 V
3 -45 V
1 -41 V
0 3 V
1 24 V
5 -118 V
10 128 V
5 -20 V
1 37 V
5 0 V
4 4 V
4 -73 V
1 68 V
1 0 V
6 -26 V
1 31 V
2 12 V
2 -56 V
3 153 V
10 -117 V
9 48 V
0 -23 V
3 17 V
6 -27 V
2 112 V
2 -98 V
6 91 V
1 -10 V
16 -2 V
2 -199 V
1 155 V
17 -33 V
13 -10 V
9 8 V
17 69 V
14 20 V
12 -18 V
9 -64 V
12 104 V
6 -32 V
78 37 V
43 66 V
50 28 V
123 108 V
% End plot #6
% Begin plot #7
stroke
LTb
0.90 0.12 0.06 C LCb setrgbcolor
6296 4066 M
[ [(Helvetica) 140.0 0.0 true true 0 (SS 15)]
] -46.7 MRshow
1.000 UL
LTb
0.90 0.12 0.06 C 6380 4066 M
399 0 V
462 280 M
12 7 V
49 -7 V
2 0 V
50 236 V
13 54 V
672 449 L
29 684 V
4 14 V
8 -635 V
46 22 V
5 884 V
27 39 V
244 585 V
931 1066 V
2306 2065 L
227 43 V
53 1472 V
2808 2549 L
11 11 V
38 -279 V
55 136 V
28 349 V
27 -112 V
21 29 V
47 345 V
70 -213 V
50 73 V
163 1013 V
38 -866 V
129 36 V
8 134 V
10 -327 V
84 71 V
4 16 V
12 130 V
63 324 V
26 -314 V
29 224 V
37 -26 V
23 -197 V
10 9 V
38 296 V
9 -282 V
23 204 V
2 141 V
16 -253 V
9 266 V
26 -82 V
7 -224 V
5 58 V
36 201 V
27 -193 V
27 312 V
7 -186 V
18 68 V
11 11 V
20 -38 V
15 25 V
4 161 V
8 -252 V
17 -37 V
1 -65 V
11 44 V
10 206 V
4 136 V
20 -205 V
3 -79 V
16 100 V
5 55 V
18 -116 V
2 48 V
14 68 V
25 5 V
10 -143 V
5 735 V
6 -623 V
0 42 V
19 223 V
10 -317 V
1 233 V
23 76 V
7 -116 V
3 0 V
1 -14 V
1 -20 V
6 -6 V
5 31 V
6 20 V
13 -28 V
33 119 V
1 220 V
17 -54 V
2 -127 V
0 -158 V
27 181 V
4 28 V
2 -17 V
3 -139 V
8 110 V
11 -146 V
29 50 V
0 36 V
8 -61 V
14 100 V
5 182 V
2 -154 V
2 -17 V
8 140 V
26 29 V
7 -92 V
3 99 V
2 -177 V
7 -62 V
3 49 V
16 236 V
2 2 V
8 -35 V
1 -238 V
17 -78 V
5 184 V
16 -21 V
9 33 V
stroke 4659 3823 M
0 70 V
7 -119 V
1 104 V
3 49 V
2 10 V
8 -141 V
1 49 V
2 18 V
1 -90 V
3 102 V
5 -62 V
3 82 V
6 11 V
5 -57 V
1 -12 V
3 -61 V
9 82 V
7 -70 V
3 17 V
5 190 V
7 -137 V
3 0 V
4 12 V
16 -69 V
9 131 V
6 -40 V
1 -54 V
7 38 V
3 -26 V
7 21 V
7 -3 V
3 -9 V
3 83 V
3 -38 V
21 -36 V
11 59 V
8 0 V
10 -5 V
66 52 V
5 109 V
53 -37 V
5 155 V
104 146 V
% End plot #7
stroke
2.000 UL
LTb
LCb setrgbcolor
1.000 UL
LTB
LCb setrgbcolor
462 4899 N
462 280 L
6485 0 V
0 4619 V
-6485 0 V
Z stroke
1.000 UP
1.000 UL
LTb
LCb setrgbcolor
stroke
grestore
end
showpage
%%Trailer
%%DocumentFonts: Helvetica
