%!PS-Adobe-2.0 EPSF-2.0
%%Title: comparison_0.eps
%%Creator: gnuplot 5.2 patchlevel 0
%%CreationDate: Sun Oct 15 17:33:56 2017
%%DocumentFonts: (atend)
%%BoundingBox: 50 50 410 302
%%EndComments
%%BeginProlog
/gnudict 256 dict def
gnudict begin
%
% The following true/false flags may be edited by hand if desired.
% The unit line width and grayscale image gamma correction may also be changed.
%
/Color true def
/Blacktext false def
/Solid false def
/Dashlength 1 def
/Landscape false def
/Level1 false def
/Level3 false def
/Rounded false def
/ClipToBoundingBox false def
/SuppressPDFMark false def
/TransparentPatterns false def
/gnulinewidth 5.000 def
/userlinewidth gnulinewidth def
/Gamma 1.0 def
/BackgroundColor {-1.000 -1.000 -1.000} def
%
/vshift -46 def
/dl1 {
  10.0 Dashlength userlinewidth gnulinewidth div mul mul mul
  Rounded { currentlinewidth 0.75 mul sub dup 0 le { pop 0.01 } if } if
} def
/dl2 {
  10.0 Dashlength userlinewidth gnulinewidth div mul mul mul
  Rounded { currentlinewidth 0.75 mul add } if
} def
/hpt_ 31.5 def
/vpt_ 31.5 def
/hpt hpt_ def
/vpt vpt_ def
/doclip {
  ClipToBoundingBox {
    newpath 50 50 moveto 410 50 lineto 410 302 lineto 50 302 lineto closepath
    clip
  } if
} def
%
% Gnuplot Prolog Version 5.1 (Oct 2015)
%
%/SuppressPDFMark true def
%
/M {moveto} bind def
/L {lineto} bind def
/R {rmoveto} bind def
/V {rlineto} bind def
/N {newpath moveto} bind def
/Z {closepath} bind def
/C {setrgbcolor} bind def
/f {rlineto fill} bind def
/g {setgray} bind def
/Gshow {show} def   % May be redefined later in the file to support UTF-8
/vpt2 vpt 2 mul def
/hpt2 hpt 2 mul def
/Lshow {currentpoint stroke M 0 vshift R 
	Blacktext {gsave 0 setgray textshow grestore} {textshow} ifelse} def
/Rshow {currentpoint stroke M dup stringwidth pop neg vshift R
	Blacktext {gsave 0 setgray textshow grestore} {textshow} ifelse} def
/Cshow {currentpoint stroke M dup stringwidth pop -2 div vshift R 
	Blacktext {gsave 0 setgray textshow grestore} {textshow} ifelse} def
/UP {dup vpt_ mul /vpt exch def hpt_ mul /hpt exch def
  /hpt2 hpt 2 mul def /vpt2 vpt 2 mul def} def
/DL {Color {setrgbcolor Solid {pop []} if 0 setdash}
 {pop pop pop 0 setgray Solid {pop []} if 0 setdash} ifelse} def
/BL {stroke userlinewidth 2 mul setlinewidth
	Rounded {1 setlinejoin 1 setlinecap} if} def
/AL {stroke userlinewidth 2 div setlinewidth
	Rounded {1 setlinejoin 1 setlinecap} if} def
/UL {dup gnulinewidth mul /userlinewidth exch def
	dup 1 lt {pop 1} if 10 mul /udl exch def} def
/PL {stroke userlinewidth setlinewidth
	Rounded {1 setlinejoin 1 setlinecap} if} def
3.8 setmiterlimit
% Classic Line colors (version 5.0)
/LCw {1 1 1} def
/LCb {0 0 0} def
/LCa {0 0 0} def
/LC0 {1 0 0} def
/LC1 {0 1 0} def
/LC2 {0 0 1} def
/LC3 {1 0 1} def
/LC4 {0 1 1} def
/LC5 {1 1 0} def
/LC6 {0 0 0} def
/LC7 {1 0.3 0} def
/LC8 {0.5 0.5 0.5} def
% Default dash patterns (version 5.0)
/LTB {BL [] LCb DL} def
/LTw {PL [] 1 setgray} def
/LTb {PL [] LCb DL} def
/LTa {AL [1 udl mul 2 udl mul] 0 setdash LCa setrgbcolor} def
/LT0 {PL [] LC0 DL} def
/LT1 {PL [2 dl1 3 dl2] LC1 DL} def
/LT2 {PL [1 dl1 1.5 dl2] LC2 DL} def
/LT3 {PL [6 dl1 2 dl2 1 dl1 2 dl2] LC3 DL} def
/LT4 {PL [1 dl1 2 dl2 6 dl1 2 dl2 1 dl1 2 dl2] LC4 DL} def
/LT5 {PL [4 dl1 2 dl2] LC5 DL} def
/LT6 {PL [1.5 dl1 1.5 dl2 1.5 dl1 1.5 dl2 1.5 dl1 6 dl2] LC6 DL} def
/LT7 {PL [3 dl1 3 dl2 1 dl1 3 dl2] LC7 DL} def
/LT8 {PL [2 dl1 2 dl2 2 dl1 6 dl2] LC8 DL} def
/SL {[] 0 setdash} def
/Pnt {stroke [] 0 setdash gsave 1 setlinecap M 0 0 V stroke grestore} def
/Dia {stroke [] 0 setdash 2 copy vpt add M
  hpt neg vpt neg V hpt vpt neg V
  hpt vpt V hpt neg vpt V closepath stroke
  Pnt} def
/Pls {stroke [] 0 setdash vpt sub M 0 vpt2 V
  currentpoint stroke M
  hpt neg vpt neg R hpt2 0 V stroke
 } def
/Box {stroke [] 0 setdash 2 copy exch hpt sub exch vpt add M
  0 vpt2 neg V hpt2 0 V 0 vpt2 V
  hpt2 neg 0 V closepath stroke
  Pnt} def
/Crs {stroke [] 0 setdash exch hpt sub exch vpt add M
  hpt2 vpt2 neg V currentpoint stroke M
  hpt2 neg 0 R hpt2 vpt2 V stroke} def
/TriU {stroke [] 0 setdash 2 copy vpt 1.12 mul add M
  hpt neg vpt -1.62 mul V
  hpt 2 mul 0 V
  hpt neg vpt 1.62 mul V closepath stroke
  Pnt} def
/Star {2 copy Pls Crs} def
/BoxF {stroke [] 0 setdash exch hpt sub exch vpt add M
  0 vpt2 neg V hpt2 0 V 0 vpt2 V
  hpt2 neg 0 V closepath fill} def
/TriUF {stroke [] 0 setdash vpt 1.12 mul add M
  hpt neg vpt -1.62 mul V
  hpt 2 mul 0 V
  hpt neg vpt 1.62 mul V closepath fill} def
/TriD {stroke [] 0 setdash 2 copy vpt 1.12 mul sub M
  hpt neg vpt 1.62 mul V
  hpt 2 mul 0 V
  hpt neg vpt -1.62 mul V closepath stroke
  Pnt} def
/TriDF {stroke [] 0 setdash vpt 1.12 mul sub M
  hpt neg vpt 1.62 mul V
  hpt 2 mul 0 V
  hpt neg vpt -1.62 mul V closepath fill} def
/DiaF {stroke [] 0 setdash vpt add M
  hpt neg vpt neg V hpt vpt neg V
  hpt vpt V hpt neg vpt V closepath fill} def
/Pent {stroke [] 0 setdash 2 copy gsave
  translate 0 hpt M 4 {72 rotate 0 hpt L} repeat
  closepath stroke grestore Pnt} def
/PentF {stroke [] 0 setdash gsave
  translate 0 hpt M 4 {72 rotate 0 hpt L} repeat
  closepath fill grestore} def
/Circle {stroke [] 0 setdash 2 copy
  hpt 0 360 arc stroke Pnt} def
/CircleF {stroke [] 0 setdash hpt 0 360 arc fill} def
/C0 {BL [] 0 setdash 2 copy moveto vpt 90 450 arc} bind def
/C1 {BL [] 0 setdash 2 copy moveto
	2 copy vpt 0 90 arc closepath fill
	vpt 0 360 arc closepath} bind def
/C2 {BL [] 0 setdash 2 copy moveto
	2 copy vpt 90 180 arc closepath fill
	vpt 0 360 arc closepath} bind def
/C3 {BL [] 0 setdash 2 copy moveto
	2 copy vpt 0 180 arc closepath fill
	vpt 0 360 arc closepath} bind def
/C4 {BL [] 0 setdash 2 copy moveto
	2 copy vpt 180 270 arc closepath fill
	vpt 0 360 arc closepath} bind def
/C5 {BL [] 0 setdash 2 copy moveto
	2 copy vpt 0 90 arc
	2 copy moveto
	2 copy vpt 180 270 arc closepath fill
	vpt 0 360 arc} bind def
/C6 {BL [] 0 setdash 2 copy moveto
	2 copy vpt 90 270 arc closepath fill
	vpt 0 360 arc closepath} bind def
/C7 {BL [] 0 setdash 2 copy moveto
	2 copy vpt 0 270 arc closepath fill
	vpt 0 360 arc closepath} bind def
/C8 {BL [] 0 setdash 2 copy moveto
	2 copy vpt 270 360 arc closepath fill
	vpt 0 360 arc closepath} bind def
/C9 {BL [] 0 setdash 2 copy moveto
	2 copy vpt 270 450 arc closepath fill
	vpt 0 360 arc closepath} bind def
/C10 {BL [] 0 setdash 2 copy 2 copy moveto vpt 270 360 arc closepath fill
	2 copy moveto
	2 copy vpt 90 180 arc closepath fill
	vpt 0 360 arc closepath} bind def
/C11 {BL [] 0 setdash 2 copy moveto
	2 copy vpt 0 180 arc closepath fill
	2 copy moveto
	2 copy vpt 270 360 arc closepath fill
	vpt 0 360 arc closepath} bind def
/C12 {BL [] 0 setdash 2 copy moveto
	2 copy vpt 180 360 arc closepath fill
	vpt 0 360 arc closepath} bind def
/C13 {BL [] 0 setdash 2 copy moveto
	2 copy vpt 0 90 arc closepath fill
	2 copy moveto
	2 copy vpt 180 360 arc closepath fill
	vpt 0 360 arc closepath} bind def
/C14 {BL [] 0 setdash 2 copy moveto
	2 copy vpt 90 360 arc closepath fill
	vpt 0 360 arc} bind def
/C15 {BL [] 0 setdash 2 copy vpt 0 360 arc closepath fill
	vpt 0 360 arc closepath} bind def
/Rec {newpath 4 2 roll moveto 1 index 0 rlineto 0 exch rlineto
	neg 0 rlineto closepath} bind def
/Square {dup Rec} bind def
/Bsquare {vpt sub exch vpt sub exch vpt2 Square} bind def
/S0 {BL [] 0 setdash 2 copy moveto 0 vpt rlineto BL Bsquare} bind def
/S1 {BL [] 0 setdash 2 copy vpt Square fill Bsquare} bind def
/S2 {BL [] 0 setdash 2 copy exch vpt sub exch vpt Square fill Bsquare} bind def
/S3 {BL [] 0 setdash 2 copy exch vpt sub exch vpt2 vpt Rec fill Bsquare} bind def
/S4 {BL [] 0 setdash 2 copy exch vpt sub exch vpt sub vpt Square fill Bsquare} bind def
/S5 {BL [] 0 setdash 2 copy 2 copy vpt Square fill
	exch vpt sub exch vpt sub vpt Square fill Bsquare} bind def
/S6 {BL [] 0 setdash 2 copy exch vpt sub exch vpt sub vpt vpt2 Rec fill Bsquare} bind def
/S7 {BL [] 0 setdash 2 copy exch vpt sub exch vpt sub vpt vpt2 Rec fill
	2 copy vpt Square fill Bsquare} bind def
/S8 {BL [] 0 setdash 2 copy vpt sub vpt Square fill Bsquare} bind def
/S9 {BL [] 0 setdash 2 copy vpt sub vpt vpt2 Rec fill Bsquare} bind def
/S10 {BL [] 0 setdash 2 copy vpt sub vpt Square fill 2 copy exch vpt sub exch vpt Square fill
	Bsquare} bind def
/S11 {BL [] 0 setdash 2 copy vpt sub vpt Square fill 2 copy exch vpt sub exch vpt2 vpt Rec fill
	Bsquare} bind def
/S12 {BL [] 0 setdash 2 copy exch vpt sub exch vpt sub vpt2 vpt Rec fill Bsquare} bind def
/S13 {BL [] 0 setdash 2 copy exch vpt sub exch vpt sub vpt2 vpt Rec fill
	2 copy vpt Square fill Bsquare} bind def
/S14 {BL [] 0 setdash 2 copy exch vpt sub exch vpt sub vpt2 vpt Rec fill
	2 copy exch vpt sub exch vpt Square fill Bsquare} bind def
/S15 {BL [] 0 setdash 2 copy Bsquare fill Bsquare} bind def
/D0 {gsave translate 45 rotate 0 0 S0 stroke grestore} bind def
/D1 {gsave translate 45 rotate 0 0 S1 stroke grestore} bind def
/D2 {gsave translate 45 rotate 0 0 S2 stroke grestore} bind def
/D3 {gsave translate 45 rotate 0 0 S3 stroke grestore} bind def
/D4 {gsave translate 45 rotate 0 0 S4 stroke grestore} bind def
/D5 {gsave translate 45 rotate 0 0 S5 stroke grestore} bind def
/D6 {gsave translate 45 rotate 0 0 S6 stroke grestore} bind def
/D7 {gsave translate 45 rotate 0 0 S7 stroke grestore} bind def
/D8 {gsave translate 45 rotate 0 0 S8 stroke grestore} bind def
/D9 {gsave translate 45 rotate 0 0 S9 stroke grestore} bind def
/D10 {gsave translate 45 rotate 0 0 S10 stroke grestore} bind def
/D11 {gsave translate 45 rotate 0 0 S11 stroke grestore} bind def
/D12 {gsave translate 45 rotate 0 0 S12 stroke grestore} bind def
/D13 {gsave translate 45 rotate 0 0 S13 stroke grestore} bind def
/D14 {gsave translate 45 rotate 0 0 S14 stroke grestore} bind def
/D15 {gsave translate 45 rotate 0 0 S15 stroke grestore} bind def
/DiaE {stroke [] 0 setdash vpt add M
  hpt neg vpt neg V hpt vpt neg V
  hpt vpt V hpt neg vpt V closepath stroke} def
/BoxE {stroke [] 0 setdash exch hpt sub exch vpt add M
  0 vpt2 neg V hpt2 0 V 0 vpt2 V
  hpt2 neg 0 V closepath stroke} def
/TriUE {stroke [] 0 setdash vpt 1.12 mul add M
  hpt neg vpt -1.62 mul V
  hpt 2 mul 0 V
  hpt neg vpt 1.62 mul V closepath stroke} def
/TriDE {stroke [] 0 setdash vpt 1.12 mul sub M
  hpt neg vpt 1.62 mul V
  hpt 2 mul 0 V
  hpt neg vpt -1.62 mul V closepath stroke} def
/PentE {stroke [] 0 setdash gsave
  translate 0 hpt M 4 {72 rotate 0 hpt L} repeat
  closepath stroke grestore} def
/CircE {stroke [] 0 setdash 
  hpt 0 360 arc stroke} def
/Opaque {gsave closepath 1 setgray fill grestore 0 setgray closepath} def
/DiaW {stroke [] 0 setdash vpt add M
  hpt neg vpt neg V hpt vpt neg V
  hpt vpt V hpt neg vpt V Opaque stroke} def
/BoxW {stroke [] 0 setdash exch hpt sub exch vpt add M
  0 vpt2 neg V hpt2 0 V 0 vpt2 V
  hpt2 neg 0 V Opaque stroke} def
/TriUW {stroke [] 0 setdash vpt 1.12 mul add M
  hpt neg vpt -1.62 mul V
  hpt 2 mul 0 V
  hpt neg vpt 1.62 mul V Opaque stroke} def
/TriDW {stroke [] 0 setdash vpt 1.12 mul sub M
  hpt neg vpt 1.62 mul V
  hpt 2 mul 0 V
  hpt neg vpt -1.62 mul V Opaque stroke} def
/PentW {stroke [] 0 setdash gsave
  translate 0 hpt M 4 {72 rotate 0 hpt L} repeat
  Opaque stroke grestore} def
/CircW {stroke [] 0 setdash 
  hpt 0 360 arc Opaque stroke} def
/BoxFill {gsave Rec 1 setgray fill grestore} def
/Density {
  /Fillden exch def
  currentrgbcolor
  /ColB exch def /ColG exch def /ColR exch def
  /ColR ColR Fillden mul Fillden sub 1 add def
  /ColG ColG Fillden mul Fillden sub 1 add def
  /ColB ColB Fillden mul Fillden sub 1 add def
  ColR ColG ColB setrgbcolor} def
/BoxColFill {gsave Rec PolyFill} def
/PolyFill {gsave Density fill grestore grestore} def
/h {rlineto rlineto rlineto gsave closepath fill grestore} bind def
%
% PostScript Level 1 Pattern Fill routine for rectangles
% Usage: x y w h s a XX PatternFill
%	x,y = lower left corner of box to be filled
%	w,h = width and height of box
%	  a = angle in degrees between lines and x-axis
%	 XX = 0/1 for no/yes cross-hatch
%
/PatternFill {gsave /PFa [ 9 2 roll ] def
  PFa 0 get PFa 2 get 2 div add PFa 1 get PFa 3 get 2 div add translate
  PFa 2 get -2 div PFa 3 get -2 div PFa 2 get PFa 3 get Rec
  TransparentPatterns {} {gsave 1 setgray fill grestore} ifelse
  clip
  currentlinewidth 0.5 mul setlinewidth
  /PFs PFa 2 get dup mul PFa 3 get dup mul add sqrt def
  0 0 M PFa 5 get rotate PFs -2 div dup translate
  0 1 PFs PFa 4 get div 1 add floor cvi
	{PFa 4 get mul 0 M 0 PFs V} for
  0 PFa 6 get ne {
	0 1 PFs PFa 4 get div 1 add floor cvi
	{PFa 4 get mul 0 2 1 roll M PFs 0 V} for
 } if
  stroke grestore} def
%
/languagelevel where
 {pop languagelevel} {1} ifelse
dup 2 lt
	{/InterpretLevel1 true def
	 /InterpretLevel3 false def}
	{/InterpretLevel1 Level1 def
	 2 gt
	    {/InterpretLevel3 Level3 def}
	    {/InterpretLevel3 false def}
	 ifelse }
 ifelse
%
% PostScript level 2 pattern fill definitions
%
/Level2PatternFill {
/Tile8x8 {/PaintType 2 /PatternType 1 /TilingType 1 /BBox [0 0 8 8] /XStep 8 /YStep 8}
	bind def
/KeepColor {currentrgbcolor [/Pattern /DeviceRGB] setcolorspace} bind def
<< Tile8x8
 /PaintProc {0.5 setlinewidth pop 0 0 M 8 8 L 0 8 M 8 0 L stroke} 
>> matrix makepattern
/Pat1 exch def
<< Tile8x8
 /PaintProc {0.5 setlinewidth pop 0 0 M 8 8 L 0 8 M 8 0 L stroke
	0 4 M 4 8 L 8 4 L 4 0 L 0 4 L stroke}
>> matrix makepattern
/Pat2 exch def
<< Tile8x8
 /PaintProc {0.5 setlinewidth pop 0 0 M 0 8 L
	8 8 L 8 0 L 0 0 L fill}
>> matrix makepattern
/Pat3 exch def
<< Tile8x8
 /PaintProc {0.5 setlinewidth pop -4 8 M 8 -4 L
	0 12 M 12 0 L stroke}
>> matrix makepattern
/Pat4 exch def
<< Tile8x8
 /PaintProc {0.5 setlinewidth pop -4 0 M 8 12 L
	0 -4 M 12 8 L stroke}
>> matrix makepattern
/Pat5 exch def
<< Tile8x8
 /PaintProc {0.5 setlinewidth pop -2 8 M 4 -4 L
	0 12 M 8 -4 L 4 12 M 10 0 L stroke}
>> matrix makepattern
/Pat6 exch def
<< Tile8x8
 /PaintProc {0.5 setlinewidth pop -2 0 M 4 12 L
	0 -4 M 8 12 L 4 -4 M 10 8 L stroke}
>> matrix makepattern
/Pat7 exch def
<< Tile8x8
 /PaintProc {0.5 setlinewidth pop 8 -2 M -4 4 L
	12 0 M -4 8 L 12 4 M 0 10 L stroke}
>> matrix makepattern
/Pat8 exch def
<< Tile8x8
 /PaintProc {0.5 setlinewidth pop 0 -2 M 12 4 L
	-4 0 M 12 8 L -4 4 M 8 10 L stroke}
>> matrix makepattern
/Pat9 exch def
/Pattern1 {PatternBgnd KeepColor Pat1 setpattern} bind def
/Pattern2 {PatternBgnd KeepColor Pat2 setpattern} bind def
/Pattern3 {PatternBgnd KeepColor Pat3 setpattern} bind def
/Pattern4 {PatternBgnd KeepColor Landscape {Pat5} {Pat4} ifelse setpattern} bind def
/Pattern5 {PatternBgnd KeepColor Landscape {Pat4} {Pat5} ifelse setpattern} bind def
/Pattern6 {PatternBgnd KeepColor Landscape {Pat9} {Pat6} ifelse setpattern} bind def
/Pattern7 {PatternBgnd KeepColor Landscape {Pat8} {Pat7} ifelse setpattern} bind def
} def
%
%
%End of PostScript Level 2 code
%
/PatternBgnd {
  TransparentPatterns {} {gsave 1 setgray fill grestore} ifelse
} def
%
% Substitute for Level 2 pattern fill codes with
% grayscale if Level 2 support is not selected.
%
/Level1PatternFill {
/Pattern1 {0.250 Density} bind def
/Pattern2 {0.500 Density} bind def
/Pattern3 {0.750 Density} bind def
/Pattern4 {0.125 Density} bind def
/Pattern5 {0.375 Density} bind def
/Pattern6 {0.625 Density} bind def
/Pattern7 {0.875 Density} bind def
} def
%
% Now test for support of Level 2 code
%
Level1 {Level1PatternFill} {Level2PatternFill} ifelse
%
/Symbol-Oblique /Symbol findfont [1 0 .167 1 0 0] makefont
dup length dict begin {1 index /FID eq {pop pop} {def} ifelse} forall
currentdict end definefont pop
%
/Metrics {ExtendTextBox Gswidth} def
/Lwidth {currentpoint stroke M 0 vshift R Metrics} def
/Rwidth {currentpoint stroke M dup stringwidth pop neg vshift R Metrics} def
/Cwidth {currentpoint stroke M dup stringwidth pop -2 div vshift R Metrics} def
/GLwidth {currentpoint stroke M 0 vshift R {ExtendTextBox} forall} def
/GRwidth {currentpoint stroke M dup Gwidth vshift R {ExtendTextBox} forall} def
/GCwidth {currentpoint stroke M dup Gwidth 2 div vshift R {ExtendTextBox} forall} def
/GLwidth2 {0 Gwidth AddGlyphWidth} def
/GRwidth2 {Gwidth -1 mul 0 AddGlyphWidth} def
/GCwidth2 {Gwidth 2 div dup -1 mul AddGlyphWidth} def
/AddGlyphWidth { dup TBx2 gt {userdict /TBx2 3 -1 roll put} {pop} ifelse
                 dup TBx1 lt {userdict /TBx1 3 -1 roll put} {pop} ifelse } def
/MFshow {
   { dup 5 get 3 ge
     { 5 get 3 eq {gsave} {grestore} ifelse }
     {dup dup 0 get findfont exch 1 get scalefont setfont
     [ currentpoint ] exch dup 2 get 0 exch R dup 5 get 2 ne {dup dup 6
     get exch 4 get {textshow} {Metrics pop 0 R} ifelse }if dup 5 get 0 eq
     {dup 3 get {2 get neg 0 exch R pop} {pop aload pop M} ifelse} {dup 5
     get 1 eq {dup 2 get exch dup 3 get exch 6 get Gswidth pop -2 div
     dup 0 R} {dup 6 get Gswidth pop -2 div 0 R 6 get
     textshow 2 index {aload pop M neg 3 -1 roll neg R pop pop} {pop pop pop
     pop aload pop M} ifelse }ifelse }ifelse }
     ifelse }
   forall} def
/Gswidth {dup type /stringtype eq {stringwidth} {pop (n) stringwidth} ifelse} def
/MFwidth {0 exch { dup 5 get 3 ge { 5 get 3 eq { 0 } { pop } ifelse }
 {dup 3 get{dup dup 0 get findfont exch 1 get scalefont setfont
     6 get Gswidth pop add} {pop} ifelse} ifelse} forall} def
/MLshow { currentpoint stroke M
  0 exch R
  Blacktext {gsave 0 setgray MFshow grestore} {MFshow} ifelse } bind def
/MRshow { currentpoint stroke M
  exch dup MFwidth neg 3 -1 roll R
  Blacktext {gsave 0 setgray MFshow grestore} {MFshow} ifelse } bind def
/MCshow { currentpoint stroke M
  exch dup MFwidth -2 div 3 -1 roll R
  Blacktext {gsave 0 setgray MFshow grestore} {MFshow} ifelse } bind def
/XYsave    { [( ) 1 2 true false 3 ()] } bind def
/XYrestore { [( ) 1 2 true false 4 ()] } bind def
Level1 SuppressPDFMark or 
{} {
/SDict 10 dict def
systemdict /pdfmark known not {
  userdict /pdfmark systemdict /cleartomark get put
} if
SDict begin [
  /Title (comparison_0.eps)
  /Subject (gnuplot plot)
  /Creator (gnuplot 5.2 patchlevel 0)
%  /Producer (gnuplot)
%  /Keywords ()
  /CreationDate (Sun Oct 15 17:33:56 2017)
  /DOCINFO pdfmark
end
} ifelse
%
% Support for boxed text - Ethan A Merritt Sep 2016
%
/InitTextBox { userdict /TBy2 3 -1 roll put userdict /TBx2 3 -1 roll put
           userdict /TBy1 3 -1 roll put userdict /TBx1 3 -1 roll put
	   /Boxing true def } def
/ExtendTextBox { dup type /stringtype eq
    { Boxing { gsave dup false charpath pathbbox
      dup TBy2 gt {userdict /TBy2 3 -1 roll put} {pop} ifelse
      dup TBx2 gt {userdict /TBx2 3 -1 roll put} {pop} ifelse
      dup TBy1 lt {userdict /TBy1 3 -1 roll put} {pop} ifelse
      dup TBx1 lt {userdict /TBx1 3 -1 roll put} {pop} ifelse
      grestore } if }
    {} ifelse} def
/PopTextBox { newpath TBx1 TBxmargin sub TBy1 TBymargin sub M
               TBx1 TBxmargin sub TBy2 TBymargin add L
	       TBx2 TBxmargin add TBy2 TBymargin add L
	       TBx2 TBxmargin add TBy1 TBymargin sub L closepath } def
/DrawTextBox { PopTextBox stroke /Boxing false def} def
/FillTextBox { gsave PopTextBox fill grestore /Boxing false def} def
0 0 0 0 InitTextBox
/TBxmargin 20 def
/TBymargin 20 def
/Boxing false def
/textshow { ExtendTextBox Gshow } def
%
end
%%EndProlog
%%Page: 1 1
gnudict begin
gsave
doclip
50 50 translate
0.050 0.050 scale
0 setgray
newpath
(Helvetica) findfont 140 scalefont setfont
BackgroundColor 0 lt 3 1 roll 0 lt exch 0 lt or or not {BackgroundColor C 1.000 0 0 7200.00 5040.00 BoxColFill} if
1.000 UL
LTb
LCb setrgbcolor
462 280 M
63 0 V
6422 0 R
-63 0 V
stroke
378 280 M
[ [(Helvetica) 140.0 0.0 true true 0 ( 0)]
] -46.7 MRshow
1.000 UL
LTb
LCb setrgbcolor
462 742 M
63 0 V
6422 0 R
-63 0 V
stroke
378 742 M
[ [(Helvetica) 140.0 0.0 true true 0 ( 2)]
] -46.7 MRshow
1.000 UL
LTb
LCb setrgbcolor
462 1204 M
63 0 V
6422 0 R
-63 0 V
stroke
378 1204 M
[ [(Helvetica) 140.0 0.0 true true 0 ( 4)]
] -46.7 MRshow
1.000 UL
LTb
LCb setrgbcolor
462 1666 M
63 0 V
6422 0 R
-63 0 V
stroke
378 1666 M
[ [(Helvetica) 140.0 0.0 true true 0 ( 6)]
] -46.7 MRshow
1.000 UL
LTb
LCb setrgbcolor
462 2128 M
63 0 V
6422 0 R
-63 0 V
stroke
378 2128 M
[ [(Helvetica) 140.0 0.0 true true 0 ( 8)]
] -46.7 MRshow
1.000 UL
LTb
LCb setrgbcolor
462 2590 M
63 0 V
6422 0 R
-63 0 V
stroke
378 2590 M
[ [(Helvetica) 140.0 0.0 true true 0 ( 10)]
] -46.7 MRshow
1.000 UL
LTb
LCb setrgbcolor
462 3051 M
63 0 V
6422 0 R
-63 0 V
stroke
378 3051 M
[ [(Helvetica) 140.0 0.0 true true 0 ( 12)]
] -46.7 MRshow
1.000 UL
LTb
LCb setrgbcolor
462 3513 M
63 0 V
6422 0 R
-63 0 V
stroke
378 3513 M
[ [(Helvetica) 140.0 0.0 true true 0 ( 14)]
] -46.7 MRshow
1.000 UL
LTb
LCb setrgbcolor
462 3975 M
63 0 V
6422 0 R
-63 0 V
stroke
378 3975 M
[ [(Helvetica) 140.0 0.0 true true 0 ( 16)]
] -46.7 MRshow
1.000 UL
LTb
LCb setrgbcolor
462 4437 M
63 0 V
6422 0 R
-63 0 V
stroke
378 4437 M
[ [(Helvetica) 140.0 0.0 true true 0 ( 18)]
] -46.7 MRshow
1.000 UL
LTb
LCb setrgbcolor
462 4899 M
63 0 V
6422 0 R
-63 0 V
stroke
378 4899 M
[ [(Helvetica) 140.0 0.0 true true 0 ( 20)]
] -46.7 MRshow
1.000 UL
LTb
LCb setrgbcolor
462 280 M
0 63 V
0 4556 R
0 -63 V
stroke
462 140 M
[ [(Helvetica) 140.0 0.0 true true 0 ( 0)]
] -46.7 MCshow
1.000 UL
LTb
LCb setrgbcolor
1183 280 M
0 63 V
0 4556 R
0 -63 V
stroke
1183 140 M
[ [(Helvetica) 140.0 0.0 true true 0 ( 500)]
] -46.7 MCshow
1.000 UL
LTb
LCb setrgbcolor
1903 280 M
0 63 V
0 4556 R
0 -63 V
stroke
1903 140 M
[ [(Helvetica) 140.0 0.0 true true 0 ( 1000)]
] -46.7 MCshow
1.000 UL
LTb
LCb setrgbcolor
2624 280 M
0 63 V
0 4556 R
0 -63 V
stroke
2624 140 M
[ [(Helvetica) 140.0 0.0 true true 0 ( 1500)]
] -46.7 MCshow
1.000 UL
LTb
LCb setrgbcolor
3344 280 M
0 63 V
0 4556 R
0 -63 V
stroke
3344 140 M
[ [(Helvetica) 140.0 0.0 true true 0 ( 2000)]
] -46.7 MCshow
1.000 UL
LTb
LCb setrgbcolor
4065 280 M
0 63 V
0 4556 R
0 -63 V
stroke
4065 140 M
[ [(Helvetica) 140.0 0.0 true true 0 ( 2500)]
] -46.7 MCshow
1.000 UL
LTb
LCb setrgbcolor
4785 280 M
0 63 V
0 4556 R
0 -63 V
stroke
4785 140 M
[ [(Helvetica) 140.0 0.0 true true 0 ( 3000)]
] -46.7 MCshow
1.000 UL
LTb
LCb setrgbcolor
5506 280 M
0 63 V
0 4556 R
0 -63 V
stroke
5506 140 M
[ [(Helvetica) 140.0 0.0 true true 0 ( 3500)]
] -46.7 MCshow
1.000 UL
LTb
LCb setrgbcolor
6226 280 M
0 63 V
0 4556 R
0 -63 V
stroke
6226 140 M
[ [(Helvetica) 140.0 0.0 true true 0 ( 4000)]
] -46.7 MCshow
1.000 UL
LTb
LCb setrgbcolor
6947 280 M
0 63 V
0 4556 R
0 -63 V
stroke
6947 140 M
[ [(Helvetica) 140.0 0.0 true true 0 ( 4500)]
] -46.7 MCshow
1.000 UL
LTb
LCb setrgbcolor
1.000 UL
LTB
LCb setrgbcolor
462 4899 N
462 280 L
6485 0 V
0 4619 V
-6485 0 V
Z stroke
1.000 UP
1.000 UL
LTb
LCb setrgbcolor
% Begin plot #1
1.000 UL
LTb
0.58 0.00 0.83 C % End plot #1
% Begin plot #2
1.000 UL
LTb
0.00 0.62 0.45 C LCb setrgbcolor
6296 4766 M
[ [(Helvetica) 140.0 0.0 true true 0 (SS 1)]
] -46.7 MRshow
1.000 UL
LTb
0.00 0.62 0.45 C 6380 4766 M
399 0 V
462 280 M
6 6 V
3 1 V
3 2 V
54 -9 V
1 0 V
17 19 V
25 3 V
19 199 V
770 968 L
170 627 V
247 452 V
654 -818 V
35 1432 V
360 225 V
298 -676 V
148 886 V
32 49 V
9 7 V
17 -30 V
597 99 V
54 54 V
27 40 V
36 32 V
268 -10 V
48 -763 V
69 880 V
14 6 V
48 29 V
33 62 V
7 -17 V
5 10 V
4 7 V
17 1 V
52 17 V
601 17 V
69 34 V
79 70 V
10 20 V
6 9 V
63 28 V
202 -406 V
2 137 V
147 -76 V
6 306 V
94 -38 V
101 45 V
16 -2 V
12 170 V
53 -4 V
14 65 V
50 14 V
20 15 V
12 7 V
5 5 V
29 15 V
102 -69 V
35 18 V
42 35 V
2 -1 V
18 18 V
37 41 V
12 22 V
24 -12 V
13 6 V
7 21 V
10 13 V
16 1 V
28 -18 V
3 39 V
19 -2 V
9 19 V
10 32 V
2 -18 V
3 21 V
8 -36 V
9 10 V
9 5 V
7 24 V
20 48 V
7 -29 V
3 -20 V
4 2 V
23 5 V
15 7 V
81 34 V
0 -134 V
21 -11 V
22 55 V
71 6 V
44 42 V
4 53 V
45 -91 V
57 137 V
42 -3 V
26 13 V
9 -4 V
2 -27 V
3 9 V
12 75 V
4 20 V
6 -20 V
4 -44 V
2 49 V
4 47 V
5 -56 V
10 6 V
13 -46 V
7 130 V
6 -71 V
3 -38 V
9 -16 V
1 79 V
4 -25 V
stroke 6624 4351 M
0 -28 V
6 52 V
4 -24 V
1 46 V
5 -16 V
9 13 V
1 19 V
1 -63 V
1 -6 V
6 16 V
4 -12 V
2 29 V
0 -4 V
6 6 V
2 -29 V
4 54 V
0 -13 V
4 -12 V
9 5 V
2 20 V
2 -3 V
4 -7 V
8 2 V
0 36 V
0 -13 V
13 -16 V
1 53 V
10 -56 V
1 40 V
4 12 V
3 -32 V
2 20 V
7 3 V
2 -22 V
1 0 V
3 52 V
0 -56 V
2 39 V
2 24 V
0 -86 V
1 14 V
2 -20 V
3 43 V
2 5 V
19 20 V
11 -2 V
1 -40 V
1 69 V
18 -47 V
% End plot #2
% Begin plot #3
stroke
LTb
0.34 0.71 0.91 C LCb setrgbcolor
6296 4626 M
[ [(Helvetica) 140.0 0.0 true true 0 (SS 2)]
] -46.7 MRshow
1.000 UL
LTb
0.34 0.71 0.91 C 6380 4626 M
399 0 V
462 280 M
3 2 V
1 0 V
8 4 V
0 2 V
45 -8 V
7 0 V
2 12 V
1 -2 V
57 222 V
625 324 L
241 901 V
37 352 V
238 407 V
603 -426 V
57 1056 V
2017 1468 L
248 179 V
95 1272 V
77 34 V
19 94 V
27 24 V
13 2 V
358 -425 V
1 -507 V
198 942 V
1 10 V
152 140 V
27 31 V
155 -708 V
88 708 V
72 -711 V
31 828 V
47 58 V
5 4 V
0 -27 V
14 -4 V
321 -149 V
85 135 V
111 -298 V
55 423 V
16 -36 V
81 126 V
46 -422 V
118 311 V
20 22 V
97 81 V
105 -27 V
69 160 V
22 -141 V
76 158 V
68 -111 V
83 88 V
23 88 V
121 62 V
84 73 V
50 121 V
12 -28 V
14 7 V
20 -99 V
9 14 V
52 98 V
8 -39 V
4 63 V
1 -47 V
5 -51 V
1 -1 V
1 25 V
2 -67 V
10 89 V
13 67 V
29 -27 V
2 65 V
2 -51 V
5 12 V
1 -112 V
14 123 V
0 11 V
8 -47 V
2 5 V
7 -30 V
11 4 V
7 112 V
7 -70 V
5 53 V
3 -42 V
14 17 V
5 -70 V
4 14 V
0 125 V
4 -64 V
5 45 V
7 -109 V
5 34 V
6 42 V
7 -52 V
1 27 V
5 17 V
28 5 V
2 -35 V
2 38 V
16 43 V
2 -51 V
6 54 V
3 -28 V
5 19 V
6 71 V
4 -51 V
4 8 V
3 17 V
1 17 V
0 29 V
7 -87 V
1 20 V
6 14 V
1 -18 V
4 13 V
9 -26 V
1 28 V
1 24 V
13 -64 V
stroke 5739 4179 M
0 49 V
8 -51 V
3 61 V
3 -37 V
0 64 V
1 90 V
0 -93 V
3 -80 V
4 120 V
15 -42 V
8 -13 V
2 15 V
5 -70 V
6 55 V
2 72 V
4 -50 V
0 34 V
2 -20 V
3 34 V
2 -2 V
3 -51 V
1 -6 V
1 49 V
2 -40 V
6 38 V
1 51 V
0 -24 V
3 -87 V
3 93 V
0 -30 V
6 11 V
1 22 V
4 -68 V
1 18 V
7 -9 V
6 -4 V
1 37 V
7 -5 V
4 -44 V
1 58 V
5 -73 V
22 101 V
2 2 V
109 -38 V
% End plot #3
% Begin plot #4
stroke
LTb
0.90 0.62 0.00 C LCb setrgbcolor
6296 4486 M
[ [(Helvetica) 140.0 0.0 true true 0 (SS 4)]
] -46.7 MRshow
1.000 UL
LTb
0.90 0.62 0.00 C 6380 4486 M
399 0 V
462 280 M
3 3 V
1 -1 V
1 2 V
53 -4 V
4 0 V
1 0 V
1 0 V
4 20 V
50 189 V
604 356 L
244 891 V
867 704 L
33 -61 V
10 965 V
212 376 V
291 -927 V
106 98 V
69 34 V
111 136 V
103 69 V
25 1149 V
244 -910 V
113 1166 V
86 102 V
66 116 V
294 -301 V
48 144 V
154 162 V
143 83 V
97 -44 V
58 73 V
36 26 V
137 123 V
49 44 V
307 -85 V
21 6 V
130 134 V
7 4 V
26 72 V
35 -49 V
28 47 V
209 -175 V
64 122 V
21 81 V
30 -134 V
1 235 V
115 -96 V
59 129 V
13 -72 V
1 -2 V
23 143 V
50 -15 V
7 -60 V
36 66 V
40 84 V
11 -92 V
35 21 V
14 73 V
10 -66 V
4 40 V
14 36 V
4 69 V
16 -21 V
13 36 V
0 -10 V
0 -106 V
20 124 V
3 29 V
6 -103 V
1 0 V
12 -3 V
2 14 V
1 -46 V
4 125 V
7 14 V
2 56 V
2 -15 V
20 -23 V
4 -132 V
14 91 V
4 -20 V
4 -52 V
8 59 V
3 12 V
6 149 V
21 -37 V
12 -6 V
1 -137 V
5 43 V
15 96 V
5 -73 V
0 -8 V
3 27 V
0 70 V
5 -95 V
1 55 V
0 81 V
12 -141 V
0 190 V
1 -134 V
0 99 V
7 -200 V
5 104 V
5 121 V
5 -153 V
9 108 V
6 65 V
0 19 V
3 -99 V
10 -51 V
17 88 V
1 60 V
5 -187 V
3 14 V
1 152 V
1 -24 V
stroke 4978 4068 M
7 -45 V
2 148 V
5 -50 V
2 20 V
18 -100 V
4 -35 V
1 90 V
1 -35 V
11 27 V
0 36 V
1 -7 V
1 4 V
2 -52 V
1 53 V
6 -16 V
0 34 V
2 -111 V
4 -51 V
4 135 V
8 -42 V
6 -14 V
3 118 V
0 -39 V
6 -61 V
5 60 V
5 62 V
27 -73 V
3 -18 V
9 4 V
3 -52 V
2 99 V
6 -8 V
6 -44 V
4 1 V
11 33 V
10 68 V
15 -43 V
0 79 V
1 -77 V
6 -101 V
5 115 V
4 -14 V
3 -6 V
9 48 V
2 11 V
25 47 V
1 -53 V
18 -65 V
16 61 V
% End plot #4
% Begin plot #5
stroke
LTb
0.94 0.89 0.26 C LCb setrgbcolor
6296 4346 M
[ [(Helvetica) 140.0 0.0 true true 0 (SS 6)]
] -46.7 MRshow
1.000 UL
LTb
0.94 0.89 0.26 C 6380 4346 M
399 0 V
462 280 M
2 3 V
10 4 V
36 -7 V
14 0 V
1 0 V
1 0 V
1 5 V
54 203 V
88 11 V
770 405 L
3 2 V
25 814 V
893 735 L
21 -77 V
175 1254 V
30 -46 V
369 166 V
599 657 V
112 234 V
0 -83 V
441 -2 V
3 -37 V
142 157 V
207 121 V
79 -17 V
32 70 V
84 47 V
50 125 V
71 -399 V
65 -72 V
7 -134 V
5 678 V
90 -262 V
224 210 V
15 -241 V
3 259 V
22 -49 V
2 44 V
10 33 V
21 -273 V
43 -10 V
138 73 V
139 207 V
86 79 V
52 11 V
9 26 V
48 60 V
2 -34 V
1 -1 V
2 48 V
5 -70 V
7 7 V
3 -1 V
15 100 V
9 -85 V
40 52 V
3 -2 V
21 65 V
3 -50 V
14 76 V
8 -92 V
10 21 V
24 21 V
7 79 V
9 15 V
1 -10 V
9 -6 V
7 -8 V
13 7 V
3 11 V
2 -122 V
39 239 V
1 -118 V
21 95 V
0 -29 V
15 82 V
3 -49 V
4 7 V
14 -59 V
29 86 V
3 21 V
8 -53 V
7 9 V
6 65 V
1 -54 V
18 -2 V
1 101 V
25 23 V
9 -111 V
15 107 V
0 41 V
4 18 V
1 -222 V
24 142 V
0 53 V
0 -29 V
0 -47 V
1 -20 V
22 11 V
17 43 V
7 -18 V
7 78 V
0 24 V
2 -14 V
3 -9 V
1 -45 V
16 48 V
6 -60 V
0 60 V
1 11 V
1 52 V
9 -24 V
4 -102 V
4 176 V
6 -31 V
0 -79 V
1 39 V
stroke 4861 4021 M
3 0 V
2 -86 V
5 82 V
0 62 V
1 -54 V
5 19 V
4 -70 V
16 67 V
6 24 V
1 -19 V
3 -55 V
1 -93 V
1 212 V
1 -45 V
1 -51 V
1 -63 V
13 51 V
5 51 V
2 5 V
2 -20 V
6 -59 V
6 65 V
2 -71 V
19 79 V
1 20 V
9 -5 V
0 -20 V
2 60 V
1 -79 V
3 93 V
2 61 V
5 -41 V
13 -87 V
1 97 V
1 -153 V
7 158 V
4 26 V
10 -20 V
2 -121 V
0 33 V
7 46 V
2 -45 V
23 43 V
1 53 V
3 -66 V
8 6 V
4 36 V
15 8 V
10 32 V
% End plot #5
% Begin plot #6
stroke
LTb
0.00 0.45 0.70 C LCb setrgbcolor
6296 4206 M
[ [(Helvetica) 140.0 0.0 true true 0 (SS 10)]
] -46.7 MRshow
1.000 UL
LTb
0.00 0.45 0.70 C 6380 4206 M
399 0 V
462 280 M
1 1 V
2 0 V
0 1 V
5 2 V
6 5 V
12 -9 V
35 0 V
1 0 V
1 0 V
1 8 V
36 99 V
38 168 V
620 416 L
112 654 V
760 476 L
936 1733 L
196 270 V
687 -276 V
344 1118 V
35 60 V
168 -554 V
39 145 V
117 -24 V
28 248 V
3 -636 V
20 681 V
16 -180 V
36 31 V
78 48 V
137 352 V
75 -594 V
12 -17 V
271 325 V
139 -3 V
7 225 V
22 389 V
39 -347 V
20 44 V
6 3 V
35 30 V
2 12 V
68 -202 V
156 164 V
34 -25 V
67 110 V
54 59 V
31 29 V
22 -16 V
8 255 V
5 -151 V
3 -30 V
49 -19 V
15 6 V
3 82 V
9 -20 V
1 -8 V
14 2 V
0 -19 V
5 -122 V
6 149 V
2 -96 V
10 147 V
3 -195 V
11 184 V
30 7 V
6 15 V
16 63 V
15 11 V
5 31 V
12 -83 V
4 21 V
0 -41 V
30 115 V
2 -50 V
14 -32 V
8 67 V
21 -114 V
13 63 V
11 96 V
19 -76 V
0 70 V
1 -28 V
8 50 V
2 8 V
11 -2 V
2 -89 V
13 155 V
10 -112 V
7 68 V
7 8 V
14 -50 V
24 77 V
2 35 V
3 -67 V
1 36 V
12 13 V
6 58 V
3 -215 V
4 144 V
15 109 V
16 -53 V
16 -8 V
8 42 V
21 39 V
7 -46 V
2 -29 V
6 -53 V
1 99 V
3 -43 V
21 86 V
7 -36 V
7 22 V
1 -72 V
2 22 V
4 -66 V
0 -29 V
7 159 V
0 12 V
1 -16 V
11 92 V
stroke 4536 3850 M
7 -85 V
7 20 V
23 -7 V
4 24 V
1 5 V
10 152 V
18 -115 V
35 -22 V
1 43 V
9 -104 V
18 96 V
2 89 V
10 27 V
12 -63 V
4 62 V
20 -139 V
2 122 V
17 72 V
2 -80 V
9 -108 V
12 116 V
24 -57 V
4 69 V
1 -23 V
11 58 V
3 -104 V
9 111 V
8 25 V
8 -139 V
6 185 V
6 -103 V
24 81 V
5 -20 V
5 -14 V
5 -28 V
26 205 V
26 -117 V
65 17 V
20 45 V
30 8 V
24 -38 V
8 -34 V
28 110 V
108 -26 V
89 95 V
% End plot #6
% Begin plot #7
stroke
LTb
0.90 0.12 0.06 C LCb setrgbcolor
6296 4066 M
[ [(Helvetica) 140.0 0.0 true true 0 (SS 15)]
] -46.7 MRshow
1.000 UL
LTb
0.90 0.12 0.06 C 6380 4066 M
399 0 V
462 280 M
9 7 V
52 -7 V
1 0 V
1 0 V
9 126 V
47 86 V
687 477 L
13 26 V
51 658 V
196 650 V
1032 753 L
83 1235 V
468 -719 V
431 626 V
44 822 V
0 18 V
53 -538 V
292 340 V
189 41 V
15 22 V
16 217 V
180 -479 V
29 749 V
190 -585 V
53 152 V
15 530 V
59 -369 V
18 420 V
60 -509 V
2 216 V
31 356 V
15 -364 V
45 110 V
20 12 V
27 353 V
24 -435 V
6 -9 V
31 36 V
62 -178 V
28 247 V
10 -156 V
24 7 V
52 76 V
25 -34 V
20 212 V
21 -140 V
44 106 V
4 -27 V
15 188 V
18 -137 V
9 -50 V
15 -5 V
16 40 V
19 62 V
37 -28 V
23 -6 V
12 52 V
9 -25 V
9 189 V
15 -34 V
12 -124 V
35 182 V
22 135 V
5 -259 V
7 109 V
12 -54 V
3 -61 V
10 141 V
21 -28 V
3 -102 V
2 80 V
15 92 V
18 0 V
3 3 V
4 93 V
22 -76 V
2 -107 V
9 127 V
9 4 V
3 -92 V
5 -23 V
3 223 V
2 -96 V
0 -107 V
22 4 V
7 31 V
2 79 V
1 -81 V
19 114 V
11 67 V
12 -119 V
0 18 V
17 -74 V
10 56 V
8 121 V
8 -11 V
2 -94 V
27 17 V
27 119 V
12 -73 V
11 -85 V
1 111 V
5 152 V
12 -87 V
1 -127 V
18 73 V
6 -20 V
9 170 V
6 -41 V
9 -85 V
5 82 V
20 -52 V
1 126 V
8 -27 V
2 -86 V
stroke 4441 3698 M
3 1 V
11 246 V
8 -48 V
7 -188 V
7 307 V
2 -311 V
22 234 V
2 -216 V
3 178 V
0 -148 V
30 8 V
3 -84 V
1 99 V
18 153 V
12 -193 V
19 258 V
4 -48 V
11 -141 V
62 73 V
1 0 V
28 -40 V
3 111 V
4 109 V
14 -162 V
2 116 V
3 -75 V
3 -55 V
2 52 V
46 105 V
2 46 V
12 -112 V
19 -35 V
24 197 V
9 -132 V
14 34 V
26 39 V
5 3 V
2 -13 V
6 77 V
5 -56 V
8 23 V
29 21 V
37 -54 V
5 58 V
18 8 V
53 -10 V
% End plot #7
stroke
2.000 UL
LTb
LCb setrgbcolor
1.000 UL
LTB
LCb setrgbcolor
462 4899 N
462 280 L
6485 0 V
0 4619 V
-6485 0 V
Z stroke
1.000 UP
1.000 UL
LTb
LCb setrgbcolor
stroke
grestore
end
showpage
%%Trailer
%%DocumentFonts: Helvetica
