set term postscript color eps
set out 'thr.eps'

set xrange [0:600]
#plot 'wiscape/release_SANITIZED_TCP_1MB.csv_rad_250latlon_43.1013_-89.2895.csv.parsed' u 1:2 w l
#plot 'colorado/8-15-2011_2-28-31_PM.csv.parsed.ok' u 1:2 w l
plot 'japan/interference_16.final.eachsec' u 1:2 w l
