%!PS-Adobe-2.0 EPSF-2.0
%%Title: chartSS10.eps
%%Creator: gnuplot 5.0 patchlevel 5
%%CreationDate: Fri Mar 31 16:25:04 2017
%%DocumentFonts: (atend)
%%BoundingBox: 50 50 410 302
%%EndComments
%%BeginProlog
/gnudict 256 dict def
gnudict begin
%
% The following true/false flags may be edited by hand if desired.
% The unit line width and grayscale image gamma correction may also be changed.
%
/Color true def
/Blacktext false def
/Solid false def
/Dashlength 1 def
/Landscape false def
/Level1 false def
/Level3 false def
/Rounded false def
/ClipToBoundingBox false def
/SuppressPDFMark false def
/TransparentPatterns false def
/gnulinewidth 5.000 def
/userlinewidth gnulinewidth def
/Gamma 1.0 def
/BackgroundColor {-1.000 -1.000 -1.000} def
%
/vshift -46 def
/dl1 {
  10.0 Dashlength userlinewidth gnulinewidth div mul mul mul
  Rounded { currentlinewidth 0.75 mul sub dup 0 le { pop 0.01 } if } if
} def
/dl2 {
  10.0 Dashlength userlinewidth gnulinewidth div mul mul mul
  Rounded { currentlinewidth 0.75 mul add } if
} def
/hpt_ 31.5 def
/vpt_ 31.5 def
/hpt hpt_ def
/vpt vpt_ def
/doclip {
  ClipToBoundingBox {
    newpath 50 50 moveto 410 50 lineto 410 302 lineto 50 302 lineto closepath
    clip
  } if
} def
%
% Gnuplot Prolog Version 5.1 (Oct 2015)
%
%/SuppressPDFMark true def
%
/M {moveto} bind def
/L {lineto} bind def
/R {rmoveto} bind def
/V {rlineto} bind def
/N {newpath moveto} bind def
/Z {closepath} bind def
/C {setrgbcolor} bind def
/f {rlineto fill} bind def
/g {setgray} bind def
/Gshow {show} def   % May be redefined later in the file to support UTF-8
/vpt2 vpt 2 mul def
/hpt2 hpt 2 mul def
/Lshow {currentpoint stroke M 0 vshift R 
	Blacktext {gsave 0 setgray textshow grestore} {textshow} ifelse} def
/Rshow {currentpoint stroke M dup stringwidth pop neg vshift R
	Blacktext {gsave 0 setgray textshow grestore} {textshow} ifelse} def
/Cshow {currentpoint stroke M dup stringwidth pop -2 div vshift R 
	Blacktext {gsave 0 setgray textshow grestore} {textshow} ifelse} def
/UP {dup vpt_ mul /vpt exch def hpt_ mul /hpt exch def
  /hpt2 hpt 2 mul def /vpt2 vpt 2 mul def} def
/DL {Color {setrgbcolor Solid {pop []} if 0 setdash}
 {pop pop pop 0 setgray Solid {pop []} if 0 setdash} ifelse} def
/BL {stroke userlinewidth 2 mul setlinewidth
	Rounded {1 setlinejoin 1 setlinecap} if} def
/AL {stroke userlinewidth 2 div setlinewidth
	Rounded {1 setlinejoin 1 setlinecap} if} def
/UL {dup gnulinewidth mul /userlinewidth exch def
	dup 1 lt {pop 1} if 10 mul /udl exch def} def
/PL {stroke userlinewidth setlinewidth
	Rounded {1 setlinejoin 1 setlinecap} if} def
3.8 setmiterlimit
% Classic Line colors (version 5.0)
/LCw {1 1 1} def
/LCb {0 0 0} def
/LCa {0 0 0} def
/LC0 {1 0 0} def
/LC1 {0 1 0} def
/LC2 {0 0 1} def
/LC3 {1 0 1} def
/LC4 {0 1 1} def
/LC5 {1 1 0} def
/LC6 {0 0 0} def
/LC7 {1 0.3 0} def
/LC8 {0.5 0.5 0.5} def
% Default dash patterns (version 5.0)
/LTB {BL [] LCb DL} def
/LTw {PL [] 1 setgray} def
/LTb {PL [] LCb DL} def
/LTa {AL [1 udl mul 2 udl mul] 0 setdash LCa setrgbcolor} def
/LT0 {PL [] LC0 DL} def
/LT1 {PL [2 dl1 3 dl2] LC1 DL} def
/LT2 {PL [1 dl1 1.5 dl2] LC2 DL} def
/LT3 {PL [6 dl1 2 dl2 1 dl1 2 dl2] LC3 DL} def
/LT4 {PL [1 dl1 2 dl2 6 dl1 2 dl2 1 dl1 2 dl2] LC4 DL} def
/LT5 {PL [4 dl1 2 dl2] LC5 DL} def
/LT6 {PL [1.5 dl1 1.5 dl2 1.5 dl1 1.5 dl2 1.5 dl1 6 dl2] LC6 DL} def
/LT7 {PL [3 dl1 3 dl2 1 dl1 3 dl2] LC7 DL} def
/LT8 {PL [2 dl1 2 dl2 2 dl1 6 dl2] LC8 DL} def
/SL {[] 0 setdash} def
/Pnt {stroke [] 0 setdash gsave 1 setlinecap M 0 0 V stroke grestore} def
/Dia {stroke [] 0 setdash 2 copy vpt add M
  hpt neg vpt neg V hpt vpt neg V
  hpt vpt V hpt neg vpt V closepath stroke
  Pnt} def
/Pls {stroke [] 0 setdash vpt sub M 0 vpt2 V
  currentpoint stroke M
  hpt neg vpt neg R hpt2 0 V stroke
 } def
/Box {stroke [] 0 setdash 2 copy exch hpt sub exch vpt add M
  0 vpt2 neg V hpt2 0 V 0 vpt2 V
  hpt2 neg 0 V closepath stroke
  Pnt} def
/Crs {stroke [] 0 setdash exch hpt sub exch vpt add M
  hpt2 vpt2 neg V currentpoint stroke M
  hpt2 neg 0 R hpt2 vpt2 V stroke} def
/TriU {stroke [] 0 setdash 2 copy vpt 1.12 mul add M
  hpt neg vpt -1.62 mul V
  hpt 2 mul 0 V
  hpt neg vpt 1.62 mul V closepath stroke
  Pnt} def
/Star {2 copy Pls Crs} def
/BoxF {stroke [] 0 setdash exch hpt sub exch vpt add M
  0 vpt2 neg V hpt2 0 V 0 vpt2 V
  hpt2 neg 0 V closepath fill} def
/TriUF {stroke [] 0 setdash vpt 1.12 mul add M
  hpt neg vpt -1.62 mul V
  hpt 2 mul 0 V
  hpt neg vpt 1.62 mul V closepath fill} def
/TriD {stroke [] 0 setdash 2 copy vpt 1.12 mul sub M
  hpt neg vpt 1.62 mul V
  hpt 2 mul 0 V
  hpt neg vpt -1.62 mul V closepath stroke
  Pnt} def
/TriDF {stroke [] 0 setdash vpt 1.12 mul sub M
  hpt neg vpt 1.62 mul V
  hpt 2 mul 0 V
  hpt neg vpt -1.62 mul V closepath fill} def
/DiaF {stroke [] 0 setdash vpt add M
  hpt neg vpt neg V hpt vpt neg V
  hpt vpt V hpt neg vpt V closepath fill} def
/Pent {stroke [] 0 setdash 2 copy gsave
  translate 0 hpt M 4 {72 rotate 0 hpt L} repeat
  closepath stroke grestore Pnt} def
/PentF {stroke [] 0 setdash gsave
  translate 0 hpt M 4 {72 rotate 0 hpt L} repeat
  closepath fill grestore} def
/Circle {stroke [] 0 setdash 2 copy
  hpt 0 360 arc stroke Pnt} def
/CircleF {stroke [] 0 setdash hpt 0 360 arc fill} def
/C0 {BL [] 0 setdash 2 copy moveto vpt 90 450 arc} bind def
/C1 {BL [] 0 setdash 2 copy moveto
	2 copy vpt 0 90 arc closepath fill
	vpt 0 360 arc closepath} bind def
/C2 {BL [] 0 setdash 2 copy moveto
	2 copy vpt 90 180 arc closepath fill
	vpt 0 360 arc closepath} bind def
/C3 {BL [] 0 setdash 2 copy moveto
	2 copy vpt 0 180 arc closepath fill
	vpt 0 360 arc closepath} bind def
/C4 {BL [] 0 setdash 2 copy moveto
	2 copy vpt 180 270 arc closepath fill
	vpt 0 360 arc closepath} bind def
/C5 {BL [] 0 setdash 2 copy moveto
	2 copy vpt 0 90 arc
	2 copy moveto
	2 copy vpt 180 270 arc closepath fill
	vpt 0 360 arc} bind def
/C6 {BL [] 0 setdash 2 copy moveto
	2 copy vpt 90 270 arc closepath fill
	vpt 0 360 arc closepath} bind def
/C7 {BL [] 0 setdash 2 copy moveto
	2 copy vpt 0 270 arc closepath fill
	vpt 0 360 arc closepath} bind def
/C8 {BL [] 0 setdash 2 copy moveto
	2 copy vpt 270 360 arc closepath fill
	vpt 0 360 arc closepath} bind def
/C9 {BL [] 0 setdash 2 copy moveto
	2 copy vpt 270 450 arc closepath fill
	vpt 0 360 arc closepath} bind def
/C10 {BL [] 0 setdash 2 copy 2 copy moveto vpt 270 360 arc closepath fill
	2 copy moveto
	2 copy vpt 90 180 arc closepath fill
	vpt 0 360 arc closepath} bind def
/C11 {BL [] 0 setdash 2 copy moveto
	2 copy vpt 0 180 arc closepath fill
	2 copy moveto
	2 copy vpt 270 360 arc closepath fill
	vpt 0 360 arc closepath} bind def
/C12 {BL [] 0 setdash 2 copy moveto
	2 copy vpt 180 360 arc closepath fill
	vpt 0 360 arc closepath} bind def
/C13 {BL [] 0 setdash 2 copy moveto
	2 copy vpt 0 90 arc closepath fill
	2 copy moveto
	2 copy vpt 180 360 arc closepath fill
	vpt 0 360 arc closepath} bind def
/C14 {BL [] 0 setdash 2 copy moveto
	2 copy vpt 90 360 arc closepath fill
	vpt 0 360 arc} bind def
/C15 {BL [] 0 setdash 2 copy vpt 0 360 arc closepath fill
	vpt 0 360 arc closepath} bind def
/Rec {newpath 4 2 roll moveto 1 index 0 rlineto 0 exch rlineto
	neg 0 rlineto closepath} bind def
/Square {dup Rec} bind def
/Bsquare {vpt sub exch vpt sub exch vpt2 Square} bind def
/S0 {BL [] 0 setdash 2 copy moveto 0 vpt rlineto BL Bsquare} bind def
/S1 {BL [] 0 setdash 2 copy vpt Square fill Bsquare} bind def
/S2 {BL [] 0 setdash 2 copy exch vpt sub exch vpt Square fill Bsquare} bind def
/S3 {BL [] 0 setdash 2 copy exch vpt sub exch vpt2 vpt Rec fill Bsquare} bind def
/S4 {BL [] 0 setdash 2 copy exch vpt sub exch vpt sub vpt Square fill Bsquare} bind def
/S5 {BL [] 0 setdash 2 copy 2 copy vpt Square fill
	exch vpt sub exch vpt sub vpt Square fill Bsquare} bind def
/S6 {BL [] 0 setdash 2 copy exch vpt sub exch vpt sub vpt vpt2 Rec fill Bsquare} bind def
/S7 {BL [] 0 setdash 2 copy exch vpt sub exch vpt sub vpt vpt2 Rec fill
	2 copy vpt Square fill Bsquare} bind def
/S8 {BL [] 0 setdash 2 copy vpt sub vpt Square fill Bsquare} bind def
/S9 {BL [] 0 setdash 2 copy vpt sub vpt vpt2 Rec fill Bsquare} bind def
/S10 {BL [] 0 setdash 2 copy vpt sub vpt Square fill 2 copy exch vpt sub exch vpt Square fill
	Bsquare} bind def
/S11 {BL [] 0 setdash 2 copy vpt sub vpt Square fill 2 copy exch vpt sub exch vpt2 vpt Rec fill
	Bsquare} bind def
/S12 {BL [] 0 setdash 2 copy exch vpt sub exch vpt sub vpt2 vpt Rec fill Bsquare} bind def
/S13 {BL [] 0 setdash 2 copy exch vpt sub exch vpt sub vpt2 vpt Rec fill
	2 copy vpt Square fill Bsquare} bind def
/S14 {BL [] 0 setdash 2 copy exch vpt sub exch vpt sub vpt2 vpt Rec fill
	2 copy exch vpt sub exch vpt Square fill Bsquare} bind def
/S15 {BL [] 0 setdash 2 copy Bsquare fill Bsquare} bind def
/D0 {gsave translate 45 rotate 0 0 S0 stroke grestore} bind def
/D1 {gsave translate 45 rotate 0 0 S1 stroke grestore} bind def
/D2 {gsave translate 45 rotate 0 0 S2 stroke grestore} bind def
/D3 {gsave translate 45 rotate 0 0 S3 stroke grestore} bind def
/D4 {gsave translate 45 rotate 0 0 S4 stroke grestore} bind def
/D5 {gsave translate 45 rotate 0 0 S5 stroke grestore} bind def
/D6 {gsave translate 45 rotate 0 0 S6 stroke grestore} bind def
/D7 {gsave translate 45 rotate 0 0 S7 stroke grestore} bind def
/D8 {gsave translate 45 rotate 0 0 S8 stroke grestore} bind def
/D9 {gsave translate 45 rotate 0 0 S9 stroke grestore} bind def
/D10 {gsave translate 45 rotate 0 0 S10 stroke grestore} bind def
/D11 {gsave translate 45 rotate 0 0 S11 stroke grestore} bind def
/D12 {gsave translate 45 rotate 0 0 S12 stroke grestore} bind def
/D13 {gsave translate 45 rotate 0 0 S13 stroke grestore} bind def
/D14 {gsave translate 45 rotate 0 0 S14 stroke grestore} bind def
/D15 {gsave translate 45 rotate 0 0 S15 stroke grestore} bind def
/DiaE {stroke [] 0 setdash vpt add M
  hpt neg vpt neg V hpt vpt neg V
  hpt vpt V hpt neg vpt V closepath stroke} def
/BoxE {stroke [] 0 setdash exch hpt sub exch vpt add M
  0 vpt2 neg V hpt2 0 V 0 vpt2 V
  hpt2 neg 0 V closepath stroke} def
/TriUE {stroke [] 0 setdash vpt 1.12 mul add M
  hpt neg vpt -1.62 mul V
  hpt 2 mul 0 V
  hpt neg vpt 1.62 mul V closepath stroke} def
/TriDE {stroke [] 0 setdash vpt 1.12 mul sub M
  hpt neg vpt 1.62 mul V
  hpt 2 mul 0 V
  hpt neg vpt -1.62 mul V closepath stroke} def
/PentE {stroke [] 0 setdash gsave
  translate 0 hpt M 4 {72 rotate 0 hpt L} repeat
  closepath stroke grestore} def
/CircE {stroke [] 0 setdash 
  hpt 0 360 arc stroke} def
/Opaque {gsave closepath 1 setgray fill grestore 0 setgray closepath} def
/DiaW {stroke [] 0 setdash vpt add M
  hpt neg vpt neg V hpt vpt neg V
  hpt vpt V hpt neg vpt V Opaque stroke} def
/BoxW {stroke [] 0 setdash exch hpt sub exch vpt add M
  0 vpt2 neg V hpt2 0 V 0 vpt2 V
  hpt2 neg 0 V Opaque stroke} def
/TriUW {stroke [] 0 setdash vpt 1.12 mul add M
  hpt neg vpt -1.62 mul V
  hpt 2 mul 0 V
  hpt neg vpt 1.62 mul V Opaque stroke} def
/TriDW {stroke [] 0 setdash vpt 1.12 mul sub M
  hpt neg vpt 1.62 mul V
  hpt 2 mul 0 V
  hpt neg vpt -1.62 mul V Opaque stroke} def
/PentW {stroke [] 0 setdash gsave
  translate 0 hpt M 4 {72 rotate 0 hpt L} repeat
  Opaque stroke grestore} def
/CircW {stroke [] 0 setdash 
  hpt 0 360 arc Opaque stroke} def
/BoxFill {gsave Rec 1 setgray fill grestore} def
/Density {
  /Fillden exch def
  currentrgbcolor
  /ColB exch def /ColG exch def /ColR exch def
  /ColR ColR Fillden mul Fillden sub 1 add def
  /ColG ColG Fillden mul Fillden sub 1 add def
  /ColB ColB Fillden mul Fillden sub 1 add def
  ColR ColG ColB setrgbcolor} def
/BoxColFill {gsave Rec PolyFill} def
/PolyFill {gsave Density fill grestore grestore} def
/h {rlineto rlineto rlineto gsave closepath fill grestore} bind def
%
% PostScript Level 1 Pattern Fill routine for rectangles
% Usage: x y w h s a XX PatternFill
%	x,y = lower left corner of box to be filled
%	w,h = width and height of box
%	  a = angle in degrees between lines and x-axis
%	 XX = 0/1 for no/yes cross-hatch
%
/PatternFill {gsave /PFa [ 9 2 roll ] def
  PFa 0 get PFa 2 get 2 div add PFa 1 get PFa 3 get 2 div add translate
  PFa 2 get -2 div PFa 3 get -2 div PFa 2 get PFa 3 get Rec
  TransparentPatterns {} {gsave 1 setgray fill grestore} ifelse
  clip
  currentlinewidth 0.5 mul setlinewidth
  /PFs PFa 2 get dup mul PFa 3 get dup mul add sqrt def
  0 0 M PFa 5 get rotate PFs -2 div dup translate
  0 1 PFs PFa 4 get div 1 add floor cvi
	{PFa 4 get mul 0 M 0 PFs V} for
  0 PFa 6 get ne {
	0 1 PFs PFa 4 get div 1 add floor cvi
	{PFa 4 get mul 0 2 1 roll M PFs 0 V} for
 } if
  stroke grestore} def
%
/languagelevel where
 {pop languagelevel} {1} ifelse
dup 2 lt
	{/InterpretLevel1 true def
	 /InterpretLevel3 false def}
	{/InterpretLevel1 Level1 def
	 2 gt
	    {/InterpretLevel3 Level3 def}
	    {/InterpretLevel3 false def}
	 ifelse }
 ifelse
%
% PostScript level 2 pattern fill definitions
%
/Level2PatternFill {
/Tile8x8 {/PaintType 2 /PatternType 1 /TilingType 1 /BBox [0 0 8 8] /XStep 8 /YStep 8}
	bind def
/KeepColor {currentrgbcolor [/Pattern /DeviceRGB] setcolorspace} bind def
<< Tile8x8
 /PaintProc {0.5 setlinewidth pop 0 0 M 8 8 L 0 8 M 8 0 L stroke} 
>> matrix makepattern
/Pat1 exch def
<< Tile8x8
 /PaintProc {0.5 setlinewidth pop 0 0 M 8 8 L 0 8 M 8 0 L stroke
	0 4 M 4 8 L 8 4 L 4 0 L 0 4 L stroke}
>> matrix makepattern
/Pat2 exch def
<< Tile8x8
 /PaintProc {0.5 setlinewidth pop 0 0 M 0 8 L
	8 8 L 8 0 L 0 0 L fill}
>> matrix makepattern
/Pat3 exch def
<< Tile8x8
 /PaintProc {0.5 setlinewidth pop -4 8 M 8 -4 L
	0 12 M 12 0 L stroke}
>> matrix makepattern
/Pat4 exch def
<< Tile8x8
 /PaintProc {0.5 setlinewidth pop -4 0 M 8 12 L
	0 -4 M 12 8 L stroke}
>> matrix makepattern
/Pat5 exch def
<< Tile8x8
 /PaintProc {0.5 setlinewidth pop -2 8 M 4 -4 L
	0 12 M 8 -4 L 4 12 M 10 0 L stroke}
>> matrix makepattern
/Pat6 exch def
<< Tile8x8
 /PaintProc {0.5 setlinewidth pop -2 0 M 4 12 L
	0 -4 M 8 12 L 4 -4 M 10 8 L stroke}
>> matrix makepattern
/Pat7 exch def
<< Tile8x8
 /PaintProc {0.5 setlinewidth pop 8 -2 M -4 4 L
	12 0 M -4 8 L 12 4 M 0 10 L stroke}
>> matrix makepattern
/Pat8 exch def
<< Tile8x8
 /PaintProc {0.5 setlinewidth pop 0 -2 M 12 4 L
	-4 0 M 12 8 L -4 4 M 8 10 L stroke}
>> matrix makepattern
/Pat9 exch def
/Pattern1 {PatternBgnd KeepColor Pat1 setpattern} bind def
/Pattern2 {PatternBgnd KeepColor Pat2 setpattern} bind def
/Pattern3 {PatternBgnd KeepColor Pat3 setpattern} bind def
/Pattern4 {PatternBgnd KeepColor Landscape {Pat5} {Pat4} ifelse setpattern} bind def
/Pattern5 {PatternBgnd KeepColor Landscape {Pat4} {Pat5} ifelse setpattern} bind def
/Pattern6 {PatternBgnd KeepColor Landscape {Pat9} {Pat6} ifelse setpattern} bind def
/Pattern7 {PatternBgnd KeepColor Landscape {Pat8} {Pat7} ifelse setpattern} bind def
} def
%
%
%End of PostScript Level 2 code
%
/PatternBgnd {
  TransparentPatterns {} {gsave 1 setgray fill grestore} ifelse
} def
%
% Substitute for Level 2 pattern fill codes with
% grayscale if Level 2 support is not selected.
%
/Level1PatternFill {
/Pattern1 {0.250 Density} bind def
/Pattern2 {0.500 Density} bind def
/Pattern3 {0.750 Density} bind def
/Pattern4 {0.125 Density} bind def
/Pattern5 {0.375 Density} bind def
/Pattern6 {0.625 Density} bind def
/Pattern7 {0.875 Density} bind def
} def
%
% Now test for support of Level 2 code
%
Level1 {Level1PatternFill} {Level2PatternFill} ifelse
%
/Symbol-Oblique /Symbol findfont [1 0 .167 1 0 0] makefont
dup length dict begin {1 index /FID eq {pop pop} {def} ifelse} forall
currentdict end definefont pop
%
/MFshow {
   { dup 5 get 3 ge
     { 5 get 3 eq {gsave} {grestore} ifelse }
     {dup dup 0 get findfont exch 1 get scalefont setfont
     [ currentpoint ] exch dup 2 get 0 exch R dup 5 get 2 ne {dup dup 6
     get exch 4 get {textshow} {stringwidth pop 0 R} ifelse }if dup 5 get 0 eq
     {dup 3 get {2 get neg 0 exch R pop} {pop aload pop M} ifelse} {dup 5
     get 1 eq {dup 2 get exch dup 3 get exch 6 get stringwidth pop -2 div
     dup 0 R} {dup 6 get stringwidth pop -2 div 0 R 6 get
     textshow 2 index {aload pop M neg 3 -1 roll neg R pop pop} {pop pop pop
     pop aload pop M} ifelse }ifelse }ifelse }
     ifelse }
   forall} def
/Gswidth {dup type /stringtype eq {stringwidth} {pop (n) stringwidth} ifelse} def
/MFwidth {0 exch { dup 5 get 3 ge { 5 get 3 eq { 0 } { pop } ifelse }
 {dup 3 get{dup dup 0 get findfont exch 1 get scalefont setfont
     6 get Gswidth pop add} {pop} ifelse} ifelse} forall} def
/MLshow { currentpoint stroke M
  0 exch R
  Blacktext {gsave 0 setgray MFshow grestore} {MFshow} ifelse } bind def
/MRshow { currentpoint stroke M
  exch dup MFwidth neg 3 -1 roll R
  Blacktext {gsave 0 setgray MFshow grestore} {MFshow} ifelse } bind def
/MCshow { currentpoint stroke M
  exch dup MFwidth -2 div 3 -1 roll R
  Blacktext {gsave 0 setgray MFshow grestore} {MFshow} ifelse } bind def
/XYsave    { [( ) 1 2 true false 3 ()] } bind def
/XYrestore { [( ) 1 2 true false 4 ()] } bind def
Level1 SuppressPDFMark or 
{} {
/SDict 10 dict def
systemdict /pdfmark known not {
  userdict /pdfmark systemdict /cleartomark get put
} if
SDict begin [
  /Title (chartSS10.eps)
  /Subject (gnuplot plot)
  /Creator (gnuplot 5.0 patchlevel 5)
  /Author (steve)
%  /Producer (gnuplot)
%  /Keywords ()
  /CreationDate (Fri Mar 31 16:25:04 2017)
  /DOCINFO pdfmark
end
} ifelse
%
% Support for boxed text - Ethan A Merritt May 2005
%
/InitTextBox { userdict /TBy2 3 -1 roll put userdict /TBx2 3 -1 roll put
           userdict /TBy1 3 -1 roll put userdict /TBx1 3 -1 roll put
	   /Boxing true def } def
/ExtendTextBox { Boxing
    { gsave dup false charpath pathbbox
      dup TBy2 gt {userdict /TBy2 3 -1 roll put} {pop} ifelse
      dup TBx2 gt {userdict /TBx2 3 -1 roll put} {pop} ifelse
      dup TBy1 lt {userdict /TBy1 3 -1 roll put} {pop} ifelse
      dup TBx1 lt {userdict /TBx1 3 -1 roll put} {pop} ifelse
      grestore } if } def
/PopTextBox { newpath TBx1 TBxmargin sub TBy1 TBymargin sub M
               TBx1 TBxmargin sub TBy2 TBymargin add L
	       TBx2 TBxmargin add TBy2 TBymargin add L
	       TBx2 TBxmargin add TBy1 TBymargin sub L closepath } def
/DrawTextBox { PopTextBox stroke /Boxing false def} def
/FillTextBox { gsave PopTextBox 1 1 1 setrgbcolor fill grestore /Boxing false def} def
0 0 0 0 InitTextBox
/TBxmargin 20 def
/TBymargin 20 def
/Boxing false def
/textshow { ExtendTextBox Gshow } def
%
% redundant definitions for compatibility with prologue.ps older than 5.0.2
/LTB {BL [] LCb DL} def
/LTb {PL [] LCb DL} def
end
%%EndProlog
%%Page: 1 1
gnudict begin
gsave
doclip
50 50 translate
0.050 0.050 scale
0 setgray
newpath
(Helvetica) findfont 140 scalefont setfont
BackgroundColor 0 lt 3 1 roll 0 lt exch 0 lt or or not {BackgroundColor C 1.000 0 0 7200.00 5040.00 BoxColFill} if
1.000 UL
LTb
LCb setrgbcolor
462 280 M
63 0 V
6422 0 R
-63 0 V
stroke
378 280 M
[ [(Helvetica) 140.0 0.0 true true 0 (-5)]
] -46.7 MRshow
1.000 UL
LTb
LCb setrgbcolor
462 790 M
63 0 V
6422 0 R
-63 0 V
stroke
378 790 M
[ [(Helvetica) 140.0 0.0 true true 0 ( 0)]
] -46.7 MRshow
1.000 UL
LTb
LCb setrgbcolor
462 1300 M
63 0 V
6422 0 R
-63 0 V
stroke
378 1300 M
[ [(Helvetica) 140.0 0.0 true true 0 ( 5)]
] -46.7 MRshow
1.000 UL
LTb
LCb setrgbcolor
462 1810 M
63 0 V
6422 0 R
-63 0 V
stroke
378 1810 M
[ [(Helvetica) 140.0 0.0 true true 0 ( 10)]
] -46.7 MRshow
1.000 UL
LTb
LCb setrgbcolor
462 2320 M
63 0 V
6422 0 R
-63 0 V
stroke
378 2320 M
[ [(Helvetica) 140.0 0.0 true true 0 ( 15)]
] -46.7 MRshow
1.000 UL
LTb
LCb setrgbcolor
462 2831 M
63 0 V
6422 0 R
-63 0 V
stroke
378 2831 M
[ [(Helvetica) 140.0 0.0 true true 0 ( 20)]
] -46.7 MRshow
1.000 UL
LTb
LCb setrgbcolor
462 3341 M
63 0 V
6422 0 R
-63 0 V
stroke
378 3341 M
[ [(Helvetica) 140.0 0.0 true true 0 ( 25)]
] -46.7 MRshow
1.000 UL
LTb
LCb setrgbcolor
462 3851 M
63 0 V
6422 0 R
-63 0 V
stroke
378 3851 M
[ [(Helvetica) 140.0 0.0 true true 0 ( 30)]
] -46.7 MRshow
1.000 UL
LTb
LCb setrgbcolor
462 4361 M
63 0 V
6422 0 R
-63 0 V
stroke
378 4361 M
[ [(Helvetica) 140.0 0.0 true true 0 ( 35)]
] -46.7 MRshow
1.000 UL
LTb
LCb setrgbcolor
462 4871 M
63 0 V
6422 0 R
-63 0 V
stroke
378 4871 M
[ [(Helvetica) 140.0 0.0 true true 0 ( 40)]
] -46.7 MRshow
1.000 UL
LTb
LCb setrgbcolor
462 280 M
0 63 V
0 4528 R
0 -63 V
stroke
462 140 M
[ [(Helvetica) 140.0 0.0 true true 0 ( 0)]
] -46.7 MCshow
1.000 UL
LTb
LCb setrgbcolor
1388 280 M
0 63 V
0 4528 R
0 -63 V
stroke
1388 140 M
[ [(Helvetica) 140.0 0.0 true true 0 ( 100)]
] -46.7 MCshow
1.000 UL
LTb
LCb setrgbcolor
2315 280 M
0 63 V
0 4528 R
0 -63 V
stroke
2315 140 M
[ [(Helvetica) 140.0 0.0 true true 0 ( 200)]
] -46.7 MCshow
1.000 UL
LTb
LCb setrgbcolor
3241 280 M
0 63 V
0 4528 R
0 -63 V
stroke
3241 140 M
[ [(Helvetica) 140.0 0.0 true true 0 ( 300)]
] -46.7 MCshow
1.000 UL
LTb
LCb setrgbcolor
4168 280 M
0 63 V
0 4528 R
0 -63 V
stroke
4168 140 M
[ [(Helvetica) 140.0 0.0 true true 0 ( 400)]
] -46.7 MCshow
1.000 UL
LTb
LCb setrgbcolor
5094 280 M
0 63 V
0 4528 R
0 -63 V
stroke
5094 140 M
[ [(Helvetica) 140.0 0.0 true true 0 ( 500)]
] -46.7 MCshow
1.000 UL
LTb
LCb setrgbcolor
6021 280 M
0 63 V
0 4528 R
0 -63 V
stroke
6021 140 M
[ [(Helvetica) 140.0 0.0 true true 0 ( 600)]
] -46.7 MCshow
1.000 UL
LTb
LCb setrgbcolor
6947 280 M
0 63 V
0 4528 R
0 -63 V
stroke
6947 140 M
[ [(Helvetica) 140.0 0.0 true true 0 ( 700)]
] -46.7 MCshow
1.000 UL
LTb
LCb setrgbcolor
1.000 UL
LTB
LCb setrgbcolor
462 4871 N
462 280 L
6485 0 V
0 4591 V
-6485 0 V
Z stroke
1.000 UP
1.000 UL
LTb
LCb setrgbcolor
% Begin plot #1
1.000 UL
LTb
0.58 0.00 0.83 C LCb setrgbcolor
6296 4738 M
[ [(Helvetica) 140.0 0.0 true true 0 (original)]
] -46.7 MRshow
1.000 UL
LTb
0.58 0.00 0.83 C 6380 4738 M
399 0 V
462 1810 M
9 0 V
10 0 V
9 0 V
9 0 V
9 0 V
10 0 V
9 0 V
9 0 V
9 0 V
10 0 V
9 0 V
9 0 V
9 0 V
10 0 V
9 0 V
9 0 V
9 0 V
10 0 V
9 0 V
9 0 V
10 0 V
9 0 V
9 0 V
9 0 V
10 0 V
9 0 V
9 0 V
9 0 V
10 0 V
9 0 V
9 0 V
9 0 V
10 0 V
9 0 V
9 102 V
10 0 V
9 0 V
9 0 V
9 0 V
10 0 V
9 0 V
9 0 V
9 0 V
10 0 V
9 0 V
9 0 V
9 0 V
10 0 V
9 0 V
9 0 V
9 0 V
10 0 V
9 0 V
9 0 V
10 0 V
9 0 V
9 0 V
9 0 V
10 0 V
9 0 V
9 0 V
9 0 V
10 0 V
9 0 V
9 0 V
9 0 V
10 0 V
9 0 V
9 0 V
10 0 V
9 0 V
9 0 V
9 0 V
10 0 V
9 0 V
9 0 V
9 0 V
10 0 V
9 0 V
9 0 V
9 0 V
10 0 V
9 0 V
9 0 V
9 0 V
10 0 V
9 0 V
9 0 V
10 0 V
9 0 V
9 0 V
9 0 V
10 0 V
9 0 V
9 0 V
9 0 V
10 0 V
9 0 V
9 0 V
9 0 V
10 0 V
9 0 V
stroke 1407 1912 M
9 0 V
9 0 V
10 0 V
9 0 V
9 0 V
10 0 V
9 0 V
9 0 V
9 0 V
10 0 V
9 0 V
9 0 V
9 0 V
10 0 V
9 0 V
9 0 V
9 0 V
10 0 V
9 0 V
9 0 V
10 0 V
9 0 V
9 0 V
9 0 V
10 0 V
9 0 V
9 0 V
9 0 V
10 0 V
9 0 V
9 0 V
9 0 V
10 0 V
9 0 V
9 0 V
9 0 V
10 0 V
9 0 V
9 0 V
10 0 V
9 0 V
9 0 V
9 0 V
10 0 V
9 0 V
9 0 V
9 0 V
10 0 V
9 0 V
9 0 V
9 0 V
10 0 V
9 0 V
9 0 V
9 0 V
10 0 V
9 0 V
9 0 V
10 0 V
9 0 V
9 0 V
9 0 V
10 0 V
9 0 V
9 0 V
9 0 V
10 0 V
9 0 V
9 0 V
9 0 V
10 0 V
9 0 V
9 0 V
10 0 V
9 0 V
9 0 V
9 0 V
10 0 V
9 0 V
9 0 V
9 0 V
10 0 V
9 0 V
9 0 V
9 0 V
10 0 V
9 0 V
9 0 V
9 0 V
10 0 V
9 0 V
9 0 V
10 0 V
9 0 V
9 0 V
9 0 V
10 0 V
9 0 V
9 0 V
9 0 V
10 0 V
9 0 V
9 0 V
9 0 V
stroke 2370 1912 M
10 0 V
9 0 V
9 0 V
10 0 V
9 0 V
9 0 V
9 0 V
10 0 V
9 0 V
9 0 V
9 0 V
10 0 V
9 0 V
9 0 V
9 0 V
10 0 V
9 0 V
9 0 V
9 0 V
10 0 V
9 0 V
9 0 V
10 0 V
9 0 V
9 0 V
9 0 V
10 0 V
9 0 V
9 0 V
9 0 V
10 0 V
9 0 V
9 0 V
9 0 V
10 0 V
9 0 V
9 0 V
9 0 V
10 0 V
9 0 V
9 0 V
10 0 V
9 0 V
9 0 V
9 0 V
10 0 V
9 0 V
9 0 V
9 0 V
10 0 V
9 0 V
9 0 V
9 0 V
10 0 V
9 0 V
9 0 V
10 0 V
9 0 V
9 0 V
9 0 V
10 0 V
9 0 V
9 0 V
9 0 V
10 0 V
9 0 V
9 0 V
9 0 V
10 0 V
9 0 V
9 0 V
9 0 V
10 0 V
9 0 V
9 0 V
10 0 V
9 0 V
9 0 V
9 0 V
10 0 V
9 0 V
9 0 V
9 0 V
10 0 V
9 0 V
9 0 V
9 0 V
10 0 V
9 0 V
9 0 V
9 0 V
10 0 V
9 0 V
9 0 V
10 0 V
9 0 V
9 0 V
9 0 V
10 0 V
9 0 V
9 0 V
9 0 V
10 0 V
9 0 V
stroke 3334 1912 M
9 0 V
9 0 V
10 0 V
9 0 V
9 0 V
10 0 V
9 0 V
9 0 V
9 0 V
10 0 V
9 0 V
9 0 V
9 0 V
10 0 V
9 0 V
9 0 V
9 0 V
10 0 V
9 0 V
9 0 V
9 0 V
10 0 V
9 0 V
9 0 V
10 0 V
9 0 V
9 0 V
9 0 V
10 0 V
9 0 V
9 0 V
9 0 V
10 0 V
9 0 V
9 0 V
9 0 V
10 0 V
9 0 V
9 0 V
10 0 V
9 0 V
9 0 V
9 0 V
10 0 V
9 0 V
9 0 V
9 0 V
10 0 V
9 0 V
9 0 V
9 0 V
10 0 V
9 0 V
9 0 V
9 0 V
10 0 V
9 0 V
9 0 V
10 0 V
9 0 V
9 0 V
9 0 V
10 0 V
9 0 V
9 0 V
9 0 V
10 0 V
9 0 V
9 0 V
9 0 V
10 0 V
9 0 V
9 0 V
9 0 V
10 0 V
9 0 V
9 0 V
10 0 V
9 0 V
9 0 V
9 0 V
10 0 V
9 0 V
9 0 V
9 0 V
10 0 V
9 0 V
9 0 V
9 0 V
10 0 V
9 0 V
9 0 V
10 0 V
9 0 V
9 0 V
9 0 V
10 0 V
9 0 V
9 0 V
9 0 V
10 0 V
9 0 V
9 0 V
9 0 V
stroke 4297 1912 M
10 0 V
9 0 V
9 0 V
9 0 V
10 0 V
9 0 V
9 0 V
10 0 V
9 0 V
9 0 V
9 0 V
10 0 V
9 0 V
9 0 V
9 0 V
10 0 V
9 0 V
9 0 V
9 0 V
10 0 V
9 0 V
9 0 V
9 0 V
10 0 V
9 0 V
9 0 V
10 0 V
9 0 V
9 0 V
9 0 V
10 0 V
9 0 V
9 0 V
9 0 V
10 0 V
9 0 V
9 0 V
9 0 V
10 0 V
9 0 V
9 0 V
10 0 V
9 0 V
9 0 V
9 0 V
10 0 V
9 0 V
9 0 V
9 0 V
10 0 V
9 0 V
9 0 V
9 0 V
10 0 V
9 0 V
9 0 V
9 0 V
10 0 V
9 0 V
9 0 V
10 0 V
9 0 V
9 0 V
9 0 V
10 0 V
9 0 V
9 0 V
9 0 V
10 0 V
9 0 V
9 0 V
9 0 V
10 0 V
9 0 V
9 0 V
10 0 V
9 0 V
9 0 V
9 0 V
10 0 V
9 0 V
9 0 V
9 0 V
10 0 V
9 0 V
9 0 V
9 0 V
10 0 V
9 0 V
9 0 V
9 0 V
10 0 V
9 0 V
9 0 V
10 0 V
9 0 V
9 0 V
9 0 V
10 0 V
9 0 V
9 0 V
9 0 V
10 0 V
9 0 V
stroke 5261 1912 M
9 0 V
9 0 V
10 0 V
9 0 V
9 0 V
9 0 V
10 0 V
9 0 V
9 0 V
10 0 V
9 0 V
9 0 V
9 0 V
10 0 V
9 0 V
9 0 V
9 0 V
10 0 V
9 0 V
9 0 V
9 0 V
10 0 V
9 0 V
9 0 V
10 0 V
9 0 V
9 0 V
9 0 V
10 0 V
9 0 V
9 0 V
9 0 V
10 0 V
9 0 V
9 0 V
9 0 V
10 0 V
9 0 V
9 0 V
9 0 V
10 0 V
9 0 V
9 0 V
10 0 V
9 0 V
9 0 V
9 0 V
10 0 V
9 0 V
9 0 V
9 0 V
10 0 V
9 0 V
9 0 V
9 0 V
10 0 V
9 0 V
9 0 V
9 0 V
10 0 V
9 0 V
9 0 V
10 0 V
9 0 V
9 0 V
9 0 V
10 0 V
9 0 V
9 0 V
9 0 V
10 0 V
9 0 V
9 0 V
9 0 V
10 0 V
9 0 V
9 0 V
10 0 V
9 0 V
9 0 V
9 0 V
10 0 V
9 0 V
9 0 V
9 0 V
10 0 V
9 0 V
9 0 V
9 0 V
10 0 V
9 0 V
9 0 V
9 0 V
10 0 V
9 0 V
9 0 V
10 0 V
9 0 V
9 0 V
9 0 V
10 0 V
9 0 V
9 0 V
9 0 V
stroke 6224 1912 M
10 0 V
9 0 V
9 0 V
9 0 V
10 0 V
9 0 V
9 0 V
10 0 V
9 0 V
9 0 V
9 0 V
10 0 V
9 0 V
9 0 V
9 0 V
10 0 V
9 0 V
9 0 V
9 0 V
10 0 V
9 0 V
9 0 V
9 0 V
10 0 V
9 0 V
9 0 V
10 0 V
9 0 V
9 0 V
9 0 V
10 0 V
9 0 V
9 0 V
9 0 V
10 0 V
9 0 V
9 0 V
% End plot #1
% Begin plot #2
1.000 UP
stroke
LTb
0.00 0.62 0.45 C LCb setrgbcolor
6296 4598 M
[ [(Helvetica) 140.0 0.0 true true 0 (oracolo)]
] -46.7 MRshow
1.000 UP
1.000 UL
LTb
0.00 0.62 0.45 C 6380 4598 M
399 0 V
462 790 M
9 0 V
10 0 V
9 0 V
9 0 V
9 0 V
10 0 V
9 0 V
9 0 V
9 0 V
10 0 V
9 1632 V
9 0 V
9 0 V
10 0 V
9 0 V
9 0 V
9 0 V
10 0 V
9 0 V
9 0 V
10 0 V
9 -102 V
9 0 V
9 0 V
10 0 V
9 0 V
9 0 V
9 0 V
10 0 V
9 0 V
9 0 V
9 0 V
10 0 V
9 0 V
9 0 V
10 0 V
9 0 V
9 0 V
9 0 V
10 0 V
9 0 V
9 0 V
9 0 V
10 409 V
9 0 V
9 0 V
9 0 V
10 0 V
9 0 V
9 0 V
9 0 V
10 0 V
9 0 V
9 0 V
10 -102 V
9 0 V
9 0 V
9 0 V
10 0 V
9 0 V
9 0 V
9 0 V
10 0 V
9 0 V
9 -1939 V
9 1836 V
10 0 V
9 0 V
9 0 V
10 0 V
9 0 V
9 0 V
9 0 V
10 0 V
9 0 V
9 0 V
9 205 V
10 0 V
9 0 V
9 0 V
9 0 V
10 0 V
9 0 V
9 0 V
9 0 V
10 0 V
9 0 V
9 0 V
10 0 V
9 0 V
9 0 V
9 0 V
10 0 V
9 0 V
9 0 V
9 0 V
10 0 V
9 0 V
9 -307 V
9 0 V
10 0 V
9 0 V
stroke 1407 2422 M
9 0 V
9 0 V
10 0 V
9 0 V
9 0 V
10 0 V
9 0 V
9 0 V
9 307 V
10 0 V
9 0 V
9 0 V
9 0 V
10 0 V
9 0 V
9 0 V
9 0 V
10 0 V
9 0 V
9 -102 V
10 0 V
9 0 V
9 0 V
9 0 V
10 0 V
9 0 V
9 0 V
9 0 V
10 0 V
9 0 V
9 -103 V
9 0 V
10 0 V
9 0 V
9 0 V
9 0 V
10 0 V
9 0 V
9 0 V
10 0 V
9 0 V
9 103 V
9 0 V
10 0 V
9 0 V
9 0 V
9 0 V
10 0 V
9 0 V
9 0 V
9 0 V
10 0 V
9 -103 V
9 0 V
9 0 V
10 0 V
9 0 V
9 0 V
10 0 V
9 0 V
9 0 V
9 0 V
10 0 V
9 103 V
9 0 V
9 0 V
10 0 V
9 0 V
9 0 V
9 0 V
10 0 V
9 0 V
9 0 V
10 0 V
9 0 V
9 0 V
9 0 V
10 0 V
9 0 V
9 0 V
9 0 V
10 0 V
9 0 V
9 0 V
9 0 V
10 102 V
9 0 V
9 0 V
9 0 V
10 0 V
9 0 V
9 0 V
10 0 V
9 0 V
9 0 V
9 0 V
10 0 V
9 0 V
9 0 V
9 0 V
10 0 V
9 0 V
9 0 V
9 0 V
stroke 2370 2729 M
10 0 V
9 0 V
9 0 V
10 -102 V
9 0 V
9 0 V
9 0 V
10 0 V
9 0 V
9 0 V
9 0 V
10 0 V
9 0 V
9 0 V
9 102 V
10 0 V
9 0 V
9 0 V
9 0 V
10 0 V
9 0 V
9 0 V
10 0 V
9 0 V
9 0 V
9 0 V
10 0 V
9 0 V
9 0 V
9 0 V
10 0 V
9 0 V
9 0 V
9 0 V
10 0 V
9 0 V
9 -307 V
9 0 V
10 0 V
9 0 V
9 0 V
10 0 V
9 0 V
9 0 V
9 0 V
10 0 V
9 0 V
9 307 V
9 0 V
10 0 V
9 0 V
9 0 V
9 0 V
10 0 V
9 0 V
9 0 V
10 0 V
9 0 V
9 0 V
9 0 V
10 0 V
9 0 V
9 0 V
9 0 V
10 0 V
9 0 V
9 0 V
9 0 V
10 0 V
9 0 V
9 0 V
9 0 V
10 0 V
9 0 V
9 0 V
10 0 V
9 0 V
9 0 V
9 0 V
10 0 V
9 0 V
9 0 V
9 0 V
10 0 V
9 0 V
9 0 V
9 0 V
10 0 V
9 0 V
9 0 V
9 0 V
10 0 V
9 0 V
9 0 V
10 0 V
9 0 V
9 0 V
9 0 V
10 0 V
9 0 V
9 0 V
9 0 V
10 0 V
9 0 V
stroke 3334 2729 M
9 0 V
9 0 V
10 0 V
9 0 V
9 0 V
10 0 V
9 0 V
9 0 V
9 0 V
10 0 V
9 0 V
9 0 V
9 0 V
10 0 V
9 0 V
9 0 V
9 0 V
10 0 V
9 -2041 V
9 1734 V
9 0 V
10 0 V
9 0 V
9 0 V
10 0 V
9 0 V
9 0 V
9 0 V
10 0 V
9 0 V
9 -102 V
9 0 V
10 0 V
9 0 V
9 0 V
9 0 V
10 0 V
9 0 V
9 0 V
10 0 V
9 0 V
9 409 V
9 0 V
10 0 V
9 0 V
9 0 V
9 0 V
10 0 V
9 0 V
9 0 V
9 0 V
10 0 V
9 -307 V
9 0 V
9 0 V
10 0 V
9 0 V
9 0 V
10 0 V
9 0 V
9 0 V
9 0 V
10 0 V
9 -102 V
9 0 V
9 0 V
10 0 V
9 0 V
9 0 V
9 0 V
10 0 V
9 0 V
9 0 V
9 0 V
10 0 V
9 0 V
9 0 V
10 0 V
9 0 V
9 0 V
9 0 V
10 0 V
9 0 V
9 0 V
9 0 V
10 409 V
9 0 V
9 0 V
9 0 V
10 0 V
9 0 V
9 0 V
10 0 V
9 0 V
9 0 V
9 0 V
10 -205 V
9 0 V
9 0 V
9 0 V
10 0 V
9 0 V
9 0 V
9 0 V
stroke 4297 2524 M
10 0 V
9 0 V
9 0 V
9 0 V
10 205 V
9 0 V
9 0 V
10 0 V
9 0 V
9 0 V
9 0 V
10 0 V
9 0 V
9 0 V
9 0 V
10 -102 V
9 0 V
9 0 V
9 0 V
10 0 V
9 0 V
9 0 V
9 0 V
10 0 V
9 0 V
9 -103 V
10 0 V
9 0 V
9 0 V
9 0 V
10 0 V
9 0 V
9 0 V
9 0 V
10 0 V
9 0 V
9 205 V
9 0 V
10 0 V
9 0 V
9 0 V
10 0 V
9 0 V
9 0 V
9 0 V
10 0 V
9 0 V
9 -102 V
9 0 V
10 0 V
9 0 V
9 0 V
9 0 V
10 0 V
9 0 V
9 0 V
9 0 V
10 0 V
9 102 V
9 0 V
10 0 V
9 0 V
9 0 V
9 0 V
10 0 V
9 0 V
9 0 V
9 0 V
10 0 V
9 -205 V
9 0 V
9 0 V
10 0 V
9 0 V
9 0 V
10 0 V
9 0 V
9 0 V
9 0 V
10 0 V
9 0 V
9 0 V
9 0 V
10 0 V
9 0 V
9 0 V
9 0 V
10 0 V
9 0 V
9 0 V
9 0 V
10 0 V
9 0 V
9 0 V
10 0 V
9 0 V
9 0 V
9 0 V
10 0 V
9 0 V
9 0 V
9 0 V
10 0 V
9 0 V
stroke 5261 2524 M
9 0 V
9 0 V
10 0 V
9 0 V
9 0 V
9 0 V
10 0 V
9 0 V
9 0 V
10 205 V
9 0 V
9 0 V
9 0 V
10 0 V
9 0 V
9 0 V
9 0 V
10 0 V
9 0 V
9 0 V
9 0 V
10 0 V
9 0 V
9 0 V
10 0 V
9 0 V
9 0 V
9 0 V
10 0 V
9 0 V
9 0 V
9 -307 V
10 0 V
9 0 V
9 0 V
9 0 V
10 0 V
9 0 V
9 0 V
9 0 V
10 0 V
9 0 V
9 -102 V
10 0 V
9 0 V
9 0 V
9 0 V
10 0 V
9 0 V
9 0 V
9 0 V
10 0 V
9 0 V
9 0 V
9 0 V
10 0 V
9 0 V
9 0 V
9 0 V
10 0 V
9 0 V
9 0 V
10 0 V
9 0 V
9 0 V
9 0 V
10 0 V
9 0 V
9 0 V
9 0 V
10 0 V
9 0 V
9 0 V
9 0 V
10 0 V
9 102 V
9 0 V
10 0 V
9 0 V
9 0 V
9 0 V
10 0 V
9 0 V
9 0 V
9 0 V
10 0 V
9 -102 V
9 0 V
9 0 V
10 0 V
9 0 V
9 0 V
9 0 V
10 0 V
9 0 V
9 0 V
10 0 V
9 0 V
9 307 V
9 0 V
10 0 V
9 0 V
9 0 V
9 0 V
stroke 6224 2627 M
10 0 V
9 0 V
9 0 V
9 0 V
10 0 V
9 0 V
9 -409 V
10 0 V
9 0 V
9 0 V
9 0 V
10 0 V
9 0 V
9 0 V
9 0 V
10 0 V
9 102 V
9 0 V
9 0 V
10 0 V
9 0 V
9 0 V
9 0 V
10 0 V
9 0 V
9 0 V
462 790 Crs
471 790 Crs
481 790 Crs
490 790 Crs
499 790 Crs
508 790 Crs
518 790 Crs
527 790 Crs
536 790 Crs
545 790 Crs
555 790 Crs
564 2422 Crs
573 2422 Crs
582 2422 Crs
592 2422 Crs
601 2422 Crs
610 2422 Crs
619 2422 Crs
629 2422 Crs
638 2422 Crs
647 2422 Crs
657 2422 Crs
666 2320 Crs
675 2320 Crs
684 2320 Crs
694 2320 Crs
703 2320 Crs
712 2320 Crs
721 2320 Crs
731 2320 Crs
740 2320 Crs
749 2320 Crs
758 2320 Crs
768 2320 Crs
777 2320 Crs
786 2320 Crs
796 2320 Crs
805 2320 Crs
814 2320 Crs
823 2320 Crs
833 2320 Crs
842 2320 Crs
851 2320 Crs
860 2320 Crs
870 2729 Crs
879 2729 Crs
888 2729 Crs
897 2729 Crs
907 2729 Crs
916 2729 Crs
925 2729 Crs
934 2729 Crs
944 2729 Crs
953 2729 Crs
962 2729 Crs
972 2627 Crs
981 2627 Crs
990 2627 Crs
999 2627 Crs
1009 2627 Crs
1018 2627 Crs
1027 2627 Crs
1036 2627 Crs
1046 2627 Crs
1055 2627 Crs
1064 688 Crs
1073 2524 Crs
1083 2524 Crs
1092 2524 Crs
1101 2524 Crs
1111 2524 Crs
1120 2524 Crs
1129 2524 Crs
1138 2524 Crs
1148 2524 Crs
1157 2524 Crs
1166 2524 Crs
1175 2729 Crs
1185 2729 Crs
1194 2729 Crs
1203 2729 Crs
1212 2729 Crs
1222 2729 Crs
1231 2729 Crs
1240 2729 Crs
1249 2729 Crs
1259 2729 Crs
1268 2729 Crs
1277 2729 Crs
1287 2729 Crs
1296 2729 Crs
1305 2729 Crs
1314 2729 Crs
1324 2729 Crs
1333 2729 Crs
1342 2729 Crs
1351 2729 Crs
1361 2729 Crs
1370 2729 Crs
1379 2422 Crs
1388 2422 Crs
1398 2422 Crs
1407 2422 Crs
1416 2422 Crs
1425 2422 Crs
1435 2422 Crs
1444 2422 Crs
1453 2422 Crs
1463 2422 Crs
1472 2422 Crs
1481 2422 Crs
1490 2729 Crs
1500 2729 Crs
1509 2729 Crs
1518 2729 Crs
1527 2729 Crs
1537 2729 Crs
1546 2729 Crs
1555 2729 Crs
1564 2729 Crs
1574 2729 Crs
1583 2729 Crs
1592 2627 Crs
1602 2627 Crs
1611 2627 Crs
1620 2627 Crs
1629 2627 Crs
1639 2627 Crs
1648 2627 Crs
1657 2627 Crs
1666 2627 Crs
1676 2627 Crs
1685 2627 Crs
1694 2524 Crs
1703 2524 Crs
1713 2524 Crs
1722 2524 Crs
1731 2524 Crs
1740 2524 Crs
1750 2524 Crs
1759 2524 Crs
1768 2524 Crs
1778 2524 Crs
1787 2524 Crs
1796 2627 Crs
1805 2627 Crs
1815 2627 Crs
1824 2627 Crs
1833 2627 Crs
1842 2627 Crs
1852 2627 Crs
1861 2627 Crs
1870 2627 Crs
1879 2627 Crs
1889 2627 Crs
1898 2524 Crs
1907 2524 Crs
1916 2524 Crs
1926 2524 Crs
1935 2524 Crs
1944 2524 Crs
1954 2524 Crs
1963 2524 Crs
1972 2524 Crs
1981 2524 Crs
1991 2524 Crs
2000 2627 Crs
2009 2627 Crs
2018 2627 Crs
2028 2627 Crs
2037 2627 Crs
2046 2627 Crs
2055 2627 Crs
2065 2627 Crs
2074 2627 Crs
2083 2627 Crs
2093 2627 Crs
2102 2627 Crs
2111 2627 Crs
2120 2627 Crs
2130 2627 Crs
2139 2627 Crs
2148 2627 Crs
2157 2627 Crs
2167 2627 Crs
2176 2627 Crs
2185 2627 Crs
2194 2627 Crs
2204 2729 Crs
2213 2729 Crs
2222 2729 Crs
2231 2729 Crs
2241 2729 Crs
2250 2729 Crs
2259 2729 Crs
2269 2729 Crs
2278 2729 Crs
2287 2729 Crs
2296 2729 Crs
2306 2729 Crs
2315 2729 Crs
2324 2729 Crs
2333 2729 Crs
2343 2729 Crs
2352 2729 Crs
2361 2729 Crs
2370 2729 Crs
2380 2729 Crs
2389 2729 Crs
2398 2729 Crs
2408 2627 Crs
2417 2627 Crs
2426 2627 Crs
2435 2627 Crs
2445 2627 Crs
2454 2627 Crs
2463 2627 Crs
2472 2627 Crs
2482 2627 Crs
2491 2627 Crs
2500 2627 Crs
2509 2729 Crs
2519 2729 Crs
2528 2729 Crs
2537 2729 Crs
2546 2729 Crs
2556 2729 Crs
2565 2729 Crs
2574 2729 Crs
2584 2729 Crs
2593 2729 Crs
2602 2729 Crs
2611 2729 Crs
2621 2729 Crs
2630 2729 Crs
2639 2729 Crs
2648 2729 Crs
2658 2729 Crs
2667 2729 Crs
2676 2729 Crs
2685 2729 Crs
2695 2729 Crs
2704 2729 Crs
2713 2422 Crs
2722 2422 Crs
2732 2422 Crs
2741 2422 Crs
2750 2422 Crs
2760 2422 Crs
2769 2422 Crs
2778 2422 Crs
2787 2422 Crs
2797 2422 Crs
2806 2422 Crs
2815 2729 Crs
2824 2729 Crs
2834 2729 Crs
2843 2729 Crs
2852 2729 Crs
2861 2729 Crs
2871 2729 Crs
2880 2729 Crs
2889 2729 Crs
2899 2729 Crs
2908 2729 Crs
2917 2729 Crs
2926 2729 Crs
2936 2729 Crs
2945 2729 Crs
2954 2729 Crs
2963 2729 Crs
2973 2729 Crs
2982 2729 Crs
2991 2729 Crs
3000 2729 Crs
3010 2729 Crs
3019 2729 Crs
3028 2729 Crs
3037 2729 Crs
3047 2729 Crs
3056 2729 Crs
3065 2729 Crs
3075 2729 Crs
3084 2729 Crs
3093 2729 Crs
3102 2729 Crs
3112 2729 Crs
3121 2729 Crs
3130 2729 Crs
3139 2729 Crs
3149 2729 Crs
3158 2729 Crs
3167 2729 Crs
3176 2729 Crs
3186 2729 Crs
3195 2729 Crs
3204 2729 Crs
3213 2729 Crs
3223 2729 Crs
3232 2729 Crs
3241 2729 Crs
3251 2729 Crs
3260 2729 Crs
3269 2729 Crs
3278 2729 Crs
3288 2729 Crs
3297 2729 Crs
3306 2729 Crs
3315 2729 Crs
3325 2729 Crs
3334 2729 Crs
3343 2729 Crs
3352 2729 Crs
3362 2729 Crs
3371 2729 Crs
3380 2729 Crs
3390 2729 Crs
3399 2729 Crs
3408 2729 Crs
3417 2729 Crs
3427 2729 Crs
3436 2729 Crs
3445 2729 Crs
3454 2729 Crs
3464 2729 Crs
3473 2729 Crs
3482 2729 Crs
3491 2729 Crs
3501 2729 Crs
3510 688 Crs
3519 2422 Crs
3528 2422 Crs
3538 2422 Crs
3547 2422 Crs
3556 2422 Crs
3566 2422 Crs
3575 2422 Crs
3584 2422 Crs
3593 2422 Crs
3603 2422 Crs
3612 2422 Crs
3621 2320 Crs
3630 2320 Crs
3640 2320 Crs
3649 2320 Crs
3658 2320 Crs
3667 2320 Crs
3677 2320 Crs
3686 2320 Crs
3695 2320 Crs
3705 2320 Crs
3714 2320 Crs
3723 2729 Crs
3732 2729 Crs
3742 2729 Crs
3751 2729 Crs
3760 2729 Crs
3769 2729 Crs
3779 2729 Crs
3788 2729 Crs
3797 2729 Crs
3806 2729 Crs
3816 2729 Crs
3825 2422 Crs
3834 2422 Crs
3843 2422 Crs
3853 2422 Crs
3862 2422 Crs
3871 2422 Crs
3881 2422 Crs
3890 2422 Crs
3899 2422 Crs
3908 2422 Crs
3918 2422 Crs
3927 2320 Crs
3936 2320 Crs
3945 2320 Crs
3955 2320 Crs
3964 2320 Crs
3973 2320 Crs
3982 2320 Crs
3992 2320 Crs
4001 2320 Crs
4010 2320 Crs
4019 2320 Crs
4029 2320 Crs
4038 2320 Crs
4047 2320 Crs
4057 2320 Crs
4066 2320 Crs
4075 2320 Crs
4084 2320 Crs
4094 2320 Crs
4103 2320 Crs
4112 2320 Crs
4121 2320 Crs
4131 2729 Crs
4140 2729 Crs
4149 2729 Crs
4158 2729 Crs
4168 2729 Crs
4177 2729 Crs
4186 2729 Crs
4196 2729 Crs
4205 2729 Crs
4214 2729 Crs
4223 2729 Crs
4233 2524 Crs
4242 2524 Crs
4251 2524 Crs
4260 2524 Crs
4270 2524 Crs
4279 2524 Crs
4288 2524 Crs
4297 2524 Crs
4307 2524 Crs
4316 2524 Crs
4325 2524 Crs
4334 2524 Crs
4344 2729 Crs
4353 2729 Crs
4362 2729 Crs
4372 2729 Crs
4381 2729 Crs
4390 2729 Crs
4399 2729 Crs
4409 2729 Crs
4418 2729 Crs
4427 2729 Crs
4436 2729 Crs
4446 2627 Crs
4455 2627 Crs
4464 2627 Crs
4473 2627 Crs
4483 2627 Crs
4492 2627 Crs
4501 2627 Crs
4510 2627 Crs
4520 2627 Crs
4529 2627 Crs
4538 2524 Crs
4548 2524 Crs
4557 2524 Crs
4566 2524 Crs
4575 2524 Crs
4585 2524 Crs
4594 2524 Crs
4603 2524 Crs
4612 2524 Crs
4622 2524 Crs
4631 2524 Crs
4640 2729 Crs
4649 2729 Crs
4659 2729 Crs
4668 2729 Crs
4677 2729 Crs
4687 2729 Crs
4696 2729 Crs
4705 2729 Crs
4714 2729 Crs
4724 2729 Crs
4733 2729 Crs
4742 2627 Crs
4751 2627 Crs
4761 2627 Crs
4770 2627 Crs
4779 2627 Crs
4788 2627 Crs
4798 2627 Crs
4807 2627 Crs
4816 2627 Crs
4825 2627 Crs
4835 2627 Crs
4844 2729 Crs
4853 2729 Crs
4863 2729 Crs
4872 2729 Crs
4881 2729 Crs
4890 2729 Crs
4900 2729 Crs
4909 2729 Crs
4918 2729 Crs
4927 2729 Crs
4937 2729 Crs
4946 2524 Crs
4955 2524 Crs
4964 2524 Crs
4974 2524 Crs
4983 2524 Crs
4992 2524 Crs
5002 2524 Crs
5011 2524 Crs
5020 2524 Crs
5029 2524 Crs
5039 2524 Crs
5048 2524 Crs
5057 2524 Crs
5066 2524 Crs
5076 2524 Crs
5085 2524 Crs
5094 2524 Crs
5103 2524 Crs
5113 2524 Crs
5122 2524 Crs
5131 2524 Crs
5140 2524 Crs
5150 2524 Crs
5159 2524 Crs
5168 2524 Crs
5178 2524 Crs
5187 2524 Crs
5196 2524 Crs
5205 2524 Crs
5215 2524 Crs
5224 2524 Crs
5233 2524 Crs
5242 2524 Crs
5252 2524 Crs
5261 2524 Crs
5270 2524 Crs
5279 2524 Crs
5289 2524 Crs
5298 2524 Crs
5307 2524 Crs
5316 2524 Crs
5326 2524 Crs
5335 2524 Crs
5344 2524 Crs
5354 2729 Crs
5363 2729 Crs
5372 2729 Crs
5381 2729 Crs
5391 2729 Crs
5400 2729 Crs
5409 2729 Crs
5418 2729 Crs
5428 2729 Crs
5437 2729 Crs
5446 2729 Crs
5455 2729 Crs
5465 2729 Crs
5474 2729 Crs
5483 2729 Crs
5493 2729 Crs
5502 2729 Crs
5511 2729 Crs
5520 2729 Crs
5530 2729 Crs
5539 2729 Crs
5548 2729 Crs
5557 2422 Crs
5567 2422 Crs
5576 2422 Crs
5585 2422 Crs
5594 2422 Crs
5604 2422 Crs
5613 2422 Crs
5622 2422 Crs
5631 2422 Crs
5641 2422 Crs
5650 2422 Crs
5659 2320 Crs
5669 2320 Crs
5678 2320 Crs
5687 2320 Crs
5696 2320 Crs
5706 2320 Crs
5715 2320 Crs
5724 2320 Crs
5733 2320 Crs
5743 2320 Crs
5752 2320 Crs
5761 2320 Crs
5770 2320 Crs
5780 2320 Crs
5789 2320 Crs
5798 2320 Crs
5807 2320 Crs
5817 2320 Crs
5826 2320 Crs
5835 2320 Crs
5845 2320 Crs
5854 2320 Crs
5863 2320 Crs
5872 2320 Crs
5882 2320 Crs
5891 2320 Crs
5900 2320 Crs
5909 2320 Crs
5919 2320 Crs
5928 2320 Crs
5937 2320 Crs
5946 2320 Crs
5956 2320 Crs
5965 2422 Crs
5974 2422 Crs
5984 2422 Crs
5993 2422 Crs
6002 2422 Crs
6011 2422 Crs
6021 2422 Crs
6030 2422 Crs
6039 2422 Crs
6048 2422 Crs
6058 2422 Crs
6067 2320 Crs
6076 2320 Crs
6085 2320 Crs
6095 2320 Crs
6104 2320 Crs
6113 2320 Crs
6122 2320 Crs
6132 2320 Crs
6141 2320 Crs
6150 2320 Crs
6160 2320 Crs
6169 2320 Crs
6178 2627 Crs
6187 2627 Crs
6197 2627 Crs
6206 2627 Crs
6215 2627 Crs
6224 2627 Crs
6234 2627 Crs
6243 2627 Crs
6252 2627 Crs
6261 2627 Crs
6271 2627 Crs
6280 2627 Crs
6289 2218 Crs
6299 2218 Crs
6308 2218 Crs
6317 2218 Crs
6326 2218 Crs
6336 2218 Crs
6345 2218 Crs
6354 2218 Crs
6363 2218 Crs
6373 2218 Crs
6382 2320 Crs
6391 2320 Crs
6400 2320 Crs
6410 2320 Crs
6419 2320 Crs
6428 2320 Crs
6437 2320 Crs
6447 2320 Crs
6456 2320 Crs
6465 2320 Crs
6579 4598 Crs
% End plot #2
% Begin plot #3
1.000 UL
LTb
0.00 0.45 0.70 C LCb setrgbcolor
6296 4458 M
[ [(Helvetica) 140.0 0.0 true true 0 (original)]
] -46.7 MRshow
1.000 UL
LTb
0.00 0.45 0.70 C 6380 4458 M
399 0 V
462 1810 M
9 -102 V
10 1021 V
9 -102 V
9 1020 V
9 -102 V
10 -102 V
9 1020 V
9 -102 V
9 -102 V
10 -102 V
9 -102 V
9 -102 V
9 -102 V
10 -102 V
9 -102 V
9 1020 V
9 -102 V
10 -102 V
9 -102 V
9 -102 V
10 -102 V
9 -102 V
9 -102 V
9 -102 V
10 -102 V
9 -102 V
9 1020 V
9 -102 V
10 -102 V
9 -102 V
9 -102 V
9 -102 V
10 -102 V
9 -102 V
9 -102 V
10 -102 V
9 -102 V
9 1020 V
9 -102 V
10 -102 V
9 -102 V
9 -102 V
9 -102 V
10 -102 V
9 -102 V
9 -102 V
9 -102 V
10 -102 V
9 1020 V
9 -102 V
9 -102 V
10 -102 V
9 -102 V
9 -102 V
10 -102 V
9 -102 V
9 -102 V
9 -102 V
10 1020 V
9 -102 V
9 -102 V
9 -102 V
10 -102 V
9 -102 V
9 -102 V
9 -102 V
10 -102 V
9 -102 V
9 -102 V
10 1020 V
9 -102 V
9 -102 V
9 -102 V
10 -102 V
9 -102 V
9 -102 V
9 -102 V
10 -102 V
9 -102 V
9 -102 V
9 -102 V
10 1020 V
9 -102 V
9 -102 V
9 -102 V
10 -102 V
9 -102 V
9 -102 V
10 -102 V
9 -102 V
9 -102 V
9 -102 V
10 1020 V
9 -102 V
9 -102 V
9 -102 V
10 -102 V
9 -102 V
9 -102 V
9 -102 V
10 -102 V
9 -102 V
stroke 1407 3749 M
9 -102 V
9 1020 V
10 -102 V
9 -102 V
9 -102 V
10 -102 V
9 -102 V
9 -102 V
9 -102 V
10 -102 V
9 -102 V
9 -102 V
9 1020 V
10 -102 V
9 -102 V
9 -102 V
9 -102 V
10 -102 V
9 -102 V
9 -102 V
10 -102 V
9 -102 V
9 -102 V
9 1020 V
10 -102 V
9 -102 V
9 -102 V
9 -102 V
10 -102 V
9 -102 V
9 -102 V
9 -102 V
10 -102 V
9 -102 V
9 1020 V
9 -102 V
10 -102 V
9 -102 V
9 -102 V
10 -102 V
9 -102 V
9 -102 V
9 -102 V
10 -102 V
9 -102 V
9 1020 V
9 -102 V
10 -102 V
9 -102 V
9 -102 V
9 -102 V
10 -102 V
9 -102 V
9 -102 V
9 -102 V
10 1020 V
9 -102 V
9 -102 V
10 -102 V
9 -102 V
9 -102 V
9 -102 V
10 -102 V
9 -102 V
9 -102 V
9 -102 V
10 -102 V
9 1020 V
9 -102 V
9 -102 V
10 -102 V
9 -102 V
9 -102 V
10 -102 V
9 -102 V
9 -102 V
9 -102 V
10 1020 V
9 -102 V
9 -102 V
9 -102 V
10 -102 V
9 -102 V
9 -102 V
9 -102 V
10 -102 V
9 -102 V
9 -102 V
9 -102 V
10 1020 V
9 -102 V
9 -102 V
10 -102 V
9 -102 V
9 -102 V
9 -102 V
10 -102 V
9 -102 V
9 -102 V
9 -102 V
10 1020 V
9 -102 V
9 -102 V
9 -102 V
stroke 2370 4361 M
10 -102 V
9 -102 V
9 -102 V
10 -102 V
9 -102 V
9 -102 V
9 1020 V
10 -102 V
9 -102 V
9 -102 V
9 -102 V
10 -102 V
9 -102 V
9 -102 V
9 -102 V
10 -102 V
9 -102 V
9 1020 V
9 -102 V
10 -102 V
9 -102 V
9 -102 V
10 -102 V
9 -102 V
9 -102 V
9 -102 V
10 -102 V
9 -102 V
9 -102 V
9 1020 V
10 -102 V
9 -102 V
9 -102 V
9 -102 V
10 -102 V
9 -102 V
9 -102 V
9 -102 V
10 -102 V
9 -102 V
9 1020 V
10 -102 V
9 -102 V
9 -102 V
9 -102 V
10 -102 V
9 -102 V
9 -102 V
9 -102 V
10 -102 V
9 -102 V
9 1020 V
9 -102 V
10 -102 V
9 -102 V
9 -102 V
10 -102 V
9 -102 V
9 -102 V
9 -102 V
10 -102 V
9 -102 V
9 1020 V
9 -102 V
10 -102 V
9 -102 V
9 -102 V
9 -102 V
10 -102 V
9 -102 V
9 -102 V
9 -102 V
10 -102 V
9 1020 V
9 -102 V
10 -102 V
9 -102 V
9 -102 V
9 -102 V
10 -102 V
9 -102 V
9 -102 V
9 -102 V
10 -102 V
9 1020 V
9 -102 V
9 -102 V
10 -102 V
9 -102 V
9 -102 V
9 -102 V
10 -102 V
9 -102 V
9 -102 V
10 -102 V
9 1020 V
9 -102 V
9 -102 V
10 -102 V
9 -102 V
9 -102 V
9 -102 V
10 -102 V
9 -102 V
stroke 3334 3851 M
9 -102 V
9 -102 V
10 1020 V
9 -102 V
9 -102 V
10 -102 V
9 -102 V
9 -102 V
9 -102 V
10 -102 V
9 -102 V
9 -102 V
9 -102 V
10 1020 V
9 -102 V
9 -102 V
9 -102 V
10 -102 V
9 -102 V
9 -102 V
9 -102 V
10 -102 V
9 -102 V
9 -102 V
10 1020 V
9 -102 V
9 -102 V
9 -102 V
10 -102 V
9 -102 V
9 -102 V
9 -102 V
10 -102 V
9 -102 V
9 -102 V
9 1020 V
10 -102 V
9 -102 V
9 -102 V
10 -102 V
9 -102 V
9 -102 V
9 -102 V
10 -102 V
9 -102 V
9 -102 V
9 1020 V
10 -102 V
9 -102 V
9 -102 V
9 -102 V
10 -102 V
9 -102 V
9 -102 V
9 -102 V
10 -102 V
9 -102 V
9 1020 V
10 -102 V
9 -102 V
9 -102 V
9 -102 V
10 -102 V
9 -102 V
9 -102 V
9 -102 V
10 -102 V
9 -102 V
9 1020 V
9 -102 V
10 -102 V
9 -102 V
9 -102 V
9 -102 V
10 -102 V
9 -102 V
9 -102 V
10 -102 V
9 1020 V
9 -102 V
9 -102 V
10 -102 V
9 -102 V
9 -102 V
9 -102 V
10 -102 V
9 -102 V
9 -102 V
9 -102 V
10 1020 V
9 -102 V
9 -102 V
10 -102 V
9 -102 V
9 -102 V
9 -102 V
10 -102 V
9 -102 V
9 -102 V
9 -102 V
10 1020 V
9 -102 V
9 -102 V
9 -102 V
stroke 4297 4463 M
10 -102 V
9 -102 V
9 -102 V
9 -102 V
10 -102 V
9 -102 V
9 -102 V
10 -102 V
9 1020 V
9 -102 V
9 -102 V
10 -102 V
9 -102 V
9 -102 V
9 -102 V
10 -102 V
9 -102 V
9 -102 V
9 -102 V
10 1020 V
9 -102 V
9 -102 V
9 -102 V
10 -102 V
9 -102 V
9 -102 V
10 -102 V
9 -102 V
9 -102 V
9 -102 V
10 1020 V
9 -102 V
9 -102 V
9 -102 V
10 -102 V
9 -102 V
9 -102 V
9 -102 V
10 -102 V
9 -102 V
9 1020 V
10 -102 V
9 -102 V
9 -102 V
9 -102 V
10 -102 V
9 -102 V
9 -102 V
9 -102 V
10 -102 V
9 -102 V
9 -102 V
9 1020 V
10 -102 V
9 -102 V
9 -102 V
9 -102 V
10 -102 V
9 -102 V
9 -102 V
10 -102 V
9 -102 V
9 -102 V
9 1020 V
10 -102 V
9 -102 V
9 -102 V
9 -102 V
10 -102 V
9 -102 V
9 -102 V
9 -102 V
10 -102 V
9 -102 V
9 1020 V
10 -102 V
9 -102 V
9 -102 V
9 -102 V
10 -102 V
9 -102 V
9 -102 V
9 -102 V
10 -102 V
9 1020 V
9 -102 V
9 -102 V
10 -102 V
9 -102 V
9 -102 V
9 -102 V
10 -102 V
9 -102 V
9 -102 V
10 -102 V
9 -102 V
9 1020 V
9 -102 V
10 -102 V
9 -102 V
9 -102 V
9 -102 V
10 -102 V
9 -102 V
stroke 5261 3953 M
9 -102 V
9 -102 V
10 -102 V
9 1020 V
9 -102 V
9 -102 V
10 -102 V
9 -102 V
9 -102 V
10 -102 V
9 -102 V
9 -102 V
9 -102 V
10 -102 V
9 1020 V
9 -102 V
9 -102 V
10 -102 V
9 -102 V
9 -102 V
9 -102 V
10 -102 V
9 -102 V
9 -102 V
10 -102 V
9 1020 V
9 -102 V
9 -102 V
10 -102 V
9 -102 V
9 -102 V
9 -102 V
10 -102 V
9 -102 V
9 -102 V
9 -102 V
10 1020 V
9 -102 V
9 -102 V
9 -102 V
10 -102 V
9 -102 V
9 -102 V
10 -102 V
9 -102 V
9 -102 V
9 -102 V
10 1020 V
9 -102 V
9 -102 V
9 -102 V
10 -102 V
9 -102 V
9 -102 V
9 -102 V
10 -102 V
9 -102 V
9 -102 V
9 1020 V
10 -102 V
9 -102 V
9 -102 V
10 -102 V
9 -102 V
9 -102 V
9 -102 V
10 -102 V
9 -102 V
9 -102 V
9 1020 V
10 -102 V
9 -102 V
9 -102 V
9 -102 V
10 -102 V
9 -102 V
9 -102 V
10 -102 V
9 -102 V
9 -102 V
9 1020 V
10 -102 V
9 -102 V
9 -102 V
9 -102 V
10 -102 V
9 -102 V
9 -102 V
9 -102 V
10 -102 V
9 1020 V
9 -102 V
9 -102 V
10 -102 V
9 -102 V
9 -102 V
10 -102 V
9 -102 V
9 -102 V
9 -102 V
10 -102 V
9 1020 V
9 -102 V
9 -102 V
stroke 6224 4565 M
10 -102 V
9 -102 V
9 -102 V
9 -102 V
10 -102 V
9 -102 V
9 -102 V
10 -102 V
9 -102 V
9 0 V
9 -102 V
10 -102 V
9 -102 V
9 -102 V
9 -102 V
10 -102 V
9 -102 V
9 -102 V
9 -102 V
10 -102 V
9 -103 V
9 -102 V
9 -102 V
10 -102 V
9 -102 V
9 -102 V
10 -102 V
9 -102 V
9 -102 V
9 -102 V
10 -102 V
9 -102 V
9 -102 V
9 -102 V
10 -102 V
9 -102 V
9 -102 V
% End plot #3
% Begin plot #4
1.000 UP
stroke
LTb
0.90 0.62 0.00 C LCb setrgbcolor
6296 4318 M
[ [(Helvetica) 140.0 0.0 true true 0 (oracolo)]
] -46.7 MRshow
1.000 UP
1.000 UL
LTb
0.90 0.62 0.00 C 6380 4318 M
399 0 V
462 1810 M
9 -102 V
10 -102 V
9 -102 V
9 -102 V
9 -102 V
10 -102 V
9 -102 V
9 -102 V
9 -102 V
10 1020 V
9 -102 V
9 -102 V
9 -102 V
10 -102 V
9 -102 V
9 -102 V
9 -102 V
10 -102 V
9 -102 V
9 -102 V
10 1020 V
9 -102 V
9 -102 V
9 -102 V
10 -102 V
9 -102 V
9 -102 V
9 -102 V
10 -102 V
9 -102 V
9 1020 V
9 -102 V
10 -102 V
9 -102 V
9 -102 V
10 -102 V
9 -102 V
9 -102 V
9 -102 V
10 -102 V
9 -102 V
9 -102 V
9 1020 V
10 -102 V
9 -102 V
9 -102 V
9 -102 V
10 -102 V
9 -102 V
9 -102 V
9 -102 V
944 994 L
9 1020 V
9 -102 V
10 -102 V
9 -102 V
9 -102 V
9 -102 V
10 -102 V
9 -102 V
9 -102 V
9 -102 V
10 -102 V
9 -102 V
9 -102 V
9 1020 V
10 -102 V
9 -102 V
9 -102 V
10 -102 V
9 -102 V
9 -102 V
9 -102 V
10 1020 V
9 -102 V
9 -102 V
9 -102 V
10 -102 V
9 -102 V
9 1021 V
9 -103 V
10 -102 V
9 -102 V
9 -102 V
9 -102 V
10 -102 V
9 1021 V
9 -102 V
10 -102 V
9 -102 V
9 -102 V
9 -103 V
10 -102 V
9 -102 V
9 -102 V
9 -102 V
10 -102 V
9 -102 V
9 -102 V
9 1021 V
10 -102 V
9 -102 V
9 -103 V
9 -102 V
10 -102 V
9 -102 V
9 -102 V
10 -102 V
9 -102 V
9 1021 V
9 -102 V
10 -102 V
9 -102 V
9 -103 V
9 -102 V
10 -102 V
9 -102 V
9 -102 V
9 -102 V
10 -102 V
9 1021 V
9 -102 V
10 -102 V
9 -102 V
9 -103 V
9 -102 V
10 -102 V
9 -102 V
9 -102 V
9 -102 V
10 -102 V
9 1021 V
9 -102 V
9 -102 V
10 -102 V
9 -103 V
9 -102 V
9 -102 V
10 -102 V
9 1021 V
9 -102 V
10 -102 V
9 -102 V
9 -102 V
9 -102 V
10 -102 V
9 -103 V
9 -102 V
9 -102 V
10 -102 V
9 1021 V
9 -102 V
9 -102 V
10 -102 V
9 -102 V
9 -102 V
stroke 1907 2729 M
9 -102 V
10 -103 V
9 1021 V
9 -102 V
10 -102 V
9 -102 V
9 -102 V
9 -102 V
10 -102 V
9 -102 V
9 -102 V
9 -102 V
10 -103 V
9 -102 V
9 -102 V
9 1021 V
10 -102 V
9 -102 V
9 -102 V
10 -102 V
9 -102 V
9 -102 V
9 -102 V
10 -103 V
9 -102 V
9 -102 V
9 -102 V
10 1021 V
9 -102 V
9 -102 V
9 -102 V
10 -102 V
9 -102 V
9 -102 V
9 -103 V
10 1021 V
9 -102 V
9 -102 V
10 -102 V
9 -102 V
9 -102 V
9 -102 V
10 -102 V
9 -102 V
9 -102 V
9 -103 V
10 -102 V
9 -102 V
9 1021 V
9 -102 V
10 -102 V
9 -102 V
9 -102 V
10 -102 V
9 -102 V
9 -102 V
9 -103 V
10 -102 V
9 -102 V
9 1021 V
9 -102 V
10 -102 V
9 -102 V
9 -102 V
9 -102 V
10 -102 V
9 1020 V
9 -102 V
9 -102 V
10 -102 V
9 -102 V
9 -102 V
10 -102 V
9 -102 V
9 -102 V
9 -102 V
10 -102 V
9 -102 V
9 -103 V
9 -102 V
10 -102 V
9 -102 V
9 1021 V
9 -102 V
10 -102 V
9 -102 V
9 -102 V
9 -102 V
10 -102 V
9 -103 V
9 -102 V
10 -102 V
9 -102 V
9 -102 V
9 1021 V
10 -102 V
9 -102 V
9 -102 V
9 -102 V
10 -102 V
9 -103 V
9 -102 V
9 -102 V
10 -102 V
stroke 2871 2218 M
9 1021 V
9 -102 V
10 -102 V
9 -102 V
9 -102 V
9 -102 V
10 -102 V
9 -103 V
9 -102 V
9 -102 V
10 -102 V
9 -102 V
9 -102 V
9 -102 V
10 -102 V
9 -102 V
9 -102 V
9 1021 V
10 -103 V
9 -102 V
9 -102 V
10 -102 V
9 -102 V
9 -102 V
9 -102 V
10 -102 V
9 -102 V
9 -102 V
9 -102 V
10 1020 V
9 -102 V
9 -102 V
9 -102 V
10 -102 V
9 -102 V
9 -102 V
9 -102 V
10 -102 V
9 -102 V
9 1021 V
10 -103 V
9 -102 V
9 -102 V
9 -102 V
10 -102 V
9 -102 V
9 -102 V
9 -102 V
10 -102 V
9 -102 V
9 -102 V
9 -102 V
10 -102 V
9 -102 V
9 -102 V
10 -102 V
9 1020 V
9 -102 V
9 -102 V
10 -102 V
9 -102 V
9 -102 V
9 -102 V
10 -102 V
9 -102 V
9 -102 V
9 -102 V
10 -102 V
9 -102 V
9 1020 V
9 -102 V
10 -102 V
9 -102 V
9 -102 V
10 -102 V
9 -102 V
9 -102 V
9 -102 V
10 1020 V
9 -102 V
9 -102 V
9 -102 V
10 -102 V
9 -102 V
9 -102 V
9 -102 V
10 -102 V
9 -102 V
9 1020 V
10 -102 V
9 -102 V
9 -102 V
9 -102 V
10 -102 V
9 -102 V
9 -102 V
9 -102 V
10 -102 V
9 -102 V
9 -102 V
9 -102 V
10 1020 V
9 -102 V
9 -102 V
stroke 3834 1708 M
9 -102 V
10 -102 V
9 -102 V
9 -102 V
10 -102 V
9 -102 V
9 -102 V
9 1020 V
10 -102 V
9 -102 V
9 -102 V
9 -102 V
10 -102 V
9 -102 V
9 -102 V
9 -102 V
10 -102 V
9 1020 V
9 -102 V
9 -102 V
10 -102 V
9 -102 V
9 -102 V
10 -102 V
9 -102 V
9 -102 V
9 -102 V
10 -102 V
9 -102 V
9 1020 V
9 -102 V
10 -102 V
9 -102 V
9 -102 V
9 -102 V
10 1020 V
9 -102 V
9 -102 V
10 -102 V
9 -102 V
9 -102 V
9 -102 V
10 -102 V
9 -102 V
9 1021 V
9 -102 V
10 -103 V
9 -102 V
9 -102 V
9 -102 V
10 -102 V
9 1021 V
9 -102 V
9 -102 V
10 -102 V
9 -102 V
9 -102 V
10 -103 V
9 -102 V
9 -102 V
9 -102 V
10 1021 V
9 -102 V
9 -102 V
9 -102 V
10 -102 V
9 -102 V
9 -102 V
9 -103 V
10 -102 V
9 -102 V
9 -102 V
9 -102 V
10 -102 V
9 -102 V
9 -102 V
10 -102 V
9 -102 V
9 -102 V
9 -102 V
10 -102 V
9 1020 V
9 -102 V
9 -102 V
10 -102 V
9 -102 V
9 -102 V
9 -102 V
10 -102 V
9 -102 V
9 -102 V
10 -102 V
9 -102 V
9 -102 V
9 -102 V
10 -102 V
9 1020 V
9 -102 V
9 -102 V
10 -102 V
9 -102 V
9 -102 V
9 -102 V
10 -102 V
stroke 4798 1198 M
9 -102 V
9 -102 V
9 1020 V
10 -102 V
9 -102 V
9 -102 V
10 -102 V
9 -102 V
9 -102 V
9 -102 V
10 1020 V
9 -102 V
9 -102 V
9 -102 V
10 -102 V
9 -102 V
9 -102 V
9 -102 V
10 -102 V
9 -102 V
9 -102 V
10 -102 V
9 -102 V
9 -102 V
9 -102 V
10 1020 V
9 -102 V
9 -102 V
9 -102 V
10 -102 V
9 -102 V
9 -102 V
9 -102 V
10 -102 V
9 1020 V
9 -102 V
9 -102 V
10 -102 V
9 -102 V
9 -102 V
10 1021 V
9 -103 V
9 -102 V
9 -102 V
10 -102 V
9 -102 V
9 -102 V
9 -102 V
10 -102 V
9 -102 V
9 -102 V
9 1021 V
10 -103 V
9 -102 V
9 -102 V
9 -102 V
10 -102 V
9 -102 V
9 -102 V
10 -102 V
9 -102 V
9 -102 V
9 -102 V
10 -102 V
9 -102 V
9 -102 V
9 -102 V
10 1020 V
9 -102 V
9 -102 V
9 -102 V
10 -102 V
9 -102 V
9 -102 V
10 -102 V
9 -102 V
9 -102 V
9 -102 V
10 -102 V
9 -102 V
9 1020 V
9 -102 V
10 -102 V
9 -102 V
9 -102 V
9 -102 V
10 -102 V
9 -102 V
9 -102 V
9 -102 V
10 1020 V
9 -102 V
9 -102 V
10 -102 V
9 -102 V
9 -102 V
9 -102 V
10 -102 V
9 -102 V
9 -102 V
9 -102 V
10 1020 V
9 -102 V
9 -102 V
stroke 5761 1810 M
9 -102 V
10 -102 V
9 -102 V
9 -102 V
9 -102 V
10 -102 V
9 -102 V
9 1020 V
10 -102 V
9 -102 V
9 -102 V
9 -102 V
10 -102 V
9 -102 V
9 -102 V
9 -102 V
10 -102 V
9 -102 V
9 -102 V
9 -102 V
10 1020 V
9 -102 V
9 -102 V
10 -102 V
9 -102 V
9 -102 V
9 -102 V
10 -102 V
9 -102 V
9 -102 V
9 -102 V
10 1020 V
9 -102 V
9 -102 V
9 -102 V
10 -102 V
9 -102 V
9 -102 V
9 -102 V
10 1020 V
9 -102 V
9 -102 V
10 -102 V
9 1021 V
9 -102 V
9 -102 V
10 -102 V
9 -103 V
9 1021 V
9 -102 V
10 0 V
9 -102 V
9 -102 V
9 -102 V
10 -102 V
9 -102 V
9 -102 V
10 -102 V
9 -102 V
9 -103 V
9 -102 V
10 -102 V
9 -102 V
9 -102 V
9 -102 V
10 -102 V
9 -102 V
9 -102 V
9 -102 V
10 -102 V
9 -102 V
9 -102 V
9 -102 V
10 -102 V
9 -102 V
9 -102 V
462 1810 Box
471 1708 Box
481 1606 Box
490 1504 Box
499 1402 Box
508 1300 Box
518 1198 Box
527 1096 Box
536 994 Box
545 892 Box
555 1912 Box
564 1810 Box
573 1708 Box
582 1606 Box
592 1504 Box
601 1402 Box
610 1300 Box
619 1198 Box
629 1096 Box
638 994 Box
647 892 Box
657 1912 Box
666 1810 Box
675 1708 Box
684 1606 Box
694 1504 Box
703 1402 Box
712 1300 Box
721 1198 Box
731 1096 Box
740 994 Box
749 2014 Box
758 1912 Box
768 1810 Box
777 1708 Box
786 1606 Box
796 1504 Box
805 1402 Box
814 1300 Box
823 1198 Box
833 1096 Box
842 994 Box
851 892 Box
860 1912 Box
870 1810 Box
879 1708 Box
888 1606 Box
897 1504 Box
907 1402 Box
916 1300 Box
925 1198 Box
934 1096 Box
944 994 Box
953 2014 Box
962 1912 Box
972 1810 Box
981 1708 Box
990 1606 Box
999 1504 Box
1009 1402 Box
1018 1300 Box
1027 1198 Box
1036 1096 Box
1046 994 Box
1055 892 Box
1064 790 Box
1073 1810 Box
1083 1708 Box
1092 1606 Box
1101 1504 Box
1111 1402 Box
1120 1300 Box
1129 1198 Box
1138 1096 Box
1148 2116 Box
1157 2014 Box
1166 1912 Box
1175 1810 Box
1185 1708 Box
1194 1606 Box
1203 2627 Box
1212 2524 Box
1222 2422 Box
1231 2320 Box
1240 2218 Box
1249 2116 Box
1259 2014 Box
1268 3035 Box
1277 2933 Box
1287 2831 Box
1296 2729 Box
1305 2627 Box
1314 2524 Box
1324 2422 Box
1333 2320 Box
1342 2218 Box
1351 2116 Box
1361 2014 Box
1370 1912 Box
1379 1810 Box
1388 2831 Box
1398 2729 Box
1407 2627 Box
1416 2524 Box
1425 2422 Box
1435 2320 Box
1444 2218 Box
1453 2116 Box
1463 2014 Box
1472 1912 Box
1481 2933 Box
1490 2831 Box
1500 2729 Box
1509 2627 Box
1518 2524 Box
1527 2422 Box
1537 2320 Box
1546 2218 Box
1555 2116 Box
1564 2014 Box
1574 1912 Box
1583 2933 Box
1592 2831 Box
1602 2729 Box
1611 2627 Box
1620 2524 Box
1629 2422 Box
1639 2320 Box
1648 2218 Box
1657 2116 Box
1666 2014 Box
1676 1912 Box
1685 2933 Box
1694 2831 Box
1703 2729 Box
1713 2627 Box
1722 2524 Box
1731 2422 Box
1740 2320 Box
1750 2218 Box
1759 3239 Box
1768 3137 Box
1778 3035 Box
1787 2933 Box
1796 2831 Box
1805 2729 Box
1815 2627 Box
1824 2524 Box
1833 2422 Box
1842 2320 Box
1852 2218 Box
1861 3239 Box
1870 3137 Box
1879 3035 Box
1889 2933 Box
1898 2831 Box
1907 2729 Box
1916 2627 Box
1926 2524 Box
1935 3545 Box
1944 3443 Box
1954 3341 Box
1963 3239 Box
1972 3137 Box
1981 3035 Box
1991 2933 Box
2000 2831 Box
2009 2729 Box
2018 2627 Box
2028 2524 Box
2037 2422 Box
2046 2320 Box
2055 3341 Box
2065 3239 Box
2074 3137 Box
2083 3035 Box
2093 2933 Box
2102 2831 Box
2111 2729 Box
2120 2627 Box
2130 2524 Box
2139 2422 Box
2148 2320 Box
2157 2218 Box
2167 3239 Box
2176 3137 Box
2185 3035 Box
2194 2933 Box
2204 2831 Box
2213 2729 Box
2222 2627 Box
2231 2524 Box
2241 3545 Box
2250 3443 Box
2259 3341 Box
2269 3239 Box
2278 3137 Box
2287 3035 Box
2296 2933 Box
2306 2831 Box
2315 2729 Box
2324 2627 Box
2333 2524 Box
2343 2422 Box
2352 2320 Box
2361 3341 Box
2370 3239 Box
2380 3137 Box
2389 3035 Box
2398 2933 Box
2408 2831 Box
2417 2729 Box
2426 2627 Box
2435 2524 Box
2445 2422 Box
2454 2320 Box
2463 3341 Box
2472 3239 Box
2482 3137 Box
2491 3035 Box
2500 2933 Box
2509 2831 Box
2519 2729 Box
2528 3749 Box
2537 3647 Box
2546 3545 Box
2556 3443 Box
2565 3341 Box
2574 3239 Box
2584 3137 Box
2593 3035 Box
2602 2933 Box
2611 2831 Box
2621 2729 Box
2630 2627 Box
2639 2524 Box
2648 2422 Box
2658 2320 Box
2667 2218 Box
2676 3239 Box
2685 3137 Box
2695 3035 Box
2704 2933 Box
2713 2831 Box
2722 2729 Box
2732 2627 Box
2741 2524 Box
2750 2422 Box
2760 2320 Box
2769 2218 Box
2778 2116 Box
2787 3137 Box
2797 3035 Box
2806 2933 Box
2815 2831 Box
2824 2729 Box
2834 2627 Box
2843 2524 Box
2852 2422 Box
2861 2320 Box
2871 2218 Box
2880 3239 Box
2889 3137 Box
2899 3035 Box
2908 2933 Box
2917 2831 Box
2926 2729 Box
2936 2627 Box
2945 2524 Box
2954 2422 Box
2963 2320 Box
2973 2218 Box
2982 2116 Box
2991 2014 Box
3000 1912 Box
3010 1810 Box
3019 1708 Box
3028 1606 Box
3037 2627 Box
3047 2524 Box
3056 2422 Box
3065 2320 Box
3075 2218 Box
3084 2116 Box
3093 2014 Box
3102 1912 Box
3112 1810 Box
3121 1708 Box
3130 1606 Box
3139 1504 Box
3149 2524 Box
3158 2422 Box
3167 2320 Box
3176 2218 Box
3186 2116 Box
3195 2014 Box
3204 1912 Box
3213 1810 Box
3223 1708 Box
3232 1606 Box
3241 2627 Box
3251 2524 Box
3260 2422 Box
3269 2320 Box
3278 2218 Box
3288 2116 Box
3297 2014 Box
3306 1912 Box
3315 1810 Box
3325 1708 Box
3334 1606 Box
3343 1504 Box
3352 1402 Box
3362 1300 Box
3371 1198 Box
3380 1096 Box
3390 994 Box
3399 2014 Box
3408 1912 Box
3417 1810 Box
3427 1708 Box
3436 1606 Box
3445 1504 Box
3454 1402 Box
3464 1300 Box
3473 1198 Box
3482 1096 Box
3491 994 Box
3501 892 Box
3510 790 Box
3519 1810 Box
3528 1708 Box
3538 1606 Box
3547 1504 Box
3556 1402 Box
3566 1300 Box
3575 1198 Box
3584 1096 Box
3593 994 Box
3603 2014 Box
3612 1912 Box
3621 1810 Box
3630 1708 Box
3640 1606 Box
3649 1504 Box
3658 1402 Box
3667 1300 Box
3677 1198 Box
3686 1096 Box
3695 2116 Box
3705 2014 Box
3714 1912 Box
3723 1810 Box
3732 1708 Box
3742 1606 Box
3751 1504 Box
3760 1402 Box
3769 1300 Box
3779 1198 Box
3788 1096 Box
3797 994 Box
3806 892 Box
3816 1912 Box
3825 1810 Box
3834 1708 Box
3843 1606 Box
3853 1504 Box
3862 1402 Box
3871 1300 Box
3881 1198 Box
3890 1096 Box
3899 994 Box
3908 2014 Box
3918 1912 Box
3927 1810 Box
3936 1708 Box
3945 1606 Box
3955 1504 Box
3964 1402 Box
3973 1300 Box
3982 1198 Box
3992 1096 Box
4001 2116 Box
4010 2014 Box
4019 1912 Box
4029 1810 Box
4038 1708 Box
4047 1606 Box
4057 1504 Box
4066 1402 Box
4075 1300 Box
4084 1198 Box
4094 1096 Box
4103 994 Box
4112 2014 Box
4121 1912 Box
4131 1810 Box
4140 1708 Box
4149 1606 Box
4158 1504 Box
4168 2524 Box
4177 2422 Box
4186 2320 Box
4196 2218 Box
4205 2116 Box
4214 2014 Box
4223 1912 Box
4233 1810 Box
4242 1708 Box
4251 2729 Box
4260 2627 Box
4270 2524 Box
4279 2422 Box
4288 2320 Box
4297 2218 Box
4307 2116 Box
4316 3137 Box
4325 3035 Box
4334 2933 Box
4344 2831 Box
4353 2729 Box
4362 2627 Box
4372 2524 Box
4381 2422 Box
4390 2320 Box
4399 2218 Box
4409 3239 Box
4418 3137 Box
4427 3035 Box
4436 2933 Box
4446 2831 Box
4455 2729 Box
4464 2627 Box
4473 2524 Box
4483 2422 Box
4492 2320 Box
4501 2218 Box
4510 2116 Box
4520 2014 Box
4529 1912 Box
4538 1810 Box
4548 1708 Box
4557 1606 Box
4566 1504 Box
4575 1402 Box
4585 1300 Box
4594 2320 Box
4603 2218 Box
4612 2116 Box
4622 2014 Box
4631 1912 Box
4640 1810 Box
4649 1708 Box
4659 1606 Box
4668 1504 Box
4677 1402 Box
4687 1300 Box
4696 1198 Box
4705 1096 Box
4714 994 Box
4724 892 Box
4733 1912 Box
4742 1810 Box
4751 1708 Box
4761 1606 Box
4770 1504 Box
4779 1402 Box
4788 1300 Box
4798 1198 Box
4807 1096 Box
4816 994 Box
4825 2014 Box
4835 1912 Box
4844 1810 Box
4853 1708 Box
4863 1606 Box
4872 1504 Box
4881 1402 Box
4890 1300 Box
4900 2320 Box
4909 2218 Box
4918 2116 Box
4927 2014 Box
4937 1912 Box
4946 1810 Box
4955 1708 Box
4964 1606 Box
4974 1504 Box
4983 1402 Box
4992 1300 Box
5002 1198 Box
5011 1096 Box
5020 994 Box
5029 892 Box
5039 1912 Box
5048 1810 Box
5057 1708 Box
5066 1606 Box
5076 1504 Box
5085 1402 Box
5094 1300 Box
5103 1198 Box
5113 1096 Box
5122 2116 Box
5131 2014 Box
5140 1912 Box
5150 1810 Box
5159 1708 Box
5168 1606 Box
5178 2627 Box
5187 2524 Box
5196 2422 Box
5205 2320 Box
5215 2218 Box
5224 2116 Box
5233 2014 Box
5242 1912 Box
5252 1810 Box
5261 1708 Box
5270 1606 Box
5279 2627 Box
5289 2524 Box
5298 2422 Box
5307 2320 Box
5316 2218 Box
5326 2116 Box
5335 2014 Box
5344 1912 Box
5354 1810 Box
5363 1708 Box
5372 1606 Box
5381 1504 Box
5391 1402 Box
5400 1300 Box
5409 1198 Box
5418 1096 Box
5428 2116 Box
5437 2014 Box
5446 1912 Box
5455 1810 Box
5465 1708 Box
5474 1606 Box
5483 1504 Box
5493 1402 Box
5502 1300 Box
5511 1198 Box
5520 1096 Box
5530 994 Box
5539 892 Box
5548 1912 Box
5557 1810 Box
5567 1708 Box
5576 1606 Box
5585 1504 Box
5594 1402 Box
5604 1300 Box
5613 1198 Box
5622 1096 Box
5631 994 Box
5641 2014 Box
5650 1912 Box
5659 1810 Box
5669 1708 Box
5678 1606 Box
5687 1504 Box
5696 1402 Box
5706 1300 Box
5715 1198 Box
5724 1096 Box
5733 994 Box
5743 2014 Box
5752 1912 Box
5761 1810 Box
5770 1708 Box
5780 1606 Box
5789 1504 Box
5798 1402 Box
5807 1300 Box
5817 1198 Box
5826 1096 Box
5835 2116 Box
5845 2014 Box
5854 1912 Box
5863 1810 Box
5872 1708 Box
5882 1606 Box
5891 1504 Box
5900 1402 Box
5909 1300 Box
5919 1198 Box
5928 1096 Box
5937 994 Box
5946 892 Box
5956 1912 Box
5965 1810 Box
5974 1708 Box
5984 1606 Box
5993 1504 Box
6002 1402 Box
6011 1300 Box
6021 1198 Box
6030 1096 Box
6039 994 Box
6048 892 Box
6058 1912 Box
6067 1810 Box
6076 1708 Box
6085 1606 Box
6095 1504 Box
6104 1402 Box
6113 1300 Box
6122 1198 Box
6132 2218 Box
6141 2116 Box
6150 2014 Box
6160 1912 Box
6169 2933 Box
6178 2831 Box
6187 2729 Box
6197 2627 Box
6206 2524 Box
6215 3545 Box
6224 3443 Box
6234 3443 Box
6243 3341 Box
6252 3239 Box
6261 3137 Box
6271 3035 Box
6280 2933 Box
6289 2831 Box
6299 2729 Box
6308 2627 Box
6317 2524 Box
6326 2422 Box
6336 2320 Box
6345 2218 Box
6354 2116 Box
6363 2014 Box
6373 1912 Box
6382 1810 Box
6391 1708 Box
6400 1606 Box
6410 1504 Box
6419 1402 Box
6428 1300 Box
6437 1198 Box
6447 1096 Box
6456 994 Box
6465 892 Box
6579 4318 Box
% End plot #4
2.000 UL
LTb
LCb setrgbcolor
1.000 UL
LTB
LCb setrgbcolor
462 4871 N
462 280 L
6485 0 V
0 4591 V
-6485 0 V
Z stroke
1.000 UP
1.000 UL
LTb
LCb setrgbcolor
stroke
grestore
end
showpage
%%Trailer
%%DocumentFonts: Helvetica
