%!PS-Adobe-2.0 EPSF-2.0
%%Title: chartSS15.eps
%%Creator: gnuplot 5.0 patchlevel 5
%%CreationDate: Fri Mar 31 16:25:04 2017
%%DocumentFonts: (atend)
%%BoundingBox: 50 50 410 302
%%EndComments
%%BeginProlog
/gnudict 256 dict def
gnudict begin
%
% The following true/false flags may be edited by hand if desired.
% The unit line width and grayscale image gamma correction may also be changed.
%
/Color true def
/Blacktext false def
/Solid false def
/Dashlength 1 def
/Landscape false def
/Level1 false def
/Level3 false def
/Rounded false def
/ClipToBoundingBox false def
/SuppressPDFMark false def
/TransparentPatterns false def
/gnulinewidth 5.000 def
/userlinewidth gnulinewidth def
/Gamma 1.0 def
/BackgroundColor {-1.000 -1.000 -1.000} def
%
/vshift -46 def
/dl1 {
  10.0 Dashlength userlinewidth gnulinewidth div mul mul mul
  Rounded { currentlinewidth 0.75 mul sub dup 0 le { pop 0.01 } if } if
} def
/dl2 {
  10.0 Dashlength userlinewidth gnulinewidth div mul mul mul
  Rounded { currentlinewidth 0.75 mul add } if
} def
/hpt_ 31.5 def
/vpt_ 31.5 def
/hpt hpt_ def
/vpt vpt_ def
/doclip {
  ClipToBoundingBox {
    newpath 50 50 moveto 410 50 lineto 410 302 lineto 50 302 lineto closepath
    clip
  } if
} def
%
% Gnuplot Prolog Version 5.1 (Oct 2015)
%
%/SuppressPDFMark true def
%
/M {moveto} bind def
/L {lineto} bind def
/R {rmoveto} bind def
/V {rlineto} bind def
/N {newpath moveto} bind def
/Z {closepath} bind def
/C {setrgbcolor} bind def
/f {rlineto fill} bind def
/g {setgray} bind def
/Gshow {show} def   % May be redefined later in the file to support UTF-8
/vpt2 vpt 2 mul def
/hpt2 hpt 2 mul def
/Lshow {currentpoint stroke M 0 vshift R 
	Blacktext {gsave 0 setgray textshow grestore} {textshow} ifelse} def
/Rshow {currentpoint stroke M dup stringwidth pop neg vshift R
	Blacktext {gsave 0 setgray textshow grestore} {textshow} ifelse} def
/Cshow {currentpoint stroke M dup stringwidth pop -2 div vshift R 
	Blacktext {gsave 0 setgray textshow grestore} {textshow} ifelse} def
/UP {dup vpt_ mul /vpt exch def hpt_ mul /hpt exch def
  /hpt2 hpt 2 mul def /vpt2 vpt 2 mul def} def
/DL {Color {setrgbcolor Solid {pop []} if 0 setdash}
 {pop pop pop 0 setgray Solid {pop []} if 0 setdash} ifelse} def
/BL {stroke userlinewidth 2 mul setlinewidth
	Rounded {1 setlinejoin 1 setlinecap} if} def
/AL {stroke userlinewidth 2 div setlinewidth
	Rounded {1 setlinejoin 1 setlinecap} if} def
/UL {dup gnulinewidth mul /userlinewidth exch def
	dup 1 lt {pop 1} if 10 mul /udl exch def} def
/PL {stroke userlinewidth setlinewidth
	Rounded {1 setlinejoin 1 setlinecap} if} def
3.8 setmiterlimit
% Classic Line colors (version 5.0)
/LCw {1 1 1} def
/LCb {0 0 0} def
/LCa {0 0 0} def
/LC0 {1 0 0} def
/LC1 {0 1 0} def
/LC2 {0 0 1} def
/LC3 {1 0 1} def
/LC4 {0 1 1} def
/LC5 {1 1 0} def
/LC6 {0 0 0} def
/LC7 {1 0.3 0} def
/LC8 {0.5 0.5 0.5} def
% Default dash patterns (version 5.0)
/LTB {BL [] LCb DL} def
/LTw {PL [] 1 setgray} def
/LTb {PL [] LCb DL} def
/LTa {AL [1 udl mul 2 udl mul] 0 setdash LCa setrgbcolor} def
/LT0 {PL [] LC0 DL} def
/LT1 {PL [2 dl1 3 dl2] LC1 DL} def
/LT2 {PL [1 dl1 1.5 dl2] LC2 DL} def
/LT3 {PL [6 dl1 2 dl2 1 dl1 2 dl2] LC3 DL} def
/LT4 {PL [1 dl1 2 dl2 6 dl1 2 dl2 1 dl1 2 dl2] LC4 DL} def
/LT5 {PL [4 dl1 2 dl2] LC5 DL} def
/LT6 {PL [1.5 dl1 1.5 dl2 1.5 dl1 1.5 dl2 1.5 dl1 6 dl2] LC6 DL} def
/LT7 {PL [3 dl1 3 dl2 1 dl1 3 dl2] LC7 DL} def
/LT8 {PL [2 dl1 2 dl2 2 dl1 6 dl2] LC8 DL} def
/SL {[] 0 setdash} def
/Pnt {stroke [] 0 setdash gsave 1 setlinecap M 0 0 V stroke grestore} def
/Dia {stroke [] 0 setdash 2 copy vpt add M
  hpt neg vpt neg V hpt vpt neg V
  hpt vpt V hpt neg vpt V closepath stroke
  Pnt} def
/Pls {stroke [] 0 setdash vpt sub M 0 vpt2 V
  currentpoint stroke M
  hpt neg vpt neg R hpt2 0 V stroke
 } def
/Box {stroke [] 0 setdash 2 copy exch hpt sub exch vpt add M
  0 vpt2 neg V hpt2 0 V 0 vpt2 V
  hpt2 neg 0 V closepath stroke
  Pnt} def
/Crs {stroke [] 0 setdash exch hpt sub exch vpt add M
  hpt2 vpt2 neg V currentpoint stroke M
  hpt2 neg 0 R hpt2 vpt2 V stroke} def
/TriU {stroke [] 0 setdash 2 copy vpt 1.12 mul add M
  hpt neg vpt -1.62 mul V
  hpt 2 mul 0 V
  hpt neg vpt 1.62 mul V closepath stroke
  Pnt} def
/Star {2 copy Pls Crs} def
/BoxF {stroke [] 0 setdash exch hpt sub exch vpt add M
  0 vpt2 neg V hpt2 0 V 0 vpt2 V
  hpt2 neg 0 V closepath fill} def
/TriUF {stroke [] 0 setdash vpt 1.12 mul add M
  hpt neg vpt -1.62 mul V
  hpt 2 mul 0 V
  hpt neg vpt 1.62 mul V closepath fill} def
/TriD {stroke [] 0 setdash 2 copy vpt 1.12 mul sub M
  hpt neg vpt 1.62 mul V
  hpt 2 mul 0 V
  hpt neg vpt -1.62 mul V closepath stroke
  Pnt} def
/TriDF {stroke [] 0 setdash vpt 1.12 mul sub M
  hpt neg vpt 1.62 mul V
  hpt 2 mul 0 V
  hpt neg vpt -1.62 mul V closepath fill} def
/DiaF {stroke [] 0 setdash vpt add M
  hpt neg vpt neg V hpt vpt neg V
  hpt vpt V hpt neg vpt V closepath fill} def
/Pent {stroke [] 0 setdash 2 copy gsave
  translate 0 hpt M 4 {72 rotate 0 hpt L} repeat
  closepath stroke grestore Pnt} def
/PentF {stroke [] 0 setdash gsave
  translate 0 hpt M 4 {72 rotate 0 hpt L} repeat
  closepath fill grestore} def
/Circle {stroke [] 0 setdash 2 copy
  hpt 0 360 arc stroke Pnt} def
/CircleF {stroke [] 0 setdash hpt 0 360 arc fill} def
/C0 {BL [] 0 setdash 2 copy moveto vpt 90 450 arc} bind def
/C1 {BL [] 0 setdash 2 copy moveto
	2 copy vpt 0 90 arc closepath fill
	vpt 0 360 arc closepath} bind def
/C2 {BL [] 0 setdash 2 copy moveto
	2 copy vpt 90 180 arc closepath fill
	vpt 0 360 arc closepath} bind def
/C3 {BL [] 0 setdash 2 copy moveto
	2 copy vpt 0 180 arc closepath fill
	vpt 0 360 arc closepath} bind def
/C4 {BL [] 0 setdash 2 copy moveto
	2 copy vpt 180 270 arc closepath fill
	vpt 0 360 arc closepath} bind def
/C5 {BL [] 0 setdash 2 copy moveto
	2 copy vpt 0 90 arc
	2 copy moveto
	2 copy vpt 180 270 arc closepath fill
	vpt 0 360 arc} bind def
/C6 {BL [] 0 setdash 2 copy moveto
	2 copy vpt 90 270 arc closepath fill
	vpt 0 360 arc closepath} bind def
/C7 {BL [] 0 setdash 2 copy moveto
	2 copy vpt 0 270 arc closepath fill
	vpt 0 360 arc closepath} bind def
/C8 {BL [] 0 setdash 2 copy moveto
	2 copy vpt 270 360 arc closepath fill
	vpt 0 360 arc closepath} bind def
/C9 {BL [] 0 setdash 2 copy moveto
	2 copy vpt 270 450 arc closepath fill
	vpt 0 360 arc closepath} bind def
/C10 {BL [] 0 setdash 2 copy 2 copy moveto vpt 270 360 arc closepath fill
	2 copy moveto
	2 copy vpt 90 180 arc closepath fill
	vpt 0 360 arc closepath} bind def
/C11 {BL [] 0 setdash 2 copy moveto
	2 copy vpt 0 180 arc closepath fill
	2 copy moveto
	2 copy vpt 270 360 arc closepath fill
	vpt 0 360 arc closepath} bind def
/C12 {BL [] 0 setdash 2 copy moveto
	2 copy vpt 180 360 arc closepath fill
	vpt 0 360 arc closepath} bind def
/C13 {BL [] 0 setdash 2 copy moveto
	2 copy vpt 0 90 arc closepath fill
	2 copy moveto
	2 copy vpt 180 360 arc closepath fill
	vpt 0 360 arc closepath} bind def
/C14 {BL [] 0 setdash 2 copy moveto
	2 copy vpt 90 360 arc closepath fill
	vpt 0 360 arc} bind def
/C15 {BL [] 0 setdash 2 copy vpt 0 360 arc closepath fill
	vpt 0 360 arc closepath} bind def
/Rec {newpath 4 2 roll moveto 1 index 0 rlineto 0 exch rlineto
	neg 0 rlineto closepath} bind def
/Square {dup Rec} bind def
/Bsquare {vpt sub exch vpt sub exch vpt2 Square} bind def
/S0 {BL [] 0 setdash 2 copy moveto 0 vpt rlineto BL Bsquare} bind def
/S1 {BL [] 0 setdash 2 copy vpt Square fill Bsquare} bind def
/S2 {BL [] 0 setdash 2 copy exch vpt sub exch vpt Square fill Bsquare} bind def
/S3 {BL [] 0 setdash 2 copy exch vpt sub exch vpt2 vpt Rec fill Bsquare} bind def
/S4 {BL [] 0 setdash 2 copy exch vpt sub exch vpt sub vpt Square fill Bsquare} bind def
/S5 {BL [] 0 setdash 2 copy 2 copy vpt Square fill
	exch vpt sub exch vpt sub vpt Square fill Bsquare} bind def
/S6 {BL [] 0 setdash 2 copy exch vpt sub exch vpt sub vpt vpt2 Rec fill Bsquare} bind def
/S7 {BL [] 0 setdash 2 copy exch vpt sub exch vpt sub vpt vpt2 Rec fill
	2 copy vpt Square fill Bsquare} bind def
/S8 {BL [] 0 setdash 2 copy vpt sub vpt Square fill Bsquare} bind def
/S9 {BL [] 0 setdash 2 copy vpt sub vpt vpt2 Rec fill Bsquare} bind def
/S10 {BL [] 0 setdash 2 copy vpt sub vpt Square fill 2 copy exch vpt sub exch vpt Square fill
	Bsquare} bind def
/S11 {BL [] 0 setdash 2 copy vpt sub vpt Square fill 2 copy exch vpt sub exch vpt2 vpt Rec fill
	Bsquare} bind def
/S12 {BL [] 0 setdash 2 copy exch vpt sub exch vpt sub vpt2 vpt Rec fill Bsquare} bind def
/S13 {BL [] 0 setdash 2 copy exch vpt sub exch vpt sub vpt2 vpt Rec fill
	2 copy vpt Square fill Bsquare} bind def
/S14 {BL [] 0 setdash 2 copy exch vpt sub exch vpt sub vpt2 vpt Rec fill
	2 copy exch vpt sub exch vpt Square fill Bsquare} bind def
/S15 {BL [] 0 setdash 2 copy Bsquare fill Bsquare} bind def
/D0 {gsave translate 45 rotate 0 0 S0 stroke grestore} bind def
/D1 {gsave translate 45 rotate 0 0 S1 stroke grestore} bind def
/D2 {gsave translate 45 rotate 0 0 S2 stroke grestore} bind def
/D3 {gsave translate 45 rotate 0 0 S3 stroke grestore} bind def
/D4 {gsave translate 45 rotate 0 0 S4 stroke grestore} bind def
/D5 {gsave translate 45 rotate 0 0 S5 stroke grestore} bind def
/D6 {gsave translate 45 rotate 0 0 S6 stroke grestore} bind def
/D7 {gsave translate 45 rotate 0 0 S7 stroke grestore} bind def
/D8 {gsave translate 45 rotate 0 0 S8 stroke grestore} bind def
/D9 {gsave translate 45 rotate 0 0 S9 stroke grestore} bind def
/D10 {gsave translate 45 rotate 0 0 S10 stroke grestore} bind def
/D11 {gsave translate 45 rotate 0 0 S11 stroke grestore} bind def
/D12 {gsave translate 45 rotate 0 0 S12 stroke grestore} bind def
/D13 {gsave translate 45 rotate 0 0 S13 stroke grestore} bind def
/D14 {gsave translate 45 rotate 0 0 S14 stroke grestore} bind def
/D15 {gsave translate 45 rotate 0 0 S15 stroke grestore} bind def
/DiaE {stroke [] 0 setdash vpt add M
  hpt neg vpt neg V hpt vpt neg V
  hpt vpt V hpt neg vpt V closepath stroke} def
/BoxE {stroke [] 0 setdash exch hpt sub exch vpt add M
  0 vpt2 neg V hpt2 0 V 0 vpt2 V
  hpt2 neg 0 V closepath stroke} def
/TriUE {stroke [] 0 setdash vpt 1.12 mul add M
  hpt neg vpt -1.62 mul V
  hpt 2 mul 0 V
  hpt neg vpt 1.62 mul V closepath stroke} def
/TriDE {stroke [] 0 setdash vpt 1.12 mul sub M
  hpt neg vpt 1.62 mul V
  hpt 2 mul 0 V
  hpt neg vpt -1.62 mul V closepath stroke} def
/PentE {stroke [] 0 setdash gsave
  translate 0 hpt M 4 {72 rotate 0 hpt L} repeat
  closepath stroke grestore} def
/CircE {stroke [] 0 setdash 
  hpt 0 360 arc stroke} def
/Opaque {gsave closepath 1 setgray fill grestore 0 setgray closepath} def
/DiaW {stroke [] 0 setdash vpt add M
  hpt neg vpt neg V hpt vpt neg V
  hpt vpt V hpt neg vpt V Opaque stroke} def
/BoxW {stroke [] 0 setdash exch hpt sub exch vpt add M
  0 vpt2 neg V hpt2 0 V 0 vpt2 V
  hpt2 neg 0 V Opaque stroke} def
/TriUW {stroke [] 0 setdash vpt 1.12 mul add M
  hpt neg vpt -1.62 mul V
  hpt 2 mul 0 V
  hpt neg vpt 1.62 mul V Opaque stroke} def
/TriDW {stroke [] 0 setdash vpt 1.12 mul sub M
  hpt neg vpt 1.62 mul V
  hpt 2 mul 0 V
  hpt neg vpt -1.62 mul V Opaque stroke} def
/PentW {stroke [] 0 setdash gsave
  translate 0 hpt M 4 {72 rotate 0 hpt L} repeat
  Opaque stroke grestore} def
/CircW {stroke [] 0 setdash 
  hpt 0 360 arc Opaque stroke} def
/BoxFill {gsave Rec 1 setgray fill grestore} def
/Density {
  /Fillden exch def
  currentrgbcolor
  /ColB exch def /ColG exch def /ColR exch def
  /ColR ColR Fillden mul Fillden sub 1 add def
  /ColG ColG Fillden mul Fillden sub 1 add def
  /ColB ColB Fillden mul Fillden sub 1 add def
  ColR ColG ColB setrgbcolor} def
/BoxColFill {gsave Rec PolyFill} def
/PolyFill {gsave Density fill grestore grestore} def
/h {rlineto rlineto rlineto gsave closepath fill grestore} bind def
%
% PostScript Level 1 Pattern Fill routine for rectangles
% Usage: x y w h s a XX PatternFill
%	x,y = lower left corner of box to be filled
%	w,h = width and height of box
%	  a = angle in degrees between lines and x-axis
%	 XX = 0/1 for no/yes cross-hatch
%
/PatternFill {gsave /PFa [ 9 2 roll ] def
  PFa 0 get PFa 2 get 2 div add PFa 1 get PFa 3 get 2 div add translate
  PFa 2 get -2 div PFa 3 get -2 div PFa 2 get PFa 3 get Rec
  TransparentPatterns {} {gsave 1 setgray fill grestore} ifelse
  clip
  currentlinewidth 0.5 mul setlinewidth
  /PFs PFa 2 get dup mul PFa 3 get dup mul add sqrt def
  0 0 M PFa 5 get rotate PFs -2 div dup translate
  0 1 PFs PFa 4 get div 1 add floor cvi
	{PFa 4 get mul 0 M 0 PFs V} for
  0 PFa 6 get ne {
	0 1 PFs PFa 4 get div 1 add floor cvi
	{PFa 4 get mul 0 2 1 roll M PFs 0 V} for
 } if
  stroke grestore} def
%
/languagelevel where
 {pop languagelevel} {1} ifelse
dup 2 lt
	{/InterpretLevel1 true def
	 /InterpretLevel3 false def}
	{/InterpretLevel1 Level1 def
	 2 gt
	    {/InterpretLevel3 Level3 def}
	    {/InterpretLevel3 false def}
	 ifelse }
 ifelse
%
% PostScript level 2 pattern fill definitions
%
/Level2PatternFill {
/Tile8x8 {/PaintType 2 /PatternType 1 /TilingType 1 /BBox [0 0 8 8] /XStep 8 /YStep 8}
	bind def
/KeepColor {currentrgbcolor [/Pattern /DeviceRGB] setcolorspace} bind def
<< Tile8x8
 /PaintProc {0.5 setlinewidth pop 0 0 M 8 8 L 0 8 M 8 0 L stroke} 
>> matrix makepattern
/Pat1 exch def
<< Tile8x8
 /PaintProc {0.5 setlinewidth pop 0 0 M 8 8 L 0 8 M 8 0 L stroke
	0 4 M 4 8 L 8 4 L 4 0 L 0 4 L stroke}
>> matrix makepattern
/Pat2 exch def
<< Tile8x8
 /PaintProc {0.5 setlinewidth pop 0 0 M 0 8 L
	8 8 L 8 0 L 0 0 L fill}
>> matrix makepattern
/Pat3 exch def
<< Tile8x8
 /PaintProc {0.5 setlinewidth pop -4 8 M 8 -4 L
	0 12 M 12 0 L stroke}
>> matrix makepattern
/Pat4 exch def
<< Tile8x8
 /PaintProc {0.5 setlinewidth pop -4 0 M 8 12 L
	0 -4 M 12 8 L stroke}
>> matrix makepattern
/Pat5 exch def
<< Tile8x8
 /PaintProc {0.5 setlinewidth pop -2 8 M 4 -4 L
	0 12 M 8 -4 L 4 12 M 10 0 L stroke}
>> matrix makepattern
/Pat6 exch def
<< Tile8x8
 /PaintProc {0.5 setlinewidth pop -2 0 M 4 12 L
	0 -4 M 8 12 L 4 -4 M 10 8 L stroke}
>> matrix makepattern
/Pat7 exch def
<< Tile8x8
 /PaintProc {0.5 setlinewidth pop 8 -2 M -4 4 L
	12 0 M -4 8 L 12 4 M 0 10 L stroke}
>> matrix makepattern
/Pat8 exch def
<< Tile8x8
 /PaintProc {0.5 setlinewidth pop 0 -2 M 12 4 L
	-4 0 M 12 8 L -4 4 M 8 10 L stroke}
>> matrix makepattern
/Pat9 exch def
/Pattern1 {PatternBgnd KeepColor Pat1 setpattern} bind def
/Pattern2 {PatternBgnd KeepColor Pat2 setpattern} bind def
/Pattern3 {PatternBgnd KeepColor Pat3 setpattern} bind def
/Pattern4 {PatternBgnd KeepColor Landscape {Pat5} {Pat4} ifelse setpattern} bind def
/Pattern5 {PatternBgnd KeepColor Landscape {Pat4} {Pat5} ifelse setpattern} bind def
/Pattern6 {PatternBgnd KeepColor Landscape {Pat9} {Pat6} ifelse setpattern} bind def
/Pattern7 {PatternBgnd KeepColor Landscape {Pat8} {Pat7} ifelse setpattern} bind def
} def
%
%
%End of PostScript Level 2 code
%
/PatternBgnd {
  TransparentPatterns {} {gsave 1 setgray fill grestore} ifelse
} def
%
% Substitute for Level 2 pattern fill codes with
% grayscale if Level 2 support is not selected.
%
/Level1PatternFill {
/Pattern1 {0.250 Density} bind def
/Pattern2 {0.500 Density} bind def
/Pattern3 {0.750 Density} bind def
/Pattern4 {0.125 Density} bind def
/Pattern5 {0.375 Density} bind def
/Pattern6 {0.625 Density} bind def
/Pattern7 {0.875 Density} bind def
} def
%
% Now test for support of Level 2 code
%
Level1 {Level1PatternFill} {Level2PatternFill} ifelse
%
/Symbol-Oblique /Symbol findfont [1 0 .167 1 0 0] makefont
dup length dict begin {1 index /FID eq {pop pop} {def} ifelse} forall
currentdict end definefont pop
%
/MFshow {
   { dup 5 get 3 ge
     { 5 get 3 eq {gsave} {grestore} ifelse }
     {dup dup 0 get findfont exch 1 get scalefont setfont
     [ currentpoint ] exch dup 2 get 0 exch R dup 5 get 2 ne {dup dup 6
     get exch 4 get {textshow} {stringwidth pop 0 R} ifelse }if dup 5 get 0 eq
     {dup 3 get {2 get neg 0 exch R pop} {pop aload pop M} ifelse} {dup 5
     get 1 eq {dup 2 get exch dup 3 get exch 6 get stringwidth pop -2 div
     dup 0 R} {dup 6 get stringwidth pop -2 div 0 R 6 get
     textshow 2 index {aload pop M neg 3 -1 roll neg R pop pop} {pop pop pop
     pop aload pop M} ifelse }ifelse }ifelse }
     ifelse }
   forall} def
/Gswidth {dup type /stringtype eq {stringwidth} {pop (n) stringwidth} ifelse} def
/MFwidth {0 exch { dup 5 get 3 ge { 5 get 3 eq { 0 } { pop } ifelse }
 {dup 3 get{dup dup 0 get findfont exch 1 get scalefont setfont
     6 get Gswidth pop add} {pop} ifelse} ifelse} forall} def
/MLshow { currentpoint stroke M
  0 exch R
  Blacktext {gsave 0 setgray MFshow grestore} {MFshow} ifelse } bind def
/MRshow { currentpoint stroke M
  exch dup MFwidth neg 3 -1 roll R
  Blacktext {gsave 0 setgray MFshow grestore} {MFshow} ifelse } bind def
/MCshow { currentpoint stroke M
  exch dup MFwidth -2 div 3 -1 roll R
  Blacktext {gsave 0 setgray MFshow grestore} {MFshow} ifelse } bind def
/XYsave    { [( ) 1 2 true false 3 ()] } bind def
/XYrestore { [( ) 1 2 true false 4 ()] } bind def
Level1 SuppressPDFMark or 
{} {
/SDict 10 dict def
systemdict /pdfmark known not {
  userdict /pdfmark systemdict /cleartomark get put
} if
SDict begin [
  /Title (chartSS15.eps)
  /Subject (gnuplot plot)
  /Creator (gnuplot 5.0 patchlevel 5)
  /Author (steve)
%  /Producer (gnuplot)
%  /Keywords ()
  /CreationDate (Fri Mar 31 16:25:04 2017)
  /DOCINFO pdfmark
end
} ifelse
%
% Support for boxed text - Ethan A Merritt May 2005
%
/InitTextBox { userdict /TBy2 3 -1 roll put userdict /TBx2 3 -1 roll put
           userdict /TBy1 3 -1 roll put userdict /TBx1 3 -1 roll put
	   /Boxing true def } def
/ExtendTextBox { Boxing
    { gsave dup false charpath pathbbox
      dup TBy2 gt {userdict /TBy2 3 -1 roll put} {pop} ifelse
      dup TBx2 gt {userdict /TBx2 3 -1 roll put} {pop} ifelse
      dup TBy1 lt {userdict /TBy1 3 -1 roll put} {pop} ifelse
      dup TBx1 lt {userdict /TBx1 3 -1 roll put} {pop} ifelse
      grestore } if } def
/PopTextBox { newpath TBx1 TBxmargin sub TBy1 TBymargin sub M
               TBx1 TBxmargin sub TBy2 TBymargin add L
	       TBx2 TBxmargin add TBy2 TBymargin add L
	       TBx2 TBxmargin add TBy1 TBymargin sub L closepath } def
/DrawTextBox { PopTextBox stroke /Boxing false def} def
/FillTextBox { gsave PopTextBox 1 1 1 setrgbcolor fill grestore /Boxing false def} def
0 0 0 0 InitTextBox
/TBxmargin 20 def
/TBymargin 20 def
/Boxing false def
/textshow { ExtendTextBox Gshow } def
%
% redundant definitions for compatibility with prologue.ps older than 5.0.2
/LTB {BL [] LCb DL} def
/LTb {PL [] LCb DL} def
end
%%EndProlog
%%Page: 1 1
gnudict begin
gsave
doclip
50 50 translate
0.050 0.050 scale
0 setgray
newpath
(Helvetica) findfont 140 scalefont setfont
BackgroundColor 0 lt 3 1 roll 0 lt exch 0 lt or or not {BackgroundColor C 1.000 0 0 7200.00 5040.00 BoxColFill} if
1.000 UL
LTb
LCb setrgbcolor
462 280 M
63 0 V
6422 0 R
-63 0 V
stroke
378 280 M
[ [(Helvetica) 140.0 0.0 true true 0 (-5)]
] -46.7 MRshow
1.000 UL
LTb
LCb setrgbcolor
462 739 M
63 0 V
6422 0 R
-63 0 V
stroke
378 739 M
[ [(Helvetica) 140.0 0.0 true true 0 ( 0)]
] -46.7 MRshow
1.000 UL
LTb
LCb setrgbcolor
462 1198 M
63 0 V
6422 0 R
-63 0 V
stroke
378 1198 M
[ [(Helvetica) 140.0 0.0 true true 0 ( 5)]
] -46.7 MRshow
1.000 UL
LTb
LCb setrgbcolor
462 1657 M
63 0 V
6422 0 R
-63 0 V
stroke
378 1657 M
[ [(Helvetica) 140.0 0.0 true true 0 ( 10)]
] -46.7 MRshow
1.000 UL
LTb
LCb setrgbcolor
462 2116 M
63 0 V
6422 0 R
-63 0 V
stroke
378 2116 M
[ [(Helvetica) 140.0 0.0 true true 0 ( 15)]
] -46.7 MRshow
1.000 UL
LTb
LCb setrgbcolor
462 2576 M
63 0 V
6422 0 R
-63 0 V
stroke
378 2576 M
[ [(Helvetica) 140.0 0.0 true true 0 ( 20)]
] -46.7 MRshow
1.000 UL
LTb
LCb setrgbcolor
462 3035 M
63 0 V
6422 0 R
-63 0 V
stroke
378 3035 M
[ [(Helvetica) 140.0 0.0 true true 0 ( 25)]
] -46.7 MRshow
1.000 UL
LTb
LCb setrgbcolor
462 3494 M
63 0 V
6422 0 R
-63 0 V
stroke
378 3494 M
[ [(Helvetica) 140.0 0.0 true true 0 ( 30)]
] -46.7 MRshow
1.000 UL
LTb
LCb setrgbcolor
462 3953 M
63 0 V
6422 0 R
-63 0 V
stroke
378 3953 M
[ [(Helvetica) 140.0 0.0 true true 0 ( 35)]
] -46.7 MRshow
1.000 UL
LTb
LCb setrgbcolor
462 4412 M
63 0 V
6422 0 R
-63 0 V
stroke
378 4412 M
[ [(Helvetica) 140.0 0.0 true true 0 ( 40)]
] -46.7 MRshow
1.000 UL
LTb
LCb setrgbcolor
462 4871 M
63 0 V
6422 0 R
-63 0 V
stroke
378 4871 M
[ [(Helvetica) 140.0 0.0 true true 0 ( 45)]
] -46.7 MRshow
1.000 UL
LTb
LCb setrgbcolor
462 280 M
0 63 V
0 4528 R
0 -63 V
stroke
462 140 M
[ [(Helvetica) 140.0 0.0 true true 0 ( 0)]
] -46.7 MCshow
1.000 UL
LTb
LCb setrgbcolor
1388 280 M
0 63 V
0 4528 R
0 -63 V
stroke
1388 140 M
[ [(Helvetica) 140.0 0.0 true true 0 ( 100)]
] -46.7 MCshow
1.000 UL
LTb
LCb setrgbcolor
2315 280 M
0 63 V
0 4528 R
0 -63 V
stroke
2315 140 M
[ [(Helvetica) 140.0 0.0 true true 0 ( 200)]
] -46.7 MCshow
1.000 UL
LTb
LCb setrgbcolor
3241 280 M
0 63 V
0 4528 R
0 -63 V
stroke
3241 140 M
[ [(Helvetica) 140.0 0.0 true true 0 ( 300)]
] -46.7 MCshow
1.000 UL
LTb
LCb setrgbcolor
4168 280 M
0 63 V
0 4528 R
0 -63 V
stroke
4168 140 M
[ [(Helvetica) 140.0 0.0 true true 0 ( 400)]
] -46.7 MCshow
1.000 UL
LTb
LCb setrgbcolor
5094 280 M
0 63 V
0 4528 R
0 -63 V
stroke
5094 140 M
[ [(Helvetica) 140.0 0.0 true true 0 ( 500)]
] -46.7 MCshow
1.000 UL
LTb
LCb setrgbcolor
6021 280 M
0 63 V
0 4528 R
0 -63 V
stroke
6021 140 M
[ [(Helvetica) 140.0 0.0 true true 0 ( 600)]
] -46.7 MCshow
1.000 UL
LTb
LCb setrgbcolor
6947 280 M
0 63 V
0 4528 R
0 -63 V
stroke
6947 140 M
[ [(Helvetica) 140.0 0.0 true true 0 ( 700)]
] -46.7 MCshow
1.000 UL
LTb
LCb setrgbcolor
1.000 UL
LTB
LCb setrgbcolor
462 4871 N
462 280 L
6485 0 V
0 4591 V
-6485 0 V
Z stroke
1.000 UP
1.000 UL
LTb
LCb setrgbcolor
% Begin plot #1
1.000 UL
LTb
0.58 0.00 0.83 C LCb setrgbcolor
6296 4738 M
[ [(Helvetica) 140.0 0.0 true true 0 (original)]
] -46.7 MRshow
1.000 UL
LTb
0.58 0.00 0.83 C 6380 4738 M
399 0 V
462 739 M
9 918 V
10 0 V
9 0 V
9 0 V
9 0 V
10 0 V
9 0 V
9 0 V
9 0 V
10 0 V
9 0 V
9 0 V
9 0 V
10 0 V
9 0 V
9 0 V
9 0 V
10 0 V
9 0 V
9 0 V
10 0 V
9 0 V
9 0 V
9 0 V
10 0 V
9 0 V
9 0 V
9 0 V
10 0 V
9 0 V
9 0 V
9 0 V
10 0 V
9 0 V
9 0 V
10 0 V
9 0 V
9 0 V
9 0 V
10 0 V
9 0 V
9 0 V
9 0 V
10 0 V
9 0 V
9 0 V
9 0 V
10 0 V
9 0 V
9 92 V
9 0 V
10 0 V
9 0 V
9 0 V
10 0 V
9 0 V
9 0 V
9 0 V
10 0 V
9 0 V
9 0 V
9 0 V
10 0 V
9 0 V
9 0 V
9 0 V
10 0 V
9 0 V
9 0 V
10 0 V
9 0 V
9 0 V
9 0 V
10 0 V
9 0 V
9 0 V
9 0 V
10 0 V
9 0 V
9 0 V
9 0 V
10 0 V
9 0 V
9 0 V
9 0 V
10 0 V
9 0 V
9 0 V
10 0 V
9 0 V
9 0 V
9 0 V
10 0 V
9 0 V
9 0 V
9 0 V
10 0 V
9 0 V
9 0 V
9 0 V
10 0 V
9 0 V
stroke 1407 1749 M
9 0 V
9 0 V
10 0 V
9 0 V
9 0 V
10 0 V
9 0 V
9 0 V
9 0 V
10 0 V
9 0 V
9 0 V
9 0 V
10 0 V
9 0 V
9 0 V
9 0 V
10 0 V
9 0 V
9 0 V
10 0 V
9 0 V
9 0 V
9 0 V
10 0 V
9 0 V
9 0 V
9 0 V
10 0 V
9 0 V
9 0 V
9 0 V
10 0 V
9 0 V
9 0 V
9 0 V
10 0 V
9 0 V
9 0 V
10 0 V
9 0 V
9 0 V
9 0 V
10 0 V
9 0 V
9 0 V
9 0 V
10 0 V
9 0 V
9 0 V
9 0 V
10 0 V
9 0 V
9 0 V
9 0 V
10 0 V
9 0 V
9 0 V
10 0 V
9 0 V
9 0 V
9 0 V
10 0 V
9 0 V
9 0 V
9 0 V
10 0 V
9 0 V
9 0 V
9 0 V
10 0 V
9 0 V
9 0 V
10 0 V
9 0 V
9 0 V
9 0 V
10 0 V
9 0 V
9 0 V
9 0 V
10 0 V
9 0 V
9 0 V
9 0 V
10 0 V
9 0 V
9 0 V
9 0 V
10 0 V
9 0 V
9 0 V
10 0 V
9 0 V
9 0 V
9 0 V
10 0 V
9 0 V
9 0 V
9 0 V
10 0 V
9 0 V
9 0 V
9 0 V
stroke 2370 1749 M
10 0 V
9 0 V
9 0 V
10 0 V
9 0 V
9 0 V
9 0 V
10 0 V
9 0 V
9 0 V
9 0 V
10 0 V
9 0 V
9 0 V
9 0 V
10 0 V
9 0 V
9 0 V
9 0 V
10 0 V
9 0 V
9 0 V
10 0 V
9 0 V
9 0 V
9 0 V
10 0 V
9 0 V
9 0 V
9 0 V
10 0 V
9 0 V
9 0 V
9 0 V
10 0 V
9 0 V
9 0 V
9 0 V
10 0 V
9 0 V
9 0 V
10 0 V
9 0 V
9 0 V
9 0 V
10 0 V
9 0 V
9 0 V
9 0 V
10 0 V
9 0 V
9 0 V
9 0 V
10 0 V
9 0 V
9 0 V
10 0 V
9 0 V
9 0 V
9 0 V
10 0 V
9 0 V
9 0 V
9 0 V
10 0 V
9 0 V
9 0 V
9 0 V
10 0 V
9 0 V
9 0 V
9 0 V
10 0 V
9 0 V
9 0 V
10 0 V
9 0 V
9 0 V
9 0 V
10 0 V
9 0 V
9 0 V
9 0 V
10 0 V
9 0 V
9 0 V
9 0 V
10 0 V
9 0 V
9 0 V
9 0 V
10 0 V
9 0 V
9 0 V
10 0 V
9 0 V
9 0 V
9 0 V
10 0 V
9 0 V
9 0 V
9 0 V
10 0 V
9 0 V
stroke 3334 1749 M
9 0 V
9 0 V
10 0 V
9 0 V
9 0 V
10 0 V
9 0 V
9 0 V
9 0 V
10 0 V
9 0 V
9 0 V
9 0 V
10 0 V
9 0 V
9 0 V
9 0 V
10 0 V
9 0 V
9 0 V
9 0 V
10 0 V
9 0 V
9 0 V
10 0 V
9 0 V
9 0 V
9 0 V
10 0 V
9 0 V
9 0 V
9 0 V
10 0 V
9 0 V
9 0 V
9 0 V
10 0 V
9 0 V
9 0 V
10 0 V
9 0 V
9 0 V
9 0 V
10 0 V
9 0 V
9 0 V
9 0 V
10 0 V
9 0 V
9 0 V
9 0 V
10 0 V
9 0 V
9 0 V
9 0 V
10 0 V
9 0 V
9 0 V
10 0 V
9 0 V
9 0 V
9 0 V
10 0 V
9 0 V
9 0 V
9 0 V
10 0 V
9 0 V
9 0 V
9 0 V
10 0 V
9 0 V
9 0 V
9 0 V
10 0 V
9 0 V
9 0 V
10 0 V
9 0 V
9 0 V
9 0 V
10 0 V
9 0 V
9 0 V
9 0 V
10 0 V
9 0 V
9 0 V
9 0 V
10 0 V
9 0 V
9 0 V
10 0 V
9 0 V
9 0 V
9 0 V
10 0 V
9 0 V
9 0 V
9 0 V
10 0 V
9 0 V
9 0 V
9 0 V
stroke 4297 1749 M
10 0 V
9 0 V
9 0 V
9 0 V
10 0 V
9 0 V
9 0 V
10 0 V
9 0 V
9 0 V
9 0 V
10 0 V
9 0 V
9 0 V
9 0 V
10 0 V
9 0 V
9 0 V
9 0 V
10 0 V
9 0 V
9 0 V
9 0 V
10 0 V
9 0 V
9 0 V
10 0 V
9 0 V
9 0 V
9 0 V
10 0 V
9 0 V
9 0 V
9 0 V
10 0 V
9 0 V
9 0 V
9 0 V
10 0 V
9 0 V
9 0 V
10 0 V
9 0 V
9 0 V
9 0 V
10 0 V
9 0 V
9 0 V
9 0 V
10 0 V
9 0 V
9 0 V
9 0 V
10 0 V
9 0 V
9 0 V
9 0 V
10 0 V
9 0 V
9 0 V
10 0 V
9 0 V
9 0 V
9 0 V
10 0 V
9 0 V
9 0 V
9 0 V
10 0 V
9 0 V
9 0 V
9 0 V
10 0 V
9 0 V
9 0 V
10 0 V
9 0 V
9 0 V
9 0 V
10 0 V
9 0 V
9 0 V
9 0 V
10 0 V
9 0 V
9 0 V
9 0 V
10 0 V
9 0 V
9 0 V
9 0 V
10 0 V
9 0 V
9 0 V
10 0 V
9 0 V
9 0 V
9 0 V
10 0 V
9 0 V
9 0 V
9 0 V
10 0 V
9 0 V
stroke 5261 1749 M
9 0 V
9 0 V
10 0 V
9 0 V
9 0 V
9 0 V
10 0 V
9 0 V
9 0 V
10 0 V
9 0 V
9 0 V
9 0 V
10 0 V
9 0 V
9 0 V
9 0 V
10 0 V
9 0 V
9 0 V
9 0 V
10 0 V
9 0 V
9 0 V
10 0 V
9 0 V
9 0 V
9 0 V
10 0 V
9 0 V
9 0 V
9 0 V
10 0 V
9 0 V
9 0 V
9 0 V
10 0 V
9 0 V
9 0 V
9 0 V
10 0 V
9 0 V
9 0 V
10 0 V
9 0 V
9 0 V
9 0 V
10 0 V
9 0 V
9 0 V
9 0 V
10 0 V
9 0 V
9 0 V
9 0 V
10 0 V
9 0 V
9 0 V
9 0 V
10 0 V
9 0 V
9 0 V
10 0 V
9 0 V
9 0 V
9 0 V
10 0 V
9 0 V
9 0 V
9 0 V
10 0 V
9 0 V
9 0 V
9 0 V
10 0 V
9 0 V
9 0 V
10 0 V
9 0 V
9 0 V
9 0 V
10 0 V
9 0 V
9 0 V
9 0 V
10 0 V
9 0 V
9 0 V
9 0 V
10 0 V
9 0 V
9 0 V
9 0 V
10 0 V
9 0 V
9 0 V
10 0 V
9 0 V
9 0 V
9 0 V
10 0 V
9 0 V
9 0 V
9 0 V
stroke 6224 1749 M
10 0 V
9 0 V
9 0 V
9 0 V
10 0 V
9 0 V
9 0 V
10 0 V
9 0 V
9 0 V
9 0 V
10 0 V
9 0 V
9 0 V
9 0 V
10 0 V
9 0 V
9 0 V
% End plot #1
% Begin plot #2
1.000 UP
stroke
LTb
0.00 0.62 0.45 C LCb setrgbcolor
6296 4598 M
[ [(Helvetica) 140.0 0.0 true true 0 (oracolo)]
] -46.7 MRshow
1.000 UP
1.000 UL
LTb
0.00 0.62 0.45 C 6380 4598 M
399 0 V
462 739 M
9 0 V
10 0 V
9 0 V
9 0 V
9 0 V
10 0 V
9 0 V
9 0 V
9 0 V
10 0 V
9 0 V
9 0 V
9 0 V
10 0 V
9 0 V
9 1377 V
9 0 V
10 0 V
9 0 V
9 0 V
10 0 V
9 0 V
9 0 V
9 0 V
10 0 V
9 0 V
9 0 V
9 0 V
10 0 V
9 0 V
9 0 V
9 92 V
10 0 V
9 0 V
9 0 V
10 0 V
9 0 V
9 0 V
9 0 V
10 0 V
9 0 V
9 0 V
9 0 V
10 0 V
9 0 V
9 0 V
9 0 V
10 92 V
9 0 V
9 0 V
9 0 V
10 0 V
9 0 V
9 0 V
10 0 V
9 0 V
9 0 V
9 0 V
10 0 V
9 0 V
9 0 V
9 0 V
1046 647 L
9 1837 V
9 0 V
9 0 V
10 0 V
9 0 V
9 0 V
10 0 V
9 0 V
9 0 V
9 0 V
10 0 V
9 0 V
9 0 V
9 0 V
10 0 V
9 0 V
9 -92 V
9 0 V
10 0 V
9 0 V
9 0 V
9 0 V
10 0 V
9 0 V
9 0 V
10 0 V
9 0 V
9 0 V
9 0 V
10 0 V
9 0 V
9 0 V
9 92 V
10 0 V
9 0 V
9 0 V
9 0 V
10 0 V
9 0 V
9 0 V
9 0 V
10 0 V
9 0 V
9 0 V
10 0 V
9 0 V
9 0 V
9 0 V
10 -92 V
9 0 V
9 0 V
9 0 V
10 0 V
9 0 V
9 0 V
9 0 V
10 0 V
9 0 V
9 0 V
10 0 V
9 0 V
9 0 V
9 0 V
10 0 V
9 -92 V
9 0 V
9 0 V
10 0 V
9 0 V
9 0 V
9 0 V
10 0 V
9 0 V
9 0 V
9 0 V
10 0 V
9 0 V
9 0 V
10 0 V
9 0 V
9 92 V
9 0 V
10 0 V
9 0 V
9 0 V
9 0 V
10 0 V
9 0 V
9 0 V
9 0 V
10 0 V
9 0 V
9 0 V
9 0 V
10 0 V
9 0 V
9 92 V
10 0 V
9 0 V
9 0 V
9 0 V
10 0 V
9 0 V
9 0 V
stroke 2009 2484 M
9 0 V
10 0 V
9 0 V
9 0 V
9 0 V
10 0 V
9 0 V
9 0 V
10 0 V
9 0 V
9 0 V
9 0 V
10 0 V
9 0 V
9 0 V
9 0 V
10 0 V
9 0 V
9 0 V
9 0 V
10 0 V
9 0 V
9 0 V
9 0 V
10 0 V
9 0 V
9 0 V
10 0 V
9 0 V
9 0 V
9 0 V
10 0 V
9 0 V
9 0 V
9 0 V
10 0 V
9 0 V
9 0 V
9 0 V
10 0 V
9 0 V
9 0 V
10 0 V
9 0 V
9 0 V
9 0 V
10 0 V
9 0 V
9 0 V
9 0 V
10 0 V
9 0 V
9 0 V
9 0 V
10 0 V
9 0 V
9 0 V
9 0 V
10 0 V
9 0 V
9 0 V
10 0 V
9 0 V
9 0 V
9 0 V
10 0 V
9 0 V
9 0 V
9 0 V
10 0 V
9 0 V
9 0 V
9 0 V
10 0 V
9 0 V
9 0 V
9 0 V
10 0 V
9 0 V
9 0 V
10 0 V
9 0 V
9 0 V
9 0 V
10 0 V
9 0 V
9 0 V
9 0 V
10 0 V
9 0 V
9 0 V
9 0 V
10 0 V
9 0 V
9 0 V
10 0 V
9 0 V
9 0 V
9 0 V
10 0 V
9 0 V
9 0 V
9 0 V
10 0 V
stroke 2973 2484 M
9 0 V
9 0 V
9 0 V
10 0 V
9 0 V
9 0 V
9 0 V
10 0 V
9 0 V
9 0 V
10 0 V
9 0 V
9 0 V
9 0 V
10 0 V
9 0 V
9 0 V
9 0 V
10 0 V
9 0 V
9 0 V
9 0 V
10 0 V
9 0 V
9 0 V
9 0 V
10 0 V
9 0 V
9 0 V
10 0 V
9 0 V
9 0 V
9 -184 V
10 0 V
9 0 V
9 0 V
9 0 V
10 0 V
9 0 V
9 0 V
9 0 V
10 0 V
9 0 V
9 0 V
10 0 V
9 0 V
9 0 V
9 0 V
10 -92 V
9 0 V
9 0 V
9 0 V
10 0 V
9 0 V
9 0 V
9 0 V
10 0 V
9 0 V
9 0 V
9 0 V
10 0 V
9 0 V
9 0 V
3566 647 L
9 1745 V
9 0 V
9 0 V
10 0 V
9 0 V
9 0 V
9 0 V
10 0 V
9 0 V
9 0 V
9 0 V
10 0 V
9 0 V
9 0 V
10 0 V
9 0 V
9 -276 V
9 0 V
10 0 V
9 0 V
9 0 V
9 0 V
10 0 V
9 0 V
9 0 V
9 0 V
10 0 V
9 0 V
9 0 V
9 0 V
10 0 V
9 0 V
9 0 V
10 0 V
9 0 V
9 0 V
9 0 V
10 0 V
9 0 V
9 0 V
9 0 V
10 0 V
9 0 V
9 0 V
9 0 V
10 0 V
9 0 V
9 0 V
9 368 V
10 0 V
9 0 V
9 0 V
10 0 V
9 0 V
9 0 V
9 0 V
10 0 V
9 0 V
9 0 V
9 0 V
10 0 V
9 0 V
9 0 V
9 0 V
10 0 V
9 0 V
9 0 V
10 0 V
9 0 V
9 0 V
9 0 V
10 0 V
9 0 V
9 0 V
9 0 V
10 0 V
9 0 V
9 0 V
9 0 V
10 0 V
9 -184 V
9 0 V
9 0 V
10 0 V
9 0 V
9 0 V
10 0 V
9 0 V
9 0 V
9 0 V
10 0 V
9 0 V
9 0 V
9 0 V
10 0 V
9 0 V
9 92 V
9 0 V
10 0 V
9 0 V
9 0 V
9 0 V
10 0 V
9 0 V
stroke 4529 2392 M
9 0 V
10 0 V
9 0 V
9 0 V
9 0 V
10 0 V
9 0 V
9 0 V
9 92 V
10 0 V
9 0 V
9 0 V
9 0 V
10 0 V
9 0 V
9 0 V
10 0 V
9 0 V
9 0 V
9 0 V
10 0 V
9 0 V
9 0 V
9 0 V
10 0 V
9 0 V
9 0 V
9 0 V
10 0 V
9 0 V
9 0 V
9 0 V
10 0 V
9 0 V
9 0 V
10 0 V
9 0 V
9 0 V
9 0 V
10 0 V
9 0 V
9 0 V
9 0 V
10 0 V
9 0 V
9 0 V
9 0 V
10 0 V
9 0 V
9 0 V
10 0 V
9 0 V
9 0 V
9 0 V
10 0 V
9 0 V
9 0 V
9 0 V
10 0 V
9 0 V
9 0 V
9 0 V
10 0 V
9 0 V
9 0 V
9 0 V
10 0 V
9 0 V
9 0 V
10 0 V
9 0 V
9 0 V
9 0 V
10 0 V
9 0 V
9 0 V
9 0 V
10 0 V
9 0 V
9 0 V
9 0 V
10 0 V
9 0 V
9 0 V
9 0 V
10 0 V
9 0 V
9 0 V
10 -368 V
9 0 V
9 0 V
9 0 V
10 0 V
9 0 V
9 0 V
9 0 V
10 0 V
9 0 V
9 0 V
9 0 V
10 0 V
9 0 V
9 0 V
10 0 V
stroke 5493 2116 M
9 0 V
9 0 V
9 0 V
10 0 V
9 0 V
9 0 V
9 0 V
10 0 V
9 0 V
9 0 V
9 0 V
10 0 V
9 0 V
9 0 V
9 0 V
10 0 V
9 92 V
9 0 V
10 0 V
9 0 V
9 0 V
9 0 V
10 0 V
9 0 V
9 0 V
9 0 V
10 0 V
9 0 V
9 0 V
9 0 V
10 0 V
9 0 V
9 -92 V
9 0 V
10 0 V
9 0 V
9 0 V
10 0 V
9 0 V
9 0 V
9 0 V
10 0 V
9 0 V
9 0 V
9 0 V
10 0 V
9 0 V
9 0 V
9 0 V
10 276 V
9 0 V
9 0 V
10 0 V
9 0 V
9 0 V
9 0 V
10 0 V
9 0 V
9 0 V
9 0 V
10 0 V
9 0 V
9 0 V
9 0 V
10 0 V
9 -276 V
9 0 V
9 0 V
10 0 V
9 0 V
9 0 V
10 0 V
9 0 V
9 0 V
9 0 V
10 0 V
9 0 V
9 0 V
9 0 V
10 0 V
462 739 Crs
471 739 Crs
481 739 Crs
490 739 Crs
499 739 Crs
508 739 Crs
518 739 Crs
527 739 Crs
536 739 Crs
545 739 Crs
555 739 Crs
564 739 Crs
573 739 Crs
582 739 Crs
592 739 Crs
601 739 Crs
610 2116 Crs
619 2116 Crs
629 2116 Crs
638 2116 Crs
647 2116 Crs
657 2116 Crs
666 2116 Crs
675 2116 Crs
684 2116 Crs
694 2116 Crs
703 2116 Crs
712 2116 Crs
721 2116 Crs
731 2116 Crs
740 2116 Crs
749 2116 Crs
758 2208 Crs
768 2208 Crs
777 2208 Crs
786 2208 Crs
796 2208 Crs
805 2208 Crs
814 2208 Crs
823 2208 Crs
833 2208 Crs
842 2208 Crs
851 2208 Crs
860 2208 Crs
870 2208 Crs
879 2208 Crs
888 2208 Crs
897 2208 Crs
907 2300 Crs
916 2300 Crs
925 2300 Crs
934 2300 Crs
944 2300 Crs
953 2300 Crs
962 2300 Crs
972 2300 Crs
981 2300 Crs
990 2300 Crs
999 2300 Crs
1009 2300 Crs
1018 2300 Crs
1027 2300 Crs
1036 2300 Crs
1046 647 Crs
1055 2484 Crs
1064 2484 Crs
1073 2484 Crs
1083 2484 Crs
1092 2484 Crs
1101 2484 Crs
1111 2484 Crs
1120 2484 Crs
1129 2484 Crs
1138 2484 Crs
1148 2484 Crs
1157 2484 Crs
1166 2484 Crs
1175 2484 Crs
1185 2484 Crs
1194 2484 Crs
1203 2392 Crs
1212 2392 Crs
1222 2392 Crs
1231 2392 Crs
1240 2392 Crs
1249 2392 Crs
1259 2392 Crs
1268 2392 Crs
1277 2392 Crs
1287 2392 Crs
1296 2392 Crs
1305 2392 Crs
1314 2392 Crs
1324 2392 Crs
1333 2392 Crs
1342 2392 Crs
1351 2484 Crs
1361 2484 Crs
1370 2484 Crs
1379 2484 Crs
1388 2484 Crs
1398 2484 Crs
1407 2484 Crs
1416 2484 Crs
1425 2484 Crs
1435 2484 Crs
1444 2484 Crs
1453 2484 Crs
1463 2484 Crs
1472 2484 Crs
1481 2484 Crs
1490 2484 Crs
1500 2392 Crs
1509 2392 Crs
1518 2392 Crs
1527 2392 Crs
1537 2392 Crs
1546 2392 Crs
1555 2392 Crs
1564 2392 Crs
1574 2392 Crs
1583 2392 Crs
1592 2392 Crs
1602 2392 Crs
1611 2392 Crs
1620 2392 Crs
1629 2392 Crs
1639 2392 Crs
1648 2300 Crs
1657 2300 Crs
1666 2300 Crs
1676 2300 Crs
1685 2300 Crs
1694 2300 Crs
1703 2300 Crs
1713 2300 Crs
1722 2300 Crs
1731 2300 Crs
1740 2300 Crs
1750 2300 Crs
1759 2300 Crs
1768 2300 Crs
1778 2300 Crs
1787 2300 Crs
1796 2392 Crs
1805 2392 Crs
1815 2392 Crs
1824 2392 Crs
1833 2392 Crs
1842 2392 Crs
1852 2392 Crs
1861 2392 Crs
1870 2392 Crs
1879 2392 Crs
1889 2392 Crs
1898 2392 Crs
1907 2392 Crs
1916 2392 Crs
1926 2392 Crs
1935 2392 Crs
1944 2484 Crs
1954 2484 Crs
1963 2484 Crs
1972 2484 Crs
1981 2484 Crs
1991 2484 Crs
2000 2484 Crs
2009 2484 Crs
2018 2484 Crs
2028 2484 Crs
2037 2484 Crs
2046 2484 Crs
2055 2484 Crs
2065 2484 Crs
2074 2484 Crs
2083 2484 Crs
2093 2484 Crs
2102 2484 Crs
2111 2484 Crs
2120 2484 Crs
2130 2484 Crs
2139 2484 Crs
2148 2484 Crs
2157 2484 Crs
2167 2484 Crs
2176 2484 Crs
2185 2484 Crs
2194 2484 Crs
2204 2484 Crs
2213 2484 Crs
2222 2484 Crs
2231 2484 Crs
2241 2484 Crs
2250 2484 Crs
2259 2484 Crs
2269 2484 Crs
2278 2484 Crs
2287 2484 Crs
2296 2484 Crs
2306 2484 Crs
2315 2484 Crs
2324 2484 Crs
2333 2484 Crs
2343 2484 Crs
2352 2484 Crs
2361 2484 Crs
2370 2484 Crs
2380 2484 Crs
2389 2484 Crs
2398 2484 Crs
2408 2484 Crs
2417 2484 Crs
2426 2484 Crs
2435 2484 Crs
2445 2484 Crs
2454 2484 Crs
2463 2484 Crs
2472 2484 Crs
2482 2484 Crs
2491 2484 Crs
2500 2484 Crs
2509 2484 Crs
2519 2484 Crs
2528 2484 Crs
2537 2484 Crs
2546 2484 Crs
2556 2484 Crs
2565 2484 Crs
2574 2484 Crs
2584 2484 Crs
2593 2484 Crs
2602 2484 Crs
2611 2484 Crs
2621 2484 Crs
2630 2484 Crs
2639 2484 Crs
2648 2484 Crs
2658 2484 Crs
2667 2484 Crs
2676 2484 Crs
2685 2484 Crs
2695 2484 Crs
2704 2484 Crs
2713 2484 Crs
2722 2484 Crs
2732 2484 Crs
2741 2484 Crs
2750 2484 Crs
2760 2484 Crs
2769 2484 Crs
2778 2484 Crs
2787 2484 Crs
2797 2484 Crs
2806 2484 Crs
2815 2484 Crs
2824 2484 Crs
2834 2484 Crs
2843 2484 Crs
2852 2484 Crs
2861 2484 Crs
2871 2484 Crs
2880 2484 Crs
2889 2484 Crs
2899 2484 Crs
2908 2484 Crs
2917 2484 Crs
2926 2484 Crs
2936 2484 Crs
2945 2484 Crs
2954 2484 Crs
2963 2484 Crs
2973 2484 Crs
2982 2484 Crs
2991 2484 Crs
3000 2484 Crs
3010 2484 Crs
3019 2484 Crs
3028 2484 Crs
3037 2484 Crs
3047 2484 Crs
3056 2484 Crs
3065 2484 Crs
3075 2484 Crs
3084 2484 Crs
3093 2484 Crs
3102 2484 Crs
3112 2484 Crs
3121 2484 Crs
3130 2484 Crs
3139 2484 Crs
3149 2484 Crs
3158 2484 Crs
3167 2484 Crs
3176 2484 Crs
3186 2484 Crs
3195 2484 Crs
3204 2484 Crs
3213 2484 Crs
3223 2484 Crs
3232 2484 Crs
3241 2484 Crs
3251 2484 Crs
3260 2484 Crs
3269 2484 Crs
3278 2300 Crs
3288 2300 Crs
3297 2300 Crs
3306 2300 Crs
3315 2300 Crs
3325 2300 Crs
3334 2300 Crs
3343 2300 Crs
3352 2300 Crs
3362 2300 Crs
3371 2300 Crs
3380 2300 Crs
3390 2300 Crs
3399 2300 Crs
3408 2300 Crs
3417 2300 Crs
3427 2208 Crs
3436 2208 Crs
3445 2208 Crs
3454 2208 Crs
3464 2208 Crs
3473 2208 Crs
3482 2208 Crs
3491 2208 Crs
3501 2208 Crs
3510 2208 Crs
3519 2208 Crs
3528 2208 Crs
3538 2208 Crs
3547 2208 Crs
3556 2208 Crs
3566 647 Crs
3575 2392 Crs
3584 2392 Crs
3593 2392 Crs
3603 2392 Crs
3612 2392 Crs
3621 2392 Crs
3630 2392 Crs
3640 2392 Crs
3649 2392 Crs
3658 2392 Crs
3667 2392 Crs
3677 2392 Crs
3686 2392 Crs
3695 2392 Crs
3705 2392 Crs
3714 2392 Crs
3723 2116 Crs
3732 2116 Crs
3742 2116 Crs
3751 2116 Crs
3760 2116 Crs
3769 2116 Crs
3779 2116 Crs
3788 2116 Crs
3797 2116 Crs
3806 2116 Crs
3816 2116 Crs
3825 2116 Crs
3834 2116 Crs
3843 2116 Crs
3853 2116 Crs
3862 2116 Crs
3871 2116 Crs
3881 2116 Crs
3890 2116 Crs
3899 2116 Crs
3908 2116 Crs
3918 2116 Crs
3927 2116 Crs
3936 2116 Crs
3945 2116 Crs
3955 2116 Crs
3964 2116 Crs
3973 2116 Crs
3982 2116 Crs
3992 2116 Crs
4001 2116 Crs
4010 2116 Crs
4019 2484 Crs
4029 2484 Crs
4038 2484 Crs
4047 2484 Crs
4057 2484 Crs
4066 2484 Crs
4075 2484 Crs
4084 2484 Crs
4094 2484 Crs
4103 2484 Crs
4112 2484 Crs
4121 2484 Crs
4131 2484 Crs
4140 2484 Crs
4149 2484 Crs
4158 2484 Crs
4168 2484 Crs
4177 2484 Crs
4186 2484 Crs
4196 2484 Crs
4205 2484 Crs
4214 2484 Crs
4223 2484 Crs
4233 2484 Crs
4242 2484 Crs
4251 2484 Crs
4260 2484 Crs
4270 2484 Crs
4279 2484 Crs
4288 2484 Crs
4297 2484 Crs
4307 2484 Crs
4316 2300 Crs
4325 2300 Crs
4334 2300 Crs
4344 2300 Crs
4353 2300 Crs
4362 2300 Crs
4372 2300 Crs
4381 2300 Crs
4390 2300 Crs
4399 2300 Crs
4409 2300 Crs
4418 2300 Crs
4427 2300 Crs
4436 2300 Crs
4446 2300 Crs
4455 2300 Crs
4464 2392 Crs
4473 2392 Crs
4483 2392 Crs
4492 2392 Crs
4501 2392 Crs
4510 2392 Crs
4520 2392 Crs
4529 2392 Crs
4538 2392 Crs
4548 2392 Crs
4557 2392 Crs
4566 2392 Crs
4575 2392 Crs
4585 2392 Crs
4594 2392 Crs
4603 2392 Crs
4612 2484 Crs
4622 2484 Crs
4631 2484 Crs
4640 2484 Crs
4649 2484 Crs
4659 2484 Crs
4668 2484 Crs
4677 2484 Crs
4687 2484 Crs
4696 2484 Crs
4705 2484 Crs
4714 2484 Crs
4724 2484 Crs
4733 2484 Crs
4742 2484 Crs
4751 2484 Crs
4761 2484 Crs
4770 2484 Crs
4779 2484 Crs
4788 2484 Crs
4798 2484 Crs
4807 2484 Crs
4816 2484 Crs
4825 2484 Crs
4835 2484 Crs
4844 2484 Crs
4853 2484 Crs
4863 2484 Crs
4872 2484 Crs
4881 2484 Crs
4890 2484 Crs
4900 2484 Crs
4909 2484 Crs
4918 2484 Crs
4927 2484 Crs
4937 2484 Crs
4946 2484 Crs
4955 2484 Crs
4964 2484 Crs
4974 2484 Crs
4983 2484 Crs
4992 2484 Crs
5002 2484 Crs
5011 2484 Crs
5020 2484 Crs
5029 2484 Crs
5039 2484 Crs
5048 2484 Crs
5057 2484 Crs
5066 2484 Crs
5076 2484 Crs
5085 2484 Crs
5094 2484 Crs
5103 2484 Crs
5113 2484 Crs
5122 2484 Crs
5131 2484 Crs
5140 2484 Crs
5150 2484 Crs
5159 2484 Crs
5168 2484 Crs
5178 2484 Crs
5187 2484 Crs
5196 2484 Crs
5205 2484 Crs
5215 2484 Crs
5224 2484 Crs
5233 2484 Crs
5242 2484 Crs
5252 2484 Crs
5261 2484 Crs
5270 2484 Crs
5279 2484 Crs
5289 2484 Crs
5298 2484 Crs
5307 2484 Crs
5316 2484 Crs
5326 2484 Crs
5335 2484 Crs
5344 2484 Crs
5354 2116 Crs
5363 2116 Crs
5372 2116 Crs
5381 2116 Crs
5391 2116 Crs
5400 2116 Crs
5409 2116 Crs
5418 2116 Crs
5428 2116 Crs
5437 2116 Crs
5446 2116 Crs
5455 2116 Crs
5465 2116 Crs
5474 2116 Crs
5483 2116 Crs
5493 2116 Crs
5502 2116 Crs
5511 2116 Crs
5520 2116 Crs
5530 2116 Crs
5539 2116 Crs
5548 2116 Crs
5557 2116 Crs
5567 2116 Crs
5576 2116 Crs
5585 2116 Crs
5594 2116 Crs
5604 2116 Crs
5613 2116 Crs
5622 2116 Crs
5631 2116 Crs
5641 2116 Crs
5650 2208 Crs
5659 2208 Crs
5669 2208 Crs
5678 2208 Crs
5687 2208 Crs
5696 2208 Crs
5706 2208 Crs
5715 2208 Crs
5724 2208 Crs
5733 2208 Crs
5743 2208 Crs
5752 2208 Crs
5761 2208 Crs
5770 2208 Crs
5780 2208 Crs
5789 2208 Crs
5798 2116 Crs
5807 2116 Crs
5817 2116 Crs
5826 2116 Crs
5835 2116 Crs
5845 2116 Crs
5854 2116 Crs
5863 2116 Crs
5872 2116 Crs
5882 2116 Crs
5891 2116 Crs
5900 2116 Crs
5909 2116 Crs
5919 2116 Crs
5928 2116 Crs
5937 2116 Crs
5946 2116 Crs
5956 2392 Crs
5965 2392 Crs
5974 2392 Crs
5984 2392 Crs
5993 2392 Crs
6002 2392 Crs
6011 2392 Crs
6021 2392 Crs
6030 2392 Crs
6039 2392 Crs
6048 2392 Crs
6058 2392 Crs
6067 2392 Crs
6076 2392 Crs
6085 2392 Crs
6095 2392 Crs
6104 2116 Crs
6113 2116 Crs
6122 2116 Crs
6132 2116 Crs
6141 2116 Crs
6150 2116 Crs
6160 2116 Crs
6169 2116 Crs
6178 2116 Crs
6187 2116 Crs
6197 2116 Crs
6206 2116 Crs
6215 2116 Crs
6224 2116 Crs
6234 2116 Crs
6579 4598 Crs
% End plot #2
% Begin plot #3
1.000 UL
LTb
0.00 0.45 0.70 C LCb setrgbcolor
6296 4458 M
[ [(Helvetica) 140.0 0.0 true true 0 (original)]
] -46.7 MRshow
1.000 UL
LTb
0.00 0.45 0.70 C 6380 4458 M
399 0 V
462 739 M
9 1377 V
10 -91 V
9 1377 V
9 -92 V
9 -92 V
10 1378 V
9 -92 V
9 -92 V
9 -92 V
10 -92 V
9 -92 V
9 -91 V
9 -92 V
10 -92 V
9 -92 V
9 -92 V
9 -91 V
10 -92 V
9 -92 V
9 -92 V
10 1377 V
9 -91 V
9 -92 V
9 -92 V
10 -92 V
9 -92 V
9 -92 V
9 -91 V
10 -92 V
9 -92 V
9 -92 V
9 -92 V
10 -91 V
9 -92 V
9 -92 V
10 -92 V
9 1377 V
9 -91 V
9 -92 V
10 -92 V
9 -92 V
9 -92 V
9 -92 V
10 -91 V
9 -92 V
9 -92 V
9 -92 V
10 -92 V
9 -91 V
9 -92 V
9 -92 V
10 -92 V
9 1377 V
9 -91 V
10 -92 V
9 -92 V
9 -92 V
9 -92 V
10 -92 V
9 -91 V
9 -92 V
9 -92 V
10 -92 V
9 -92 V
9 -91 V
9 -92 V
10 -92 V
9 -92 V
9 1377 V
10 -91 V
9 -92 V
9 -92 V
9 -92 V
10 -92 V
9 -92 V
9 -91 V
9 -92 V
10 -92 V
9 -92 V
9 -92 V
9 -91 V
10 -92 V
9 -92 V
9 -92 V
9 1377 V
10 -91 V
9 -92 V
9 -92 V
10 -92 V
9 -92 V
9 -92 V
9 -91 V
10 -92 V
9 -92 V
9 -92 V
9 -92 V
10 -91 V
9 -92 V
9 -92 V
9 -92 V
10 -92 V
9 1378 V
stroke 1407 4596 M
9 -92 V
9 -92 V
10 -92 V
9 -92 V
9 -92 V
10 -91 V
9 -92 V
9 -92 V
9 -92 V
10 -92 V
9 -91 V
9 -92 V
9 -92 V
10 -92 V
9 1377 V
9 -91 V
9 -92 V
10 -92 V
9 -92 V
9 -92 V
10 -92 V
9 -91 V
9 -92 V
9 -92 V
10 -92 V
9 -92 V
9 -91 V
9 -92 V
10 -92 V
9 -92 V
9 1377 V
9 -91 V
10 -92 V
9 -92 V
9 -92 V
9 -92 V
10 -92 V
9 -91 V
9 -92 V
10 -92 V
9 -92 V
9 -92 V
9 -91 V
10 -92 V
9 -92 V
9 -92 V
9 1377 V
10 -91 V
9 -92 V
9 -92 V
9 -92 V
10 -92 V
9 -92 V
9 -91 V
9 -92 V
10 -92 V
9 -92 V
9 -92 V
10 -91 V
9 -92 V
9 -92 V
9 -92 V
10 1377 V
9 -91 V
9 -92 V
9 -92 V
10 -92 V
9 -92 V
9 -92 V
9 -91 V
10 -92 V
9 -92 V
9 -92 V
10 -92 V
9 -91 V
9 -92 V
9 -92 V
10 -92 V
9 1377 V
9 -91 V
9 -92 V
10 -92 V
9 -92 V
9 -92 V
9 -92 V
10 -91 V
9 -92 V
9 -92 V
9 -92 V
10 -92 V
9 -91 V
9 -92 V
10 -92 V
9 -92 V
9 1377 V
9 -91 V
10 -92 V
9 -92 V
9 -92 V
9 -92 V
10 -92 V
9 -91 V
9 -92 V
9 -92 V
stroke 2370 3861 M
10 -92 V
9 -92 V
9 -91 V
10 -92 V
9 -92 V
9 -92 V
9 1377 V
10 -91 V
9 -92 V
9 -92 V
9 -92 V
10 -92 V
9 -92 V
9 -91 V
9 -92 V
10 -92 V
9 -92 V
9 -92 V
9 -91 V
10 -92 V
9 -92 V
9 -92 V
10 1377 V
9 -91 V
9 -92 V
9 -92 V
10 -92 V
9 -92 V
9 -92 V
9 -91 V
10 -92 V
9 -92 V
9 -92 V
9 -92 V
10 -91 V
9 -92 V
9 -92 V
9 -92 V
10 1377 V
9 -91 V
9 -92 V
10 -92 V
9 -92 V
9 -92 V
9 -92 V
10 -91 V
9 -92 V
9 -92 V
9 -92 V
10 -92 V
9 -91 V
9 -92 V
9 -92 V
10 -92 V
9 -92 V
9 1378 V
10 -92 V
9 -92 V
9 -92 V
9 -92 V
10 -92 V
9 -91 V
9 -92 V
9 -92 V
10 -92 V
9 -92 V
9 -91 V
9 -92 V
10 -92 V
9 -92 V
9 1377 V
9 -91 V
10 -92 V
9 -92 V
9 -92 V
10 -92 V
9 -92 V
9 -91 V
9 -92 V
10 -92 V
9 -92 V
9 -92 V
9 -91 V
10 -92 V
9 -92 V
9 -92 V
9 1377 V
10 -91 V
9 -92 V
9 -92 V
9 -92 V
10 -92 V
9 -92 V
9 -91 V
10 -92 V
9 -92 V
9 -92 V
9 -92 V
10 -91 V
9 -92 V
9 -92 V
9 -92 V
10 1377 V
9 -91 V
stroke 3334 4596 M
9 -92 V
9 -92 V
10 -92 V
9 -92 V
9 -92 V
10 -91 V
9 -92 V
9 -92 V
9 -92 V
10 -92 V
9 -91 V
9 -92 V
9 -92 V
10 -92 V
9 1377 V
9 -91 V
9 -92 V
10 -92 V
9 -92 V
9 -92 V
9 -92 V
10 -91 V
9 -92 V
9 -92 V
10 -92 V
9 -92 V
9 -91 V
9 -92 V
10 -92 V
9 -92 V
9 -92 V
9 1378 V
10 -92 V
9 -92 V
9 -92 V
9 -92 V
10 -92 V
9 -91 V
9 -92 V
10 -92 V
9 -92 V
9 -92 V
9 -91 V
10 -92 V
9 -92 V
9 -92 V
9 1377 V
10 -91 V
9 -92 V
9 -92 V
9 -92 V
10 -92 V
9 -92 V
9 -91 V
9 -92 V
10 -92 V
9 -92 V
9 -92 V
10 -91 V
9 -92 V
9 -92 V
9 -92 V
10 1377 V
9 -91 V
9 -92 V
9 -92 V
10 -92 V
9 -92 V
9 -92 V
9 -91 V
10 -92 V
9 -92 V
9 -92 V
9 -92 V
10 -91 V
9 -92 V
9 -92 V
10 -92 V
9 1377 V
9 -91 V
9 -92 V
10 -92 V
9 -92 V
9 -92 V
9 -92 V
10 -91 V
9 -92 V
9 -92 V
9 -92 V
10 -92 V
9 -91 V
9 -92 V
10 -92 V
9 -92 V
9 1377 V
9 -91 V
10 -92 V
9 -92 V
9 -92 V
9 -92 V
10 -92 V
9 -91 V
9 -92 V
9 -92 V
stroke 4297 3861 M
10 -92 V
9 -92 V
9 -91 V
9 -92 V
10 -92 V
9 -92 V
9 -92 V
10 1378 V
9 -92 V
9 -92 V
9 -92 V
10 -92 V
9 -92 V
9 -91 V
9 -92 V
10 -92 V
9 -92 V
9 -92 V
9 -91 V
10 -92 V
9 -92 V
9 -92 V
9 1377 V
10 -91 V
9 -92 V
9 -92 V
10 -92 V
9 -92 V
9 -92 V
9 -91 V
10 -92 V
9 -92 V
9 -92 V
9 -92 V
10 -91 V
9 -92 V
9 -92 V
9 -92 V
10 1377 V
9 -91 V
9 -92 V
10 -92 V
9 -92 V
9 -92 V
9 -92 V
10 -91 V
9 -92 V
9 -92 V
9 -92 V
10 -92 V
9 -91 V
9 -92 V
9 -92 V
10 -92 V
9 1377 V
9 -91 V
9 -92 V
10 -92 V
9 -92 V
9 -92 V
10 -92 V
9 -91 V
9 -92 V
9 -92 V
10 -92 V
9 -92 V
9 -91 V
9 -92 V
10 -92 V
9 -92 V
9 1377 V
9 -91 V
10 -92 V
9 -92 V
9 -92 V
10 -92 V
9 -92 V
9 -91 V
9 -92 V
10 -92 V
9 -92 V
9 -92 V
9 -91 V
10 -92 V
9 -92 V
9 -92 V
9 -92 V
10 1378 V
9 -92 V
9 -92 V
9 -92 V
10 -92 V
9 -92 V
9 -91 V
10 -92 V
9 -92 V
9 -92 V
9 -92 V
10 -91 V
9 -92 V
9 -92 V
9 -92 V
10 -92 V
9 1378 V
stroke 5261 4596 M
9 -92 V
9 -92 V
10 -92 V
9 -92 V
9 -92 V
9 -91 V
10 -92 V
9 -92 V
9 -92 V
10 -92 V
9 -91 V
9 -92 V
9 -92 V
10 -92 V
9 -92 V
9 1378 V
9 -92 V
10 -92 V
9 -92 V
9 -92 V
9 -92 V
10 -91 V
9 -92 V
9 -92 V
10 -92 V
9 -92 V
9 -91 V
9 -92 V
10 -92 V
9 -92 V
9 -92 V
9 1378 V
10 -92 V
9 -92 V
9 -92 V
9 -92 V
10 -92 V
9 -91 V
9 -92 V
9 -92 V
10 -92 V
9 -92 V
9 -91 V
10 -92 V
9 -92 V
9 -92 V
9 -92 V
10 1378 V
9 -92 V
9 -92 V
9 -92 V
10 -92 V
9 -92 V
9 -91 V
9 -92 V
10 -92 V
9 -92 V
9 -92 V
9 -91 V
10 -92 V
9 -92 V
9 -92 V
10 1377 V
9 -91 V
9 -92 V
9 -92 V
10 -92 V
9 -92 V
9 -92 V
9 -91 V
10 -92 V
9 -92 V
9 -92 V
9 -92 V
10 -91 V
9 -92 V
9 -92 V
10 1377 V
9 -92 V
9 -91 V
9 -92 V
10 -92 V
9 -92 V
9 -92 V
9 -92 V
10 -91 V
9 -92 V
9 -92 V
9 -92 V
10 -92 V
9 -91 V
9 -92 V
9 -92 V
10 -92 V
9 0 V
9 -92 V
10 -92 V
9 -91 V
9 -92 V
9 -92 V
10 -92 V
9 -92 V
9 -91 V
9 -92 V
stroke 6224 2484 M
10 -92 V
9 -92 V
9 -92 V
9 -92 V
10 -91 V
9 -92 V
9 -92 V
10 -92 V
9 -92 V
9 -92 V
9 -91 V
10 -92 V
9 -92 V
9 -92 V
9 -92 V
10 -91 V
9 -92 V
9 -92 V
% End plot #3
% Begin plot #4
1.000 UP
stroke
LTb
0.90 0.62 0.00 C LCb setrgbcolor
6296 4318 M
[ [(Helvetica) 140.0 0.0 true true 0 (oracolo)]
] -46.7 MRshow
1.000 UP
1.000 UL
LTb
0.90 0.62 0.00 C 6380 4318 M
399 0 V
462 2116 M
9 -91 V
10 -92 V
9 -92 V
9 -92 V
9 -92 V
10 -92 V
9 -91 V
9 -92 V
9 -92 V
10 -92 V
9 -92 V
9 -91 V
9 -92 V
10 -92 V
9 1377 V
9 -92 V
9 -91 V
10 -92 V
9 -92 V
9 -92 V
10 -92 V
9 -92 V
9 -91 V
9 -92 V
10 -92 V
9 -92 V
9 -92 V
9 -91 V
10 -92 V
9 -92 V
9 1377 V
9 -92 V
10 -91 V
9 -92 V
9 -92 V
10 -92 V
9 -92 V
9 -92 V
9 -91 V
10 -92 V
9 -92 V
9 -92 V
9 -92 V
10 1378 V
9 -92 V
9 -92 V
9 -92 V
10 -92 V
9 -91 V
9 -92 V
9 -92 V
10 -92 V
9 -92 V
9 -92 V
10 -91 V
9 -92 V
9 -92 V
9 -92 V
10 -92 V
9 -91 V
9 -92 V
9 -92 V
10 -92 V
9 1377 V
9 -91 V
9 -92 V
10 -92 V
9 -92 V
9 -92 V
10 -92 V
9 -91 V
9 -92 V
9 1377 V
10 -92 V
9 -91 V
9 -92 V
9 -92 V
10 -92 V
9 -92 V
9 -92 V
9 -91 V
10 -92 V
9 -92 V
9 -92 V
9 -92 V
10 -92 V
9 -91 V
9 -92 V
10 1377 V
9 -92 V
9 -91 V
9 -92 V
10 -92 V
9 -92 V
9 -92 V
9 -92 V
10 -91 V
9 -92 V
9 -92 V
9 -92 V
10 -92 V
9 -92 V
stroke 1407 1565 M
9 -91 V
9 1377 V
10 -92 V
9 -92 V
9 -91 V
10 -92 V
9 -92 V
9 -92 V
9 -92 V
10 -92 V
9 -91 V
9 -92 V
9 -92 V
10 -92 V
9 -92 V
9 -92 V
9 1378 V
10 -92 V
9 -92 V
9 -92 V
10 -91 V
9 -92 V
9 -92 V
9 -92 V
10 -92 V
9 -92 V
9 -91 V
9 -92 V
10 -92 V
9 1377 V
9 -92 V
9 -91 V
10 -92 V
9 -92 V
9 -92 V
9 -92 V
10 -91 V
9 -92 V
9 -92 V
10 -92 V
9 -92 V
9 -92 V
9 1378 V
10 -92 V
9 -92 V
9 -92 V
9 -92 V
10 -91 V
9 -92 V
9 -92 V
9 -92 V
10 -92 V
9 -91 V
9 -92 V
9 -92 V
10 -92 V
9 -92 V
9 -92 V
10 -91 V
9 -92 V
9 -92 V
9 1377 V
10 -92 V
9 -91 V
9 -92 V
9 -92 V
10 -92 V
9 -92 V
9 -91 V
9 -92 V
10 -92 V
9 -92 V
9 -92 V
10 -92 V
9 1378 V
9 -92 V
9 -92 V
10 -92 V
9 -92 V
9 -91 V
9 -92 V
10 -92 V
9 -92 V
9 -92 V
9 -91 V
10 -92 V
9 -92 V
9 -92 V
9 -92 V
10 -92 V
9 -91 V
9 1377 V
10 -92 V
9 -92 V
9 -92 V
9 -91 V
10 -92 V
9 -92 V
9 -92 V
9 -92 V
10 -91 V
9 -92 V
9 -92 V
9 -92 V
stroke 2370 2300 M
10 1377 V
9 -91 V
9 -92 V
10 -92 V
9 -92 V
9 -92 V
9 -92 V
10 -91 V
9 -92 V
9 -92 V
9 -92 V
10 -92 V
9 -91 V
9 -92 V
9 -92 V
10 -92 V
9 -92 V
9 -92 V
9 -91 V
10 -92 V
9 -92 V
9 -92 V
10 -92 V
9 1378 V
9 -92 V
9 -92 V
10 -92 V
9 -92 V
9 -91 V
9 -92 V
10 -92 V
9 -92 V
9 -92 V
9 -92 V
10 -91 V
9 -92 V
9 -92 V
9 -92 V
10 -92 V
9 1378 V
9 -92 V
10 -92 V
9 -92 V
9 -92 V
9 -91 V
10 -92 V
9 -92 V
9 -92 V
9 -92 V
10 -92 V
9 -91 V
9 -92 V
9 -92 V
10 -92 V
9 -92 V
9 -92 V
10 -91 V
9 -92 V
9 -92 V
9 -92 V
10 -92 V
9 -91 V
9 -92 V
9 1377 V
10 -92 V
9 -92 V
9 -91 V
9 -92 V
10 -92 V
9 -92 V
9 -92 V
9 -92 V
10 -91 V
9 -92 V
9 -92 V
10 -92 V
9 1378 V
9 -92 V
9 -92 V
10 -92 V
9 -92 V
9 -92 V
9 -91 V
10 -92 V
9 -92 V
9 -92 V
9 -92 V
10 -92 V
9 -91 V
9 -92 V
9 -92 V
10 -92 V
9 -92 V
9 -91 V
10 -92 V
9 1377 V
9 -92 V
9 -92 V
10 -91 V
9 -92 V
9 -92 V
9 -92 V
10 -92 V
9 -92 V
stroke 3334 1565 M
9 -91 V
9 -92 V
10 -92 V
9 -92 V
9 -92 V
10 -91 V
9 -92 V
9 -92 V
9 1377 V
10 -92 V
9 -91 V
9 -92 V
9 -92 V
10 -92 V
9 -92 V
9 -92 V
9 -91 V
10 -92 V
9 -92 V
9 -92 V
9 -92 V
10 -91 V
9 -92 V
9 -92 V
10 -92 V
9 1377 V
9 -91 V
9 -92 V
10 -92 V
9 -92 V
9 -92 V
9 -92 V
10 -91 V
9 -92 V
9 -92 V
9 -92 V
10 -92 V
9 -91 V
9 -92 V
10 -92 V
9 1377 V
9 -92 V
9 -91 V
10 -92 V
9 -92 V
9 -92 V
9 -92 V
10 -92 V
9 -91 V
9 -92 V
9 -92 V
10 -92 V
9 -92 V
9 -91 V
9 1377 V
10 -92 V
9 -92 V
9 -92 V
10 -91 V
9 -92 V
9 -92 V
9 -92 V
10 -92 V
9 -92 V
9 -91 V
9 1377 V
10 -92 V
9 -92 V
9 -91 V
9 -92 V
10 -92 V
9 -92 V
9 -92 V
9 -92 V
10 -91 V
9 -92 V
9 1377 V
10 -92 V
9 -92 V
9 -91 V
9 -92 V
10 -92 V
9 -92 V
9 -92 V
9 -91 V
10 -92 V
9 -92 V
9 -92 V
9 -92 V
10 -92 V
9 1378 V
9 -92 V
10 -92 V
9 -92 V
9 -92 V
9 -91 V
10 -92 V
9 -92 V
9 -92 V
9 -92 V
10 -91 V
9 -92 V
9 -92 V
9 -92 V
stroke 4297 2300 M
10 -92 V
9 -92 V
9 -91 V
9 -92 V
10 -92 V
9 -92 V
9 -92 V
10 -92 V
9 -91 V
9 -92 V
9 -92 V
10 1377 V
9 -91 V
9 -92 V
9 -92 V
10 -92 V
9 -92 V
9 -92 V
9 -91 V
10 -92 V
9 -92 V
9 -92 V
9 -92 V
10 -92 V
9 -91 V
9 -92 V
10 -92 V
9 1377 V
9 -91 V
9 -92 V
10 -92 V
9 -92 V
9 -92 V
9 -92 V
10 -91 V
9 -92 V
9 -92 V
9 -92 V
10 -92 V
9 -92 V
9 -91 V
10 -92 V
9 -92 V
9 1377 V
9 -91 V
10 -92 V
9 -92 V
9 -92 V
9 -92 V
10 -92 V
9 -91 V
9 -92 V
9 -92 V
10 -92 V
9 -92 V
9 -92 V
9 -91 V
10 -92 V
9 -92 V
9 -92 V
10 -92 V
9 -91 V
9 1377 V
9 -92 V
10 -92 V
9 -92 V
9 -91 V
9 -92 V
10 -92 V
9 -92 V
9 -92 V
9 -92 V
10 -91 V
9 -92 V
9 1377 V
10 -92 V
9 -91 V
9 -92 V
9 -92 V
10 -92 V
9 -92 V
9 -92 V
9 -91 V
10 -92 V
9 -92 V
9 -92 V
9 -92 V
10 -92 V
9 -91 V
9 -92 V
9 -92 V
10 -92 V
9 -92 V
9 -91 V
10 1377 V
9 -92 V
9 -92 V
9 -92 V
10 -91 V
9 -92 V
9 -92 V
9 -92 V
10 -92 V
9 -92 V
stroke 5261 1565 M
9 -91 V
9 -92 V
10 -92 V
9 -92 V
9 -92 V
9 -91 V
10 1377 V
9 -92 V
9 -92 V
10 -92 V
9 -91 V
9 -92 V
9 -92 V
10 -92 V
9 -92 V
9 -92 V
9 -91 V
10 -92 V
9 -92 V
9 -92 V
9 1378 V
10 -92 V
9 -92 V
9 -92 V
10 -92 V
9 -92 V
9 -91 V
9 -92 V
10 -92 V
9 -92 V
9 -92 V
9 -92 V
10 -91 V
9 -92 V
9 -92 V
9 -92 V
10 -92 V
9 -91 V
9 -92 V
9 -92 V
10 1377 V
9 -92 V
9 -91 V
10 -92 V
9 -92 V
9 -92 V
9 -92 V
10 -92 V
9 -91 V
9 -92 V
9 -92 V
10 -92 V
9 -92 V
9 -91 V
9 -92 V
10 1377 V
9 -92 V
9 -92 V
9 -91 V
10 -92 V
9 -92 V
9 -92 V
10 -92 V
9 -92 V
9 -91 V
9 1377 V
10 -92 V
9 -92 V
9 -91 V
9 -92 V
10 -92 V
9 -92 V
9 1377 V
9 -91 V
10 -92 V
9 -92 V
9 -92 V
10 0 V
9 -92 V
9 -92 V
9 -91 V
10 -92 V
9 -92 V
9 -92 V
9 -92 V
10 -91 V
9 -92 V
9 -92 V
9 -92 V
10 -92 V
9 -92 V
9 -91 V
9 -92 V
10 -92 V
9 -92 V
9 -92 V
10 -92 V
9 -91 V
9 -92 V
9 -92 V
10 -92 V
9 -92 V
9 -91 V
9 -92 V
stroke 6224 923 M
10 -92 V
462 2116 Box
471 2025 Box
481 1933 Box
490 1841 Box
499 1749 Box
508 1657 Box
518 1565 Box
527 1474 Box
536 1382 Box
545 1290 Box
555 1198 Box
564 1106 Box
573 1015 Box
582 923 Box
592 831 Box
601 2208 Box
610 2116 Box
619 2025 Box
629 1933 Box
638 1841 Box
647 1749 Box
657 1657 Box
666 1565 Box
675 1474 Box
684 1382 Box
694 1290 Box
703 1198 Box
712 1106 Box
721 1015 Box
731 923 Box
740 831 Box
749 2208 Box
758 2116 Box
768 2025 Box
777 1933 Box
786 1841 Box
796 1749 Box
805 1657 Box
814 1565 Box
823 1474 Box
833 1382 Box
842 1290 Box
851 1198 Box
860 1106 Box
870 2484 Box
879 2392 Box
888 2300 Box
897 2208 Box
907 2116 Box
916 2025 Box
925 1933 Box
934 1841 Box
944 1749 Box
953 1657 Box
962 1565 Box
972 1474 Box
981 1382 Box
990 1290 Box
999 1198 Box
1009 1106 Box
1018 1015 Box
1027 923 Box
1036 831 Box
1046 739 Box
1055 2116 Box
1064 2025 Box
1073 1933 Box
1083 1841 Box
1092 1749 Box
1101 1657 Box
1111 1565 Box
1120 1474 Box
1129 1382 Box
1138 2759 Box
1148 2667 Box
1157 2576 Box
1166 2484 Box
1175 2392 Box
1185 2300 Box
1194 2208 Box
1203 2116 Box
1212 2025 Box
1222 1933 Box
1231 1841 Box
1240 1749 Box
1249 1657 Box
1259 1565 Box
1268 1474 Box
1277 1382 Box
1287 2759 Box
1296 2667 Box
1305 2576 Box
1314 2484 Box
1324 2392 Box
1333 2300 Box
1342 2208 Box
1351 2116 Box
1361 2025 Box
1370 1933 Box
1379 1841 Box
1388 1749 Box
1398 1657 Box
1407 1565 Box
1416 1474 Box
1425 2851 Box
1435 2759 Box
1444 2667 Box
1453 2576 Box
1463 2484 Box
1472 2392 Box
1481 2300 Box
1490 2208 Box
1500 2116 Box
1509 2025 Box
1518 1933 Box
1527 1841 Box
1537 1749 Box
1546 1657 Box
1555 1565 Box
1564 2943 Box
1574 2851 Box
1583 2759 Box
1592 2667 Box
1602 2576 Box
1611 2484 Box
1620 2392 Box
1629 2300 Box
1639 2208 Box
1648 2116 Box
1657 2025 Box
1666 1933 Box
1676 1841 Box
1685 3218 Box
1694 3126 Box
1703 3035 Box
1713 2943 Box
1722 2851 Box
1731 2759 Box
1740 2667 Box
1750 2576 Box
1759 2484 Box
1768 2392 Box
1778 2300 Box
1787 2208 Box
1796 2116 Box
1805 3494 Box
1815 3402 Box
1824 3310 Box
1833 3218 Box
1842 3126 Box
1852 3035 Box
1861 2943 Box
1870 2851 Box
1879 2759 Box
1889 2667 Box
1898 2576 Box
1907 2484 Box
1916 2392 Box
1926 2300 Box
1935 2208 Box
1944 2116 Box
1954 2025 Box
1963 1933 Box
1972 1841 Box
1981 3218 Box
1991 3126 Box
2000 3035 Box
2009 2943 Box
2018 2851 Box
2028 2759 Box
2037 2667 Box
2046 2576 Box
2055 2484 Box
2065 2392 Box
2074 2300 Box
2083 2208 Box
2093 2116 Box
2102 3494 Box
2111 3402 Box
2120 3310 Box
2130 3218 Box
2139 3126 Box
2148 3035 Box
2157 2943 Box
2167 2851 Box
2176 2759 Box
2185 2667 Box
2194 2576 Box
2204 2484 Box
2213 2392 Box
2222 2300 Box
2231 2208 Box
2241 2116 Box
2250 2025 Box
2259 3402 Box
2269 3310 Box
2278 3218 Box
2287 3126 Box
2296 3035 Box
2306 2943 Box
2315 2851 Box
2324 2759 Box
2333 2667 Box
2343 2576 Box
2352 2484 Box
2361 2392 Box
2370 2300 Box
2380 3677 Box
2389 3586 Box
2398 3494 Box
2408 3402 Box
2417 3310 Box
2426 3218 Box
2435 3126 Box
2445 3035 Box
2454 2943 Box
2463 2851 Box
2472 2759 Box
2482 2667 Box
2491 2576 Box
2500 2484 Box
2509 2392 Box
2519 2300 Box
2528 2208 Box
2537 2116 Box
2546 2025 Box
2556 1933 Box
2565 1841 Box
2574 1749 Box
2584 1657 Box
2593 3035 Box
2602 2943 Box
2611 2851 Box
2621 2759 Box
2630 2667 Box
2639 2576 Box
2648 2484 Box
2658 2392 Box
2667 2300 Box
2676 2208 Box
2685 2116 Box
2695 2025 Box
2704 1933 Box
2713 1841 Box
2722 1749 Box
2732 1657 Box
2741 3035 Box
2750 2943 Box
2760 2851 Box
2769 2759 Box
2778 2667 Box
2787 2576 Box
2797 2484 Box
2806 2392 Box
2815 2300 Box
2824 2208 Box
2834 2116 Box
2843 2025 Box
2852 1933 Box
2861 1841 Box
2871 1749 Box
2880 1657 Box
2889 1565 Box
2899 1474 Box
2908 1382 Box
2917 1290 Box
2926 1198 Box
2936 1106 Box
2945 1015 Box
2954 923 Box
2963 2300 Box
2973 2208 Box
2982 2116 Box
2991 2025 Box
3000 1933 Box
3010 1841 Box
3019 1749 Box
3028 1657 Box
3037 1565 Box
3047 1474 Box
3056 1382 Box
3065 1290 Box
3075 1198 Box
3084 2576 Box
3093 2484 Box
3102 2392 Box
3112 2300 Box
3121 2208 Box
3130 2116 Box
3139 2025 Box
3149 1933 Box
3158 1841 Box
3167 1749 Box
3176 1657 Box
3186 1565 Box
3195 1474 Box
3204 1382 Box
3213 1290 Box
3223 1198 Box
3232 1106 Box
3241 1015 Box
3251 923 Box
3260 2300 Box
3269 2208 Box
3278 2116 Box
3288 2025 Box
3297 1933 Box
3306 1841 Box
3315 1749 Box
3325 1657 Box
3334 1565 Box
3343 1474 Box
3352 1382 Box
3362 1290 Box
3371 1198 Box
3380 1106 Box
3390 1015 Box
3399 923 Box
3408 831 Box
3417 2208 Box
3427 2116 Box
3436 2025 Box
3445 1933 Box
3454 1841 Box
3464 1749 Box
3473 1657 Box
3482 1565 Box
3491 1474 Box
3501 1382 Box
3510 1290 Box
3519 1198 Box
3528 1106 Box
3538 1015 Box
3547 923 Box
3556 831 Box
3566 739 Box
3575 2116 Box
3584 2025 Box
3593 1933 Box
3603 1841 Box
3612 1749 Box
3621 1657 Box
3630 1565 Box
3640 1474 Box
3649 1382 Box
3658 1290 Box
3667 1198 Box
3677 1106 Box
3686 1015 Box
3695 923 Box
3705 831 Box
3714 2208 Box
3723 2116 Box
3732 2025 Box
3742 1933 Box
3751 1841 Box
3760 1749 Box
3769 1657 Box
3779 1565 Box
3788 1474 Box
3797 1382 Box
3806 1290 Box
3816 1198 Box
3825 1106 Box
3834 1015 Box
3843 2392 Box
3853 2300 Box
3862 2208 Box
3871 2116 Box
3881 2025 Box
3890 1933 Box
3899 1841 Box
3908 1749 Box
3918 1657 Box
3927 1565 Box
3936 1474 Box
3945 2851 Box
3955 2759 Box
3964 2667 Box
3973 2576 Box
3982 2484 Box
3992 2392 Box
4001 2300 Box
4010 2208 Box
4019 2116 Box
4029 2025 Box
4038 1933 Box
4047 3310 Box
4057 3218 Box
4066 3126 Box
4075 3035 Box
4084 2943 Box
4094 2851 Box
4103 2759 Box
4112 2667 Box
4121 2576 Box
4131 2484 Box
4140 2392 Box
4149 2300 Box
4158 2208 Box
4168 2116 Box
4177 3494 Box
4186 3402 Box
4196 3310 Box
4205 3218 Box
4214 3126 Box
4223 3035 Box
4233 2943 Box
4242 2851 Box
4251 2759 Box
4260 2667 Box
4270 2576 Box
4279 2484 Box
4288 2392 Box
4297 2300 Box
4307 2208 Box
4316 2116 Box
4325 2025 Box
4334 1933 Box
4344 1841 Box
4353 1749 Box
4362 1657 Box
4372 1565 Box
4381 1474 Box
4390 1382 Box
4399 1290 Box
4409 2667 Box
4418 2576 Box
4427 2484 Box
4436 2392 Box
4446 2300 Box
4455 2208 Box
4464 2116 Box
4473 2025 Box
4483 1933 Box
4492 1841 Box
4501 1749 Box
4510 1657 Box
4520 1565 Box
4529 1474 Box
4538 1382 Box
4548 1290 Box
4557 2667 Box
4566 2576 Box
4575 2484 Box
4585 2392 Box
4594 2300 Box
4603 2208 Box
4612 2116 Box
4622 2025 Box
4631 1933 Box
4640 1841 Box
4649 1749 Box
4659 1657 Box
4668 1565 Box
4677 1474 Box
4687 1382 Box
4696 1290 Box
4705 2667 Box
4714 2576 Box
4724 2484 Box
4733 2392 Box
4742 2300 Box
4751 2208 Box
4761 2116 Box
4770 2025 Box
4779 1933 Box
4788 1841 Box
4798 1749 Box
4807 1657 Box
4816 1565 Box
4825 1474 Box
4835 1382 Box
4844 1290 Box
4853 1198 Box
4863 1106 Box
4872 1015 Box
4881 2392 Box
4890 2300 Box
4900 2208 Box
4909 2116 Box
4918 2025 Box
4927 1933 Box
4937 1841 Box
4946 1749 Box
4955 1657 Box
4964 1565 Box
4974 1474 Box
4983 1382 Box
4992 2759 Box
5002 2667 Box
5011 2576 Box
5020 2484 Box
5029 2392 Box
5039 2300 Box
5048 2208 Box
5057 2116 Box
5066 2025 Box
5076 1933 Box
5085 1841 Box
5094 1749 Box
5103 1657 Box
5113 1565 Box
5122 1474 Box
5131 1382 Box
5140 1290 Box
5150 1198 Box
5159 1106 Box
5168 1015 Box
5178 2392 Box
5187 2300 Box
5196 2208 Box
5205 2116 Box
5215 2025 Box
5224 1933 Box
5233 1841 Box
5242 1749 Box
5252 1657 Box
5261 1565 Box
5270 1474 Box
5279 1382 Box
5289 1290 Box
5298 1198 Box
5307 1106 Box
5316 1015 Box
5326 2392 Box
5335 2300 Box
5344 2208 Box
5354 2116 Box
5363 2025 Box
5372 1933 Box
5381 1841 Box
5391 1749 Box
5400 1657 Box
5409 1565 Box
5418 1474 Box
5428 1382 Box
5437 1290 Box
5446 1198 Box
5455 2576 Box
5465 2484 Box
5474 2392 Box
5483 2300 Box
5493 2208 Box
5502 2116 Box
5511 2025 Box
5520 1933 Box
5530 1841 Box
5539 1749 Box
5548 1657 Box
5557 1565 Box
5567 1474 Box
5576 1382 Box
5585 1290 Box
5594 1198 Box
5604 1106 Box
5613 1015 Box
5622 923 Box
5631 831 Box
5641 2208 Box
5650 2116 Box
5659 2025 Box
5669 1933 Box
5678 1841 Box
5687 1749 Box
5696 1657 Box
5706 1565 Box
5715 1474 Box
5724 1382 Box
5733 1290 Box
5743 1198 Box
5752 1106 Box
5761 1015 Box
5770 923 Box
5780 2300 Box
5789 2208 Box
5798 2116 Box
5807 2025 Box
5817 1933 Box
5826 1841 Box
5835 1749 Box
5845 1657 Box
5854 1565 Box
5863 1474 Box
5872 2851 Box
5882 2759 Box
5891 2667 Box
5900 2576 Box
5909 2484 Box
5919 2392 Box
5928 2300 Box
5937 3677 Box
5946 3586 Box
5956 3494 Box
5965 3402 Box
5974 3310 Box
5984 3310 Box
5993 3218 Box
6002 3126 Box
6011 3035 Box
6021 2943 Box
6030 2851 Box
6039 2759 Box
6048 2667 Box
6058 2576 Box
6067 2484 Box
6076 2392 Box
6085 2300 Box
6095 2208 Box
6104 2116 Box
6113 2025 Box
6122 1933 Box
6132 1841 Box
6141 1749 Box
6150 1657 Box
6160 1565 Box
6169 1474 Box
6178 1382 Box
6187 1290 Box
6197 1198 Box
6206 1106 Box
6215 1015 Box
6224 923 Box
6234 831 Box
6579 4318 Box
% End plot #4
2.000 UL
LTb
LCb setrgbcolor
1.000 UL
LTB
LCb setrgbcolor
462 4871 N
462 280 L
6485 0 V
0 4591 V
-6485 0 V
Z stroke
1.000 UP
1.000 UL
LTb
LCb setrgbcolor
stroke
grestore
end
showpage
%%Trailer
%%DocumentFonts: Helvetica
