%!PS-Adobe-2.0 EPSF-2.0
%%Title: chartSS2.eps
%%Creator: gnuplot 5.0 patchlevel 5
%%CreationDate: Fri Mar 31 16:25:03 2017
%%DocumentFonts: (atend)
%%BoundingBox: 50 50 410 302
%%EndComments
%%BeginProlog
/gnudict 256 dict def
gnudict begin
%
% The following true/false flags may be edited by hand if desired.
% The unit line width and grayscale image gamma correction may also be changed.
%
/Color true def
/Blacktext false def
/Solid false def
/Dashlength 1 def
/Landscape false def
/Level1 false def
/Level3 false def
/Rounded false def
/ClipToBoundingBox false def
/SuppressPDFMark false def
/TransparentPatterns false def
/gnulinewidth 5.000 def
/userlinewidth gnulinewidth def
/Gamma 1.0 def
/BackgroundColor {-1.000 -1.000 -1.000} def
%
/vshift -46 def
/dl1 {
  10.0 Dashlength userlinewidth gnulinewidth div mul mul mul
  Rounded { currentlinewidth 0.75 mul sub dup 0 le { pop 0.01 } if } if
} def
/dl2 {
  10.0 Dashlength userlinewidth gnulinewidth div mul mul mul
  Rounded { currentlinewidth 0.75 mul add } if
} def
/hpt_ 31.5 def
/vpt_ 31.5 def
/hpt hpt_ def
/vpt vpt_ def
/doclip {
  ClipToBoundingBox {
    newpath 50 50 moveto 410 50 lineto 410 302 lineto 50 302 lineto closepath
    clip
  } if
} def
%
% Gnuplot Prolog Version 5.1 (Oct 2015)
%
%/SuppressPDFMark true def
%
/M {moveto} bind def
/L {lineto} bind def
/R {rmoveto} bind def
/V {rlineto} bind def
/N {newpath moveto} bind def
/Z {closepath} bind def
/C {setrgbcolor} bind def
/f {rlineto fill} bind def
/g {setgray} bind def
/Gshow {show} def   % May be redefined later in the file to support UTF-8
/vpt2 vpt 2 mul def
/hpt2 hpt 2 mul def
/Lshow {currentpoint stroke M 0 vshift R 
	Blacktext {gsave 0 setgray textshow grestore} {textshow} ifelse} def
/Rshow {currentpoint stroke M dup stringwidth pop neg vshift R
	Blacktext {gsave 0 setgray textshow grestore} {textshow} ifelse} def
/Cshow {currentpoint stroke M dup stringwidth pop -2 div vshift R 
	Blacktext {gsave 0 setgray textshow grestore} {textshow} ifelse} def
/UP {dup vpt_ mul /vpt exch def hpt_ mul /hpt exch def
  /hpt2 hpt 2 mul def /vpt2 vpt 2 mul def} def
/DL {Color {setrgbcolor Solid {pop []} if 0 setdash}
 {pop pop pop 0 setgray Solid {pop []} if 0 setdash} ifelse} def
/BL {stroke userlinewidth 2 mul setlinewidth
	Rounded {1 setlinejoin 1 setlinecap} if} def
/AL {stroke userlinewidth 2 div setlinewidth
	Rounded {1 setlinejoin 1 setlinecap} if} def
/UL {dup gnulinewidth mul /userlinewidth exch def
	dup 1 lt {pop 1} if 10 mul /udl exch def} def
/PL {stroke userlinewidth setlinewidth
	Rounded {1 setlinejoin 1 setlinecap} if} def
3.8 setmiterlimit
% Classic Line colors (version 5.0)
/LCw {1 1 1} def
/LCb {0 0 0} def
/LCa {0 0 0} def
/LC0 {1 0 0} def
/LC1 {0 1 0} def
/LC2 {0 0 1} def
/LC3 {1 0 1} def
/LC4 {0 1 1} def
/LC5 {1 1 0} def
/LC6 {0 0 0} def
/LC7 {1 0.3 0} def
/LC8 {0.5 0.5 0.5} def
% Default dash patterns (version 5.0)
/LTB {BL [] LCb DL} def
/LTw {PL [] 1 setgray} def
/LTb {PL [] LCb DL} def
/LTa {AL [1 udl mul 2 udl mul] 0 setdash LCa setrgbcolor} def
/LT0 {PL [] LC0 DL} def
/LT1 {PL [2 dl1 3 dl2] LC1 DL} def
/LT2 {PL [1 dl1 1.5 dl2] LC2 DL} def
/LT3 {PL [6 dl1 2 dl2 1 dl1 2 dl2] LC3 DL} def
/LT4 {PL [1 dl1 2 dl2 6 dl1 2 dl2 1 dl1 2 dl2] LC4 DL} def
/LT5 {PL [4 dl1 2 dl2] LC5 DL} def
/LT6 {PL [1.5 dl1 1.5 dl2 1.5 dl1 1.5 dl2 1.5 dl1 6 dl2] LC6 DL} def
/LT7 {PL [3 dl1 3 dl2 1 dl1 3 dl2] LC7 DL} def
/LT8 {PL [2 dl1 2 dl2 2 dl1 6 dl2] LC8 DL} def
/SL {[] 0 setdash} def
/Pnt {stroke [] 0 setdash gsave 1 setlinecap M 0 0 V stroke grestore} def
/Dia {stroke [] 0 setdash 2 copy vpt add M
  hpt neg vpt neg V hpt vpt neg V
  hpt vpt V hpt neg vpt V closepath stroke
  Pnt} def
/Pls {stroke [] 0 setdash vpt sub M 0 vpt2 V
  currentpoint stroke M
  hpt neg vpt neg R hpt2 0 V stroke
 } def
/Box {stroke [] 0 setdash 2 copy exch hpt sub exch vpt add M
  0 vpt2 neg V hpt2 0 V 0 vpt2 V
  hpt2 neg 0 V closepath stroke
  Pnt} def
/Crs {stroke [] 0 setdash exch hpt sub exch vpt add M
  hpt2 vpt2 neg V currentpoint stroke M
  hpt2 neg 0 R hpt2 vpt2 V stroke} def
/TriU {stroke [] 0 setdash 2 copy vpt 1.12 mul add M
  hpt neg vpt -1.62 mul V
  hpt 2 mul 0 V
  hpt neg vpt 1.62 mul V closepath stroke
  Pnt} def
/Star {2 copy Pls Crs} def
/BoxF {stroke [] 0 setdash exch hpt sub exch vpt add M
  0 vpt2 neg V hpt2 0 V 0 vpt2 V
  hpt2 neg 0 V closepath fill} def
/TriUF {stroke [] 0 setdash vpt 1.12 mul add M
  hpt neg vpt -1.62 mul V
  hpt 2 mul 0 V
  hpt neg vpt 1.62 mul V closepath fill} def
/TriD {stroke [] 0 setdash 2 copy vpt 1.12 mul sub M
  hpt neg vpt 1.62 mul V
  hpt 2 mul 0 V
  hpt neg vpt -1.62 mul V closepath stroke
  Pnt} def
/TriDF {stroke [] 0 setdash vpt 1.12 mul sub M
  hpt neg vpt 1.62 mul V
  hpt 2 mul 0 V
  hpt neg vpt -1.62 mul V closepath fill} def
/DiaF {stroke [] 0 setdash vpt add M
  hpt neg vpt neg V hpt vpt neg V
  hpt vpt V hpt neg vpt V closepath fill} def
/Pent {stroke [] 0 setdash 2 copy gsave
  translate 0 hpt M 4 {72 rotate 0 hpt L} repeat
  closepath stroke grestore Pnt} def
/PentF {stroke [] 0 setdash gsave
  translate 0 hpt M 4 {72 rotate 0 hpt L} repeat
  closepath fill grestore} def
/Circle {stroke [] 0 setdash 2 copy
  hpt 0 360 arc stroke Pnt} def
/CircleF {stroke [] 0 setdash hpt 0 360 arc fill} def
/C0 {BL [] 0 setdash 2 copy moveto vpt 90 450 arc} bind def
/C1 {BL [] 0 setdash 2 copy moveto
	2 copy vpt 0 90 arc closepath fill
	vpt 0 360 arc closepath} bind def
/C2 {BL [] 0 setdash 2 copy moveto
	2 copy vpt 90 180 arc closepath fill
	vpt 0 360 arc closepath} bind def
/C3 {BL [] 0 setdash 2 copy moveto
	2 copy vpt 0 180 arc closepath fill
	vpt 0 360 arc closepath} bind def
/C4 {BL [] 0 setdash 2 copy moveto
	2 copy vpt 180 270 arc closepath fill
	vpt 0 360 arc closepath} bind def
/C5 {BL [] 0 setdash 2 copy moveto
	2 copy vpt 0 90 arc
	2 copy moveto
	2 copy vpt 180 270 arc closepath fill
	vpt 0 360 arc} bind def
/C6 {BL [] 0 setdash 2 copy moveto
	2 copy vpt 90 270 arc closepath fill
	vpt 0 360 arc closepath} bind def
/C7 {BL [] 0 setdash 2 copy moveto
	2 copy vpt 0 270 arc closepath fill
	vpt 0 360 arc closepath} bind def
/C8 {BL [] 0 setdash 2 copy moveto
	2 copy vpt 270 360 arc closepath fill
	vpt 0 360 arc closepath} bind def
/C9 {BL [] 0 setdash 2 copy moveto
	2 copy vpt 270 450 arc closepath fill
	vpt 0 360 arc closepath} bind def
/C10 {BL [] 0 setdash 2 copy 2 copy moveto vpt 270 360 arc closepath fill
	2 copy moveto
	2 copy vpt 90 180 arc closepath fill
	vpt 0 360 arc closepath} bind def
/C11 {BL [] 0 setdash 2 copy moveto
	2 copy vpt 0 180 arc closepath fill
	2 copy moveto
	2 copy vpt 270 360 arc closepath fill
	vpt 0 360 arc closepath} bind def
/C12 {BL [] 0 setdash 2 copy moveto
	2 copy vpt 180 360 arc closepath fill
	vpt 0 360 arc closepath} bind def
/C13 {BL [] 0 setdash 2 copy moveto
	2 copy vpt 0 90 arc closepath fill
	2 copy moveto
	2 copy vpt 180 360 arc closepath fill
	vpt 0 360 arc closepath} bind def
/C14 {BL [] 0 setdash 2 copy moveto
	2 copy vpt 90 360 arc closepath fill
	vpt 0 360 arc} bind def
/C15 {BL [] 0 setdash 2 copy vpt 0 360 arc closepath fill
	vpt 0 360 arc closepath} bind def
/Rec {newpath 4 2 roll moveto 1 index 0 rlineto 0 exch rlineto
	neg 0 rlineto closepath} bind def
/Square {dup Rec} bind def
/Bsquare {vpt sub exch vpt sub exch vpt2 Square} bind def
/S0 {BL [] 0 setdash 2 copy moveto 0 vpt rlineto BL Bsquare} bind def
/S1 {BL [] 0 setdash 2 copy vpt Square fill Bsquare} bind def
/S2 {BL [] 0 setdash 2 copy exch vpt sub exch vpt Square fill Bsquare} bind def
/S3 {BL [] 0 setdash 2 copy exch vpt sub exch vpt2 vpt Rec fill Bsquare} bind def
/S4 {BL [] 0 setdash 2 copy exch vpt sub exch vpt sub vpt Square fill Bsquare} bind def
/S5 {BL [] 0 setdash 2 copy 2 copy vpt Square fill
	exch vpt sub exch vpt sub vpt Square fill Bsquare} bind def
/S6 {BL [] 0 setdash 2 copy exch vpt sub exch vpt sub vpt vpt2 Rec fill Bsquare} bind def
/S7 {BL [] 0 setdash 2 copy exch vpt sub exch vpt sub vpt vpt2 Rec fill
	2 copy vpt Square fill Bsquare} bind def
/S8 {BL [] 0 setdash 2 copy vpt sub vpt Square fill Bsquare} bind def
/S9 {BL [] 0 setdash 2 copy vpt sub vpt vpt2 Rec fill Bsquare} bind def
/S10 {BL [] 0 setdash 2 copy vpt sub vpt Square fill 2 copy exch vpt sub exch vpt Square fill
	Bsquare} bind def
/S11 {BL [] 0 setdash 2 copy vpt sub vpt Square fill 2 copy exch vpt sub exch vpt2 vpt Rec fill
	Bsquare} bind def
/S12 {BL [] 0 setdash 2 copy exch vpt sub exch vpt sub vpt2 vpt Rec fill Bsquare} bind def
/S13 {BL [] 0 setdash 2 copy exch vpt sub exch vpt sub vpt2 vpt Rec fill
	2 copy vpt Square fill Bsquare} bind def
/S14 {BL [] 0 setdash 2 copy exch vpt sub exch vpt sub vpt2 vpt Rec fill
	2 copy exch vpt sub exch vpt Square fill Bsquare} bind def
/S15 {BL [] 0 setdash 2 copy Bsquare fill Bsquare} bind def
/D0 {gsave translate 45 rotate 0 0 S0 stroke grestore} bind def
/D1 {gsave translate 45 rotate 0 0 S1 stroke grestore} bind def
/D2 {gsave translate 45 rotate 0 0 S2 stroke grestore} bind def
/D3 {gsave translate 45 rotate 0 0 S3 stroke grestore} bind def
/D4 {gsave translate 45 rotate 0 0 S4 stroke grestore} bind def
/D5 {gsave translate 45 rotate 0 0 S5 stroke grestore} bind def
/D6 {gsave translate 45 rotate 0 0 S6 stroke grestore} bind def
/D7 {gsave translate 45 rotate 0 0 S7 stroke grestore} bind def
/D8 {gsave translate 45 rotate 0 0 S8 stroke grestore} bind def
/D9 {gsave translate 45 rotate 0 0 S9 stroke grestore} bind def
/D10 {gsave translate 45 rotate 0 0 S10 stroke grestore} bind def
/D11 {gsave translate 45 rotate 0 0 S11 stroke grestore} bind def
/D12 {gsave translate 45 rotate 0 0 S12 stroke grestore} bind def
/D13 {gsave translate 45 rotate 0 0 S13 stroke grestore} bind def
/D14 {gsave translate 45 rotate 0 0 S14 stroke grestore} bind def
/D15 {gsave translate 45 rotate 0 0 S15 stroke grestore} bind def
/DiaE {stroke [] 0 setdash vpt add M
  hpt neg vpt neg V hpt vpt neg V
  hpt vpt V hpt neg vpt V closepath stroke} def
/BoxE {stroke [] 0 setdash exch hpt sub exch vpt add M
  0 vpt2 neg V hpt2 0 V 0 vpt2 V
  hpt2 neg 0 V closepath stroke} def
/TriUE {stroke [] 0 setdash vpt 1.12 mul add M
  hpt neg vpt -1.62 mul V
  hpt 2 mul 0 V
  hpt neg vpt 1.62 mul V closepath stroke} def
/TriDE {stroke [] 0 setdash vpt 1.12 mul sub M
  hpt neg vpt 1.62 mul V
  hpt 2 mul 0 V
  hpt neg vpt -1.62 mul V closepath stroke} def
/PentE {stroke [] 0 setdash gsave
  translate 0 hpt M 4 {72 rotate 0 hpt L} repeat
  closepath stroke grestore} def
/CircE {stroke [] 0 setdash 
  hpt 0 360 arc stroke} def
/Opaque {gsave closepath 1 setgray fill grestore 0 setgray closepath} def
/DiaW {stroke [] 0 setdash vpt add M
  hpt neg vpt neg V hpt vpt neg V
  hpt vpt V hpt neg vpt V Opaque stroke} def
/BoxW {stroke [] 0 setdash exch hpt sub exch vpt add M
  0 vpt2 neg V hpt2 0 V 0 vpt2 V
  hpt2 neg 0 V Opaque stroke} def
/TriUW {stroke [] 0 setdash vpt 1.12 mul add M
  hpt neg vpt -1.62 mul V
  hpt 2 mul 0 V
  hpt neg vpt 1.62 mul V Opaque stroke} def
/TriDW {stroke [] 0 setdash vpt 1.12 mul sub M
  hpt neg vpt 1.62 mul V
  hpt 2 mul 0 V
  hpt neg vpt -1.62 mul V Opaque stroke} def
/PentW {stroke [] 0 setdash gsave
  translate 0 hpt M 4 {72 rotate 0 hpt L} repeat
  Opaque stroke grestore} def
/CircW {stroke [] 0 setdash 
  hpt 0 360 arc Opaque stroke} def
/BoxFill {gsave Rec 1 setgray fill grestore} def
/Density {
  /Fillden exch def
  currentrgbcolor
  /ColB exch def /ColG exch def /ColR exch def
  /ColR ColR Fillden mul Fillden sub 1 add def
  /ColG ColG Fillden mul Fillden sub 1 add def
  /ColB ColB Fillden mul Fillden sub 1 add def
  ColR ColG ColB setrgbcolor} def
/BoxColFill {gsave Rec PolyFill} def
/PolyFill {gsave Density fill grestore grestore} def
/h {rlineto rlineto rlineto gsave closepath fill grestore} bind def
%
% PostScript Level 1 Pattern Fill routine for rectangles
% Usage: x y w h s a XX PatternFill
%	x,y = lower left corner of box to be filled
%	w,h = width and height of box
%	  a = angle in degrees between lines and x-axis
%	 XX = 0/1 for no/yes cross-hatch
%
/PatternFill {gsave /PFa [ 9 2 roll ] def
  PFa 0 get PFa 2 get 2 div add PFa 1 get PFa 3 get 2 div add translate
  PFa 2 get -2 div PFa 3 get -2 div PFa 2 get PFa 3 get Rec
  TransparentPatterns {} {gsave 1 setgray fill grestore} ifelse
  clip
  currentlinewidth 0.5 mul setlinewidth
  /PFs PFa 2 get dup mul PFa 3 get dup mul add sqrt def
  0 0 M PFa 5 get rotate PFs -2 div dup translate
  0 1 PFs PFa 4 get div 1 add floor cvi
	{PFa 4 get mul 0 M 0 PFs V} for
  0 PFa 6 get ne {
	0 1 PFs PFa 4 get div 1 add floor cvi
	{PFa 4 get mul 0 2 1 roll M PFs 0 V} for
 } if
  stroke grestore} def
%
/languagelevel where
 {pop languagelevel} {1} ifelse
dup 2 lt
	{/InterpretLevel1 true def
	 /InterpretLevel3 false def}
	{/InterpretLevel1 Level1 def
	 2 gt
	    {/InterpretLevel3 Level3 def}
	    {/InterpretLevel3 false def}
	 ifelse }
 ifelse
%
% PostScript level 2 pattern fill definitions
%
/Level2PatternFill {
/Tile8x8 {/PaintType 2 /PatternType 1 /TilingType 1 /BBox [0 0 8 8] /XStep 8 /YStep 8}
	bind def
/KeepColor {currentrgbcolor [/Pattern /DeviceRGB] setcolorspace} bind def
<< Tile8x8
 /PaintProc {0.5 setlinewidth pop 0 0 M 8 8 L 0 8 M 8 0 L stroke} 
>> matrix makepattern
/Pat1 exch def
<< Tile8x8
 /PaintProc {0.5 setlinewidth pop 0 0 M 8 8 L 0 8 M 8 0 L stroke
	0 4 M 4 8 L 8 4 L 4 0 L 0 4 L stroke}
>> matrix makepattern
/Pat2 exch def
<< Tile8x8
 /PaintProc {0.5 setlinewidth pop 0 0 M 0 8 L
	8 8 L 8 0 L 0 0 L fill}
>> matrix makepattern
/Pat3 exch def
<< Tile8x8
 /PaintProc {0.5 setlinewidth pop -4 8 M 8 -4 L
	0 12 M 12 0 L stroke}
>> matrix makepattern
/Pat4 exch def
<< Tile8x8
 /PaintProc {0.5 setlinewidth pop -4 0 M 8 12 L
	0 -4 M 12 8 L stroke}
>> matrix makepattern
/Pat5 exch def
<< Tile8x8
 /PaintProc {0.5 setlinewidth pop -2 8 M 4 -4 L
	0 12 M 8 -4 L 4 12 M 10 0 L stroke}
>> matrix makepattern
/Pat6 exch def
<< Tile8x8
 /PaintProc {0.5 setlinewidth pop -2 0 M 4 12 L
	0 -4 M 8 12 L 4 -4 M 10 8 L stroke}
>> matrix makepattern
/Pat7 exch def
<< Tile8x8
 /PaintProc {0.5 setlinewidth pop 8 -2 M -4 4 L
	12 0 M -4 8 L 12 4 M 0 10 L stroke}
>> matrix makepattern
/Pat8 exch def
<< Tile8x8
 /PaintProc {0.5 setlinewidth pop 0 -2 M 12 4 L
	-4 0 M 12 8 L -4 4 M 8 10 L stroke}
>> matrix makepattern
/Pat9 exch def
/Pattern1 {PatternBgnd KeepColor Pat1 setpattern} bind def
/Pattern2 {PatternBgnd KeepColor Pat2 setpattern} bind def
/Pattern3 {PatternBgnd KeepColor Pat3 setpattern} bind def
/Pattern4 {PatternBgnd KeepColor Landscape {Pat5} {Pat4} ifelse setpattern} bind def
/Pattern5 {PatternBgnd KeepColor Landscape {Pat4} {Pat5} ifelse setpattern} bind def
/Pattern6 {PatternBgnd KeepColor Landscape {Pat9} {Pat6} ifelse setpattern} bind def
/Pattern7 {PatternBgnd KeepColor Landscape {Pat8} {Pat7} ifelse setpattern} bind def
} def
%
%
%End of PostScript Level 2 code
%
/PatternBgnd {
  TransparentPatterns {} {gsave 1 setgray fill grestore} ifelse
} def
%
% Substitute for Level 2 pattern fill codes with
% grayscale if Level 2 support is not selected.
%
/Level1PatternFill {
/Pattern1 {0.250 Density} bind def
/Pattern2 {0.500 Density} bind def
/Pattern3 {0.750 Density} bind def
/Pattern4 {0.125 Density} bind def
/Pattern5 {0.375 Density} bind def
/Pattern6 {0.625 Density} bind def
/Pattern7 {0.875 Density} bind def
} def
%
% Now test for support of Level 2 code
%
Level1 {Level1PatternFill} {Level2PatternFill} ifelse
%
/Symbol-Oblique /Symbol findfont [1 0 .167 1 0 0] makefont
dup length dict begin {1 index /FID eq {pop pop} {def} ifelse} forall
currentdict end definefont pop
%
/MFshow {
   { dup 5 get 3 ge
     { 5 get 3 eq {gsave} {grestore} ifelse }
     {dup dup 0 get findfont exch 1 get scalefont setfont
     [ currentpoint ] exch dup 2 get 0 exch R dup 5 get 2 ne {dup dup 6
     get exch 4 get {textshow} {stringwidth pop 0 R} ifelse }if dup 5 get 0 eq
     {dup 3 get {2 get neg 0 exch R pop} {pop aload pop M} ifelse} {dup 5
     get 1 eq {dup 2 get exch dup 3 get exch 6 get stringwidth pop -2 div
     dup 0 R} {dup 6 get stringwidth pop -2 div 0 R 6 get
     textshow 2 index {aload pop M neg 3 -1 roll neg R pop pop} {pop pop pop
     pop aload pop M} ifelse }ifelse }ifelse }
     ifelse }
   forall} def
/Gswidth {dup type /stringtype eq {stringwidth} {pop (n) stringwidth} ifelse} def
/MFwidth {0 exch { dup 5 get 3 ge { 5 get 3 eq { 0 } { pop } ifelse }
 {dup 3 get{dup dup 0 get findfont exch 1 get scalefont setfont
     6 get Gswidth pop add} {pop} ifelse} ifelse} forall} def
/MLshow { currentpoint stroke M
  0 exch R
  Blacktext {gsave 0 setgray MFshow grestore} {MFshow} ifelse } bind def
/MRshow { currentpoint stroke M
  exch dup MFwidth neg 3 -1 roll R
  Blacktext {gsave 0 setgray MFshow grestore} {MFshow} ifelse } bind def
/MCshow { currentpoint stroke M
  exch dup MFwidth -2 div 3 -1 roll R
  Blacktext {gsave 0 setgray MFshow grestore} {MFshow} ifelse } bind def
/XYsave    { [( ) 1 2 true false 3 ()] } bind def
/XYrestore { [( ) 1 2 true false 4 ()] } bind def
Level1 SuppressPDFMark or 
{} {
/SDict 10 dict def
systemdict /pdfmark known not {
  userdict /pdfmark systemdict /cleartomark get put
} if
SDict begin [
  /Title (chartSS2.eps)
  /Subject (gnuplot plot)
  /Creator (gnuplot 5.0 patchlevel 5)
  /Author (steve)
%  /Producer (gnuplot)
%  /Keywords ()
  /CreationDate (Fri Mar 31 16:25:03 2017)
  /DOCINFO pdfmark
end
} ifelse
%
% Support for boxed text - Ethan A Merritt May 2005
%
/InitTextBox { userdict /TBy2 3 -1 roll put userdict /TBx2 3 -1 roll put
           userdict /TBy1 3 -1 roll put userdict /TBx1 3 -1 roll put
	   /Boxing true def } def
/ExtendTextBox { Boxing
    { gsave dup false charpath pathbbox
      dup TBy2 gt {userdict /TBy2 3 -1 roll put} {pop} ifelse
      dup TBx2 gt {userdict /TBx2 3 -1 roll put} {pop} ifelse
      dup TBy1 lt {userdict /TBy1 3 -1 roll put} {pop} ifelse
      dup TBx1 lt {userdict /TBx1 3 -1 roll put} {pop} ifelse
      grestore } if } def
/PopTextBox { newpath TBx1 TBxmargin sub TBy1 TBymargin sub M
               TBx1 TBxmargin sub TBy2 TBymargin add L
	       TBx2 TBxmargin add TBy2 TBymargin add L
	       TBx2 TBxmargin add TBy1 TBymargin sub L closepath } def
/DrawTextBox { PopTextBox stroke /Boxing false def} def
/FillTextBox { gsave PopTextBox 1 1 1 setrgbcolor fill grestore /Boxing false def} def
0 0 0 0 InitTextBox
/TBxmargin 20 def
/TBymargin 20 def
/Boxing false def
/textshow { ExtendTextBox Gshow } def
%
% redundant definitions for compatibility with prologue.ps older than 5.0.2
/LTB {BL [] LCb DL} def
/LTb {PL [] LCb DL} def
end
%%EndProlog
%%Page: 1 1
gnudict begin
gsave
doclip
50 50 translate
0.050 0.050 scale
0 setgray
newpath
(Helvetica) findfont 140 scalefont setfont
BackgroundColor 0 lt 3 1 roll 0 lt exch 0 lt or or not {BackgroundColor C 1.000 0 0 7200.00 5040.00 BoxColFill} if
1.000 UL
LTb
LCb setrgbcolor
462 280 M
63 0 V
6422 0 R
-63 0 V
stroke
378 280 M
[ [(Helvetica) 140.0 0.0 true true 0 (-5)]
] -46.7 MRshow
1.000 UL
LTb
LCb setrgbcolor
462 854 M
63 0 V
6422 0 R
-63 0 V
stroke
378 854 M
[ [(Helvetica) 140.0 0.0 true true 0 ( 0)]
] -46.7 MRshow
1.000 UL
LTb
LCb setrgbcolor
462 1428 M
63 0 V
6422 0 R
-63 0 V
stroke
378 1428 M
[ [(Helvetica) 140.0 0.0 true true 0 ( 5)]
] -46.7 MRshow
1.000 UL
LTb
LCb setrgbcolor
462 2002 M
63 0 V
6422 0 R
-63 0 V
stroke
378 2002 M
[ [(Helvetica) 140.0 0.0 true true 0 ( 10)]
] -46.7 MRshow
1.000 UL
LTb
LCb setrgbcolor
462 2576 M
63 0 V
6422 0 R
-63 0 V
stroke
378 2576 M
[ [(Helvetica) 140.0 0.0 true true 0 ( 15)]
] -46.7 MRshow
1.000 UL
LTb
LCb setrgbcolor
462 3149 M
63 0 V
6422 0 R
-63 0 V
stroke
378 3149 M
[ [(Helvetica) 140.0 0.0 true true 0 ( 20)]
] -46.7 MRshow
1.000 UL
LTb
LCb setrgbcolor
462 3723 M
63 0 V
6422 0 R
-63 0 V
stroke
378 3723 M
[ [(Helvetica) 140.0 0.0 true true 0 ( 25)]
] -46.7 MRshow
1.000 UL
LTb
LCb setrgbcolor
462 4297 M
63 0 V
6422 0 R
-63 0 V
stroke
378 4297 M
[ [(Helvetica) 140.0 0.0 true true 0 ( 30)]
] -46.7 MRshow
1.000 UL
LTb
LCb setrgbcolor
462 4871 M
63 0 V
6422 0 R
-63 0 V
stroke
378 4871 M
[ [(Helvetica) 140.0 0.0 true true 0 ( 35)]
] -46.7 MRshow
1.000 UL
LTb
LCb setrgbcolor
462 280 M
0 63 V
0 4528 R
0 -63 V
stroke
462 140 M
[ [(Helvetica) 140.0 0.0 true true 0 ( 0)]
] -46.7 MCshow
1.000 UL
LTb
LCb setrgbcolor
1183 280 M
0 63 V
0 4528 R
0 -63 V
stroke
1183 140 M
[ [(Helvetica) 140.0 0.0 true true 0 ( 100)]
] -46.7 MCshow
1.000 UL
LTb
LCb setrgbcolor
1903 280 M
0 63 V
0 4528 R
0 -63 V
stroke
1903 140 M
[ [(Helvetica) 140.0 0.0 true true 0 ( 200)]
] -46.7 MCshow
1.000 UL
LTb
LCb setrgbcolor
2624 280 M
0 63 V
0 4528 R
0 -63 V
stroke
2624 140 M
[ [(Helvetica) 140.0 0.0 true true 0 ( 300)]
] -46.7 MCshow
1.000 UL
LTb
LCb setrgbcolor
3344 280 M
0 63 V
0 4528 R
0 -63 V
stroke
3344 140 M
[ [(Helvetica) 140.0 0.0 true true 0 ( 400)]
] -46.7 MCshow
1.000 UL
LTb
LCb setrgbcolor
4065 280 M
0 63 V
0 4528 R
0 -63 V
stroke
4065 140 M
[ [(Helvetica) 140.0 0.0 true true 0 ( 500)]
] -46.7 MCshow
1.000 UL
LTb
LCb setrgbcolor
4785 280 M
0 63 V
0 4528 R
0 -63 V
stroke
4785 140 M
[ [(Helvetica) 140.0 0.0 true true 0 ( 600)]
] -46.7 MCshow
1.000 UL
LTb
LCb setrgbcolor
5506 280 M
0 63 V
0 4528 R
0 -63 V
stroke
5506 140 M
[ [(Helvetica) 140.0 0.0 true true 0 ( 700)]
] -46.7 MCshow
1.000 UL
LTb
LCb setrgbcolor
6226 280 M
0 63 V
0 4528 R
0 -63 V
stroke
6226 140 M
[ [(Helvetica) 140.0 0.0 true true 0 ( 800)]
] -46.7 MCshow
1.000 UL
LTb
LCb setrgbcolor
6947 280 M
0 63 V
0 4528 R
0 -63 V
stroke
6947 140 M
[ [(Helvetica) 140.0 0.0 true true 0 ( 900)]
] -46.7 MCshow
1.000 UL
LTb
LCb setrgbcolor
1.000 UL
LTB
LCb setrgbcolor
462 4871 N
462 280 L
6485 0 V
0 4591 V
-6485 0 V
Z stroke
1.000 UP
1.000 UL
LTb
LCb setrgbcolor
% Begin plot #1
1.000 UL
LTb
0.58 0.00 0.83 C LCb setrgbcolor
6296 4738 M
[ [(Helvetica) 140.0 0.0 true true 0 (original)]
] -46.7 MRshow
1.000 UL
LTb
0.58 0.00 0.83 C 6380 4738 M
399 0 V
462 2002 M
7 0 V
7 0 V
8 0 V
7 0 V
7 0 V
7 0 V
7 0 V
8 0 V
7 0 V
7 0 V
7 0 V
7 0 V
8 0 V
7 0 V
7 0 V
7 0 V
7 0 V
8 0 V
7 0 V
7 0 V
7 0 V
8 0 V
7 0 V
7 0 V
7 0 V
7 0 V
8 0 V
7 0 V
7 0 V
7 0 V
7 0 V
8 0 V
7 0 V
7 0 V
7 0 V
7 0 V
8 0 V
7 0 V
7 0 V
7 0 V
7 0 V
8 0 V
7 0 V
7 0 V
7 0 V
7 0 V
8 0 V
7 0 V
7 0 V
7 0 V
7 0 V
8 0 V
7 0 V
7 0 V
7 0 V
8 0 V
7 0 V
7 0 V
7 0 V
7 0 V
8 0 V
7 0 V
7 0 V
7 0 V
7 0 V
8 0 V
7 0 V
7 0 V
7 0 V
7 0 V
8 0 V
7 0 V
7 0 V
7 0 V
7 0 V
8 0 V
7 0 V
7 0 V
7 0 V
7 0 V
8 0 V
7 0 V
7 0 V
7 0 V
7 0 V
8 0 V
7 0 V
7 0 V
7 0 V
8 0 V
7 0 V
7 0 V
7 0 V
7 0 V
8 0 V
7 0 V
7 0 V
7 0 V
7 0 V
8 0 V
7 0 V
7 0 V
stroke 1197 2002 M
7 0 V
7 0 V
8 0 V
7 0 V
7 0 V
7 0 V
7 0 V
8 0 V
7 0 V
7 0 V
7 0 V
7 0 V
8 0 V
7 0 V
7 0 V
7 0 V
7 0 V
8 0 V
7 0 V
7 0 V
7 0 V
7 0 V
8 0 V
7 0 V
7 0 V
7 0 V
8 0 V
7 0 V
7 0 V
7 0 V
7 0 V
8 0 V
7 0 V
7 0 V
7 0 V
7 0 V
8 0 V
7 0 V
7 0 V
7 0 V
7 0 V
8 0 V
7 0 V
7 0 V
7 0 V
7 0 V
8 0 V
7 0 V
7 0 V
7 0 V
7 0 V
8 0 V
7 0 V
7 0 V
7 0 V
7 0 V
8 0 V
7 0 V
7 0 V
7 0 V
8 0 V
7 0 V
7 0 V
7 0 V
7 0 V
8 0 V
7 0 V
7 0 V
7 0 V
7 0 V
8 0 V
7 0 V
7 0 V
7 0 V
7 0 V
8 0 V
7 0 V
7 0 V
7 0 V
7 0 V
8 0 V
7 0 V
7 0 V
7 0 V
7 0 V
8 0 V
7 0 V
7 0 V
7 0 V
7 0 V
8 0 V
7 0 V
7 0 V
7 0 V
7 0 V
8 0 V
7 0 V
7 0 V
7 0 V
8 0 V
7 0 V
7 0 V
7 0 V
7 0 V
stroke 1946 2002 M
8 0 V
7 0 V
7 0 V
7 0 V
7 0 V
8 0 V
7 0 V
7 0 V
7 0 V
7 0 V
8 0 V
7 0 V
7 0 V
7 0 V
7 0 V
8 0 V
7 0 V
7 0 V
7 0 V
7 0 V
8 0 V
7 0 V
7 0 V
7 0 V
7 0 V
8 0 V
7 0 V
7 0 V
7 0 V
8 0 V
7 0 V
7 0 V
7 0 V
7 0 V
8 0 V
7 0 V
7 0 V
7 0 V
7 0 V
8 0 V
7 0 V
7 0 V
7 0 V
7 0 V
8 0 V
7 0 V
7 0 V
7 0 V
7 0 V
8 0 V
7 0 V
7 0 V
7 0 V
7 0 V
8 0 V
7 0 V
7 0 V
7 0 V
7 0 V
8 0 V
7 0 V
7 0 V
7 0 V
8 0 V
7 0 V
7 0 V
7 0 V
7 0 V
8 0 V
7 0 V
7 0 V
7 0 V
7 0 V
8 0 V
7 0 V
7 0 V
7 0 V
7 0 V
8 0 V
7 0 V
7 0 V
7 0 V
7 0 V
8 0 V
7 0 V
7 0 V
7 0 V
7 0 V
8 0 V
7 0 V
7 0 V
7 0 V
7 0 V
8 0 V
7 0 V
7 0 V
7 0 V
7 0 V
8 0 V
7 0 V
7 0 V
7 0 V
8 0 V
7 0 V
stroke 2696 2002 M
7 0 V
7 0 V
7 0 V
8 0 V
7 0 V
7 0 V
7 0 V
7 0 V
8 0 V
7 0 V
7 0 V
7 0 V
7 0 V
8 0 V
7 0 V
7 0 V
7 0 V
7 0 V
8 0 V
7 0 V
7 0 V
7 0 V
7 0 V
8 0 V
7 0 V
7 0 V
7 0 V
7 0 V
8 0 V
7 0 V
7 0 V
7 0 V
8 0 V
7 0 V
7 0 V
7 0 V
7 0 V
8 0 V
7 0 V
7 0 V
7 0 V
7 0 V
8 0 V
7 0 V
7 0 V
7 0 V
7 0 V
8 0 V
7 0 V
7 0 V
7 0 V
7 0 V
8 0 V
7 0 V
7 0 V
7 0 V
7 0 V
8 0 V
7 0 V
7 0 V
7 0 V
7 0 V
8 0 V
7 0 V
7 0 V
7 0 V
7 0 V
8 0 V
7 0 V
7 0 V
7 0 V
8 0 V
7 0 V
7 0 V
7 0 V
7 0 V
8 0 V
7 0 V
7 0 V
7 0 V
7 0 V
8 0 V
7 0 V
7 0 V
7 0 V
7 0 V
8 0 V
7 0 V
7 0 V
7 0 V
7 0 V
8 0 V
7 0 V
7 0 V
7 0 V
7 0 V
8 0 V
7 0 V
7 0 V
7 0 V
7 0 V
8 0 V
7 0 V
7 0 V
stroke 3445 2002 M
7 0 V
8 0 V
7 0 V
7 0 V
7 0 V
7 0 V
8 0 V
7 0 V
7 0 V
7 0 V
7 0 V
8 0 V
7 0 V
7 0 V
7 0 V
7 0 V
8 0 V
7 0 V
7 0 V
7 0 V
7 0 V
8 0 V
7 0 V
7 0 V
7 0 V
7 0 V
8 0 V
7 0 V
7 0 V
7 0 V
7 0 V
8 0 V
7 0 V
7 0 V
7 0 V
8 0 V
7 0 V
7 0 V
7 0 V
7 0 V
8 0 V
7 0 V
7 0 V
7 0 V
7 0 V
8 0 V
7 0 V
7 0 V
7 0 V
7 0 V
8 0 V
7 0 V
7 0 V
7 0 V
7 0 V
8 0 V
7 0 V
7 0 V
7 0 V
7 0 V
8 0 V
7 0 V
7 0 V
7 0 V
7 0 V
8 0 V
7 0 V
7 0 V
7 0 V
7 0 V
8 0 V
7 0 V
7 0 V
7 0 V
8 0 V
7 0 V
7 0 V
7 0 V
7 0 V
8 0 V
7 0 V
7 0 V
7 0 V
7 0 V
8 0 V
7 0 V
7 0 V
7 0 V
7 0 V
8 0 V
7 0 V
7 0 V
7 0 V
7 0 V
8 0 V
7 0 V
7 0 V
7 0 V
7 0 V
8 0 V
7 0 V
7 0 V
7 0 V
7 0 V
stroke 4194 2002 M
8 0 V
7 0 V
7 0 V
7 0 V
8 0 V
7 0 V
7 0 V
7 0 V
7 0 V
8 0 V
7 0 V
7 0 V
7 0 V
7 0 V
8 0 V
7 0 V
7 0 V
7 0 V
7 0 V
8 0 V
7 0 V
7 0 V
7 0 V
7 0 V
8 0 V
7 0 V
7 0 V
7 0 V
7 0 V
8 0 V
7 0 V
7 0 V
7 0 V
7 0 V
8 0 V
7 0 V
7 0 V
7 0 V
7 0 V
8 0 V
7 0 V
7 0 V
7 0 V
8 0 V
7 0 V
7 0 V
7 0 V
7 0 V
8 0 V
7 0 V
7 0 V
7 0 V
7 0 V
8 0 V
7 0 V
7 0 V
7 0 V
7 0 V
8 0 V
7 0 V
7 0 V
7 0 V
7 0 V
8 0 V
7 0 V
7 0 V
7 0 V
7 0 V
8 0 V
7 0 V
7 0 V
7 0 V
7 0 V
8 0 V
7 0 V
7 0 V
7 0 V
8 0 V
7 0 V
7 0 V
7 0 V
7 0 V
8 0 V
7 0 V
7 0 V
7 0 V
7 0 V
8 0 V
7 0 V
7 0 V
7 0 V
7 0 V
8 0 V
7 0 V
7 0 V
7 0 V
7 0 V
8 0 V
7 0 V
7 0 V
7 0 V
7 0 V
8 0 V
7 0 V
stroke 4944 2002 M
7 0 V
7 0 V
7 0 V
8 0 V
7 0 V
7 0 V
7 0 V
8 0 V
7 0 V
7 0 V
7 0 V
7 0 V
8 0 V
7 0 V
7 0 V
7 0 V
7 0 V
8 0 V
7 0 V
7 0 V
7 0 V
7 0 V
8 0 V
7 0 V
7 0 V
7 0 V
7 0 V
8 0 V
7 0 V
7 0 V
7 0 V
7 0 V
8 0 V
7 0 V
7 0 V
7 0 V
7 0 V
8 0 V
7 0 V
7 0 V
7 0 V
7 0 V
8 0 V
7 0 V
7 0 V
7 0 V
8 0 V
7 0 V
7 0 V
7 0 V
7 0 V
8 0 V
7 0 V
7 0 V
7 0 V
7 0 V
8 0 V
7 0 V
7 0 V
7 0 V
7 0 V
8 0 V
7 0 V
7 0 V
7 0 V
7 0 V
8 0 V
7 0 V
7 0 V
7 0 V
7 0 V
8 0 V
7 0 V
7 0 V
7 0 V
7 0 V
8 0 V
7 0 V
7 0 V
7 0 V
8 0 V
7 0 V
7 0 V
7 0 V
7 0 V
8 0 V
7 0 V
7 0 V
7 0 V
7 0 V
8 0 V
7 0 V
7 0 V
7 0 V
7 0 V
8 0 V
7 0 V
7 0 V
7 0 V
7 0 V
8 0 V
7 0 V
7 0 V
7 0 V
stroke 5693 2002 M
7 0 V
8 0 V
7 0 V
7 0 V
7 0 V
7 0 V
8 0 V
7 0 V
7 0 V
7 0 V
7 0 V
8 0 V
7 0 V
7 0 V
7 0 V
8 0 V
7 0 V
7 0 V
7 0 V
7 0 V
8 0 V
7 0 V
7 0 V
7 0 V
7 0 V
8 0 V
7 0 V
7 0 V
7 0 V
7 0 V
8 0 V
7 0 V
7 0 V
7 0 V
7 0 V
8 0 V
7 0 V
7 0 V
7 0 V
7 0 V
8 0 V
7 0 V
7 0 V
7 0 V
7 0 V
8 0 V
7 0 V
7 0 V
7 0 V
8 0 V
7 0 V
7 0 V
7 0 V
7 0 V
8 0 V
7 0 V
7 0 V
7 0 V
7 0 V
8 0 V
7 0 V
7 0 V
7 0 V
7 0 V
8 0 V
7 0 V
7 0 V
7 0 V
7 0 V
8 0 V
7 0 V
7 0 V
7 0 V
7 0 V
8 0 V
7 0 V
7 0 V
7 0 V
7 0 V
8 0 V
7 0 V
7 0 V
7 0 V
8 0 V
7 0 V
7 0 V
7 0 V
7 0 V
8 0 V
7 0 V
7 0 V
7 0 V
7 0 V
8 0 V
7 0 V
7 0 V
7 0 V
7 0 V
8 0 V
7 0 V
7 0 V
7 0 V
7 0 V
8 0 V
stroke 6443 2002 M
7 0 V
7 0 V
7 0 V
7 0 V
8 0 V
7 0 V
7 0 V
7 0 V
7 0 V
8 0 V
7 0 V
7 0 V
7 0 V
7 0 V
8 0 V
7 0 V
7 0 V
7 0 V
8 0 V
7 0 V
7 0 V
7 0 V
7 0 V
8 0 V
7 0 V
7 0 V
7 0 V
7 0 V
8 0 V
7 0 V
7 0 V
7 0 V
7 0 V
8 0 V
7 0 V
7 0 V
7 0 V
7 0 V
8 0 V
7 0 V
7 0 V
7 0 V
7 0 V
8 0 V
7 0 V
7 0 V
7 0 V
7 0 V
8 0 V
7 0 V
7 0 V
7 0 V
8 0 V
7 0 V
7 0 V
7 0 V
7 0 V
8 0 V
7 0 V
7 0 V
7 0 V
7 0 V
8 0 V
7 0 V
7 0 V
7 0 V
% End plot #1
% Begin plot #2
1.000 UP
stroke
LTb
0.00 0.62 0.45 C LCb setrgbcolor
6296 4598 M
[ [(Helvetica) 140.0 0.0 true true 0 (oracolo)]
] -46.7 MRshow
1.000 UP
1.000 UL
LTb
0.00 0.62 0.45 C 6380 4598 M
399 0 V
462 854 M
7 0 V
7 0 V
8 1722 V
7 0 V
498 739 L
7 2066 V
7 0 V
520 739 L
7 1837 V
7 0 V
541 739 L
7 1837 V
8 0 V
563 739 L
7 1837 V
7 0 V
584 739 L
8 1722 V
7 0 V
7 0 V
7 574 V
8 0 V
7 0 V
7 0 V
7 0 V
7 0 V
8 0 V
7 0 V
7 0 V
7 0 V
7 0 V
8 0 V
7 -230 V
7 0 V
714 739 L
7 2066 V
8 0 V
736 739 L
7 1837 V
7 0 V
757 739 L
8 1722 V
7 0 V
779 739 L
7 1837 V
7 0 V
8 0 V
7 0 V
7 0 V
822 739 L
7 2066 V
8 0 V
844 739 L
7 1837 V
7 0 V
866 739 L
7 1837 V
7 0 V
887 739 L
7 1837 V
8 0 V
909 739 L
7 1837 V
7 0 V
930 739 L
8 1837 V
7 0 V
952 739 L
7 1837 V
7 0 V
8 0 V
7 0 V
7 0 V
995 739 L
7 2066 V
8 0 V
7 -2066 V
7 1722 V
7 0 V
7 0 V
8 574 V
7 0 V
7 0 V
7 0 V
7 0 V
8 0 V
7 0 V
7 0 V
7 0 V
8 0 V
7 0 V
7 0 V
7 0 V
7 0 V
8 0 V
7 -230 V
7 0 V
7 0 V
7 230 V
8 0 V
7 0 V
7 0 V
7 0 V
7 0 V
8 0 V
7 0 V
7 -2296 V
7 2296 V
7 0 V
8 -2296 V
7 1837 V
7 0 V
7 0 V
7 -115 V
8 0 V
7 -1722 V
7 2296 V
7 0 V
7 -2296 V
8 2296 V
7 0 V
7 0 V
7 -230 V
7 0 V
8 0 V
7 0 V
7 230 V
7 0 V
8 0 V
7 0 V
7 0 V
7 0 V
7 0 V
8 0 V
7 0 V
7 0 V
7 0 V
7 0 V
8 0 V
7 -115 V
7 0 V
7 0 V
7 -115 V
8 0 V
7 0 V
7 230 V
7 0 V
7 0 V
8 0 V
7 0 V
7 0 V
7 0 V
7 0 V
8 0 V
7 0 V
7 0 V
7 0 V
7 0 V
8 -115 V
7 0 V
7 0 V
7 -115 V
8 0 V
7 230 V
7 0 V
7 0 V
7 -115 V
8 0 V
7 115 V
7 0 V
7 0 V
7 -115 V
8 0 V
7 0 V
7 115 V
7 0 V
7 0 V
8 0 V
stroke 1745 3035 M
7 0 V
7 0 V
7 0 V
7 0 V
8 0 V
7 0 V
7 0 V
7 0 V
7 0 V
8 0 V
7 0 V
7 0 V
7 0 V
7 0 V
8 0 V
7 0 V
7 -115 V
7 0 V
7 0 V
8 -115 V
7 0 V
7 -2066 V
7 2181 V
8 0 V
7 -2181 V
7 1837 V
7 0 V
7 -1837 V
8 1837 V
7 0 V
7 -1837 V
7 1837 V
7 0 V
8 -1837 V
7 2181 V
7 0 V
7 0 V
7 -344 V
8 0 V
7 0 V
7 459 V
7 0 V
7 0 V
8 0 V
7 0 V
7 -2296 V
7 2181 V
7 0 V
8 -2181 V
7 2296 V
7 0 V
7 0 V
7 0 V
8 0 V
7 0 V
7 0 V
7 0 V
8 -2296 V
7 2296 V
7 0 V
7 0 V
7 -459 V
8 0 V
7 -1837 V
7 2296 V
7 0 V
7 0 V
8 0 V
7 0 V
7 -2296 V
7 2296 V
7 0 V
8 0 V
7 0 V
7 -345 V
7 0 V
7 0 V
8 0 V
7 0 V
7 115 V
7 0 V
7 0 V
8 230 V
7 0 V
7 0 V
7 0 V
7 0 V
8 0 V
7 -115 V
7 0 V
7 -2181 V
8 2181 V
7 0 V
7 0 V
7 -344 V
7 0 V
8 -1837 V
7 1951 V
7 0 V
7 -1951 V
7 1951 V
8 0 V
7 0 V
7 345 V
stroke 2494 3035 M
7 0 V
7 -2296 V
8 2066 V
7 0 V
7 -2066 V
7 1837 V
7 0 V
8 -1837 V
7 2066 V
7 0 V
7 0 V
7 230 V
8 0 V
7 0 V
7 0 V
7 0 V
7 0 V
8 -115 V
7 0 V
7 0 V
7 115 V
7 0 V
8 0 V
7 0 V
7 0 V
7 0 V
8 0 V
7 0 V
7 0 V
7 -345 V
7 0 V
8 -1951 V
7 1951 V
7 0 V
7 -1951 V
7 2296 V
8 0 V
7 0 V
7 0 V
7 0 V
7 0 V
8 -115 V
7 0 V
7 0 V
7 115 V
7 0 V
8 0 V
7 0 V
7 0 V
7 -2296 V
7 2296 V
8 0 V
7 -2296 V
7 1837 V
7 0 V
7 -1837 V
8 1951 V
7 0 V
7 0 V
7 345 V
8 0 V
7 -2296 V
7 2296 V
7 0 V
7 0 V
8 0 V
7 0 V
7 0 V
7 -115 V
7 0 V
8 0 V
7 0 V
7 -344 V
7 0 V
7 344 V
8 0 V
7 -2181 V
7 2296 V
7 0 V
7 -2296 V
8 1837 V
7 0 V
7 -1837 V
7 1837 V
7 0 V
8 0 V
7 0 V
7 0 V
7 0 V
7 459 V
8 0 V
7 -2296 V
7 2066 V
7 0 V
7 -2066 V
8 2066 V
7 0 V
7 -2066 V
7 2296 V
8 0 V
7 -2296 V
7 1837 V
7 0 V
7 -1837 V
stroke 3243 739 M
8 1951 V
7 0 V
7 0 V
7 345 V
7 0 V
8 0 V
7 0 V
7 0 V
7 -2296 V
7 2296 V
8 0 V
7 0 V
7 -459 V
7 0 V
7 -1837 V
8 2066 V
7 0 V
7 -2066 V
7 1837 V
7 0 V
8 -1837 V
7 1837 V
7 0 V
7 -1837 V
7 1951 V
8 0 V
7 -1951 V
7 1837 V
7 0 V
8 -1837 V
7 1837 V
7 0 V
7 0 V
7 0 V
8 0 V
7 -1837 V
7 2181 V
7 0 V
7 -2181 V
8 2296 V
7 0 V
7 -2296 V
7 1951 V
7 0 V
8 -1951 V
7 2296 V
7 0 V
7 -2296 V
7 1837 V
8 0 V
7 0 V
7 0 V
7 0 V
7 0 V
8 459 V
7 0 V
7 -2296 V
7 2296 V
7 0 V
8 0 V
7 -345 V
7 0 V
7 -1951 V
8 2066 V
7 0 V
7 -2066 V
7 1837 V
7 0 V
8 -1837 V
7 1837 V
7 0 V
7 0 V
7 0 V
8 0 V
7 -1837 V
7 2066 V
7 0 V
7 -2066 V
8 1837 V
7 0 V
7 0 V
7 -115 V
7 0 V
8 -1722 V
7 2296 V
7 0 V
7 -2296 V
7 1837 V
8 0 V
7 -1837 V
7 1722 V
7 0 V
7 -1722 V
8 2296 V
7 0 V
7 0 V
7 -459 V
7 0 V
8 -1837 V
7 1951 V
7 0 V
7 -1951 V
8 1837 V
7 0 V
stroke 3993 2576 M
7 -1837 V
7 1837 V
7 0 V
8 0 V
7 344 V
7 0 V
7 -2181 V
7 2296 V
8 0 V
7 -2296 V
7 2181 V
7 0 V
7 0 V
8 115 V
7 0 V
7 -2296 V
7 2296 V
7 0 V
8 -2296 V
7 1837 V
7 0 V
7 -1837 V
7 1837 V
8 0 V
7 -1837 V
7 1837 V
7 0 V
7 0 V
8 0 V
7 0 V
7 -1837 V
7 1951 V
8 0 V
7 -1951 V
7 1837 V
7 0 V
7 -1837 V
8 1837 V
7 0 V
7 -1837 V
7 1837 V
7 0 V
8 0 V
7 -115 V
7 0 V
7 -1722 V
7 2066 V
8 0 V
7 -2066 V
7 1837 V
7 0 V
7 -1837 V
8 1837 V
7 0 V
7 -1837 V
7 1837 V
7 0 V
8 -1837 V
7 1837 V
7 0 V
7 0 V
7 0 V
8 0 V
7 -1837 V
7 2181 V
7 0 V
7 -2181 V
8 2066 V
7 0 V
7 -2066 V
7 1837 V
8 0 V
7 -1837 V
7 1951 V
7 0 V
7 0 V
8 -114 V
7 0 V
7 0 V
7 459 V
7 0 V
8 0 V
7 0 V
7 0 V
7 0 V
7 0 V
8 0 V
7 0 V
7 0 V
7 -115 V
7 0 V
8 0 V
7 0 V
7 0 V
7 0 V
7 0 V
8 115 V
7 0 V
7 0 V
7 0 V
7 0 V
8 0 V
7 0 V
7 0 V
stroke 4742 3035 M
7 0 V
8 0 V
7 0 V
7 0 V
7 0 V
7 0 V
8 0 V
7 0 V
7 0 V
7 0 V
7 0 V
8 0 V
7 0 V
7 0 V
7 0 V
7 0 V
8 0 V
7 0 V
7 0 V
7 0 V
7 0 V
8 0 V
7 0 V
7 0 V
7 0 V
7 0 V
8 0 V
7 0 V
7 0 V
7 0 V
7 0 V
8 0 V
7 0 V
7 0 V
7 0 V
8 -230 V
7 0 V
7 -2066 V
7 2296 V
7 0 V
8 0 V
7 -574 V
7 0 V
7 0 V
7 574 V
8 0 V
7 -2296 V
7 2066 V
7 0 V
7 -2066 V
8 1722 V
7 0 V
7 -1722 V
7 1837 V
7 0 V
8 0 V
7 0 V
7 0 V
7 0 V
7 459 V
8 0 V
7 0 V
7 0 V
7 0 V
7 0 V
8 0 V
7 0 V
7 -2296 V
7 2066 V
7 0 V
8 0 V
7 230 V
7 0 V
7 0 V
8 0 V
7 0 V
7 0 V
7 0 V
7 0 V
8 0 V
7 0 V
7 0 V
7 0 V
7 0 V
8 0 V
7 0 V
7 0 V
7 0 V
7 0 V
8 0 V
7 0 V
7 0 V
7 0 V
7 0 V
8 0 V
7 0 V
7 0 V
7 -2296 V
7 1951 V
8 0 V
7 -1951 V
7 1837 V
7 0 V
7 -1837 V
stroke 5491 739 M
8 1837 V
7 0 V
7 -1837 V
7 1837 V
8 0 V
7 0 V
7 459 V
7 0 V
7 0 V
8 0 V
7 0 V
7 0 V
7 0 V
7 0 V
8 0 V
7 0 V
7 0 V
7 0 V
7 0 V
8 0 V
7 0 V
7 0 V
7 0 V
7 0 V
8 0 V
7 0 V
7 0 V
7 0 V
7 0 V
8 0 V
7 0 V
7 0 V
7 0 V
7 0 V
8 0 V
7 0 V
7 0 V
7 0 V
7 0 V
8 0 V
7 0 V
7 0 V
7 0 V
8 0 V
7 0 V
7 0 V
7 0 V
7 0 V
8 0 V
7 -115 V
7 0 V
7 -115 V
7 0 V
8 0 V
7 0 V
7 0 V
7 -2066 V
7 2296 V
8 0 V
7 0 V
7 -459 V
7 0 V
7 -1837 V
8 1951 V
7 0 V
7 -1951 V
7 1837 V
7 0 V
8 -1837 V
7 1837 V
7 0 V
7 -1837 V
7 1837 V
8 0 V
7 -1837 V
7 1837 V
7 0 V
8 -1837 V
7 1837 V
7 0 V
7 0 V
7 -115 V
8 0 V
7 -1722 V
7 2066 V
7 0 V
7 -2066 V
8 1837 V
7 0 V
7 -1837 V
7 1837 V
7 0 V
8 -1837 V
7 1837 V
7 0 V
7 -1837 V
7 1837 V
8 0 V
7 0 V
7 0 V
7 0 V
7 -1837 V
8 2066 V
7 0 V
stroke 6241 2805 M
7 -2066 V
7 1837 V
7 0 V
8 -1837 V
7 1837 V
7 0 V
7 -1837 V
8 1837 V
7 0 V
7 -1837 V
7 1837 V
7 0 V
8 -1837 V
7 1837 V
7 0 V
7 0 V
7 0 V
8 0 V
7 -1837 V
7 1951 V
7 0 V
7 -1951 V
8 1837 V
7 0 V
7 -1837 V
7 1837 V
7 0 V
8 -1837 V
7 1837 V
7 0 V
7 -1837 V
7 1837 V
8 0 V
7 -1837 V
7 1837 V
7 0 V
7 -1837 V
8 1837 V
7 0 V
7 -1837 V
7 1837 V
7 0 V
8 0 V
7 0 V
7 0 V
7 -1837 V
8 2066 V
7 0 V
7 -2066 V
7 2296 V
7 0 V
8 0 V
7 -230 V
7 0 V
7 0 V
7 230 V
8 0 V
7 0 V
7 -115 V
7 0 V
7 0 V
8 0 V
7 115 V
7 0 V
7 0 V
7 0 V
8 0 V
7 -230 V
7 0 V
7 0 V
7 0 V
8 0 V
7 0 V
7 0 V
7 115 V
7 0 V
8 0 V
7 0 V
7 0 V
7 -115 V
8 0 V
7 -229 V
7 0 V
7 229 V
7 0 V
8 -115 V
7 0 V
7 115 V
7 0 V
7 0 V
8 0 V
462 854 Crs
469 854 Crs
476 854 Crs
484 2576 Crs
491 2576 Crs
498 739 Crs
505 2805 Crs
512 2805 Crs
520 739 Crs
527 2576 Crs
534 2576 Crs
541 739 Crs
548 2576 Crs
556 2576 Crs
563 739 Crs
570 2576 Crs
577 2576 Crs
584 739 Crs
592 2461 Crs
599 2461 Crs
606 2461 Crs
613 3035 Crs
621 3035 Crs
628 3035 Crs
635 3035 Crs
642 3035 Crs
649 3035 Crs
657 3035 Crs
664 3035 Crs
671 3035 Crs
678 3035 Crs
685 3035 Crs
693 3035 Crs
700 2805 Crs
707 2805 Crs
714 739 Crs
721 2805 Crs
729 2805 Crs
736 739 Crs
743 2576 Crs
750 2576 Crs
757 739 Crs
765 2461 Crs
772 2461 Crs
779 739 Crs
786 2576 Crs
793 2576 Crs
801 2576 Crs
808 2576 Crs
815 2576 Crs
822 739 Crs
829 2805 Crs
837 2805 Crs
844 739 Crs
851 2576 Crs
858 2576 Crs
866 739 Crs
873 2576 Crs
880 2576 Crs
887 739 Crs
894 2576 Crs
902 2576 Crs
909 739 Crs
916 2576 Crs
923 2576 Crs
930 739 Crs
938 2576 Crs
945 2576 Crs
952 739 Crs
959 2576 Crs
966 2576 Crs
974 2576 Crs
981 2576 Crs
988 2576 Crs
995 739 Crs
1002 2805 Crs
1010 2805 Crs
1017 739 Crs
1024 2461 Crs
1031 2461 Crs
1038 2461 Crs
1046 3035 Crs
1053 3035 Crs
1060 3035 Crs
1067 3035 Crs
1074 3035 Crs
1082 3035 Crs
1089 3035 Crs
1096 3035 Crs
1103 3035 Crs
1111 3035 Crs
1118 3035 Crs
1125 3035 Crs
1132 3035 Crs
1139 3035 Crs
1147 3035 Crs
1154 2805 Crs
1161 2805 Crs
1168 2805 Crs
1175 3035 Crs
1183 3035 Crs
1190 3035 Crs
1197 3035 Crs
1204 3035 Crs
1211 3035 Crs
1219 3035 Crs
1226 3035 Crs
1233 739 Crs
1240 3035 Crs
1247 3035 Crs
1255 739 Crs
1262 2576 Crs
1269 2576 Crs
1276 2576 Crs
1283 2461 Crs
1291 2461 Crs
1298 739 Crs
1305 3035 Crs
1312 3035 Crs
1319 739 Crs
1327 3035 Crs
1334 3035 Crs
1341 3035 Crs
1348 2805 Crs
1355 2805 Crs
1363 2805 Crs
1370 2805 Crs
1377 3035 Crs
1384 3035 Crs
1392 3035 Crs
1399 3035 Crs
1406 3035 Crs
1413 3035 Crs
1420 3035 Crs
1428 3035 Crs
1435 3035 Crs
1442 3035 Crs
1449 3035 Crs
1456 3035 Crs
1464 3035 Crs
1471 2920 Crs
1478 2920 Crs
1485 2920 Crs
1492 2805 Crs
1500 2805 Crs
1507 2805 Crs
1514 3035 Crs
1521 3035 Crs
1528 3035 Crs
1536 3035 Crs
1543 3035 Crs
1550 3035 Crs
1557 3035 Crs
1564 3035 Crs
1572 3035 Crs
1579 3035 Crs
1586 3035 Crs
1593 3035 Crs
1600 3035 Crs
1608 2920 Crs
1615 2920 Crs
1622 2920 Crs
1629 2805 Crs
1637 2805 Crs
1644 3035 Crs
1651 3035 Crs
1658 3035 Crs
1665 2920 Crs
1673 2920 Crs
1680 3035 Crs
1687 3035 Crs
1694 3035 Crs
1701 2920 Crs
1709 2920 Crs
1716 2920 Crs
1723 3035 Crs
1730 3035 Crs
1737 3035 Crs
1745 3035 Crs
1752 3035 Crs
1759 3035 Crs
1766 3035 Crs
1773 3035 Crs
1781 3035 Crs
1788 3035 Crs
1795 3035 Crs
1802 3035 Crs
1809 3035 Crs
1817 3035 Crs
1824 3035 Crs
1831 3035 Crs
1838 3035 Crs
1845 3035 Crs
1853 3035 Crs
1860 3035 Crs
1867 2920 Crs
1874 2920 Crs
1881 2920 Crs
1889 2805 Crs
1896 2805 Crs
1903 739 Crs
1910 2920 Crs
1918 2920 Crs
1925 739 Crs
1932 2576 Crs
1939 2576 Crs
1946 739 Crs
1954 2576 Crs
1961 2576 Crs
1968 739 Crs
1975 2576 Crs
1982 2576 Crs
1990 739 Crs
1997 2920 Crs
2004 2920 Crs
2011 2920 Crs
2018 2576 Crs
2026 2576 Crs
2033 2576 Crs
2040 3035 Crs
2047 3035 Crs
2054 3035 Crs
2062 3035 Crs
2069 3035 Crs
2076 739 Crs
2083 2920 Crs
2090 2920 Crs
2098 739 Crs
2105 3035 Crs
2112 3035 Crs
2119 3035 Crs
2126 3035 Crs
2134 3035 Crs
2141 3035 Crs
2148 3035 Crs
2155 3035 Crs
2163 739 Crs
2170 3035 Crs
2177 3035 Crs
2184 3035 Crs
2191 2576 Crs
2199 2576 Crs
2206 739 Crs
2213 3035 Crs
2220 3035 Crs
2227 3035 Crs
2235 3035 Crs
2242 3035 Crs
2249 739 Crs
2256 3035 Crs
2263 3035 Crs
2271 3035 Crs
2278 3035 Crs
2285 2690 Crs
2292 2690 Crs
2299 2690 Crs
2307 2690 Crs
2314 2690 Crs
2321 2805 Crs
2328 2805 Crs
2335 2805 Crs
2343 3035 Crs
2350 3035 Crs
2357 3035 Crs
2364 3035 Crs
2371 3035 Crs
2379 3035 Crs
2386 2920 Crs
2393 2920 Crs
2400 739 Crs
2408 2920 Crs
2415 2920 Crs
2422 2920 Crs
2429 2576 Crs
2436 2576 Crs
2444 739 Crs
2451 2690 Crs
2458 2690 Crs
2465 739 Crs
2472 2690 Crs
2480 2690 Crs
2487 2690 Crs
2494 3035 Crs
2501 3035 Crs
2508 739 Crs
2516 2805 Crs
2523 2805 Crs
2530 739 Crs
2537 2576 Crs
2544 2576 Crs
2552 739 Crs
2559 2805 Crs
2566 2805 Crs
2573 2805 Crs
2580 3035 Crs
2588 3035 Crs
2595 3035 Crs
2602 3035 Crs
2609 3035 Crs
2616 3035 Crs
2624 2920 Crs
2631 2920 Crs
2638 2920 Crs
2645 3035 Crs
2652 3035 Crs
2660 3035 Crs
2667 3035 Crs
2674 3035 Crs
2681 3035 Crs
2689 3035 Crs
2696 3035 Crs
2703 3035 Crs
2710 2690 Crs
2717 2690 Crs
2725 739 Crs
2732 2690 Crs
2739 2690 Crs
2746 739 Crs
2753 3035 Crs
2761 3035 Crs
2768 3035 Crs
2775 3035 Crs
2782 3035 Crs
2789 3035 Crs
2797 2920 Crs
2804 2920 Crs
2811 2920 Crs
2818 3035 Crs
2825 3035 Crs
2833 3035 Crs
2840 3035 Crs
2847 3035 Crs
2854 739 Crs
2861 3035 Crs
2869 3035 Crs
2876 739 Crs
2883 2576 Crs
2890 2576 Crs
2897 739 Crs
2905 2690 Crs
2912 2690 Crs
2919 2690 Crs
2926 3035 Crs
2934 3035 Crs
2941 739 Crs
2948 3035 Crs
2955 3035 Crs
2962 3035 Crs
2970 3035 Crs
2977 3035 Crs
2984 3035 Crs
2991 2920 Crs
2998 2920 Crs
3006 2920 Crs
3013 2920 Crs
3020 2576 Crs
3027 2576 Crs
3034 2920 Crs
3042 2920 Crs
3049 739 Crs
3056 3035 Crs
3063 3035 Crs
3070 739 Crs
3078 2576 Crs
3085 2576 Crs
3092 739 Crs
3099 2576 Crs
3106 2576 Crs
3114 2576 Crs
3121 2576 Crs
3128 2576 Crs
3135 2576 Crs
3142 3035 Crs
3150 3035 Crs
3157 739 Crs
3164 2805 Crs
3171 2805 Crs
3178 739 Crs
3186 2805 Crs
3193 2805 Crs
3200 739 Crs
3207 3035 Crs
3215 3035 Crs
3222 739 Crs
3229 2576 Crs
3236 2576 Crs
3243 739 Crs
3251 2690 Crs
3258 2690 Crs
3265 2690 Crs
3272 3035 Crs
3279 3035 Crs
3287 3035 Crs
3294 3035 Crs
3301 3035 Crs
3308 739 Crs
3315 3035 Crs
3323 3035 Crs
3330 3035 Crs
3337 2576 Crs
3344 2576 Crs
3351 739 Crs
3359 2805 Crs
3366 2805 Crs
3373 739 Crs
3380 2576 Crs
3387 2576 Crs
3395 739 Crs
3402 2576 Crs
3409 2576 Crs
3416 739 Crs
3423 2690 Crs
3431 2690 Crs
3438 739 Crs
3445 2576 Crs
3452 2576 Crs
3460 739 Crs
3467 2576 Crs
3474 2576 Crs
3481 2576 Crs
3488 2576 Crs
3496 2576 Crs
3503 739 Crs
3510 2920 Crs
3517 2920 Crs
3524 739 Crs
3532 3035 Crs
3539 3035 Crs
3546 739 Crs
3553 2690 Crs
3560 2690 Crs
3568 739 Crs
3575 3035 Crs
3582 3035 Crs
3589 739 Crs
3596 2576 Crs
3604 2576 Crs
3611 2576 Crs
3618 2576 Crs
3625 2576 Crs
3632 2576 Crs
3640 3035 Crs
3647 3035 Crs
3654 739 Crs
3661 3035 Crs
3668 3035 Crs
3676 3035 Crs
3683 2690 Crs
3690 2690 Crs
3697 739 Crs
3705 2805 Crs
3712 2805 Crs
3719 739 Crs
3726 2576 Crs
3733 2576 Crs
3741 739 Crs
3748 2576 Crs
3755 2576 Crs
3762 2576 Crs
3769 2576 Crs
3777 2576 Crs
3784 739 Crs
3791 2805 Crs
3798 2805 Crs
3805 739 Crs
3813 2576 Crs
3820 2576 Crs
3827 2576 Crs
3834 2461 Crs
3841 2461 Crs
3849 739 Crs
3856 3035 Crs
3863 3035 Crs
3870 739 Crs
3877 2576 Crs
3885 2576 Crs
3892 739 Crs
3899 2461 Crs
3906 2461 Crs
3913 739 Crs
3921 3035 Crs
3928 3035 Crs
3935 3035 Crs
3942 2576 Crs
3949 2576 Crs
3957 739 Crs
3964 2690 Crs
3971 2690 Crs
3978 739 Crs
3986 2576 Crs
3993 2576 Crs
4000 739 Crs
4007 2576 Crs
4014 2576 Crs
4022 2576 Crs
4029 2920 Crs
4036 2920 Crs
4043 739 Crs
4050 3035 Crs
4058 3035 Crs
4065 739 Crs
4072 2920 Crs
4079 2920 Crs
4086 2920 Crs
4094 3035 Crs
4101 3035 Crs
4108 739 Crs
4115 3035 Crs
4122 3035 Crs
4130 739 Crs
4137 2576 Crs
4144 2576 Crs
4151 739 Crs
4158 2576 Crs
4166 2576 Crs
4173 739 Crs
4180 2576 Crs
4187 2576 Crs
4194 2576 Crs
4202 2576 Crs
4209 2576 Crs
4216 739 Crs
4223 2690 Crs
4231 2690 Crs
4238 739 Crs
4245 2576 Crs
4252 2576 Crs
4259 739 Crs
4267 2576 Crs
4274 2576 Crs
4281 739 Crs
4288 2576 Crs
4295 2576 Crs
4303 2576 Crs
4310 2461 Crs
4317 2461 Crs
4324 739 Crs
4331 2805 Crs
4339 2805 Crs
4346 739 Crs
4353 2576 Crs
4360 2576 Crs
4367 739 Crs
4375 2576 Crs
4382 2576 Crs
4389 739 Crs
4396 2576 Crs
4403 2576 Crs
4411 739 Crs
4418 2576 Crs
4425 2576 Crs
4432 2576 Crs
4439 2576 Crs
4447 2576 Crs
4454 739 Crs
4461 2920 Crs
4468 2920 Crs
4475 739 Crs
4483 2805 Crs
4490 2805 Crs
4497 739 Crs
4504 2576 Crs
4512 2576 Crs
4519 739 Crs
4526 2690 Crs
4533 2690 Crs
4540 2690 Crs
4548 2576 Crs
4555 2576 Crs
4562 2576 Crs
4569 3035 Crs
4576 3035 Crs
4584 3035 Crs
4591 3035 Crs
4598 3035 Crs
4605 3035 Crs
4612 3035 Crs
4620 3035 Crs
4627 3035 Crs
4634 3035 Crs
4641 2920 Crs
4648 2920 Crs
4656 2920 Crs
4663 2920 Crs
4670 2920 Crs
4677 2920 Crs
4684 2920 Crs
4692 3035 Crs
4699 3035 Crs
4706 3035 Crs
4713 3035 Crs
4720 3035 Crs
4728 3035 Crs
4735 3035 Crs
4742 3035 Crs
4749 3035 Crs
4757 3035 Crs
4764 3035 Crs
4771 3035 Crs
4778 3035 Crs
4785 3035 Crs
4793 3035 Crs
4800 3035 Crs
4807 3035 Crs
4814 3035 Crs
4821 3035 Crs
4829 3035 Crs
4836 3035 Crs
4843 3035 Crs
4850 3035 Crs
4857 3035 Crs
4865 3035 Crs
4872 3035 Crs
4879 3035 Crs
4886 3035 Crs
4893 3035 Crs
4901 3035 Crs
4908 3035 Crs
4915 3035 Crs
4922 3035 Crs
4929 3035 Crs
4937 3035 Crs
4944 3035 Crs
4951 3035 Crs
4958 3035 Crs
4965 3035 Crs
4973 3035 Crs
4980 3035 Crs
4987 3035 Crs
4994 3035 Crs
5002 2805 Crs
5009 2805 Crs
5016 739 Crs
5023 3035 Crs
5030 3035 Crs
5038 3035 Crs
5045 2461 Crs
5052 2461 Crs
5059 2461 Crs
5066 3035 Crs
5074 3035 Crs
5081 739 Crs
5088 2805 Crs
5095 2805 Crs
5102 739 Crs
5110 2461 Crs
5117 2461 Crs
5124 739 Crs
5131 2576 Crs
5138 2576 Crs
5146 2576 Crs
5153 2576 Crs
5160 2576 Crs
5167 2576 Crs
5174 3035 Crs
5182 3035 Crs
5189 3035 Crs
5196 3035 Crs
5203 3035 Crs
5210 3035 Crs
5218 3035 Crs
5225 3035 Crs
5232 739 Crs
5239 2805 Crs
5246 2805 Crs
5254 2805 Crs
5261 3035 Crs
5268 3035 Crs
5275 3035 Crs
5283 3035 Crs
5290 3035 Crs
5297 3035 Crs
5304 3035 Crs
5311 3035 Crs
5319 3035 Crs
5326 3035 Crs
5333 3035 Crs
5340 3035 Crs
5347 3035 Crs
5355 3035 Crs
5362 3035 Crs
5369 3035 Crs
5376 3035 Crs
5383 3035 Crs
5391 3035 Crs
5398 3035 Crs
5405 3035 Crs
5412 3035 Crs
5419 3035 Crs
5427 3035 Crs
5434 3035 Crs
5441 3035 Crs
5448 739 Crs
5455 2690 Crs
5463 2690 Crs
5470 739 Crs
5477 2576 Crs
5484 2576 Crs
5491 739 Crs
5499 2576 Crs
5506 2576 Crs
5513 739 Crs
5520 2576 Crs
5528 2576 Crs
5535 2576 Crs
5542 3035 Crs
5549 3035 Crs
5556 3035 Crs
5564 3035 Crs
5571 3035 Crs
5578 3035 Crs
5585 3035 Crs
5592 3035 Crs
5600 3035 Crs
5607 3035 Crs
5614 3035 Crs
5621 3035 Crs
5628 3035 Crs
5636 3035 Crs
5643 3035 Crs
5650 3035 Crs
5657 3035 Crs
5664 3035 Crs
5672 3035 Crs
5679 3035 Crs
5686 3035 Crs
5693 3035 Crs
5700 3035 Crs
5708 3035 Crs
5715 3035 Crs
5722 3035 Crs
5729 3035 Crs
5736 3035 Crs
5744 3035 Crs
5751 3035 Crs
5758 3035 Crs
5765 3035 Crs
5772 3035 Crs
5780 3035 Crs
5787 3035 Crs
5794 3035 Crs
5801 3035 Crs
5809 3035 Crs
5816 3035 Crs
5823 3035 Crs
5830 3035 Crs
5837 3035 Crs
5845 3035 Crs
5852 2920 Crs
5859 2920 Crs
5866 2805 Crs
5873 2805 Crs
5881 2805 Crs
5888 2805 Crs
5895 2805 Crs
5902 739 Crs
5909 3035 Crs
5917 3035 Crs
5924 3035 Crs
5931 2576 Crs
5938 2576 Crs
5945 739 Crs
5953 2690 Crs
5960 2690 Crs
5967 739 Crs
5974 2576 Crs
5981 2576 Crs
5989 739 Crs
5996 2576 Crs
6003 2576 Crs
6010 739 Crs
6017 2576 Crs
6025 2576 Crs
6032 739 Crs
6039 2576 Crs
6046 2576 Crs
6054 739 Crs
6061 2576 Crs
6068 2576 Crs
6075 2576 Crs
6082 2461 Crs
6090 2461 Crs
6097 739 Crs
6104 2805 Crs
6111 2805 Crs
6118 739 Crs
6126 2576 Crs
6133 2576 Crs
6140 739 Crs
6147 2576 Crs
6154 2576 Crs
6162 739 Crs
6169 2576 Crs
6176 2576 Crs
6183 739 Crs
6190 2576 Crs
6198 2576 Crs
6205 2576 Crs
6212 2576 Crs
6219 2576 Crs
6226 739 Crs
6234 2805 Crs
6241 2805 Crs
6248 739 Crs
6255 2576 Crs
6262 2576 Crs
6270 739 Crs
6277 2576 Crs
6284 2576 Crs
6291 739 Crs
6299 2576 Crs
6306 2576 Crs
6313 739 Crs
6320 2576 Crs
6327 2576 Crs
6335 739 Crs
6342 2576 Crs
6349 2576 Crs
6356 2576 Crs
6363 2576 Crs
6371 2576 Crs
6378 739 Crs
6385 2690 Crs
6392 2690 Crs
6399 739 Crs
6407 2576 Crs
6414 2576 Crs
6421 739 Crs
6428 2576 Crs
6435 2576 Crs
6443 739 Crs
6450 2576 Crs
6457 2576 Crs
6464 739 Crs
6471 2576 Crs
6479 2576 Crs
6486 739 Crs
6493 2576 Crs
6500 2576 Crs
6507 739 Crs
6515 2576 Crs
6522 2576 Crs
6529 739 Crs
6536 2576 Crs
6543 2576 Crs
6551 2576 Crs
6558 2576 Crs
6565 2576 Crs
6572 739 Crs
6580 2805 Crs
6587 2805 Crs
6594 739 Crs
6601 3035 Crs
6608 3035 Crs
6616 3035 Crs
6623 2805 Crs
6630 2805 Crs
6637 2805 Crs
6644 3035 Crs
6652 3035 Crs
6659 3035 Crs
6666 2920 Crs
6673 2920 Crs
6680 2920 Crs
6688 2920 Crs
6695 3035 Crs
6702 3035 Crs
6709 3035 Crs
6716 3035 Crs
6724 3035 Crs
6731 2805 Crs
6738 2805 Crs
6745 2805 Crs
6752 2805 Crs
6760 2805 Crs
6767 2805 Crs
6774 2805 Crs
6781 2920 Crs
6788 2920 Crs
6796 2920 Crs
6803 2920 Crs
6810 2920 Crs
6817 2805 Crs
6825 2805 Crs
6832 2576 Crs
6839 2576 Crs
6846 2805 Crs
6853 2805 Crs
6861 2690 Crs
6868 2690 Crs
6875 2805 Crs
6882 2805 Crs
6889 2805 Crs
6897 2805 Crs
6579 4598 Crs
% End plot #2
% Begin plot #3
1.000 UL
LTb
0.00 0.45 0.70 C LCb setrgbcolor
6296 4458 M
[ [(Helvetica) 140.0 0.0 true true 0 (original)]
] -46.7 MRshow
1.000 UL
LTb
0.00 0.45 0.70 C 6380 4458 M
399 0 V
462 1083 M
7 230 V
7 230 V
8 229 V
7 230 V
7 -115 V
7 229 V
7 230 V
8 230 V
7 229 V
7 230 V
7 -115 V
7 229 V
8 230 V
7 229 V
7 230 V
7 230 V
7 -115 V
8 229 V
7 230 V
7 -115 V
7 -115 V
8 230 V
7 -115 V
7 -115 V
7 230 V
7 -115 V
8 -115 V
7 230 V
7 -115 V
7 -115 V
7 230 V
8 -115 V
7 -115 V
7 230 V
7 -115 V
7 -115 V
8 230 V
7 -115 V
7 -115 V
7 230 V
7 -115 V
8 -115 V
7 230 V
7 -115 V
7 -115 V
7 230 V
8 -115 V
7 -115 V
7 230 V
7 -115 V
7 -115 V
8 230 V
7 -115 V
7 -115 V
7 230 V
8 -115 V
7 -115 V
7 230 V
7 -115 V
7 -115 V
8 230 V
7 -115 V
7 -115 V
7 230 V
7 -115 V
8 -115 V
7 230 V
7 -115 V
7 -115 V
7 230 V
8 -115 V
7 -115 V
7 230 V
7 -115 V
7 -115 V
8 230 V
7 -115 V
7 -115 V
7 230 V
7 -115 V
8 -115 V
7 230 V
7 -115 V
7 -115 V
7 230 V
8 -115 V
7 -115 V
7 230 V
7 -115 V
8 -115 V
7 230 V
7 -115 V
7 -115 V
7 230 V
8 -115 V
7 -115 V
7 230 V
7 -115 V
7 -115 V
8 230 V
7 -115 V
7 -115 V
stroke 1197 4182 M
7 230 V
7 -115 V
8 -115 V
7 230 V
7 -115 V
7 -115 V
7 230 V
8 -115 V
7 -115 V
7 230 V
7 -115 V
7 -115 V
8 230 V
7 -115 V
7 -115 V
7 230 V
7 -115 V
8 -115 V
7 230 V
7 -115 V
7 -115 V
7 230 V
8 -115 V
7 -115 V
7 230 V
7 -115 V
8 -115 V
7 230 V
7 -115 V
7 -115 V
7 230 V
8 -115 V
7 -115 V
7 230 V
7 -115 V
7 -115 V
8 230 V
7 -115 V
7 -115 V
7 230 V
7 -115 V
8 -115 V
7 230 V
7 -115 V
7 -115 V
7 230 V
8 -115 V
7 -115 V
7 230 V
7 -115 V
7 -115 V
8 230 V
7 -115 V
7 -115 V
7 230 V
7 -115 V
8 -115 V
7 230 V
7 -115 V
7 -115 V
8 230 V
7 -115 V
7 -115 V
7 230 V
7 -115 V
8 -115 V
7 230 V
7 -115 V
7 -115 V
7 230 V
8 -115 V
7 -115 V
7 230 V
7 -115 V
7 -115 V
8 230 V
7 -115 V
7 -115 V
7 230 V
7 -115 V
8 -115 V
7 230 V
7 -115 V
7 -115 V
7 230 V
8 -115 V
7 -115 V
7 230 V
7 -115 V
7 -115 V
8 230 V
7 -115 V
7 -115 V
7 230 V
7 -115 V
8 -115 V
7 230 V
7 -115 V
7 -115 V
8 230 V
7 -115 V
7 -115 V
7 230 V
7 -115 V
stroke 1946 4297 M
8 -115 V
7 230 V
7 -115 V
7 -115 V
7 230 V
8 -115 V
7 -115 V
7 230 V
7 -115 V
7 -115 V
8 230 V
7 -115 V
7 -115 V
7 230 V
7 -115 V
8 -115 V
7 230 V
7 -115 V
7 -115 V
7 230 V
8 -115 V
7 -115 V
7 230 V
7 -115 V
7 -115 V
8 230 V
7 -115 V
7 -115 V
7 230 V
8 -115 V
7 -115 V
7 230 V
7 -115 V
7 -115 V
8 230 V
7 -115 V
7 -115 V
7 230 V
7 -115 V
8 -115 V
7 230 V
7 -115 V
7 -115 V
7 230 V
8 -115 V
7 -115 V
7 230 V
7 -115 V
7 -115 V
8 230 V
7 -115 V
7 -115 V
7 230 V
7 -115 V
8 -115 V
7 230 V
7 -115 V
7 -115 V
7 230 V
8 -115 V
7 -115 V
7 230 V
7 -115 V
8 -115 V
7 230 V
7 -115 V
7 -115 V
7 230 V
8 -115 V
7 -115 V
7 230 V
7 -115 V
7 -115 V
8 230 V
7 -115 V
7 -115 V
7 230 V
7 -115 V
8 -115 V
7 230 V
7 -115 V
7 -115 V
7 230 V
8 -115 V
7 -115 V
7 230 V
7 -115 V
7 -115 V
8 230 V
7 -115 V
7 -115 V
7 230 V
7 -115 V
8 -115 V
7 230 V
7 -115 V
7 -115 V
7 230 V
8 -115 V
7 -115 V
7 230 V
7 -115 V
8 -115 V
7 230 V
stroke 2696 4412 M
7 -115 V
7 -115 V
7 230 V
8 -115 V
7 -115 V
7 230 V
7 -115 V
7 -115 V
8 230 V
7 -115 V
7 -115 V
7 230 V
7 -115 V
8 -115 V
7 230 V
7 -115 V
7 -115 V
7 230 V
8 -115 V
7 -115 V
7 230 V
7 -115 V
7 -115 V
8 230 V
7 -115 V
7 -115 V
7 230 V
7 -115 V
8 -115 V
7 230 V
7 -115 V
7 -115 V
8 230 V
7 -115 V
7 -115 V
7 230 V
7 -115 V
8 -115 V
7 230 V
7 -115 V
7 -115 V
7 230 V
8 -115 V
7 -115 V
7 230 V
7 -115 V
7 -115 V
8 230 V
7 -115 V
7 -115 V
7 230 V
7 -115 V
8 -115 V
7 230 V
7 -115 V
7 -115 V
7 230 V
8 -115 V
7 -115 V
7 230 V
7 -115 V
7 -115 V
8 230 V
7 -115 V
7 -115 V
7 230 V
7 -115 V
8 -115 V
7 230 V
7 -115 V
7 -115 V
8 230 V
7 -115 V
7 -115 V
7 230 V
7 -115 V
8 -115 V
7 230 V
7 -115 V
7 -115 V
7 230 V
8 -115 V
7 -115 V
7 230 V
7 -115 V
7 -115 V
8 230 V
7 -115 V
7 -115 V
7 230 V
7 -115 V
8 -115 V
7 230 V
7 -115 V
7 -115 V
7 230 V
8 -115 V
7 -115 V
7 230 V
7 -115 V
7 -115 V
8 230 V
7 -115 V
7 -115 V
stroke 3445 4182 M
7 230 V
8 -115 V
7 -115 V
7 230 V
7 -115 V
7 -115 V
8 230 V
7 -115 V
7 -115 V
7 230 V
7 -115 V
8 -115 V
7 230 V
7 -115 V
7 -115 V
7 230 V
8 -115 V
7 -115 V
7 230 V
7 -115 V
7 -115 V
8 230 V
7 -115 V
7 -115 V
7 230 V
7 -115 V
8 -115 V
7 230 V
7 -115 V
7 -115 V
7 230 V
8 -115 V
7 -115 V
7 230 V
7 -115 V
8 -115 V
7 230 V
7 -115 V
7 -115 V
7 230 V
8 -115 V
7 -115 V
7 230 V
7 -115 V
7 -115 V
8 230 V
7 -115 V
7 -115 V
7 230 V
7 -115 V
8 -115 V
7 230 V
7 -115 V
7 -115 V
7 230 V
8 -115 V
7 -115 V
7 230 V
7 -115 V
7 -115 V
8 230 V
7 -115 V
7 -115 V
7 230 V
7 -115 V
8 -115 V
7 230 V
7 -115 V
7 -115 V
7 230 V
8 -115 V
7 -115 V
7 230 V
7 -115 V
8 -115 V
7 230 V
7 -115 V
7 -115 V
7 230 V
8 -115 V
7 -115 V
7 230 V
7 -115 V
7 -115 V
8 230 V
7 -115 V
7 -115 V
7 230 V
7 -115 V
8 -115 V
7 230 V
7 -115 V
7 -115 V
7 230 V
8 -115 V
7 -115 V
7 230 V
7 -115 V
7 -115 V
8 230 V
7 -115 V
7 -115 V
7 230 V
7 -115 V
stroke 4194 4297 M
8 -115 V
7 230 V
7 -115 V
7 -115 V
8 230 V
7 -115 V
7 -115 V
7 230 V
7 -115 V
8 -115 V
7 230 V
7 -115 V
7 -115 V
7 230 V
8 -115 V
7 -115 V
7 230 V
7 -115 V
7 -115 V
8 230 V
7 -115 V
7 -115 V
7 230 V
7 -115 V
8 -115 V
7 230 V
7 -115 V
7 -115 V
7 230 V
8 -115 V
7 -115 V
7 230 V
7 -115 V
7 -115 V
8 230 V
7 -115 V
7 -115 V
7 230 V
7 -115 V
8 -115 V
7 230 V
7 -115 V
7 -115 V
8 230 V
7 -115 V
7 -115 V
7 230 V
7 -115 V
8 -115 V
7 230 V
7 -115 V
7 -115 V
7 230 V
8 -115 V
7 -115 V
7 230 V
7 -115 V
7 -115 V
8 230 V
7 -115 V
7 -115 V
7 230 V
7 -115 V
8 -115 V
7 230 V
7 -115 V
7 -115 V
7 230 V
8 -115 V
7 -115 V
7 230 V
7 -115 V
7 -115 V
8 230 V
7 -115 V
7 -115 V
7 230 V
8 -115 V
7 -115 V
7 230 V
7 -115 V
7 -115 V
8 230 V
7 -115 V
7 -115 V
7 230 V
7 -115 V
8 -115 V
7 230 V
7 -115 V
7 -115 V
7 230 V
8 -115 V
7 -115 V
7 230 V
7 -115 V
7 -115 V
8 230 V
7 -115 V
7 -115 V
7 230 V
7 -115 V
8 -115 V
7 230 V
stroke 4944 4412 M
7 -115 V
7 -115 V
7 230 V
8 -115 V
7 -115 V
7 230 V
7 -115 V
8 -115 V
7 230 V
7 -115 V
7 -115 V
7 230 V
8 -115 V
7 -115 V
7 230 V
7 -115 V
7 -115 V
8 230 V
7 -115 V
7 -115 V
7 230 V
7 -115 V
8 -115 V
7 230 V
7 -115 V
7 -115 V
7 230 V
8 -115 V
7 -115 V
7 230 V
7 -115 V
7 -115 V
8 230 V
7 -115 V
7 -115 V
7 230 V
7 -115 V
8 -115 V
7 230 V
7 -115 V
7 -115 V
7 230 V
8 -115 V
7 -115 V
7 230 V
7 -115 V
8 -115 V
7 230 V
7 -115 V
7 -115 V
7 230 V
8 -115 V
7 -115 V
7 230 V
7 -115 V
7 -115 V
8 230 V
7 -115 V
7 -115 V
7 230 V
7 -115 V
8 -115 V
7 230 V
7 -115 V
7 -115 V
7 230 V
8 -115 V
7 -115 V
7 230 V
7 -115 V
7 -115 V
8 230 V
7 -115 V
7 -115 V
7 230 V
7 -115 V
8 -115 V
7 230 V
7 -115 V
7 -115 V
8 230 V
7 -115 V
7 -115 V
7 230 V
7 -115 V
8 -115 V
7 230 V
7 -115 V
7 -115 V
7 230 V
8 -115 V
7 -115 V
7 230 V
7 -115 V
7 -115 V
8 230 V
7 -115 V
7 -115 V
7 230 V
7 -115 V
8 -115 V
7 230 V
7 -115 V
7 -115 V
stroke 5693 4182 M
7 230 V
8 -115 V
7 -115 V
7 230 V
7 -115 V
7 -115 V
8 230 V
7 -115 V
7 -115 V
7 230 V
7 -115 V
8 -115 V
7 230 V
7 -115 V
7 -115 V
8 230 V
7 -115 V
7 -115 V
7 230 V
7 -115 V
8 -115 V
7 230 V
7 -115 V
7 -115 V
7 230 V
8 -115 V
7 -115 V
7 230 V
7 -115 V
7 -115 V
8 230 V
7 -115 V
7 -115 V
7 230 V
7 -115 V
8 -115 V
7 230 V
7 -115 V
7 -115 V
7 230 V
8 -115 V
7 -115 V
7 230 V
7 -115 V
7 -115 V
8 230 V
7 -115 V
7 -115 V
7 230 V
8 -115 V
7 -115 V
7 230 V
7 -115 V
7 -115 V
8 230 V
7 -115 V
7 -115 V
7 230 V
7 -115 V
8 -115 V
7 230 V
7 -115 V
7 -115 V
7 230 V
8 -115 V
7 -115 V
7 230 V
7 -115 V
7 -115 V
8 230 V
7 -115 V
7 -115 V
7 230 V
7 -115 V
8 -115 V
7 230 V
7 -115 V
7 -115 V
7 230 V
8 -115 V
7 -115 V
7 230 V
7 -115 V
8 -115 V
7 230 V
7 -115 V
7 -115 V
7 230 V
8 -115 V
7 -115 V
7 230 V
7 -115 V
7 -115 V
8 230 V
7 -115 V
7 -115 V
7 230 V
7 -115 V
8 -115 V
7 230 V
7 -115 V
7 -115 V
7 230 V
8 -115 V
stroke 6443 4297 M
7 -115 V
7 230 V
7 -115 V
7 -115 V
8 230 V
7 -115 V
7 -115 V
7 230 V
7 -115 V
8 -115 V
7 230 V
7 -115 V
7 -115 V
7 230 V
8 -115 V
7 -115 V
7 230 V
7 -115 V
8 -115 V
7 230 V
7 -115 V
7 -115 V
7 230 V
8 -115 V
7 -115 V
7 230 V
7 -115 V
7 -115 V
8 230 V
7 -115 V
7 -115 V
7 230 V
7 -115 V
8 -115 V
7 230 V
7 -115 V
7 -115 V
7 -114 V
8 0 V
7 -115 V
7 -115 V
7 -115 V
7 -115 V
8 -114 V
7 -115 V
7 -115 V
7 -115 V
7 -114 V
8 -115 V
7 -115 V
7 -115 V
7 -114 V
8 -115 V
7 -115 V
7 -115 V
7 -115 V
7 -114 V
8 -115 V
7 -115 V
7 -115 V
7 -114 V
7 -115 V
8 -115 V
7 -115 V
7 -115 V
7 -114 V
% End plot #3
% Begin plot #4
1.000 UP
stroke
LTb
0.90 0.62 0.00 C LCb setrgbcolor
6296 4318 M
[ [(Helvetica) 140.0 0.0 true true 0 (oracolo)]
] -46.7 MRshow
1.000 UP
1.000 UL
LTb
0.90 0.62 0.00 C 6380 4318 M
399 0 V
462 1083 M
7 -114 V
7 229 V
8 -115 V
7 -114 V
7 -115 V
7 229 V
7 -114 V
8 -115 V
7 229 V
7 -114 V
7 -115 V
7 229 V
8 -114 V
7 -115 V
7 229 V
7 -114 V
7 -115 V
8 229 V
7 -114 V
7 229 V
7 -115 V
8 -114 V
7 229 V
7 -115 V
7 230 V
7 -115 V
8 -115 V
7 230 V
7 -115 V
7 -115 V
7 -114 V
8 229 V
7 -115 V
7 -114 V
7 -115 V
7 229 V
8 -114 V
7 -115 V
7 229 V
7 -114 V
7 -115 V
8 229 V
7 -114 V
7 -115 V
7 229 V
7 -114 V
8 229 V
7 -115 V
7 -114 V
7 -115 V
7 229 V
8 -114 V
7 -115 V
7 229 V
7 -114 V
8 -115 V
7 229 V
7 -114 V
7 -115 V
7 229 V
8 -114 V
7 -115 V
7 229 V
7 -114 V
7 -115 V
8 229 V
7 -114 V
7 -115 V
7 229 V
7 -114 V
8 229 V
7 -115 V
7 -114 V
7 -115 V
7 229 V
8 -114 V
7 -115 V
7 229 V
7 -114 V
7 229 V
8 -115 V
7 230 V
7 -115 V
7 -115 V
7 230 V
8 -115 V
7 -115 V
7 230 V
7 -115 V
8 -115 V
7 230 V
7 -115 V
7 -115 V
7 230 V
8 -115 V
7 -115 V
7 -114 V
7 229 V
7 -115 V
8 230 V
7 -115 V
7 -115 V
stroke 1197 1083 M
7 230 V
7 -115 V
8 -115 V
7 -114 V
7 -115 V
7 229 V
7 -114 V
8 -115 V
7 229 V
7 -114 V
7 229 V
7 -115 V
8 -114 V
7 -115 V
7 229 V
7 -114 V
7 -115 V
8 229 V
7 -114 V
7 229 V
7 -115 V
7 230 V
8 -115 V
7 230 V
7 -115 V
7 -115 V
8 230 V
7 -115 V
7 230 V
7 -115 V
7 229 V
8 -114 V
7 -115 V
7 229 V
7 -114 V
7 229 V
8 -115 V
7 -114 V
7 229 V
7 -115 V
7 -114 V
8 229 V
7 -115 V
7 -114 V
7 229 V
7 -115 V
8 230 V
7 -115 V
7 230 V
7 -115 V
7 -115 V
8 230 V
7 -115 V
7 -115 V
7 230 V
7 -115 V
8 -115 V
7 -115 V
7 230 V
7 -115 V
8 -115 V
7 -114 V
7 229 V
7 -115 V
7 -114 V
8 -115 V
7 -115 V
7 230 V
7 -115 V
7 -115 V
8 -115 V
7 230 V
7 -115 V
7 -115 V
7 -115 V
8 230 V
7 -115 V
7 230 V
7 -115 V
7 -115 V
8 -115 V
7 230 V
7 -115 V
7 -115 V
7 230 V
8 -115 V
7 -115 V
7 230 V
7 -115 V
7 -115 V
8 -114 V
7 229 V
7 -115 V
7 -114 V
7 229 V
8 -115 V
7 -114 V
7 -115 V
7 229 V
8 -114 V
7 -115 V
7 229 V
7 -114 V
7 -115 V
stroke 1946 854 M
8 229 V
7 -114 V
7 -115 V
7 229 V
7 -114 V
8 -115 V
7 229 V
7 -114 V
7 229 V
7 -115 V
8 -114 V
7 229 V
7 -115 V
7 -114 V
7 229 V
8 -115 V
7 -114 V
7 -115 V
7 229 V
7 -114 V
8 -115 V
7 229 V
7 -114 V
7 229 V
7 -115 V
8 -114 V
7 229 V
7 -115 V
7 -114 V
8 -115 V
7 229 V
7 -114 V
7 229 V
7 -115 V
8 -114 V
7 -115 V
7 229 V
7 -114 V
7 229 V
8 -115 V
7 -114 V
7 -115 V
7 229 V
7 230 V
8 -115 V
7 230 V
7 -115 V
7 -115 V
7 230 V
8 -115 V
7 -115 V
7 -115 V
7 230 V
7 -115 V
8 -115 V
7 230 V
7 -115 V
7 -115 V
7 -114 V
8 229 V
7 -115 V
7 -114 V
7 -115 V
8 229 V
7 -114 V
7 229 V
7 -115 V
7 -114 V
8 -115 V
7 229 V
7 -114 V
7 -115 V
7 229 V
8 -114 V
7 229 V
7 -115 V
7 -114 V
7 -115 V
8 229 V
7 -114 V
7 -115 V
7 229 V
7 -114 V
8 -115 V
7 229 V
7 -114 V
7 229 V
7 -115 V
8 -114 V
7 229 V
7 -115 V
7 -114 V
7 229 V
8 -115 V
7 230 V
7 -115 V
7 -115 V
7 230 V
8 -115 V
7 -115 V
7 -114 V
7 229 V
8 -115 V
7 -114 V
stroke 2696 969 M
7 229 V
7 -115 V
7 -114 V
8 -115 V
7 229 V
7 -114 V
7 -115 V
7 229 V
8 -114 V
7 229 V
7 -115 V
7 -114 V
7 229 V
8 -115 V
7 -114 V
7 229 V
7 -115 V
7 230 V
8 -115 V
7 -115 V
7 -114 V
7 -115 V
7 229 V
8 -114 V
7 -115 V
7 229 V
7 -114 V
7 -115 V
8 229 V
7 -114 V
7 229 V
7 -115 V
8 -114 V
7 -115 V
7 229 V
7 -114 V
7 229 V
8 -115 V
7 230 V
7 -115 V
7 -115 V
7 230 V
8 -115 V
7 230 V
7 -115 V
7 -115 V
7 -115 V
8 -114 V
7 -115 V
7 229 V
7 -114 V
7 -115 V
8 229 V
7 -114 V
7 -115 V
7 229 V
7 -114 V
8 229 V
7 -115 V
7 -114 V
7 229 V
7 -115 V
8 -114 V
7 -115 V
7 229 V
7 -114 V
7 -115 V
8 229 V
7 -114 V
7 -115 V
7 229 V
8 -114 V
7 -115 V
7 229 V
7 -114 V
7 -115 V
8 229 V
7 -114 V
7 229 V
7 -115 V
7 -114 V
8 229 V
7 -115 V
7 -114 V
7 -115 V
7 229 V
8 -114 V
7 229 V
7 -115 V
7 -114 V
7 -115 V
8 229 V
7 -114 V
7 -115 V
7 229 V
7 -114 V
8 -115 V
7 229 V
7 -114 V
7 -115 V
7 229 V
8 -114 V
7 -115 V
7 229 V
stroke 3445 1083 M
7 -114 V
8 -115 V
7 229 V
7 -114 V
7 229 V
7 -115 V
8 -114 V
7 -115 V
7 229 V
7 -114 V
7 -115 V
8 229 V
7 -114 V
7 -115 V
7 229 V
7 -114 V
8 -115 V
7 229 V
7 -114 V
7 -115 V
7 229 V
8 -114 V
7 229 V
7 -115 V
7 -114 V
7 229 V
8 -115 V
7 -114 V
7 -115 V
7 229 V
7 -114 V
8 229 V
7 -115 V
7 -114 V
7 -115 V
8 229 V
7 -114 V
7 -115 V
7 229 V
7 -114 V
8 -115 V
7 229 V
7 -114 V
7 229 V
7 -115 V
8 -114 V
7 -115 V
7 229 V
7 -114 V
7 -115 V
8 229 V
7 -114 V
7 229 V
7 -115 V
7 -114 V
8 -115 V
7 229 V
7 -114 V
7 -115 V
7 229 V
8 -114 V
7 -115 V
7 229 V
7 -114 V
7 -115 V
8 229 V
7 -114 V
7 229 V
7 -115 V
7 -114 V
8 -115 V
7 229 V
7 -114 V
7 -115 V
8 229 V
7 -114 V
7 -115 V
7 229 V
7 -114 V
8 229 V
7 -115 V
7 -114 V
7 -115 V
7 229 V
8 -114 V
7 -115 V
7 229 V
7 -114 V
7 229 V
8 -115 V
7 -114 V
7 -115 V
7 229 V
7 -114 V
8 -115 V
7 229 V
7 -114 V
7 -115 V
7 229 V
8 -114 V
7 -115 V
7 229 V
7 -114 V
7 229 V
stroke 4194 1198 M
8 -115 V
7 -114 V
7 -115 V
7 229 V
8 -114 V
7 -115 V
7 229 V
7 -114 V
7 -115 V
8 229 V
7 -114 V
7 -115 V
7 229 V
7 -114 V
8 229 V
7 -115 V
7 -114 V
7 -115 V
7 229 V
8 -114 V
7 -115 V
7 229 V
7 -114 V
7 -115 V
8 229 V
7 -114 V
7 -115 V
7 229 V
7 -114 V
8 -115 V
7 229 V
7 -114 V
7 229 V
7 -115 V
8 -114 V
7 -115 V
7 229 V
7 -114 V
7 -115 V
8 229 V
7 -114 V
7 -115 V
7 229 V
8 -114 V
7 -115 V
7 229 V
7 -114 V
7 229 V
8 -115 V
7 230 V
7 -115 V
7 -115 V
7 230 V
8 -115 V
7 230 V
7 -115 V
7 230 V
7 -115 V
8 -115 V
7 230 V
7 -115 V
7 -115 V
7 230 V
8 -115 V
7 -115 V
7 230 V
7 -115 V
7 229 V
8 -114 V
7 -115 V
7 -115 V
7 230 V
7 -115 V
8 229 V
7 -114 V
7 229 V
7 -115 V
8 -114 V
7 229 V
7 -115 V
7 -114 V
7 -115 V
8 229 V
7 -114 V
7 -115 V
7 229 V
7 -114 V
8 -115 V
7 229 V
7 -114 V
7 -115 V
7 229 V
8 -114 V
7 -115 V
7 -115 V
7 230 V
7 -115 V
8 229 V
7 -114 V
7 -115 V
7 229 V
7 -114 V
8 -115 V
7 -115 V
stroke 4944 1313 M
7 -115 V
7 -115 V
7 230 V
8 -115 V
7 -115 V
7 -114 V
7 229 V
8 -115 V
7 -114 V
7 -115 V
7 229 V
7 -114 V
8 229 V
7 -115 V
7 -114 V
7 229 V
7 -115 V
8 -114 V
7 -115 V
7 229 V
7 -114 V
7 -115 V
8 229 V
7 -114 V
7 -115 V
7 229 V
7 -114 V
8 229 V
7 -115 V
7 -114 V
7 229 V
7 -115 V
8 230 V
7 -115 V
7 -115 V
7 -114 V
7 229 V
8 -115 V
7 -114 V
7 -115 V
7 229 V
7 -114 V
8 229 V
7 -115 V
7 -114 V
7 229 V
8 -115 V
7 230 V
7 -115 V
7 -115 V
7 -114 V
8 229 V
7 230 V
7 -115 V
7 -115 V
7 230 V
8 -115 V
7 -115 V
7 -115 V
7 230 V
7 -115 V
8 230 V
7 -115 V
7 -115 V
7 -115 V
7 -114 V
8 229 V
7 -115 V
7 -114 V
7 -115 V
7 229 V
8 -114 V
7 -115 V
7 229 V
7 -114 V
7 -115 V
8 229 V
7 -114 V
7 -115 V
7 229 V
8 -114 V
7 229 V
7 -115 V
7 -114 V
7 229 V
8 -115 V
7 230 V
7 -115 V
7 -115 V
7 -114 V
8 229 V
7 -115 V
7 230 V
7 -115 V
7 230 V
8 -115 V
7 -115 V
7 230 V
7 -115 V
7 230 V
8 -115 V
7 -115 V
7 230 V
7 -115 V
stroke 5693 1428 M
7 -115 V
8 -115 V
7 230 V
7 -115 V
7 230 V
7 -115 V
8 -115 V
7 230 V
7 -115 V
7 -115 V
7 230 V
8 -115 V
7 -115 V
7 230 V
7 -115 V
8 -115 V
7 230 V
7 -115 V
7 -115 V
7 -115 V
8 230 V
7 -115 V
7 -115 V
7 -115 V
7 230 V
8 -115 V
7 -115 V
7 -114 V
7 -115 V
7 229 V
8 -114 V
7 229 V
7 -115 V
7 -114 V
7 -115 V
8 229 V
7 -114 V
7 -115 V
7 229 V
7 -114 V
8 -115 V
7 229 V
7 -114 V
7 -115 V
7 229 V
8 -114 V
7 -115 V
7 229 V
7 -114 V
8 -115 V
7 229 V
7 -114 V
7 229 V
7 -115 V
8 -114 V
7 -115 V
7 229 V
7 -114 V
7 -115 V
8 229 V
7 -114 V
7 -115 V
7 229 V
7 -114 V
8 -115 V
7 229 V
7 -114 V
7 -115 V
7 229 V
8 -114 V
7 229 V
7 -115 V
7 -114 V
7 -115 V
8 229 V
7 -114 V
7 -115 V
7 229 V
7 -114 V
8 -115 V
7 229 V
7 -114 V
7 -115 V
8 229 V
7 -114 V
7 -115 V
7 229 V
7 -114 V
8 -115 V
7 229 V
7 -114 V
7 229 V
7 -115 V
8 -114 V
7 -115 V
7 229 V
7 -114 V
7 -115 V
8 229 V
7 -114 V
7 -115 V
7 229 V
7 -114 V
8 -115 V
stroke 6443 854 M
7 229 V
7 -114 V
7 -115 V
7 229 V
8 -114 V
7 -115 V
7 229 V
7 -114 V
7 -115 V
8 229 V
7 -114 V
7 -115 V
7 229 V
7 -114 V
8 229 V
7 -115 V
7 -114 V
7 -115 V
8 229 V
7 -114 V
7 -115 V
7 229 V
7 -114 V
8 229 V
7 -115 V
7 -114 V
7 229 V
7 -115 V
8 -114 V
7 229 V
7 -115 V
7 230 V
7 -115 V
8 230 V
7 -115 V
7 230 V
7 -115 V
7 229 V
8 230 V
7 -115 V
7 230 V
7 -115 V
7 229 V
8 -114 V
7 -115 V
7 229 V
7 -114 V
7 229 V
8 230 V
7 -115 V
7 0 V
7 -115 V
8 -115 V
7 -114 V
7 -115 V
7 -115 V
7 -115 V
8 -114 V
7 -115 V
7 -115 V
7 -115 V
7 -115 V
8 -114 V
462 1083 Box
469 969 Box
476 1198 Box
484 1083 Box
491 969 Box
498 854 Box
505 1083 Box
512 969 Box
520 854 Box
527 1083 Box
534 969 Box
541 854 Box
548 1083 Box
556 969 Box
563 854 Box
570 1083 Box
577 969 Box
584 854 Box
592 1083 Box
599 969 Box
606 1198 Box
613 1083 Box
621 969 Box
628 1198 Box
635 1083 Box
642 1313 Box
649 1198 Box
657 1083 Box
664 1313 Box
671 1198 Box
678 1083 Box
685 969 Box
693 1198 Box
700 1083 Box
707 969 Box
714 854 Box
721 1083 Box
729 969 Box
736 854 Box
743 1083 Box
750 969 Box
757 854 Box
765 1083 Box
772 969 Box
779 854 Box
786 1083 Box
793 969 Box
801 1198 Box
808 1083 Box
815 969 Box
822 854 Box
829 1083 Box
837 969 Box
844 854 Box
851 1083 Box
858 969 Box
866 854 Box
873 1083 Box
880 969 Box
887 854 Box
894 1083 Box
902 969 Box
909 854 Box
916 1083 Box
923 969 Box
930 854 Box
938 1083 Box
945 969 Box
952 854 Box
959 1083 Box
966 969 Box
974 1198 Box
981 1083 Box
988 969 Box
995 854 Box
1002 1083 Box
1010 969 Box
1017 854 Box
1024 1083 Box
1031 969 Box
1038 1198 Box
1046 1083 Box
1053 1313 Box
1060 1198 Box
1067 1083 Box
1074 1313 Box
1082 1198 Box
1089 1083 Box
1096 1313 Box
1103 1198 Box
1111 1083 Box
1118 1313 Box
1125 1198 Box
1132 1083 Box
1139 1313 Box
1147 1198 Box
1154 1083 Box
1161 969 Box
1168 1198 Box
1175 1083 Box
1183 1313 Box
1190 1198 Box
1197 1083 Box
1204 1313 Box
1211 1198 Box
1219 1083 Box
1226 969 Box
1233 854 Box
1240 1083 Box
1247 969 Box
1255 854 Box
1262 1083 Box
1269 969 Box
1276 1198 Box
1283 1083 Box
1291 969 Box
1298 854 Box
1305 1083 Box
1312 969 Box
1319 854 Box
1327 1083 Box
1334 969 Box
1341 1198 Box
1348 1083 Box
1355 1313 Box
1363 1198 Box
1370 1428 Box
1377 1313 Box
1384 1198 Box
1392 1428 Box
1399 1313 Box
1406 1543 Box
1413 1428 Box
1420 1657 Box
1428 1543 Box
1435 1428 Box
1442 1657 Box
1449 1543 Box
1456 1772 Box
1464 1657 Box
1471 1543 Box
1478 1772 Box
1485 1657 Box
1492 1543 Box
1500 1772 Box
1507 1657 Box
1514 1543 Box
1521 1772 Box
1528 1657 Box
1536 1887 Box
1543 1772 Box
1550 2002 Box
1557 1887 Box
1564 1772 Box
1572 2002 Box
1579 1887 Box
1586 1772 Box
1593 2002 Box
1600 1887 Box
1608 1772 Box
1615 1657 Box
1622 1887 Box
1629 1772 Box
1637 1657 Box
1644 1543 Box
1651 1772 Box
1658 1657 Box
1665 1543 Box
1673 1428 Box
1680 1313 Box
1687 1543 Box
1694 1428 Box
1701 1313 Box
1709 1198 Box
1716 1428 Box
1723 1313 Box
1730 1198 Box
1737 1083 Box
1745 1313 Box
1752 1198 Box
1759 1428 Box
1766 1313 Box
1773 1198 Box
1781 1083 Box
1788 1313 Box
1795 1198 Box
1802 1083 Box
1809 1313 Box
1817 1198 Box
1824 1083 Box
1831 1313 Box
1838 1198 Box
1845 1083 Box
1853 969 Box
1860 1198 Box
1867 1083 Box
1874 969 Box
1881 1198 Box
1889 1083 Box
1896 969 Box
1903 854 Box
1910 1083 Box
1918 969 Box
1925 854 Box
1932 1083 Box
1939 969 Box
1946 854 Box
1954 1083 Box
1961 969 Box
1968 854 Box
1975 1083 Box
1982 969 Box
1990 854 Box
1997 1083 Box
2004 969 Box
2011 1198 Box
2018 1083 Box
2026 969 Box
2033 1198 Box
2040 1083 Box
2047 969 Box
2054 1198 Box
2062 1083 Box
2069 969 Box
2076 854 Box
2083 1083 Box
2090 969 Box
2098 854 Box
2105 1083 Box
2112 969 Box
2119 1198 Box
2126 1083 Box
2134 969 Box
2141 1198 Box
2148 1083 Box
2155 969 Box
2163 854 Box
2170 1083 Box
2177 969 Box
2184 1198 Box
2191 1083 Box
2199 969 Box
2206 854 Box
2213 1083 Box
2220 969 Box
2227 1198 Box
2235 1083 Box
2242 969 Box
2249 854 Box
2256 1083 Box
2263 1313 Box
2271 1198 Box
2278 1428 Box
2285 1313 Box
2292 1198 Box
2299 1428 Box
2307 1313 Box
2314 1198 Box
2321 1083 Box
2328 1313 Box
2335 1198 Box
2343 1083 Box
2350 1313 Box
2357 1198 Box
2364 1083 Box
2371 969 Box
2379 1198 Box
2386 1083 Box
2393 969 Box
2400 854 Box
2408 1083 Box
2415 969 Box
2422 1198 Box
2429 1083 Box
2436 969 Box
2444 854 Box
2451 1083 Box
2458 969 Box
2465 854 Box
2472 1083 Box
2480 969 Box
2487 1198 Box
2494 1083 Box
2501 969 Box
2508 854 Box
2516 1083 Box
2523 969 Box
2530 854 Box
2537 1083 Box
2544 969 Box
2552 854 Box
2559 1083 Box
2566 969 Box
2573 1198 Box
2580 1083 Box
2588 969 Box
2595 1198 Box
2602 1083 Box
2609 969 Box
2616 1198 Box
2624 1083 Box
2631 1313 Box
2638 1198 Box
2645 1083 Box
2652 1313 Box
2660 1198 Box
2667 1083 Box
2674 969 Box
2681 1198 Box
2689 1083 Box
2696 969 Box
2703 1198 Box
2710 1083 Box
2717 969 Box
2725 854 Box
2732 1083 Box
2739 969 Box
2746 854 Box
2753 1083 Box
2761 969 Box
2768 1198 Box
2775 1083 Box
2782 969 Box
2789 1198 Box
2797 1083 Box
2804 969 Box
2811 1198 Box
2818 1083 Box
2825 1313 Box
2833 1198 Box
2840 1083 Box
2847 969 Box
2854 854 Box
2861 1083 Box
2869 969 Box
2876 854 Box
2883 1083 Box
2890 969 Box
2897 854 Box
2905 1083 Box
2912 969 Box
2919 1198 Box
2926 1083 Box
2934 969 Box
2941 854 Box
2948 1083 Box
2955 969 Box
2962 1198 Box
2970 1083 Box
2977 1313 Box
2984 1198 Box
2991 1083 Box
2998 1313 Box
3006 1198 Box
3013 1428 Box
3020 1313 Box
3027 1198 Box
3034 1083 Box
3042 969 Box
3049 854 Box
3056 1083 Box
3063 969 Box
3070 854 Box
3078 1083 Box
3085 969 Box
3092 854 Box
3099 1083 Box
3106 969 Box
3114 1198 Box
3121 1083 Box
3128 969 Box
3135 1198 Box
3142 1083 Box
3150 969 Box
3157 854 Box
3164 1083 Box
3171 969 Box
3178 854 Box
3186 1083 Box
3193 969 Box
3200 854 Box
3207 1083 Box
3215 969 Box
3222 854 Box
3229 1083 Box
3236 969 Box
3243 854 Box
3251 1083 Box
3258 969 Box
3265 1198 Box
3272 1083 Box
3279 969 Box
3287 1198 Box
3294 1083 Box
3301 969 Box
3308 854 Box
3315 1083 Box
3323 969 Box
3330 1198 Box
3337 1083 Box
3344 969 Box
3351 854 Box
3359 1083 Box
3366 969 Box
3373 854 Box
3380 1083 Box
3387 969 Box
3395 854 Box
3402 1083 Box
3409 969 Box
3416 854 Box
3423 1083 Box
3431 969 Box
3438 854 Box
3445 1083 Box
3452 969 Box
3460 854 Box
3467 1083 Box
3474 969 Box
3481 1198 Box
3488 1083 Box
3496 969 Box
3503 854 Box
3510 1083 Box
3517 969 Box
3524 854 Box
3532 1083 Box
3539 969 Box
3546 854 Box
3553 1083 Box
3560 969 Box
3568 854 Box
3575 1083 Box
3582 969 Box
3589 854 Box
3596 1083 Box
3604 969 Box
3611 1198 Box
3618 1083 Box
3625 969 Box
3632 1198 Box
3640 1083 Box
3647 969 Box
3654 854 Box
3661 1083 Box
3668 969 Box
3676 1198 Box
3683 1083 Box
3690 969 Box
3697 854 Box
3705 1083 Box
3712 969 Box
3719 854 Box
3726 1083 Box
3733 969 Box
3741 854 Box
3748 1083 Box
3755 969 Box
3762 1198 Box
3769 1083 Box
3777 969 Box
3784 854 Box
3791 1083 Box
3798 969 Box
3805 854 Box
3813 1083 Box
3820 969 Box
3827 1198 Box
3834 1083 Box
3841 969 Box
3849 854 Box
3856 1083 Box
3863 969 Box
3870 854 Box
3877 1083 Box
3885 969 Box
3892 854 Box
3899 1083 Box
3906 969 Box
3913 854 Box
3921 1083 Box
3928 969 Box
3935 1198 Box
3942 1083 Box
3949 969 Box
3957 854 Box
3964 1083 Box
3971 969 Box
3978 854 Box
3986 1083 Box
3993 969 Box
4000 854 Box
4007 1083 Box
4014 969 Box
4022 1198 Box
4029 1083 Box
4036 969 Box
4043 854 Box
4050 1083 Box
4058 969 Box
4065 854 Box
4072 1083 Box
4079 969 Box
4086 1198 Box
4094 1083 Box
4101 969 Box
4108 854 Box
4115 1083 Box
4122 969 Box
4130 854 Box
4137 1083 Box
4144 969 Box
4151 854 Box
4158 1083 Box
4166 969 Box
4173 854 Box
4180 1083 Box
4187 969 Box
4194 1198 Box
4202 1083 Box
4209 969 Box
4216 854 Box
4223 1083 Box
4231 969 Box
4238 854 Box
4245 1083 Box
4252 969 Box
4259 854 Box
4267 1083 Box
4274 969 Box
4281 854 Box
4288 1083 Box
4295 969 Box
4303 1198 Box
4310 1083 Box
4317 969 Box
4324 854 Box
4331 1083 Box
4339 969 Box
4346 854 Box
4353 1083 Box
4360 969 Box
4367 854 Box
4375 1083 Box
4382 969 Box
4389 854 Box
4396 1083 Box
4403 969 Box
4411 854 Box
4418 1083 Box
4425 969 Box
4432 1198 Box
4439 1083 Box
4447 969 Box
4454 854 Box
4461 1083 Box
4468 969 Box
4475 854 Box
4483 1083 Box
4490 969 Box
4497 854 Box
4504 1083 Box
4512 969 Box
4519 854 Box
4526 1083 Box
4533 969 Box
4540 1198 Box
4548 1083 Box
4555 1313 Box
4562 1198 Box
4569 1083 Box
4576 1313 Box
4584 1198 Box
4591 1428 Box
4598 1313 Box
4605 1543 Box
4612 1428 Box
4620 1313 Box
4627 1543 Box
4634 1428 Box
4641 1313 Box
4648 1543 Box
4656 1428 Box
4663 1313 Box
4670 1543 Box
4677 1428 Box
4684 1657 Box
4692 1543 Box
4699 1428 Box
4706 1313 Box
4713 1543 Box
4720 1428 Box
4728 1657 Box
4735 1543 Box
4742 1772 Box
4749 1657 Box
4757 1543 Box
4764 1772 Box
4771 1657 Box
4778 1543 Box
4785 1428 Box
4793 1657 Box
4800 1543 Box
4807 1428 Box
4814 1657 Box
4821 1543 Box
4829 1428 Box
4836 1657 Box
4843 1543 Box
4850 1428 Box
4857 1657 Box
4865 1543 Box
4872 1428 Box
4879 1313 Box
4886 1543 Box
4893 1428 Box
4901 1657 Box
4908 1543 Box
4915 1428 Box
4922 1657 Box
4929 1543 Box
4937 1428 Box
4944 1313 Box
4951 1198 Box
4958 1083 Box
4965 1313 Box
4973 1198 Box
4980 1083 Box
4987 969 Box
4994 1198 Box
5002 1083 Box
5009 969 Box
5016 854 Box
5023 1083 Box
5030 969 Box
5038 1198 Box
5045 1083 Box
5052 969 Box
5059 1198 Box
5066 1083 Box
5074 969 Box
5081 854 Box
5088 1083 Box
5095 969 Box
5102 854 Box
5110 1083 Box
5117 969 Box
5124 854 Box
5131 1083 Box
5138 969 Box
5146 1198 Box
5153 1083 Box
5160 969 Box
5167 1198 Box
5174 1083 Box
5182 1313 Box
5189 1198 Box
5196 1083 Box
5203 969 Box
5210 1198 Box
5218 1083 Box
5225 969 Box
5232 854 Box
5239 1083 Box
5246 969 Box
5254 1198 Box
5261 1083 Box
5268 969 Box
5275 1198 Box
5283 1083 Box
5290 1313 Box
5297 1198 Box
5304 1083 Box
5311 969 Box
5319 1198 Box
5326 1428 Box
5333 1313 Box
5340 1198 Box
5347 1428 Box
5355 1313 Box
5362 1198 Box
5369 1083 Box
5376 1313 Box
5383 1198 Box
5391 1428 Box
5398 1313 Box
5405 1198 Box
5412 1083 Box
5419 969 Box
5427 1198 Box
5434 1083 Box
5441 969 Box
5448 854 Box
5455 1083 Box
5463 969 Box
5470 854 Box
5477 1083 Box
5484 969 Box
5491 854 Box
5499 1083 Box
5506 969 Box
5513 854 Box
5520 1083 Box
5528 969 Box
5535 1198 Box
5542 1083 Box
5549 969 Box
5556 1198 Box
5564 1083 Box
5571 1313 Box
5578 1198 Box
5585 1083 Box
5592 969 Box
5600 1198 Box
5607 1083 Box
5614 1313 Box
5621 1198 Box
5628 1428 Box
5636 1313 Box
5643 1198 Box
5650 1428 Box
5657 1313 Box
5664 1543 Box
5672 1428 Box
5679 1313 Box
5686 1543 Box
5693 1428 Box
5700 1313 Box
5708 1198 Box
5715 1428 Box
5722 1313 Box
5729 1543 Box
5736 1428 Box
5744 1313 Box
5751 1543 Box
5758 1428 Box
5765 1313 Box
5772 1543 Box
5780 1428 Box
5787 1313 Box
5794 1543 Box
5801 1428 Box
5809 1313 Box
5816 1543 Box
5823 1428 Box
5830 1313 Box
5837 1198 Box
5845 1428 Box
5852 1313 Box
5859 1198 Box
5866 1083 Box
5873 1313 Box
5881 1198 Box
5888 1083 Box
5895 969 Box
5902 854 Box
5909 1083 Box
5917 969 Box
5924 1198 Box
5931 1083 Box
5938 969 Box
5945 854 Box
5953 1083 Box
5960 969 Box
5967 854 Box
5974 1083 Box
5981 969 Box
5989 854 Box
5996 1083 Box
6003 969 Box
6010 854 Box
6017 1083 Box
6025 969 Box
6032 854 Box
6039 1083 Box
6046 969 Box
6054 854 Box
6061 1083 Box
6068 969 Box
6075 1198 Box
6082 1083 Box
6090 969 Box
6097 854 Box
6104 1083 Box
6111 969 Box
6118 854 Box
6126 1083 Box
6133 969 Box
6140 854 Box
6147 1083 Box
6154 969 Box
6162 854 Box
6169 1083 Box
6176 969 Box
6183 854 Box
6190 1083 Box
6198 969 Box
6205 1198 Box
6212 1083 Box
6219 969 Box
6226 854 Box
6234 1083 Box
6241 969 Box
6248 854 Box
6255 1083 Box
6262 969 Box
6270 854 Box
6277 1083 Box
6284 969 Box
6291 854 Box
6299 1083 Box
6306 969 Box
6313 854 Box
6320 1083 Box
6327 969 Box
6335 854 Box
6342 1083 Box
6349 969 Box
6356 1198 Box
6363 1083 Box
6371 969 Box
6378 854 Box
6385 1083 Box
6392 969 Box
6399 854 Box
6407 1083 Box
6414 969 Box
6421 854 Box
6428 1083 Box
6435 969 Box
6443 854 Box
6450 1083 Box
6457 969 Box
6464 854 Box
6471 1083 Box
6479 969 Box
6486 854 Box
6493 1083 Box
6500 969 Box
6507 854 Box
6515 1083 Box
6522 969 Box
6529 854 Box
6536 1083 Box
6543 969 Box
6551 1198 Box
6558 1083 Box
6565 969 Box
6572 854 Box
6580 1083 Box
6587 969 Box
6594 854 Box
6601 1083 Box
6608 969 Box
6616 1198 Box
6623 1083 Box
6630 969 Box
6637 1198 Box
6644 1083 Box
6652 969 Box
6659 1198 Box
6666 1083 Box
6673 1313 Box
6680 1198 Box
6688 1428 Box
6695 1313 Box
6702 1543 Box
6709 1428 Box
6716 1657 Box
6724 1887 Box
6731 1772 Box
6738 2002 Box
6745 1887 Box
6752 2116 Box
6760 2002 Box
6767 1887 Box
6774 2116 Box
6781 2002 Box
6788 2231 Box
6796 2461 Box
6803 2346 Box
6810 2346 Box
6817 2231 Box
6825 2116 Box
6832 2002 Box
6839 1887 Box
6846 1772 Box
6853 1657 Box
6861 1543 Box
6868 1428 Box
6875 1313 Box
6882 1198 Box
6889 1083 Box
6897 969 Box
6579 4318 Box
% End plot #4
2.000 UL
LTb
LCb setrgbcolor
1.000 UL
LTB
LCb setrgbcolor
462 4871 N
462 280 L
6485 0 V
0 4591 V
-6485 0 V
Z stroke
1.000 UP
1.000 UL
LTb
LCb setrgbcolor
stroke
grestore
end
showpage
%%Trailer
%%DocumentFonts: Helvetica
