%!PS-Adobe-2.0 EPSF-2.0
%%Title: chartSS1.eps
%%Creator: gnuplot 5.0 patchlevel 5
%%CreationDate: Fri Mar 31 16:25:03 2017
%%DocumentFonts: (atend)
%%BoundingBox: 50 50 410 302
%%EndComments
%%BeginProlog
/gnudict 256 dict def
gnudict begin
%
% The following true/false flags may be edited by hand if desired.
% The unit line width and grayscale image gamma correction may also be changed.
%
/Color true def
/Blacktext false def
/Solid false def
/Dashlength 1 def
/Landscape false def
/Level1 false def
/Level3 false def
/Rounded false def
/ClipToBoundingBox false def
/SuppressPDFMark false def
/TransparentPatterns false def
/gnulinewidth 5.000 def
/userlinewidth gnulinewidth def
/Gamma 1.0 def
/BackgroundColor {-1.000 -1.000 -1.000} def
%
/vshift -46 def
/dl1 {
  10.0 Dashlength userlinewidth gnulinewidth div mul mul mul
  Rounded { currentlinewidth 0.75 mul sub dup 0 le { pop 0.01 } if } if
} def
/dl2 {
  10.0 Dashlength userlinewidth gnulinewidth div mul mul mul
  Rounded { currentlinewidth 0.75 mul add } if
} def
/hpt_ 31.5 def
/vpt_ 31.5 def
/hpt hpt_ def
/vpt vpt_ def
/doclip {
  ClipToBoundingBox {
    newpath 50 50 moveto 410 50 lineto 410 302 lineto 50 302 lineto closepath
    clip
  } if
} def
%
% Gnuplot Prolog Version 5.1 (Oct 2015)
%
%/SuppressPDFMark true def
%
/M {moveto} bind def
/L {lineto} bind def
/R {rmoveto} bind def
/V {rlineto} bind def
/N {newpath moveto} bind def
/Z {closepath} bind def
/C {setrgbcolor} bind def
/f {rlineto fill} bind def
/g {setgray} bind def
/Gshow {show} def   % May be redefined later in the file to support UTF-8
/vpt2 vpt 2 mul def
/hpt2 hpt 2 mul def
/Lshow {currentpoint stroke M 0 vshift R 
	Blacktext {gsave 0 setgray textshow grestore} {textshow} ifelse} def
/Rshow {currentpoint stroke M dup stringwidth pop neg vshift R
	Blacktext {gsave 0 setgray textshow grestore} {textshow} ifelse} def
/Cshow {currentpoint stroke M dup stringwidth pop -2 div vshift R 
	Blacktext {gsave 0 setgray textshow grestore} {textshow} ifelse} def
/UP {dup vpt_ mul /vpt exch def hpt_ mul /hpt exch def
  /hpt2 hpt 2 mul def /vpt2 vpt 2 mul def} def
/DL {Color {setrgbcolor Solid {pop []} if 0 setdash}
 {pop pop pop 0 setgray Solid {pop []} if 0 setdash} ifelse} def
/BL {stroke userlinewidth 2 mul setlinewidth
	Rounded {1 setlinejoin 1 setlinecap} if} def
/AL {stroke userlinewidth 2 div setlinewidth
	Rounded {1 setlinejoin 1 setlinecap} if} def
/UL {dup gnulinewidth mul /userlinewidth exch def
	dup 1 lt {pop 1} if 10 mul /udl exch def} def
/PL {stroke userlinewidth setlinewidth
	Rounded {1 setlinejoin 1 setlinecap} if} def
3.8 setmiterlimit
% Classic Line colors (version 5.0)
/LCw {1 1 1} def
/LCb {0 0 0} def
/LCa {0 0 0} def
/LC0 {1 0 0} def
/LC1 {0 1 0} def
/LC2 {0 0 1} def
/LC3 {1 0 1} def
/LC4 {0 1 1} def
/LC5 {1 1 0} def
/LC6 {0 0 0} def
/LC7 {1 0.3 0} def
/LC8 {0.5 0.5 0.5} def
% Default dash patterns (version 5.0)
/LTB {BL [] LCb DL} def
/LTw {PL [] 1 setgray} def
/LTb {PL [] LCb DL} def
/LTa {AL [1 udl mul 2 udl mul] 0 setdash LCa setrgbcolor} def
/LT0 {PL [] LC0 DL} def
/LT1 {PL [2 dl1 3 dl2] LC1 DL} def
/LT2 {PL [1 dl1 1.5 dl2] LC2 DL} def
/LT3 {PL [6 dl1 2 dl2 1 dl1 2 dl2] LC3 DL} def
/LT4 {PL [1 dl1 2 dl2 6 dl1 2 dl2 1 dl1 2 dl2] LC4 DL} def
/LT5 {PL [4 dl1 2 dl2] LC5 DL} def
/LT6 {PL [1.5 dl1 1.5 dl2 1.5 dl1 1.5 dl2 1.5 dl1 6 dl2] LC6 DL} def
/LT7 {PL [3 dl1 3 dl2 1 dl1 3 dl2] LC7 DL} def
/LT8 {PL [2 dl1 2 dl2 2 dl1 6 dl2] LC8 DL} def
/SL {[] 0 setdash} def
/Pnt {stroke [] 0 setdash gsave 1 setlinecap M 0 0 V stroke grestore} def
/Dia {stroke [] 0 setdash 2 copy vpt add M
  hpt neg vpt neg V hpt vpt neg V
  hpt vpt V hpt neg vpt V closepath stroke
  Pnt} def
/Pls {stroke [] 0 setdash vpt sub M 0 vpt2 V
  currentpoint stroke M
  hpt neg vpt neg R hpt2 0 V stroke
 } def
/Box {stroke [] 0 setdash 2 copy exch hpt sub exch vpt add M
  0 vpt2 neg V hpt2 0 V 0 vpt2 V
  hpt2 neg 0 V closepath stroke
  Pnt} def
/Crs {stroke [] 0 setdash exch hpt sub exch vpt add M
  hpt2 vpt2 neg V currentpoint stroke M
  hpt2 neg 0 R hpt2 vpt2 V stroke} def
/TriU {stroke [] 0 setdash 2 copy vpt 1.12 mul add M
  hpt neg vpt -1.62 mul V
  hpt 2 mul 0 V
  hpt neg vpt 1.62 mul V closepath stroke
  Pnt} def
/Star {2 copy Pls Crs} def
/BoxF {stroke [] 0 setdash exch hpt sub exch vpt add M
  0 vpt2 neg V hpt2 0 V 0 vpt2 V
  hpt2 neg 0 V closepath fill} def
/TriUF {stroke [] 0 setdash vpt 1.12 mul add M
  hpt neg vpt -1.62 mul V
  hpt 2 mul 0 V
  hpt neg vpt 1.62 mul V closepath fill} def
/TriD {stroke [] 0 setdash 2 copy vpt 1.12 mul sub M
  hpt neg vpt 1.62 mul V
  hpt 2 mul 0 V
  hpt neg vpt -1.62 mul V closepath stroke
  Pnt} def
/TriDF {stroke [] 0 setdash vpt 1.12 mul sub M
  hpt neg vpt 1.62 mul V
  hpt 2 mul 0 V
  hpt neg vpt -1.62 mul V closepath fill} def
/DiaF {stroke [] 0 setdash vpt add M
  hpt neg vpt neg V hpt vpt neg V
  hpt vpt V hpt neg vpt V closepath fill} def
/Pent {stroke [] 0 setdash 2 copy gsave
  translate 0 hpt M 4 {72 rotate 0 hpt L} repeat
  closepath stroke grestore Pnt} def
/PentF {stroke [] 0 setdash gsave
  translate 0 hpt M 4 {72 rotate 0 hpt L} repeat
  closepath fill grestore} def
/Circle {stroke [] 0 setdash 2 copy
  hpt 0 360 arc stroke Pnt} def
/CircleF {stroke [] 0 setdash hpt 0 360 arc fill} def
/C0 {BL [] 0 setdash 2 copy moveto vpt 90 450 arc} bind def
/C1 {BL [] 0 setdash 2 copy moveto
	2 copy vpt 0 90 arc closepath fill
	vpt 0 360 arc closepath} bind def
/C2 {BL [] 0 setdash 2 copy moveto
	2 copy vpt 90 180 arc closepath fill
	vpt 0 360 arc closepath} bind def
/C3 {BL [] 0 setdash 2 copy moveto
	2 copy vpt 0 180 arc closepath fill
	vpt 0 360 arc closepath} bind def
/C4 {BL [] 0 setdash 2 copy moveto
	2 copy vpt 180 270 arc closepath fill
	vpt 0 360 arc closepath} bind def
/C5 {BL [] 0 setdash 2 copy moveto
	2 copy vpt 0 90 arc
	2 copy moveto
	2 copy vpt 180 270 arc closepath fill
	vpt 0 360 arc} bind def
/C6 {BL [] 0 setdash 2 copy moveto
	2 copy vpt 90 270 arc closepath fill
	vpt 0 360 arc closepath} bind def
/C7 {BL [] 0 setdash 2 copy moveto
	2 copy vpt 0 270 arc closepath fill
	vpt 0 360 arc closepath} bind def
/C8 {BL [] 0 setdash 2 copy moveto
	2 copy vpt 270 360 arc closepath fill
	vpt 0 360 arc closepath} bind def
/C9 {BL [] 0 setdash 2 copy moveto
	2 copy vpt 270 450 arc closepath fill
	vpt 0 360 arc closepath} bind def
/C10 {BL [] 0 setdash 2 copy 2 copy moveto vpt 270 360 arc closepath fill
	2 copy moveto
	2 copy vpt 90 180 arc closepath fill
	vpt 0 360 arc closepath} bind def
/C11 {BL [] 0 setdash 2 copy moveto
	2 copy vpt 0 180 arc closepath fill
	2 copy moveto
	2 copy vpt 270 360 arc closepath fill
	vpt 0 360 arc closepath} bind def
/C12 {BL [] 0 setdash 2 copy moveto
	2 copy vpt 180 360 arc closepath fill
	vpt 0 360 arc closepath} bind def
/C13 {BL [] 0 setdash 2 copy moveto
	2 copy vpt 0 90 arc closepath fill
	2 copy moveto
	2 copy vpt 180 360 arc closepath fill
	vpt 0 360 arc closepath} bind def
/C14 {BL [] 0 setdash 2 copy moveto
	2 copy vpt 90 360 arc closepath fill
	vpt 0 360 arc} bind def
/C15 {BL [] 0 setdash 2 copy vpt 0 360 arc closepath fill
	vpt 0 360 arc closepath} bind def
/Rec {newpath 4 2 roll moveto 1 index 0 rlineto 0 exch rlineto
	neg 0 rlineto closepath} bind def
/Square {dup Rec} bind def
/Bsquare {vpt sub exch vpt sub exch vpt2 Square} bind def
/S0 {BL [] 0 setdash 2 copy moveto 0 vpt rlineto BL Bsquare} bind def
/S1 {BL [] 0 setdash 2 copy vpt Square fill Bsquare} bind def
/S2 {BL [] 0 setdash 2 copy exch vpt sub exch vpt Square fill Bsquare} bind def
/S3 {BL [] 0 setdash 2 copy exch vpt sub exch vpt2 vpt Rec fill Bsquare} bind def
/S4 {BL [] 0 setdash 2 copy exch vpt sub exch vpt sub vpt Square fill Bsquare} bind def
/S5 {BL [] 0 setdash 2 copy 2 copy vpt Square fill
	exch vpt sub exch vpt sub vpt Square fill Bsquare} bind def
/S6 {BL [] 0 setdash 2 copy exch vpt sub exch vpt sub vpt vpt2 Rec fill Bsquare} bind def
/S7 {BL [] 0 setdash 2 copy exch vpt sub exch vpt sub vpt vpt2 Rec fill
	2 copy vpt Square fill Bsquare} bind def
/S8 {BL [] 0 setdash 2 copy vpt sub vpt Square fill Bsquare} bind def
/S9 {BL [] 0 setdash 2 copy vpt sub vpt vpt2 Rec fill Bsquare} bind def
/S10 {BL [] 0 setdash 2 copy vpt sub vpt Square fill 2 copy exch vpt sub exch vpt Square fill
	Bsquare} bind def
/S11 {BL [] 0 setdash 2 copy vpt sub vpt Square fill 2 copy exch vpt sub exch vpt2 vpt Rec fill
	Bsquare} bind def
/S12 {BL [] 0 setdash 2 copy exch vpt sub exch vpt sub vpt2 vpt Rec fill Bsquare} bind def
/S13 {BL [] 0 setdash 2 copy exch vpt sub exch vpt sub vpt2 vpt Rec fill
	2 copy vpt Square fill Bsquare} bind def
/S14 {BL [] 0 setdash 2 copy exch vpt sub exch vpt sub vpt2 vpt Rec fill
	2 copy exch vpt sub exch vpt Square fill Bsquare} bind def
/S15 {BL [] 0 setdash 2 copy Bsquare fill Bsquare} bind def
/D0 {gsave translate 45 rotate 0 0 S0 stroke grestore} bind def
/D1 {gsave translate 45 rotate 0 0 S1 stroke grestore} bind def
/D2 {gsave translate 45 rotate 0 0 S2 stroke grestore} bind def
/D3 {gsave translate 45 rotate 0 0 S3 stroke grestore} bind def
/D4 {gsave translate 45 rotate 0 0 S4 stroke grestore} bind def
/D5 {gsave translate 45 rotate 0 0 S5 stroke grestore} bind def
/D6 {gsave translate 45 rotate 0 0 S6 stroke grestore} bind def
/D7 {gsave translate 45 rotate 0 0 S7 stroke grestore} bind def
/D8 {gsave translate 45 rotate 0 0 S8 stroke grestore} bind def
/D9 {gsave translate 45 rotate 0 0 S9 stroke grestore} bind def
/D10 {gsave translate 45 rotate 0 0 S10 stroke grestore} bind def
/D11 {gsave translate 45 rotate 0 0 S11 stroke grestore} bind def
/D12 {gsave translate 45 rotate 0 0 S12 stroke grestore} bind def
/D13 {gsave translate 45 rotate 0 0 S13 stroke grestore} bind def
/D14 {gsave translate 45 rotate 0 0 S14 stroke grestore} bind def
/D15 {gsave translate 45 rotate 0 0 S15 stroke grestore} bind def
/DiaE {stroke [] 0 setdash vpt add M
  hpt neg vpt neg V hpt vpt neg V
  hpt vpt V hpt neg vpt V closepath stroke} def
/BoxE {stroke [] 0 setdash exch hpt sub exch vpt add M
  0 vpt2 neg V hpt2 0 V 0 vpt2 V
  hpt2 neg 0 V closepath stroke} def
/TriUE {stroke [] 0 setdash vpt 1.12 mul add M
  hpt neg vpt -1.62 mul V
  hpt 2 mul 0 V
  hpt neg vpt 1.62 mul V closepath stroke} def
/TriDE {stroke [] 0 setdash vpt 1.12 mul sub M
  hpt neg vpt 1.62 mul V
  hpt 2 mul 0 V
  hpt neg vpt -1.62 mul V closepath stroke} def
/PentE {stroke [] 0 setdash gsave
  translate 0 hpt M 4 {72 rotate 0 hpt L} repeat
  closepath stroke grestore} def
/CircE {stroke [] 0 setdash 
  hpt 0 360 arc stroke} def
/Opaque {gsave closepath 1 setgray fill grestore 0 setgray closepath} def
/DiaW {stroke [] 0 setdash vpt add M
  hpt neg vpt neg V hpt vpt neg V
  hpt vpt V hpt neg vpt V Opaque stroke} def
/BoxW {stroke [] 0 setdash exch hpt sub exch vpt add M
  0 vpt2 neg V hpt2 0 V 0 vpt2 V
  hpt2 neg 0 V Opaque stroke} def
/TriUW {stroke [] 0 setdash vpt 1.12 mul add M
  hpt neg vpt -1.62 mul V
  hpt 2 mul 0 V
  hpt neg vpt 1.62 mul V Opaque stroke} def
/TriDW {stroke [] 0 setdash vpt 1.12 mul sub M
  hpt neg vpt 1.62 mul V
  hpt 2 mul 0 V
  hpt neg vpt -1.62 mul V Opaque stroke} def
/PentW {stroke [] 0 setdash gsave
  translate 0 hpt M 4 {72 rotate 0 hpt L} repeat
  Opaque stroke grestore} def
/CircW {stroke [] 0 setdash 
  hpt 0 360 arc Opaque stroke} def
/BoxFill {gsave Rec 1 setgray fill grestore} def
/Density {
  /Fillden exch def
  currentrgbcolor
  /ColB exch def /ColG exch def /ColR exch def
  /ColR ColR Fillden mul Fillden sub 1 add def
  /ColG ColG Fillden mul Fillden sub 1 add def
  /ColB ColB Fillden mul Fillden sub 1 add def
  ColR ColG ColB setrgbcolor} def
/BoxColFill {gsave Rec PolyFill} def
/PolyFill {gsave Density fill grestore grestore} def
/h {rlineto rlineto rlineto gsave closepath fill grestore} bind def
%
% PostScript Level 1 Pattern Fill routine for rectangles
% Usage: x y w h s a XX PatternFill
%	x,y = lower left corner of box to be filled
%	w,h = width and height of box
%	  a = angle in degrees between lines and x-axis
%	 XX = 0/1 for no/yes cross-hatch
%
/PatternFill {gsave /PFa [ 9 2 roll ] def
  PFa 0 get PFa 2 get 2 div add PFa 1 get PFa 3 get 2 div add translate
  PFa 2 get -2 div PFa 3 get -2 div PFa 2 get PFa 3 get Rec
  TransparentPatterns {} {gsave 1 setgray fill grestore} ifelse
  clip
  currentlinewidth 0.5 mul setlinewidth
  /PFs PFa 2 get dup mul PFa 3 get dup mul add sqrt def
  0 0 M PFa 5 get rotate PFs -2 div dup translate
  0 1 PFs PFa 4 get div 1 add floor cvi
	{PFa 4 get mul 0 M 0 PFs V} for
  0 PFa 6 get ne {
	0 1 PFs PFa 4 get div 1 add floor cvi
	{PFa 4 get mul 0 2 1 roll M PFs 0 V} for
 } if
  stroke grestore} def
%
/languagelevel where
 {pop languagelevel} {1} ifelse
dup 2 lt
	{/InterpretLevel1 true def
	 /InterpretLevel3 false def}
	{/InterpretLevel1 Level1 def
	 2 gt
	    {/InterpretLevel3 Level3 def}
	    {/InterpretLevel3 false def}
	 ifelse }
 ifelse
%
% PostScript level 2 pattern fill definitions
%
/Level2PatternFill {
/Tile8x8 {/PaintType 2 /PatternType 1 /TilingType 1 /BBox [0 0 8 8] /XStep 8 /YStep 8}
	bind def
/KeepColor {currentrgbcolor [/Pattern /DeviceRGB] setcolorspace} bind def
<< Tile8x8
 /PaintProc {0.5 setlinewidth pop 0 0 M 8 8 L 0 8 M 8 0 L stroke} 
>> matrix makepattern
/Pat1 exch def
<< Tile8x8
 /PaintProc {0.5 setlinewidth pop 0 0 M 8 8 L 0 8 M 8 0 L stroke
	0 4 M 4 8 L 8 4 L 4 0 L 0 4 L stroke}
>> matrix makepattern
/Pat2 exch def
<< Tile8x8
 /PaintProc {0.5 setlinewidth pop 0 0 M 0 8 L
	8 8 L 8 0 L 0 0 L fill}
>> matrix makepattern
/Pat3 exch def
<< Tile8x8
 /PaintProc {0.5 setlinewidth pop -4 8 M 8 -4 L
	0 12 M 12 0 L stroke}
>> matrix makepattern
/Pat4 exch def
<< Tile8x8
 /PaintProc {0.5 setlinewidth pop -4 0 M 8 12 L
	0 -4 M 12 8 L stroke}
>> matrix makepattern
/Pat5 exch def
<< Tile8x8
 /PaintProc {0.5 setlinewidth pop -2 8 M 4 -4 L
	0 12 M 8 -4 L 4 12 M 10 0 L stroke}
>> matrix makepattern
/Pat6 exch def
<< Tile8x8
 /PaintProc {0.5 setlinewidth pop -2 0 M 4 12 L
	0 -4 M 8 12 L 4 -4 M 10 8 L stroke}
>> matrix makepattern
/Pat7 exch def
<< Tile8x8
 /PaintProc {0.5 setlinewidth pop 8 -2 M -4 4 L
	12 0 M -4 8 L 12 4 M 0 10 L stroke}
>> matrix makepattern
/Pat8 exch def
<< Tile8x8
 /PaintProc {0.5 setlinewidth pop 0 -2 M 12 4 L
	-4 0 M 12 8 L -4 4 M 8 10 L stroke}
>> matrix makepattern
/Pat9 exch def
/Pattern1 {PatternBgnd KeepColor Pat1 setpattern} bind def
/Pattern2 {PatternBgnd KeepColor Pat2 setpattern} bind def
/Pattern3 {PatternBgnd KeepColor Pat3 setpattern} bind def
/Pattern4 {PatternBgnd KeepColor Landscape {Pat5} {Pat4} ifelse setpattern} bind def
/Pattern5 {PatternBgnd KeepColor Landscape {Pat4} {Pat5} ifelse setpattern} bind def
/Pattern6 {PatternBgnd KeepColor Landscape {Pat9} {Pat6} ifelse setpattern} bind def
/Pattern7 {PatternBgnd KeepColor Landscape {Pat8} {Pat7} ifelse setpattern} bind def
} def
%
%
%End of PostScript Level 2 code
%
/PatternBgnd {
  TransparentPatterns {} {gsave 1 setgray fill grestore} ifelse
} def
%
% Substitute for Level 2 pattern fill codes with
% grayscale if Level 2 support is not selected.
%
/Level1PatternFill {
/Pattern1 {0.250 Density} bind def
/Pattern2 {0.500 Density} bind def
/Pattern3 {0.750 Density} bind def
/Pattern4 {0.125 Density} bind def
/Pattern5 {0.375 Density} bind def
/Pattern6 {0.625 Density} bind def
/Pattern7 {0.875 Density} bind def
} def
%
% Now test for support of Level 2 code
%
Level1 {Level1PatternFill} {Level2PatternFill} ifelse
%
/Symbol-Oblique /Symbol findfont [1 0 .167 1 0 0] makefont
dup length dict begin {1 index /FID eq {pop pop} {def} ifelse} forall
currentdict end definefont pop
%
/MFshow {
   { dup 5 get 3 ge
     { 5 get 3 eq {gsave} {grestore} ifelse }
     {dup dup 0 get findfont exch 1 get scalefont setfont
     [ currentpoint ] exch dup 2 get 0 exch R dup 5 get 2 ne {dup dup 6
     get exch 4 get {textshow} {stringwidth pop 0 R} ifelse }if dup 5 get 0 eq
     {dup 3 get {2 get neg 0 exch R pop} {pop aload pop M} ifelse} {dup 5
     get 1 eq {dup 2 get exch dup 3 get exch 6 get stringwidth pop -2 div
     dup 0 R} {dup 6 get stringwidth pop -2 div 0 R 6 get
     textshow 2 index {aload pop M neg 3 -1 roll neg R pop pop} {pop pop pop
     pop aload pop M} ifelse }ifelse }ifelse }
     ifelse }
   forall} def
/Gswidth {dup type /stringtype eq {stringwidth} {pop (n) stringwidth} ifelse} def
/MFwidth {0 exch { dup 5 get 3 ge { 5 get 3 eq { 0 } { pop } ifelse }
 {dup 3 get{dup dup 0 get findfont exch 1 get scalefont setfont
     6 get Gswidth pop add} {pop} ifelse} ifelse} forall} def
/MLshow { currentpoint stroke M
  0 exch R
  Blacktext {gsave 0 setgray MFshow grestore} {MFshow} ifelse } bind def
/MRshow { currentpoint stroke M
  exch dup MFwidth neg 3 -1 roll R
  Blacktext {gsave 0 setgray MFshow grestore} {MFshow} ifelse } bind def
/MCshow { currentpoint stroke M
  exch dup MFwidth -2 div 3 -1 roll R
  Blacktext {gsave 0 setgray MFshow grestore} {MFshow} ifelse } bind def
/XYsave    { [( ) 1 2 true false 3 ()] } bind def
/XYrestore { [( ) 1 2 true false 4 ()] } bind def
Level1 SuppressPDFMark or 
{} {
/SDict 10 dict def
systemdict /pdfmark known not {
  userdict /pdfmark systemdict /cleartomark get put
} if
SDict begin [
  /Title (chartSS1.eps)
  /Subject (gnuplot plot)
  /Creator (gnuplot 5.0 patchlevel 5)
  /Author (steve)
%  /Producer (gnuplot)
%  /Keywords ()
  /CreationDate (Fri Mar 31 16:25:03 2017)
  /DOCINFO pdfmark
end
} ifelse
%
% Support for boxed text - Ethan A Merritt May 2005
%
/InitTextBox { userdict /TBy2 3 -1 roll put userdict /TBx2 3 -1 roll put
           userdict /TBy1 3 -1 roll put userdict /TBx1 3 -1 roll put
	   /Boxing true def } def
/ExtendTextBox { Boxing
    { gsave dup false charpath pathbbox
      dup TBy2 gt {userdict /TBy2 3 -1 roll put} {pop} ifelse
      dup TBx2 gt {userdict /TBx2 3 -1 roll put} {pop} ifelse
      dup TBy1 lt {userdict /TBy1 3 -1 roll put} {pop} ifelse
      dup TBx1 lt {userdict /TBx1 3 -1 roll put} {pop} ifelse
      grestore } if } def
/PopTextBox { newpath TBx1 TBxmargin sub TBy1 TBymargin sub M
               TBx1 TBxmargin sub TBy2 TBymargin add L
	       TBx2 TBxmargin add TBy2 TBymargin add L
	       TBx2 TBxmargin add TBy1 TBymargin sub L closepath } def
/DrawTextBox { PopTextBox stroke /Boxing false def} def
/FillTextBox { gsave PopTextBox 1 1 1 setrgbcolor fill grestore /Boxing false def} def
0 0 0 0 InitTextBox
/TBxmargin 20 def
/TBymargin 20 def
/Boxing false def
/textshow { ExtendTextBox Gshow } def
%
% redundant definitions for compatibility with prologue.ps older than 5.0.2
/LTB {BL [] LCb DL} def
/LTb {PL [] LCb DL} def
end
%%EndProlog
%%Page: 1 1
gnudict begin
gsave
doclip
50 50 translate
0.050 0.050 scale
0 setgray
newpath
(Helvetica) findfont 140 scalefont setfont
BackgroundColor 0 lt 3 1 roll 0 lt exch 0 lt or or not {BackgroundColor C 1.000 0 0 7200.00 5040.00 BoxColFill} if
1.000 UL
LTb
LCb setrgbcolor
462 280 M
63 0 V
6422 0 R
-63 0 V
stroke
378 280 M
[ [(Helvetica) 140.0 0.0 true true 0 (-5)]
] -46.7 MRshow
1.000 UL
LTb
LCb setrgbcolor
462 936 M
63 0 V
6422 0 R
-63 0 V
stroke
378 936 M
[ [(Helvetica) 140.0 0.0 true true 0 ( 0)]
] -46.7 MRshow
1.000 UL
LTb
LCb setrgbcolor
462 1592 M
63 0 V
6422 0 R
-63 0 V
stroke
378 1592 M
[ [(Helvetica) 140.0 0.0 true true 0 ( 5)]
] -46.7 MRshow
1.000 UL
LTb
LCb setrgbcolor
462 2248 M
63 0 V
6422 0 R
-63 0 V
stroke
378 2248 M
[ [(Helvetica) 140.0 0.0 true true 0 ( 10)]
] -46.7 MRshow
1.000 UL
LTb
LCb setrgbcolor
462 2903 M
63 0 V
6422 0 R
-63 0 V
stroke
378 2903 M
[ [(Helvetica) 140.0 0.0 true true 0 ( 15)]
] -46.7 MRshow
1.000 UL
LTb
LCb setrgbcolor
462 3559 M
63 0 V
6422 0 R
-63 0 V
stroke
378 3559 M
[ [(Helvetica) 140.0 0.0 true true 0 ( 20)]
] -46.7 MRshow
1.000 UL
LTb
LCb setrgbcolor
462 4215 M
63 0 V
6422 0 R
-63 0 V
stroke
378 4215 M
[ [(Helvetica) 140.0 0.0 true true 0 ( 25)]
] -46.7 MRshow
1.000 UL
LTb
LCb setrgbcolor
462 4871 M
63 0 V
6422 0 R
-63 0 V
stroke
378 4871 M
[ [(Helvetica) 140.0 0.0 true true 0 ( 30)]
] -46.7 MRshow
1.000 UL
LTb
LCb setrgbcolor
462 280 M
0 63 V
0 4528 R
0 -63 V
stroke
462 140 M
[ [(Helvetica) 140.0 0.0 true true 0 ( 0)]
] -46.7 MCshow
1.000 UL
LTb
LCb setrgbcolor
1543 280 M
0 63 V
0 4528 R
0 -63 V
stroke
1543 140 M
[ [(Helvetica) 140.0 0.0 true true 0 ( 200)]
] -46.7 MCshow
1.000 UL
LTb
LCb setrgbcolor
2624 280 M
0 63 V
0 4528 R
0 -63 V
stroke
2624 140 M
[ [(Helvetica) 140.0 0.0 true true 0 ( 400)]
] -46.7 MCshow
1.000 UL
LTb
LCb setrgbcolor
3705 280 M
0 63 V
0 4528 R
0 -63 V
stroke
3705 140 M
[ [(Helvetica) 140.0 0.0 true true 0 ( 600)]
] -46.7 MCshow
1.000 UL
LTb
LCb setrgbcolor
4785 280 M
0 63 V
0 4528 R
0 -63 V
stroke
4785 140 M
[ [(Helvetica) 140.0 0.0 true true 0 ( 800)]
] -46.7 MCshow
1.000 UL
LTb
LCb setrgbcolor
5866 280 M
0 63 V
0 4528 R
0 -63 V
stroke
5866 140 M
[ [(Helvetica) 140.0 0.0 true true 0 ( 1000)]
] -46.7 MCshow
1.000 UL
LTb
LCb setrgbcolor
6947 280 M
0 63 V
0 4528 R
0 -63 V
stroke
6947 140 M
[ [(Helvetica) 140.0 0.0 true true 0 ( 1200)]
] -46.7 MCshow
1.000 UL
LTb
LCb setrgbcolor
1.000 UL
LTB
LCb setrgbcolor
462 4871 N
462 280 L
6485 0 V
0 4591 V
-6485 0 V
Z stroke
1.000 UP
1.000 UL
LTb
LCb setrgbcolor
% Begin plot #1
1.000 UL
LTb
0.58 0.00 0.83 C LCb setrgbcolor
6296 4738 M
[ [(Helvetica) 140.0 0.0 true true 0 (original)]
] -46.7 MRshow
1.000 UL
LTb
0.58 0.00 0.83 C 6380 4738 M
399 0 V
462 2248 M
5 0 V
6 0 V
5 0 V
6 0 V
5 0 V
5 0 V
6 0 V
5 0 V
6 0 V
5 0 V
5 0 V
6 0 V
5 0 V
6 0 V
5 0 V
5 0 V
6 0 V
5 0 V
6 0 V
5 0 V
5 0 V
6 0 V
5 0 V
6 0 V
5 0 V
6 0 V
5 0 V
5 0 V
6 0 V
5 0 V
6 0 V
5 0 V
5 0 V
6 0 V
5 0 V
6 0 V
5 0 V
5 0 V
6 0 V
5 0 V
6 0 V
5 0 V
5 0 V
6 0 V
5 0 V
6 0 V
5 0 V
5 0 V
6 0 V
5 0 V
6 0 V
5 0 V
5 0 V
6 0 V
5 0 V
6 0 V
5 0 V
5 0 V
6 0 V
5 0 V
6 0 V
5 0 V
5 0 V
6 0 V
5 0 V
6 0 V
5 0 V
5 0 V
6 0 V
5 0 V
6 0 V
5 0 V
6 0 V
5 0 V
5 0 V
6 0 V
5 0 V
6 0 V
5 0 V
5 0 V
6 0 V
5 0 V
6 0 V
5 0 V
5 0 V
6 0 V
5 0 V
6 0 V
5 0 V
5 0 V
6 0 V
5 0 V
6 0 V
5 0 V
5 0 V
6 0 V
5 0 V
6 0 V
5 0 V
5 0 V
6 0 V
5 0 V
stroke 1013 2248 M
6 0 V
5 0 V
5 0 V
6 0 V
5 0 V
6 0 V
5 0 V
5 0 V
6 0 V
5 0 V
6 0 V
5 0 V
5 0 V
6 0 V
5 0 V
6 0 V
5 0 V
6 0 V
5 0 V
5 0 V
6 0 V
5 0 V
6 0 V
5 0 V
5 0 V
6 0 V
5 0 V
6 0 V
5 0 V
5 0 V
6 0 V
5 0 V
6 0 V
5 0 V
5 0 V
6 0 V
5 0 V
6 0 V
5 0 V
5 0 V
6 0 V
5 0 V
6 0 V
5 0 V
5 0 V
6 0 V
5 0 V
6 0 V
5 0 V
5 0 V
6 0 V
5 0 V
6 0 V
5 0 V
5 0 V
6 0 V
5 0 V
6 0 V
5 0 V
5 0 V
6 0 V
5 0 V
6 0 V
5 0 V
5 0 V
6 0 V
5 0 V
6 0 V
5 0 V
6 0 V
5 0 V
5 0 V
6 0 V
5 0 V
6 0 V
5 0 V
5 0 V
6 0 V
5 0 V
6 0 V
5 0 V
5 0 V
6 0 V
5 0 V
6 0 V
5 0 V
5 0 V
6 0 V
5 0 V
6 0 V
5 0 V
5 0 V
6 0 V
5 0 V
6 0 V
5 0 V
5 0 V
6 0 V
5 0 V
6 0 V
5 0 V
5 0 V
6 0 V
5 0 V
stroke 1575 2248 M
6 0 V
5 0 V
5 0 V
6 0 V
5 0 V
6 0 V
5 0 V
5 0 V
6 0 V
5 0 V
6 0 V
5 0 V
6 0 V
5 0 V
5 0 V
6 0 V
5 0 V
6 0 V
5 0 V
5 0 V
6 0 V
5 0 V
6 0 V
5 0 V
5 0 V
6 0 V
5 0 V
6 0 V
5 0 V
5 0 V
6 0 V
5 0 V
6 0 V
5 0 V
5 0 V
6 0 V
5 0 V
6 0 V
5 0 V
5 0 V
6 0 V
5 0 V
6 0 V
5 0 V
5 0 V
6 0 V
5 0 V
6 0 V
5 0 V
5 0 V
6 0 V
5 0 V
6 0 V
5 0 V
5 0 V
6 0 V
5 0 V
6 0 V
5 0 V
6 0 V
5 0 V
5 0 V
6 0 V
5 0 V
6 0 V
5 0 V
5 0 V
6 0 V
5 0 V
6 0 V
5 0 V
5 0 V
6 0 V
5 0 V
6 0 V
5 0 V
5 0 V
6 0 V
5 0 V
6 0 V
5 0 V
5 0 V
6 0 V
5 0 V
6 0 V
5 0 V
5 0 V
6 0 V
5 0 V
6 0 V
5 0 V
5 0 V
6 0 V
5 0 V
6 0 V
5 0 V
5 0 V
6 0 V
5 0 V
6 0 V
5 0 V
5 0 V
6 0 V
5 0 V
stroke 2137 2248 M
6 0 V
5 0 V
6 0 V
5 0 V
5 0 V
6 0 V
5 0 V
6 0 V
5 0 V
5 0 V
6 0 V
5 0 V
6 0 V
5 0 V
5 0 V
6 0 V
5 0 V
6 0 V
5 0 V
5 0 V
6 0 V
5 0 V
6 0 V
5 0 V
5 0 V
6 0 V
5 0 V
6 0 V
5 0 V
5 0 V
6 0 V
5 0 V
6 0 V
5 0 V
5 0 V
6 0 V
5 0 V
6 0 V
5 0 V
5 0 V
6 0 V
5 0 V
6 0 V
5 0 V
5 0 V
6 0 V
5 0 V
6 0 V
5 0 V
6 0 V
5 0 V
5 0 V
6 0 V
5 0 V
6 0 V
5 0 V
5 0 V
6 0 V
5 0 V
6 0 V
5 0 V
5 0 V
6 0 V
5 0 V
6 0 V
5 0 V
5 0 V
6 0 V
5 0 V
6 0 V
5 0 V
5 0 V
6 0 V
5 0 V
6 0 V
5 0 V
5 0 V
6 0 V
5 0 V
6 0 V
5 0 V
5 0 V
6 0 V
5 0 V
6 0 V
5 0 V
5 0 V
6 0 V
5 0 V
6 0 V
5 0 V
5 0 V
6 0 V
5 0 V
6 0 V
5 0 V
5 0 V
6 0 V
5 0 V
6 0 V
5 0 V
6 0 V
5 0 V
5 0 V
stroke 2699 2248 M
6 0 V
5 0 V
6 0 V
5 0 V
5 0 V
6 0 V
5 0 V
6 0 V
5 0 V
5 0 V
6 0 V
5 0 V
6 0 V
5 0 V
5 0 V
6 0 V
5 0 V
6 0 V
5 0 V
5 0 V
6 0 V
5 0 V
6 0 V
5 0 V
5 0 V
6 0 V
5 0 V
6 0 V
5 0 V
5 0 V
6 0 V
5 0 V
6 0 V
5 0 V
5 0 V
6 0 V
5 0 V
6 0 V
5 0 V
5 0 V
6 0 V
5 0 V
6 0 V
5 0 V
6 0 V
5 0 V
5 0 V
6 0 V
5 0 V
6 0 V
5 0 V
5 0 V
6 0 V
5 0 V
6 0 V
5 0 V
5 0 V
6 0 V
5 0 V
6 0 V
5 0 V
5 0 V
6 0 V
5 0 V
6 0 V
5 0 V
5 0 V
6 0 V
5 0 V
6 0 V
5 0 V
5 0 V
6 0 V
5 0 V
6 0 V
5 0 V
5 0 V
6 0 V
5 0 V
6 0 V
5 0 V
5 0 V
6 0 V
5 0 V
6 0 V
5 0 V
5 0 V
6 0 V
5 0 V
6 0 V
5 0 V
6 0 V
5 0 V
5 0 V
6 0 V
5 0 V
6 0 V
5 0 V
5 0 V
6 0 V
5 0 V
6 0 V
5 0 V
5 0 V
stroke 3261 2248 M
6 0 V
5 0 V
6 0 V
5 0 V
5 0 V
6 0 V
5 0 V
6 0 V
5 0 V
5 0 V
6 0 V
5 0 V
6 0 V
5 0 V
5 0 V
6 0 V
5 0 V
6 0 V
5 0 V
5 0 V
6 0 V
5 0 V
6 0 V
5 0 V
5 0 V
6 0 V
5 0 V
6 0 V
5 0 V
5 0 V
6 0 V
5 0 V
6 0 V
5 0 V
6 0 V
5 0 V
5 0 V
6 0 V
5 0 V
6 0 V
5 0 V
5 0 V
6 0 V
5 0 V
6 0 V
5 0 V
5 0 V
6 0 V
5 0 V
6 0 V
5 0 V
5 0 V
6 0 V
5 0 V
6 0 V
5 0 V
5 0 V
6 0 V
5 0 V
6 0 V
5 0 V
5 0 V
6 0 V
5 0 V
6 0 V
5 0 V
5 0 V
6 0 V
5 0 V
6 0 V
5 0 V
5 0 V
6 0 V
5 0 V
6 0 V
5 0 V
5 0 V
6 0 V
5 0 V
6 0 V
5 0 V
6 0 V
5 0 V
5 0 V
6 0 V
5 0 V
6 0 V
5 0 V
5 0 V
6 0 V
5 0 V
6 0 V
5 0 V
5 0 V
6 0 V
5 0 V
6 0 V
5 0 V
5 0 V
6 0 V
5 0 V
6 0 V
5 0 V
5 0 V
stroke 3823 2248 M
6 0 V
5 0 V
6 0 V
5 0 V
5 0 V
6 0 V
5 0 V
6 0 V
5 0 V
5 0 V
6 0 V
5 0 V
6 0 V
5 0 V
5 0 V
6 0 V
5 0 V
6 0 V
5 0 V
5 0 V
6 0 V
5 0 V
6 0 V
5 0 V
5 0 V
6 0 V
5 0 V
6 0 V
5 0 V
6 0 V
5 0 V
5 0 V
6 0 V
5 0 V
6 0 V
5 0 V
5 0 V
6 0 V
5 0 V
6 0 V
5 0 V
5 0 V
6 0 V
5 0 V
6 0 V
5 0 V
5 0 V
6 0 V
5 0 V
6 0 V
5 0 V
5 0 V
6 0 V
5 0 V
6 0 V
5 0 V
5 0 V
6 0 V
5 0 V
6 0 V
5 0 V
5 0 V
6 0 V
5 0 V
6 0 V
5 0 V
5 0 V
6 0 V
5 0 V
6 0 V
5 0 V
5 0 V
6 0 V
5 0 V
6 0 V
5 0 V
6 0 V
5 0 V
5 0 V
6 0 V
5 0 V
6 0 V
5 0 V
5 0 V
6 0 V
5 0 V
6 0 V
5 0 V
5 0 V
6 0 V
5 0 V
6 0 V
5 0 V
5 0 V
6 0 V
5 0 V
6 0 V
5 0 V
5 0 V
6 0 V
5 0 V
6 0 V
5 0 V
5 0 V
stroke 4385 2248 M
6 0 V
5 0 V
6 0 V
5 0 V
5 0 V
6 0 V
5 0 V
6 0 V
5 0 V
5 0 V
6 0 V
5 0 V
6 0 V
5 0 V
5 0 V
6 0 V
5 0 V
6 0 V
5 0 V
6 0 V
5 0 V
5 0 V
6 0 V
5 0 V
6 0 V
5 0 V
5 0 V
6 0 V
5 0 V
6 0 V
5 0 V
5 0 V
6 0 V
5 0 V
6 0 V
5 0 V
5 0 V
6 0 V
5 0 V
6 0 V
5 0 V
5 0 V
6 0 V
5 0 V
6 0 V
5 0 V
5 0 V
6 0 V
5 0 V
6 0 V
5 0 V
5 0 V
6 0 V
5 0 V
6 0 V
5 0 V
5 0 V
6 0 V
5 0 V
6 0 V
5 0 V
5 0 V
6 0 V
5 0 V
6 0 V
5 0 V
6 0 V
5 0 V
5 0 V
6 0 V
5 0 V
6 0 V
5 0 V
5 0 V
6 0 V
5 0 V
6 0 V
5 0 V
5 0 V
6 0 V
5 0 V
6 0 V
5 0 V
5 0 V
6 0 V
5 0 V
6 0 V
5 0 V
5 0 V
6 0 V
5 0 V
6 0 V
5 0 V
5 0 V
6 0 V
5 0 V
6 0 V
5 0 V
5 0 V
6 0 V
5 0 V
6 0 V
5 0 V
5 0 V
stroke 4947 2248 M
6 0 V
5 0 V
6 0 V
5 0 V
5 0 V
6 0 V
5 0 V
6 0 V
5 0 V
6 0 V
5 0 V
5 0 V
6 0 V
5 0 V
6 0 V
5 0 V
5 0 V
6 0 V
5 0 V
6 0 V
5 0 V
5 0 V
6 0 V
5 0 V
6 0 V
5 0 V
5 0 V
6 0 V
5 0 V
6 0 V
5 0 V
5 0 V
6 0 V
5 0 V
6 0 V
5 0 V
5 0 V
6 0 V
5 0 V
6 0 V
5 0 V
5 0 V
6 0 V
5 0 V
6 0 V
5 0 V
5 0 V
6 0 V
5 0 V
6 0 V
5 0 V
5 0 V
6 0 V
5 0 V
6 0 V
5 0 V
5 0 V
6 0 V
5 0 V
6 0 V
5 0 V
6 0 V
5 0 V
5 0 V
6 0 V
5 0 V
6 0 V
5 0 V
5 0 V
6 0 V
5 0 V
6 0 V
5 0 V
5 0 V
6 0 V
5 0 V
6 0 V
5 0 V
5 0 V
6 0 V
5 0 V
6 0 V
5 0 V
5 0 V
6 0 V
5 0 V
6 0 V
5 0 V
5 0 V
6 0 V
5 0 V
6 0 V
5 0 V
5 0 V
6 0 V
5 0 V
6 0 V
5 0 V
5 0 V
6 0 V
5 0 V
6 0 V
5 0 V
5 0 V
stroke 5509 2248 M
6 0 V
5 0 V
6 0 V
5 0 V
6 0 V
5 0 V
5 0 V
6 0 V
5 0 V
6 0 V
5 0 V
5 0 V
6 0 V
5 0 V
6 0 V
5 0 V
5 0 V
6 0 V
5 0 V
6 0 V
5 0 V
5 0 V
6 0 V
5 0 V
6 0 V
5 0 V
5 0 V
6 0 V
5 0 V
6 0 V
5 0 V
5 0 V
6 0 V
5 0 V
6 0 V
5 0 V
5 0 V
6 0 V
5 0 V
6 0 V
5 0 V
5 0 V
6 0 V
5 0 V
6 0 V
5 0 V
5 0 V
6 0 V
5 0 V
6 0 V
5 0 V
6 0 V
5 0 V
5 0 V
6 0 V
5 0 V
6 0 V
5 0 V
5 0 V
6 0 V
5 0 V
6 0 V
5 0 V
5 0 V
6 0 V
5 0 V
6 0 V
5 0 V
5 0 V
6 0 V
5 0 V
6 0 V
5 0 V
5 0 V
6 0 V
5 0 V
6 0 V
5 0 V
5 0 V
6 0 V
5 0 V
6 0 V
5 0 V
5 0 V
6 0 V
5 0 V
6 0 V
5 0 V
5 0 V
6 0 V
5 0 V
6 0 V
5 0 V
5 0 V
6 0 V
5 0 V
6 0 V
5 0 V
6 0 V
5 0 V
5 0 V
6 0 V
5 0 V
6 0 V
stroke 6072 2248 M
5 0 V
5 0 V
6 0 V
5 0 V
6 0 V
5 0 V
5 0 V
6 0 V
5 0 V
6 0 V
5 0 V
5 0 V
6 0 V
5 0 V
6 0 V
5 0 V
5 0 V
6 0 V
5 0 V
6 0 V
5 0 V
5 0 V
6 0 V
5 0 V
6 0 V
5 0 V
5 0 V
6 0 V
5 0 V
6 0 V
5 0 V
5 0 V
6 0 V
5 0 V
6 0 V
5 0 V
5 0 V
6 0 V
5 0 V
6 0 V
5 0 V
6 0 V
5 0 V
5 0 V
6 0 V
5 0 V
6 0 V
5 0 V
5 0 V
6 0 V
5 0 V
6 0 V
5 0 V
5 0 V
6 0 V
5 0 V
6 0 V
5 0 V
5 0 V
6 0 V
5 0 V
6 0 V
5 0 V
5 0 V
6 0 V
5 0 V
6 0 V
5 0 V
5 0 V
6 0 V
5 0 V
6 0 V
5 0 V
5 0 V
6 0 V
5 0 V
6 0 V
5 0 V
5 0 V
6 0 V
5 0 V
6 0 V
5 0 V
5 0 V
6 0 V
5 0 V
6 0 V
5 0 V
5 0 V
6 0 V
5 0 V
6 0 V
5 0 V
6 0 V
5 0 V
5 0 V
6 0 V
5 0 V
6 0 V
5 0 V
5 0 V
6 0 V
5 0 V
6 0 V
stroke 6634 2248 M
5 0 V
5 0 V
6 0 V
5 0 V
6 0 V
5 0 V
5 0 V
6 0 V
5 0 V
6 0 V
5 0 V
5 0 V
6 0 V
5 0 V
6 0 V
5 0 V
5 0 V
6 0 V
5 0 V
6 0 V
5 0 V
5 0 V
6 0 V
5 0 V
6 0 V
5 0 V
5 0 V
6 0 V
5 0 V
6 0 V
5 0 V
5 0 V
6 0 V
5 0 V
6 0 V
5 0 V
6 0 V
5 0 V
5 0 V
6 0 V
5 0 V
6 0 V
5 0 V
5 0 V
6 0 V
5 0 V
6 0 V
5 0 V
5 0 V
% End plot #1
% Begin plot #2
1.000 UP
stroke
LTb
0.00 0.62 0.45 C LCb setrgbcolor
6296 4598 M
[ [(Helvetica) 140.0 0.0 true true 0 (oracolo)]
] -46.7 MRshow
1.000 UP
1.000 UL
LTb
0.00 0.62 0.45 C 6380 4598 M
399 0 V
462 936 M
5 0 V
6 2099 V
478 805 L
6 2623 V
489 805 L
5 2098 V
500 805 L
5 2098 V
511 805 L
5 2098 V
521 805 L
6 2098 V
532 805 L
6 2098 V
543 805 L
5 2098 V
6 0 V
5 0 V
565 805 L
5 2492 V
575 805 L
6 2098 V
586 805 L
6 2098 V
597 805 L
6 2098 V
608 805 L
5 1967 V
619 805 L
5 2623 V
630 805 L
5 2361 V
640 805 L
6 2623 V
5 0 V
6 -131 V
662 805 L
5 2623 V
6 0 V
5 -262 V
6 0 V
5 -131 V
5 0 V
6 393 V
705 805 L
6 2492 V
716 805 L
5 2098 V
727 805 L
5 2098 V
738 805 L
5 2098 V
748 805 L
6 2098 V
759 805 L
6 2098 V
770 805 L
5 2098 V
781 805 L
5 2098 V
792 805 L
5 2098 V
802 805 L
6 2098 V
813 805 L
6 2098 V
824 805 L
5 2098 V
835 805 L
5 2098 V
6 0 V
5 0 V
857 805 L
5 2623 V
867 805 L
6 2098 V
878 805 L
6 2098 V
889 805 L
5 2098 V
900 805 L
5 2098 V
911 805 L
5 2098 V
921 805 L
6 2098 V
932 805 L
6 2098 V
943 805 L
5 2098 V
954 805 L
5 2098 V
6 0 V
5 0 V
975 805 L
6 2492 V
986 805 L
6 2098 V
997 805 L
5 2098 V
6 -2098 V
5 2098 V
6 -2098 V
5 2098 V
5 -2098 V
6 1967 V
5 -1967 V
6 1967 V
5 -1967 V
5 2623 V
6 0 V
5 0 V
6 0 V
5 0 V
5 0 V
6 0 V
5 -131 V
6 0 V
5 -131 V
6 0 V
5 262 V
5 0 V
6 0 V
5 0 V
6 0 V
5 0 V
5 0 V
6 0 V
5 -2623 V
6 2623 V
5 0 V
5 -525 V
6 -2098 V
5 2623 V
6 -2623 V
5 2098 V
5 0 V
6 394 V
5 -2492 V
6 2623 V
5 -2623 V
5 2230 V
6 0 V
5 -132 V
6 -2098 V
5 2623 V
5 -2623 V
6 2098 V
5 -2098 V
6 2098 V
5 -2098 V
5 2098 V
6 -2098 V
5 2098 V
6 -2098 V
5 1967 V
5 0 V
6 131 V
5 -2098 V
6 2623 V
5 -2623 V
5 2098 V
6 -2098 V
5 2623 V
6 0 V
5 -131 V
5 0 V
6 -262 V
5 0 V
6 262 V
5 0 V
6 0 V
5 -262 V
5 0 V
6 262 V
5 131 V
6 0 V
5 0 V
5 0 V
6 0 V
5 0 V
6 0 V
5 0 V
5 0 V
6 0 V
5 0 V
6 -262 V
5 0 V
5 262 V
6 0 V
5 0 V
6 -393 V
5 0 V
5 131 V
6 0 V
5 0 V
6 262 V
5 0 V
5 0 V
6 0 V
5 0 V
6 0 V
5 -2623 V
stroke 1559 805 M
5 2623 V
6 0 V
5 0 V
6 0 V
5 0 V
5 0 V
6 0 V
5 0 V
6 0 V
5 0 V
5 0 V
6 -262 V
5 0 V
6 -263 V
5 0 V
6 394 V
5 0 V
5 0 V
6 131 V
5 0 V
6 0 V
5 0 V
5 0 V
6 -2623 V
5 2623 V
6 -2623 V
5 2098 V
5 -2098 V
6 2098 V
5 -2098 V
6 2098 V
5 -2098 V
5 1967 V
6 -1967 V
5 2098 V
6 -2098 V
5 2098 V
5 -2098 V
6 2098 V
5 -2098 V
6 2098 V
5 -2098 V
5 2230 V
6 -2230 V
5 2230 V
6 -2230 V
5 2098 V
5 -2098 V
6 2098 V
5 0 V
6 0 V
5 -2098 V
5 2623 V
6 -2623 V
5 2098 V
6 -2098 V
5 2098 V
5 -2098 V
6 2098 V
5 0 V
6 -131 V
5 -1967 V
6 2623 V
5 -2623 V
5 2098 V
6 -2098 V
5 2098 V
6 -2098 V
5 2098 V
5 -2098 V
6 2098 V
5 -2098 V
6 2098 V
5 -2098 V
5 2098 V
6 -2098 V
5 2098 V
6 -2098 V
5 1967 V
5 -1967 V
6 2098 V
5 0 V
6 0 V
5 -2098 V
5 2623 V
6 0 V
5 -525 V
6 -2098 V
5 2623 V
5 -2623 V
6 2098 V
5 -2098 V
6 2098 V
5 -2098 V
5 2361 V
6 0 V
5 -263 V
6 -2098 V
5 2623 V
5 -2623 V
6 2098 V
5 -2098 V
6 2098 V
5 -2098 V
stroke 2121 805 M
5 2230 V
6 -2230 V
5 2230 V
6 -2230 V
5 2623 V
6 -2623 V
5 2230 V
5 -2230 V
6 2098 V
5 0 V
6 0 V
5 -2098 V
5 2623 V
6 -2623 V
5 1967 V
6 0 V
5 131 V
5 -2098 V
6 2623 V
5 -2623 V
6 2098 V
5 -2098 V
5 2492 V
6 0 V
5 -131 V
6 -2361 V
5 2623 V
5 -2623 V
6 1967 V
5 0 V
6 394 V
5 0 V
5 0 V
6 -131 V
5 0 V
6 0 V
5 0 V
5 131 V
6 0 V
5 0 V
6 0 V
5 -131 V
5 393 V
6 0 V
5 0 V
6 0 V
5 0 V
5 -2623 V
6 2623 V
5 -2623 V
6 2098 V
5 -2098 V
6 2098 V
5 0 V
5 0 V
6 -2098 V
5 2623 V
6 -2623 V
5 1967 V
5 -1967 V
6 2230 V
5 -2230 V
6 1967 V
5 -1967 V
5 2098 V
6 -2098 V
5 2098 V
6 0 V
5 0 V
5 0 V
6 525 V
5 0 V
6 0 V
5 -2623 V
5 2492 V
6 -2492 V
5 2098 V
6 0 V
5 0 V
5 -2098 V
6 2623 V
5 -2623 V
6 2098 V
5 0 V
5 394 V
6 0 V
5 131 V
6 0 V
5 0 V
5 0 V
6 0 V
5 -2623 V
6 2623 V
5 -2623 V
5 2623 V
6 -2623 V
5 2623 V
6 -2623 V
5 2623 V
5 0 V
6 0 V
5 -2623 V
6 2623 V
5 -2623 V
stroke 2683 805 M
6 2098 V
5 -2098 V
5 2361 V
6 0 V
5 -263 V
6 -2098 V
5 2623 V
5 -2623 V
6 2098 V
5 -2098 V
6 2098 V
5 -2098 V
5 2098 V
6 -2098 V
5 2623 V
6 -2623 V
5 2230 V
5 -2230 V
6 2098 V
5 -2098 V
6 2098 V
5 -2098 V
5 2098 V
6 -2098 V
5 2098 V
6 -2098 V
5 2361 V
5 -2361 V
6 2623 V
5 0 V
6 0 V
5 0 V
5 0 V
6 -2623 V
5 2492 V
6 -2492 V
5 2098 V
5 -2098 V
6 1967 V
5 -1967 V
6 2098 V
5 -2098 V
5 2623 V
6 0 V
5 -656 V
6 -1967 V
5 2623 V
6 0 V
5 -525 V
5 -2098 V
6 2623 V
5 -2623 V
6 2623 V
5 -2623 V
5 2623 V
6 -2623 V
5 2492 V
6 -2492 V
5 2230 V
5 0 V
6 262 V
5 0 V
6 -262 V
5 0 V
5 0 V
6 0 V
5 -132 V
6 0 V
5 394 V
5 -2492 V
6 2492 V
5 -2492 V
6 2098 V
5 -2098 V
5 2098 V
6 0 V
5 0 V
6 -2098 V
5 2623 V
5 -2623 V
6 2098 V
5 -2098 V
6 2098 V
5 -2098 V
5 2098 V
6 -2098 V
5 2098 V
6 -2098 V
5 2492 V
5 -2492 V
6 2098 V
5 -2098 V
6 1967 V
5 -1967 V
6 2098 V
5 -2098 V
5 2098 V
6 0 V
5 525 V
6 -2623 V
5 2623 V
5 0 V
6 -656 V
5 -1967 V
stroke 3245 805 M
6 2492 V
5 -2492 V
5 2098 V
6 -2098 V
5 2098 V
6 -2098 V
5 2623 V
5 -2623 V
6 2098 V
5 0 V
6 0 V
5 0 V
5 525 V
6 -2623 V
5 2623 V
6 -2623 V
5 2098 V
5 -2098 V
6 1967 V
5 0 V
6 131 V
5 -2098 V
5 2492 V
6 -2492 V
5 2098 V
6 -2098 V
5 1967 V
5 -1967 V
6 2098 V
5 -2098 V
6 2098 V
5 -2098 V
5 2098 V
6 -2098 V
5 2623 V
6 -2623 V
5 2098 V
6 -2098 V
5 2098 V
5 -2098 V
6 2098 V
5 -2098 V
6 2098 V
5 -2098 V
5 2098 V
6 0 V
5 -131 V
6 -1967 V
5 2623 V
5 -2623 V
6 2098 V
5 -2098 V
6 2098 V
5 0 V
5 0 V
6 -2098 V
5 2623 V
6 -2623 V
5 2098 V
5 -2098 V
6 2098 V
5 0 V
6 0 V
5 -2098 V
5 2623 V
6 -2623 V
5 2098 V
6 -2098 V
5 1967 V
5 0 V
6 131 V
5 -2098 V
6 2623 V
5 -2623 V
5 2623 V
6 -2623 V
5 2098 V
6 -2098 V
5 1967 V
5 0 V
6 656 V
5 -2623 V
6 2623 V
5 -2623 V
6 2361 V
5 -2361 V
5 2098 V
6 0 V
5 0 V
6 -2098 V
5 2492 V
5 -2492 V
6 2098 V
5 -2098 V
6 2098 V
5 -2098 V
5 2098 V
6 -2098 V
5 2098 V
6 -2098 V
5 2098 V
5 -2098 V
6 2098 V
5 -2098 V
stroke 3807 805 M
6 2098 V
5 -2098 V
5 1967 V
6 0 V
5 131 V
6 -2098 V
5 2492 V
5 -2492 V
6 1967 V
5 -1967 V
6 2098 V
5 -2098 V
5 2098 V
6 -2098 V
5 1967 V
6 -1967 V
5 2098 V
5 0 V
6 -131 V
5 -1967 V
6 2623 V
5 -2623 V
5 2623 V
6 -2623 V
5 2492 V
6 -2492 V
5 2098 V
5 -2098 V
6 2098 V
5 -2098 V
6 2098 V
5 -2098 V
6 1967 V
5 -1967 V
5 2098 V
6 -2098 V
5 2230 V
6 -2230 V
5 2098 V
5 0 V
6 -131 V
5 -1967 V
6 2623 V
5 -2623 V
5 2098 V
6 0 V
5 0 V
6 -2098 V
5 2623 V
5 -2623 V
6 2098 V
5 -2098 V
6 2623 V
5 0 V
5 -262 V
6 0 V
5 262 V
6 -2623 V
5 2623 V
5 -2623 V
6 2098 V
5 0 V
6 0 V
5 -2098 V
5 2361 V
6 -2361 V
5 2098 V
6 -2098 V
5 2098 V
5 -2098 V
6 1967 V
5 -1967 V
6 2098 V
5 -2098 V
5 2098 V
6 -2098 V
5 2098 V
6 -2098 V
5 2098 V
6 -2098 V
5 1967 V
5 0 V
6 131 V
5 -2098 V
6 2492 V
5 -2492 V
5 2098 V
6 -2098 V
5 1967 V
6 -1967 V
5 2098 V
5 -2098 V
6 1967 V
5 -1967 V
6 1967 V
5 -1967 V
5 2098 V
6 -2098 V
5 2098 V
6 0 V
5 132 V
5 -2230 V
6 2623 V
5 -2623 V
stroke 4369 805 M
6 2098 V
5 -2098 V
5 2098 V
6 -2098 V
5 1967 V
6 -1967 V
5 2098 V
5 -2098 V
6 2098 V
5 -2098 V
6 2098 V
5 -2098 V
5 2098 V
6 -2098 V
5 2098 V
6 -2098 V
5 2098 V
5 -2098 V
6 2098 V
5 -2098 V
6 2361 V
5 -2361 V
6 2492 V
5 0 V
5 -394 V
6 -2098 V
5 2623 V
6 -2623 V
5 2098 V
5 -2098 V
6 2098 V
5 -2098 V
6 2361 V
5 -2361 V
5 2098 V
6 -2098 V
5 1967 V
6 0 V
5 656 V
5 0 V
6 0 V
5 0 V
6 0 V
5 0 V
5 0 V
6 0 V
5 0 V
6 -131 V
5 0 V
5 131 V
6 0 V
5 -131 V
6 0 V
5 131 V
5 0 V
6 0 V
5 0 V
6 0 V
5 0 V
5 0 V
6 0 V
5 0 V
6 0 V
5 0 V
5 0 V
6 0 V
5 0 V
6 0 V
5 0 V
6 0 V
5 0 V
5 -2623 V
6 2623 V
5 0 V
6 0 V
5 0 V
5 0 V
6 -262 V
5 0 V
6 262 V
5 0 V
5 -262 V
6 262 V
5 0 V
6 0 V
5 0 V
5 0 V
6 -2623 V
5 2623 V
6 -2623 V
5 2098 V
5 0 V
6 525 V
5 -2623 V
6 2623 V
5 -2623 V
5 2098 V
6 0 V
5 0 V
6 -2098 V
5 2623 V
5 -2623 V
6 2098 V
5 0 V
stroke 4931 2903 M
6 -131 V
5 -1967 V
5 2623 V
6 -2623 V
5 2230 V
6 -2230 V
5 2492 V
5 0 V
6 -394 V
5 -2098 V
6 2230 V
5 -2230 V
6 2230 V
5 -2230 V
5 2098 V
6 -2098 V
5 1967 V
6 -1967 V
5 1967 V
5 0 V
6 656 V
5 -2623 V
6 2492 V
5 -2492 V
5 1967 V
6 -1967 V
5 2361 V
6 -2361 V
5 2098 V
5 -2098 V
6 2098 V
5 -2098 V
6 1967 V
5 -1967 V
5 1967 V
6 0 V
5 0 V
6 0 V
5 656 V
5 -2623 V
6 2623 V
5 -2623 V
6 2098 V
5 -2098 V
5 2098 V
6 -2098 V
5 2623 V
6 -2623 V
5 2623 V
5 0 V
6 0 V
5 0 V
6 0 V
5 -2623 V
5 2492 V
6 -2492 V
5 2230 V
6 -2230 V
5 1967 V
5 -1967 V
6 2361 V
5 -2361 V
6 2623 V
5 0 V
6 0 V
5 0 V
5 0 V
6 0 V
5 0 V
6 0 V
5 0 V
5 -2623 V
6 2623 V
5 0 V
6 -525 V
5 -2098 V
5 2623 V
6 0 V
5 0 V
6 0 V
5 0 V
5 0 V
6 0 V
5 0 V
6 0 V
5 0 V
5 0 V
6 -2623 V
5 2492 V
6 0 V
5 -394 V
5 0 V
6 525 V
5 0 V
6 -131 V
5 -2492 V
5 2492 V
6 -2492 V
5 1967 V
6 -1967 V
5 2098 V
5 -2098 V
6 2098 V
5 -2098 V
stroke 5493 805 M
6 2098 V
5 -2098 V
5 2098 V
6 -2098 V
5 2098 V
6 -2098 V
5 2098 V
6 -2098 V
5 2098 V
5 0 V
6 525 V
5 0 V
6 0 V
5 -2623 V
5 2623 V
6 0 V
5 -525 V
6 -2098 V
5 2492 V
5 0 V
6 -131 V
5 -2361 V
6 2623 V
5 -2623 V
5 2098 V
6 0 V
5 0 V
6 0 V
5 525 V
5 0 V
6 0 V
5 0 V
6 0 V
5 0 V
5 0 V
6 0 V
5 0 V
6 0 V
5 0 V
5 0 V
6 0 V
5 0 V
6 0 V
5 0 V
5 0 V
6 -131 V
5 131 V
6 0 V
5 0 V
5 0 V
6 0 V
5 0 V
6 0 V
5 0 V
6 0 V
5 0 V
5 0 V
6 0 V
5 -131 V
6 0 V
5 0 V
5 0 V
6 131 V
5 0 V
6 -131 V
5 0 V
5 0 V
6 0 V
5 0 V
6 -2492 V
5 2623 V
5 -2623 V
6 2098 V
5 -2098 V
6 2098 V
5 -2098 V
5 2098 V
6 -2098 V
5 2098 V
6 -2098 V
5 1967 V
5 0 V
6 131 V
5 -2098 V
6 2623 V
5 -2623 V
5 2098 V
6 -2098 V
5 2098 V
6 -2098 V
5 2098 V
5 -2098 V
6 2098 V
5 -2098 V
6 2098 V
5 -2098 V
5 1967 V
6 -1967 V
5 2098 V
6 -2098 V
5 2098 V
6 -2098 V
5 2098 V
5 -2098 V
stroke 6055 805 M
6 1967 V
5 -1967 V
6 2098 V
5 -2098 V
5 2098 V
6 0 V
5 -131 V
6 -1967 V
5 2623 V
5 -2623 V
6 2098 V
5 -2098 V
6 2098 V
5 -2098 V
5 2098 V
6 -2098 V
5 2098 V
6 -2098 V
5 2098 V
5 -2098 V
6 2098 V
5 -2098 V
6 2098 V
5 -2098 V
5 2098 V
6 -2098 V
5 2098 V
6 -2098 V
5 2098 V
5 -2098 V
6 2098 V
5 -2098 V
6 2098 V
5 0 V
5 0 V
6 -2098 V
5 2492 V
6 -2492 V
5 2098 V
5 -2098 V
6 2098 V
5 -2098 V
6 2098 V
5 -2098 V
6 2098 V
5 -2098 V
5 2098 V
6 -2098 V
5 2098 V
6 -2098 V
5 2098 V
5 -2098 V
6 2098 V
5 -2098 V
6 2098 V
5 -2098 V
5 2098 V
6 -2098 V
5 2098 V
6 -2098 V
5 2098 V
5 0 V
6 0 V
5 -2098 V
6 2361 V
5 -2361 V
5 2098 V
6 -2098 V
5 2098 V
6 -2098 V
5 2098 V
5 -2098 V
6 2098 V
5 -2098 V
6 2098 V
5 -2098 V
5 2098 V
6 -2098 V
5 2098 V
6 -2098 V
5 2098 V
5 -2098 V
6 2098 V
5 -2098 V
6 2098 V
5 0 V
5 0 V
6 -2098 V
5 2623 V
6 -2623 V
5 1967 V
5 -1967 V
6 1967 V
5 -1967 V
6 2098 V
5 -2098 V
6 1967 V
5 -1967 V
5 2098 V
6 -2098 V
5 2492 V
6 0 V
5 -131 V
5 0 V
stroke 6617 3166 M
6 262 V
5 0 V
6 0 V
5 0 V
5 -262 V
6 0 V
5 131 V
6 0 V
5 0 V
5 0 V
6 0 V
5 -262 V
6 131 V
5 0 V
5 0 V
6 0 V
5 262 V
6 0 V
5 0 V
5 -131 V
6 0 V
5 0 V
6 -262 V
5 0 V
5 0 V
6 0 V
5 0 V
6 0 V
5 0 V
5 0 V
6 0 V
5 0 V
6 0 V
5 -263 V
5 0 V
6 0 V
5 0 V
6 0 V
5 0 V
6 0 V
5 0 V
5 0 V
6 263 V
5 0 V
6 131 V
5 0 V
5 0 V
6 -131 V
5 0 V
6 0 V
462 936 Crs
467 936 Crs
473 3035 Crs
478 805 Crs
484 3428 Crs
489 805 Crs
494 2903 Crs
500 805 Crs
505 2903 Crs
511 805 Crs
516 2903 Crs
521 805 Crs
527 2903 Crs
532 805 Crs
538 2903 Crs
543 805 Crs
548 2903 Crs
554 2903 Crs
559 2903 Crs
565 805 Crs
570 3297 Crs
575 805 Crs
581 2903 Crs
586 805 Crs
592 2903 Crs
597 805 Crs
603 2903 Crs
608 805 Crs
613 2772 Crs
619 805 Crs
624 3428 Crs
630 805 Crs
635 3166 Crs
640 805 Crs
646 3428 Crs
651 3428 Crs
657 3297 Crs
662 805 Crs
667 3428 Crs
673 3428 Crs
678 3166 Crs
684 3166 Crs
689 3035 Crs
694 3035 Crs
700 3428 Crs
705 805 Crs
711 3297 Crs
716 805 Crs
721 2903 Crs
727 805 Crs
732 2903 Crs
738 805 Crs
743 2903 Crs
748 805 Crs
754 2903 Crs
759 805 Crs
765 2903 Crs
770 805 Crs
775 2903 Crs
781 805 Crs
786 2903 Crs
792 805 Crs
797 2903 Crs
802 805 Crs
808 2903 Crs
813 805 Crs
819 2903 Crs
824 805 Crs
829 2903 Crs
835 805 Crs
840 2903 Crs
846 2903 Crs
851 2903 Crs
857 805 Crs
862 3428 Crs
867 805 Crs
873 2903 Crs
878 805 Crs
884 2903 Crs
889 805 Crs
894 2903 Crs
900 805 Crs
905 2903 Crs
911 805 Crs
916 2903 Crs
921 805 Crs
927 2903 Crs
932 805 Crs
938 2903 Crs
943 805 Crs
948 2903 Crs
954 805 Crs
959 2903 Crs
965 2903 Crs
970 2903 Crs
975 805 Crs
981 3297 Crs
986 805 Crs
992 2903 Crs
997 805 Crs
1002 2903 Crs
1008 805 Crs
1013 2903 Crs
1019 805 Crs
1024 2903 Crs
1029 805 Crs
1035 2772 Crs
1040 805 Crs
1046 2772 Crs
1051 805 Crs
1056 3428 Crs
1062 3428 Crs
1067 3428 Crs
1073 3428 Crs
1078 3428 Crs
1083 3428 Crs
1089 3428 Crs
1094 3297 Crs
1100 3297 Crs
1105 3166 Crs
1111 3166 Crs
1116 3428 Crs
1121 3428 Crs
1127 3428 Crs
1132 3428 Crs
1138 3428 Crs
1143 3428 Crs
1148 3428 Crs
1154 3428 Crs
1159 805 Crs
1165 3428 Crs
1170 3428 Crs
1175 2903 Crs
1181 805 Crs
1186 3428 Crs
1192 805 Crs
1197 2903 Crs
1202 2903 Crs
1208 3297 Crs
1213 805 Crs
1219 3428 Crs
1224 805 Crs
1229 3035 Crs
1235 3035 Crs
1240 2903 Crs
1246 805 Crs
1251 3428 Crs
1256 805 Crs
1262 2903 Crs
1267 805 Crs
1273 2903 Crs
1278 805 Crs
1283 2903 Crs
1289 805 Crs
1294 2903 Crs
1300 805 Crs
1305 2772 Crs
1310 2772 Crs
1316 2903 Crs
1321 805 Crs
1327 3428 Crs
1332 805 Crs
1337 2903 Crs
1343 805 Crs
1348 3428 Crs
1354 3428 Crs
1359 3297 Crs
1364 3297 Crs
1370 3035 Crs
1375 3035 Crs
1381 3297 Crs
1386 3297 Crs
1392 3297 Crs
1397 3035 Crs
1402 3035 Crs
1408 3297 Crs
1413 3428 Crs
1419 3428 Crs
1424 3428 Crs
1429 3428 Crs
1435 3428 Crs
1440 3428 Crs
1446 3428 Crs
1451 3428 Crs
1456 3428 Crs
1462 3428 Crs
1467 3428 Crs
1473 3166 Crs
1478 3166 Crs
1483 3428 Crs
1489 3428 Crs
1494 3428 Crs
1500 3035 Crs
1505 3035 Crs
1510 3166 Crs
1516 3166 Crs
1521 3166 Crs
1527 3428 Crs
1532 3428 Crs
1537 3428 Crs
1543 3428 Crs
1548 3428 Crs
1554 3428 Crs
1559 805 Crs
1564 3428 Crs
1570 3428 Crs
1575 3428 Crs
1581 3428 Crs
1586 3428 Crs
1591 3428 Crs
1597 3428 Crs
1602 3428 Crs
1608 3428 Crs
1613 3428 Crs
1618 3428 Crs
1624 3166 Crs
1629 3166 Crs
1635 2903 Crs
1640 2903 Crs
1646 3297 Crs
1651 3297 Crs
1656 3297 Crs
1662 3428 Crs
1667 3428 Crs
1673 3428 Crs
1678 3428 Crs
1683 3428 Crs
1689 805 Crs
1694 3428 Crs
1700 805 Crs
1705 2903 Crs
1710 805 Crs
1716 2903 Crs
1721 805 Crs
1727 2903 Crs
1732 805 Crs
1737 2772 Crs
1743 805 Crs
1748 2903 Crs
1754 805 Crs
1759 2903 Crs
1764 805 Crs
1770 2903 Crs
1775 805 Crs
1781 2903 Crs
1786 805 Crs
1791 3035 Crs
1797 805 Crs
1802 3035 Crs
1808 805 Crs
1813 2903 Crs
1818 805 Crs
1824 2903 Crs
1829 2903 Crs
1835 2903 Crs
1840 805 Crs
1845 3428 Crs
1851 805 Crs
1856 2903 Crs
1862 805 Crs
1867 2903 Crs
1872 805 Crs
1878 2903 Crs
1883 2903 Crs
1889 2772 Crs
1894 805 Crs
1900 3428 Crs
1905 805 Crs
1910 2903 Crs
1916 805 Crs
1921 2903 Crs
1927 805 Crs
1932 2903 Crs
1937 805 Crs
1943 2903 Crs
1948 805 Crs
1954 2903 Crs
1959 805 Crs
1964 2903 Crs
1970 805 Crs
1975 2903 Crs
1981 805 Crs
1986 2772 Crs
1991 805 Crs
1997 2903 Crs
2002 2903 Crs
2008 2903 Crs
2013 805 Crs
2018 3428 Crs
2024 3428 Crs
2029 2903 Crs
2035 805 Crs
2040 3428 Crs
2045 805 Crs
2051 2903 Crs
2056 805 Crs
2062 2903 Crs
2067 805 Crs
2072 3166 Crs
2078 3166 Crs
2083 2903 Crs
2089 805 Crs
2094 3428 Crs
2099 805 Crs
2105 2903 Crs
2110 805 Crs
2116 2903 Crs
2121 805 Crs
2126 3035 Crs
2132 805 Crs
2137 3035 Crs
2143 805 Crs
2148 3428 Crs
2154 805 Crs
2159 3035 Crs
2164 805 Crs
2170 2903 Crs
2175 2903 Crs
2181 2903 Crs
2186 805 Crs
2191 3428 Crs
2197 805 Crs
2202 2772 Crs
2208 2772 Crs
2213 2903 Crs
2218 805 Crs
2224 3428 Crs
2229 805 Crs
2235 2903 Crs
2240 805 Crs
2245 3297 Crs
2251 3297 Crs
2256 3166 Crs
2262 805 Crs
2267 3428 Crs
2272 805 Crs
2278 2772 Crs
2283 2772 Crs
2289 3166 Crs
2294 3166 Crs
2299 3166 Crs
2305 3035 Crs
2310 3035 Crs
2316 3035 Crs
2321 3035 Crs
2326 3166 Crs
2332 3166 Crs
2337 3166 Crs
2343 3166 Crs
2348 3035 Crs
2353 3428 Crs
2359 3428 Crs
2364 3428 Crs
2370 3428 Crs
2375 3428 Crs
2380 805 Crs
2386 3428 Crs
2391 805 Crs
2397 2903 Crs
2402 805 Crs
2408 2903 Crs
2413 2903 Crs
2418 2903 Crs
2424 805 Crs
2429 3428 Crs
2435 805 Crs
2440 2772 Crs
2445 805 Crs
2451 3035 Crs
2456 805 Crs
2462 2772 Crs
2467 805 Crs
2472 2903 Crs
2478 805 Crs
2483 2903 Crs
2489 2903 Crs
2494 2903 Crs
2499 2903 Crs
2505 3428 Crs
2510 3428 Crs
2516 3428 Crs
2521 805 Crs
2526 3297 Crs
2532 805 Crs
2537 2903 Crs
2543 2903 Crs
2548 2903 Crs
2553 805 Crs
2559 3428 Crs
2564 805 Crs
2570 2903 Crs
2575 2903 Crs
2580 3297 Crs
2586 3297 Crs
2591 3428 Crs
2597 3428 Crs
2602 3428 Crs
2607 3428 Crs
2613 3428 Crs
2618 805 Crs
2624 3428 Crs
2629 805 Crs
2634 3428 Crs
2640 805 Crs
2645 3428 Crs
2651 805 Crs
2656 3428 Crs
2661 3428 Crs
2667 3428 Crs
2672 805 Crs
2678 3428 Crs
2683 805 Crs
2689 2903 Crs
2694 805 Crs
2699 3166 Crs
2705 3166 Crs
2710 2903 Crs
2716 805 Crs
2721 3428 Crs
2726 805 Crs
2732 2903 Crs
2737 805 Crs
2743 2903 Crs
2748 805 Crs
2753 2903 Crs
2759 805 Crs
2764 3428 Crs
2770 805 Crs
2775 3035 Crs
2780 805 Crs
2786 2903 Crs
2791 805 Crs
2797 2903 Crs
2802 805 Crs
2807 2903 Crs
2813 805 Crs
2818 2903 Crs
2824 805 Crs
2829 3166 Crs
2834 805 Crs
2840 3428 Crs
2845 3428 Crs
2851 3428 Crs
2856 3428 Crs
2861 3428 Crs
2867 805 Crs
2872 3297 Crs
2878 805 Crs
2883 2903 Crs
2888 805 Crs
2894 2772 Crs
2899 805 Crs
2905 2903 Crs
2910 805 Crs
2915 3428 Crs
2921 3428 Crs
2926 2772 Crs
2932 805 Crs
2937 3428 Crs
2943 3428 Crs
2948 2903 Crs
2953 805 Crs
2959 3428 Crs
2964 805 Crs
2970 3428 Crs
2975 805 Crs
2980 3428 Crs
2986 805 Crs
2991 3297 Crs
2997 805 Crs
3002 3035 Crs
3007 3035 Crs
3013 3297 Crs
3018 3297 Crs
3024 3035 Crs
3029 3035 Crs
3034 3035 Crs
3040 3035 Crs
3045 2903 Crs
3051 2903 Crs
3056 3297 Crs
3061 805 Crs
3067 3297 Crs
3072 805 Crs
3078 2903 Crs
3083 805 Crs
3088 2903 Crs
3094 2903 Crs
3099 2903 Crs
3105 805 Crs
3110 3428 Crs
3115 805 Crs
3121 2903 Crs
3126 805 Crs
3132 2903 Crs
3137 805 Crs
3142 2903 Crs
3148 805 Crs
3153 2903 Crs
3159 805 Crs
3164 3297 Crs
3169 805 Crs
3175 2903 Crs
3180 805 Crs
3186 2772 Crs
3191 805 Crs
3197 2903 Crs
3202 805 Crs
3207 2903 Crs
3213 2903 Crs
3218 3428 Crs
3224 805 Crs
3229 3428 Crs
3234 3428 Crs
3240 2772 Crs
3245 805 Crs
3251 3297 Crs
3256 805 Crs
3261 2903 Crs
3267 805 Crs
3272 2903 Crs
3278 805 Crs
3283 3428 Crs
3288 805 Crs
3294 2903 Crs
3299 2903 Crs
3305 2903 Crs
3310 2903 Crs
3315 3428 Crs
3321 805 Crs
3326 3428 Crs
3332 805 Crs
3337 2903 Crs
3342 805 Crs
3348 2772 Crs
3353 2772 Crs
3359 2903 Crs
3364 805 Crs
3369 3297 Crs
3375 805 Crs
3380 2903 Crs
3386 805 Crs
3391 2772 Crs
3396 805 Crs
3402 2903 Crs
3407 805 Crs
3413 2903 Crs
3418 805 Crs
3423 2903 Crs
3429 805 Crs
3434 3428 Crs
3440 805 Crs
3445 2903 Crs
3451 805 Crs
3456 2903 Crs
3461 805 Crs
3467 2903 Crs
3472 805 Crs
3478 2903 Crs
3483 805 Crs
3488 2903 Crs
3494 2903 Crs
3499 2772 Crs
3505 805 Crs
3510 3428 Crs
3515 805 Crs
3521 2903 Crs
3526 805 Crs
3532 2903 Crs
3537 2903 Crs
3542 2903 Crs
3548 805 Crs
3553 3428 Crs
3559 805 Crs
3564 2903 Crs
3569 805 Crs
3575 2903 Crs
3580 2903 Crs
3586 2903 Crs
3591 805 Crs
3596 3428 Crs
3602 805 Crs
3607 2903 Crs
3613 805 Crs
3618 2772 Crs
3623 2772 Crs
3629 2903 Crs
3634 805 Crs
3640 3428 Crs
3645 805 Crs
3650 3428 Crs
3656 805 Crs
3661 2903 Crs
3667 805 Crs
3672 2772 Crs
3677 2772 Crs
3683 3428 Crs
3688 805 Crs
3694 3428 Crs
3699 805 Crs
3705 3166 Crs
3710 805 Crs
3715 2903 Crs
3721 2903 Crs
3726 2903 Crs
3732 805 Crs
3737 3297 Crs
3742 805 Crs
3748 2903 Crs
3753 805 Crs
3759 2903 Crs
3764 805 Crs
3769 2903 Crs
3775 805 Crs
3780 2903 Crs
3786 805 Crs
3791 2903 Crs
3796 805 Crs
3802 2903 Crs
3807 805 Crs
3813 2903 Crs
3818 805 Crs
3823 2772 Crs
3829 2772 Crs
3834 2903 Crs
3840 805 Crs
3845 3297 Crs
3850 805 Crs
3856 2772 Crs
3861 805 Crs
3867 2903 Crs
3872 805 Crs
3877 2903 Crs
3883 805 Crs
3888 2772 Crs
3894 805 Crs
3899 2903 Crs
3904 2903 Crs
3910 2772 Crs
3915 805 Crs
3921 3428 Crs
3926 805 Crs
3931 3428 Crs
3937 805 Crs
3942 3297 Crs
3948 805 Crs
3953 2903 Crs
3958 805 Crs
3964 2903 Crs
3969 805 Crs
3975 2903 Crs
3980 805 Crs
3986 2772 Crs
3991 805 Crs
3996 2903 Crs
4002 805 Crs
4007 3035 Crs
4013 805 Crs
4018 2903 Crs
4023 2903 Crs
4029 2772 Crs
4034 805 Crs
4040 3428 Crs
4045 805 Crs
4050 2903 Crs
4056 2903 Crs
4061 2903 Crs
4067 805 Crs
4072 3428 Crs
4077 805 Crs
4083 2903 Crs
4088 805 Crs
4094 3428 Crs
4099 3428 Crs
4104 3166 Crs
4110 3166 Crs
4115 3428 Crs
4121 805 Crs
4126 3428 Crs
4131 805 Crs
4137 2903 Crs
4142 2903 Crs
4148 2903 Crs
4153 805 Crs
4158 3166 Crs
4164 805 Crs
4169 2903 Crs
4175 805 Crs
4180 2903 Crs
4185 805 Crs
4191 2772 Crs
4196 805 Crs
4202 2903 Crs
4207 805 Crs
4212 2903 Crs
4218 805 Crs
4223 2903 Crs
4229 805 Crs
4234 2903 Crs
4240 805 Crs
4245 2772 Crs
4250 2772 Crs
4256 2903 Crs
4261 805 Crs
4267 3297 Crs
4272 805 Crs
4277 2903 Crs
4283 805 Crs
4288 2772 Crs
4294 805 Crs
4299 2903 Crs
4304 805 Crs
4310 2772 Crs
4315 805 Crs
4321 2772 Crs
4326 805 Crs
4331 2903 Crs
4337 805 Crs
4342 2903 Crs
4348 2903 Crs
4353 3035 Crs
4358 805 Crs
4364 3428 Crs
4369 805 Crs
4375 2903 Crs
4380 805 Crs
4385 2903 Crs
4391 805 Crs
4396 2772 Crs
4402 805 Crs
4407 2903 Crs
4412 805 Crs
4418 2903 Crs
4423 805 Crs
4429 2903 Crs
4434 805 Crs
4439 2903 Crs
4445 805 Crs
4450 2903 Crs
4456 805 Crs
4461 2903 Crs
4466 805 Crs
4472 2903 Crs
4477 805 Crs
4483 3166 Crs
4488 805 Crs
4494 3297 Crs
4499 3297 Crs
4504 2903 Crs
4510 805 Crs
4515 3428 Crs
4521 805 Crs
4526 2903 Crs
4531 805 Crs
4537 2903 Crs
4542 805 Crs
4548 3166 Crs
4553 805 Crs
4558 2903 Crs
4564 805 Crs
4569 2772 Crs
4575 2772 Crs
4580 3428 Crs
4585 3428 Crs
4591 3428 Crs
4596 3428 Crs
4602 3428 Crs
4607 3428 Crs
4612 3428 Crs
4618 3428 Crs
4623 3428 Crs
4629 3297 Crs
4634 3297 Crs
4639 3428 Crs
4645 3428 Crs
4650 3297 Crs
4656 3297 Crs
4661 3428 Crs
4666 3428 Crs
4672 3428 Crs
4677 3428 Crs
4683 3428 Crs
4688 3428 Crs
4693 3428 Crs
4699 3428 Crs
4704 3428 Crs
4710 3428 Crs
4715 3428 Crs
4720 3428 Crs
4726 3428 Crs
4731 3428 Crs
4737 3428 Crs
4742 3428 Crs
4748 3428 Crs
4753 3428 Crs
4758 805 Crs
4764 3428 Crs
4769 3428 Crs
4775 3428 Crs
4780 3428 Crs
4785 3428 Crs
4791 3166 Crs
4796 3166 Crs
4802 3428 Crs
4807 3428 Crs
4812 3166 Crs
4818 3428 Crs
4823 3428 Crs
4829 3428 Crs
4834 3428 Crs
4839 3428 Crs
4845 805 Crs
4850 3428 Crs
4856 805 Crs
4861 2903 Crs
4866 2903 Crs
4872 3428 Crs
4877 805 Crs
4883 3428 Crs
4888 805 Crs
4893 2903 Crs
4899 2903 Crs
4904 2903 Crs
4910 805 Crs
4915 3428 Crs
4920 805 Crs
4926 2903 Crs
4931 2903 Crs
4937 2772 Crs
4942 805 Crs
4947 3428 Crs
4953 805 Crs
4958 3035 Crs
4964 805 Crs
4969 3297 Crs
4974 3297 Crs
4980 2903 Crs
4985 805 Crs
4991 3035 Crs
4996 805 Crs
5002 3035 Crs
5007 805 Crs
5012 2903 Crs
5018 805 Crs
5023 2772 Crs
5029 805 Crs
5034 2772 Crs
5039 2772 Crs
5045 3428 Crs
5050 805 Crs
5056 3297 Crs
5061 805 Crs
5066 2772 Crs
5072 805 Crs
5077 3166 Crs
5083 805 Crs
5088 2903 Crs
5093 805 Crs
5099 2903 Crs
5104 805 Crs
5110 2772 Crs
5115 805 Crs
5120 2772 Crs
5126 2772 Crs
5131 2772 Crs
5137 2772 Crs
5142 3428 Crs
5147 805 Crs
5153 3428 Crs
5158 805 Crs
5164 2903 Crs
5169 805 Crs
5174 2903 Crs
5180 805 Crs
5185 3428 Crs
5191 805 Crs
5196 3428 Crs
5201 3428 Crs
5207 3428 Crs
5212 3428 Crs
5218 3428 Crs
5223 805 Crs
5228 3297 Crs
5234 805 Crs
5239 3035 Crs
5245 805 Crs
5250 2772 Crs
5255 805 Crs
5261 3166 Crs
5266 805 Crs
5272 3428 Crs
5277 3428 Crs
5283 3428 Crs
5288 3428 Crs
5293 3428 Crs
5299 3428 Crs
5304 3428 Crs
5310 3428 Crs
5315 3428 Crs
5320 805 Crs
5326 3428 Crs
5331 3428 Crs
5337 2903 Crs
5342 805 Crs
5347 3428 Crs
5353 3428 Crs
5358 3428 Crs
5364 3428 Crs
5369 3428 Crs
5374 3428 Crs
5380 3428 Crs
5385 3428 Crs
5391 3428 Crs
5396 3428 Crs
5401 3428 Crs
5407 805 Crs
5412 3297 Crs
5418 3297 Crs
5423 2903 Crs
5428 2903 Crs
5434 3428 Crs
5439 3428 Crs
5445 3297 Crs
5450 805 Crs
5455 3297 Crs
5461 805 Crs
5466 2772 Crs
5472 805 Crs
5477 2903 Crs
5482 805 Crs
5488 2903 Crs
5493 805 Crs
5499 2903 Crs
5504 805 Crs
5509 2903 Crs
5515 805 Crs
5520 2903 Crs
5526 805 Crs
5531 2903 Crs
5537 805 Crs
5542 2903 Crs
5547 2903 Crs
5553 3428 Crs
5558 3428 Crs
5564 3428 Crs
5569 805 Crs
5574 3428 Crs
5580 3428 Crs
5585 2903 Crs
5591 805 Crs
5596 3297 Crs
5601 3297 Crs
5607 3166 Crs
5612 805 Crs
5618 3428 Crs
5623 805 Crs
5628 2903 Crs
5634 2903 Crs
5639 2903 Crs
5645 2903 Crs
5650 3428 Crs
5655 3428 Crs
5661 3428 Crs
5666 3428 Crs
5672 3428 Crs
5677 3428 Crs
5682 3428 Crs
5688 3428 Crs
5693 3428 Crs
5699 3428 Crs
5704 3428 Crs
5709 3428 Crs
5715 3428 Crs
5720 3428 Crs
5726 3428 Crs
5731 3428 Crs
5736 3428 Crs
5742 3297 Crs
5747 3428 Crs
5753 3428 Crs
5758 3428 Crs
5763 3428 Crs
5769 3428 Crs
5774 3428 Crs
5780 3428 Crs
5785 3428 Crs
5791 3428 Crs
5796 3428 Crs
5801 3428 Crs
5807 3428 Crs
5812 3297 Crs
5818 3297 Crs
5823 3297 Crs
5828 3297 Crs
5834 3428 Crs
5839 3428 Crs
5845 3297 Crs
5850 3297 Crs
5855 3297 Crs
5861 3297 Crs
5866 3297 Crs
5872 805 Crs
5877 3428 Crs
5882 805 Crs
5888 2903 Crs
5893 805 Crs
5899 2903 Crs
5904 805 Crs
5909 2903 Crs
5915 805 Crs
5920 2903 Crs
5926 805 Crs
5931 2772 Crs
5936 2772 Crs
5942 2903 Crs
5947 805 Crs
5953 3428 Crs
5958 805 Crs
5963 2903 Crs
5969 805 Crs
5974 2903 Crs
5980 805 Crs
5985 2903 Crs
5990 805 Crs
5996 2903 Crs
6001 805 Crs
6007 2903 Crs
6012 805 Crs
6017 2772 Crs
6023 805 Crs
6028 2903 Crs
6034 805 Crs
6039 2903 Crs
6045 805 Crs
6050 2903 Crs
6055 805 Crs
6061 2772 Crs
6066 805 Crs
6072 2903 Crs
6077 805 Crs
6082 2903 Crs
6088 2903 Crs
6093 2772 Crs
6099 805 Crs
6104 3428 Crs
6109 805 Crs
6115 2903 Crs
6120 805 Crs
6126 2903 Crs
6131 805 Crs
6136 2903 Crs
6142 805 Crs
6147 2903 Crs
6153 805 Crs
6158 2903 Crs
6163 805 Crs
6169 2903 Crs
6174 805 Crs
6180 2903 Crs
6185 805 Crs
6190 2903 Crs
6196 805 Crs
6201 2903 Crs
6207 805 Crs
6212 2903 Crs
6217 805 Crs
6223 2903 Crs
6228 805 Crs
6234 2903 Crs
6239 2903 Crs
6244 2903 Crs
6250 805 Crs
6255 3297 Crs
6261 805 Crs
6266 2903 Crs
6271 805 Crs
6277 2903 Crs
6282 805 Crs
6288 2903 Crs
6293 805 Crs
6299 2903 Crs
6304 805 Crs
6309 2903 Crs
6315 805 Crs
6320 2903 Crs
6326 805 Crs
6331 2903 Crs
6336 805 Crs
6342 2903 Crs
6347 805 Crs
6353 2903 Crs
6358 805 Crs
6363 2903 Crs
6369 805 Crs
6374 2903 Crs
6380 805 Crs
6385 2903 Crs
6390 2903 Crs
6396 2903 Crs
6401 805 Crs
6407 3166 Crs
6412 805 Crs
6417 2903 Crs
6423 805 Crs
6428 2903 Crs
6434 805 Crs
6439 2903 Crs
6444 805 Crs
6450 2903 Crs
6455 805 Crs
6461 2903 Crs
6466 805 Crs
6471 2903 Crs
6477 805 Crs
6482 2903 Crs
6488 805 Crs
6493 2903 Crs
6498 805 Crs
6504 2903 Crs
6509 805 Crs
6515 2903 Crs
6520 2903 Crs
6525 2903 Crs
6531 805 Crs
6536 3428 Crs
6542 805 Crs
6547 2772 Crs
6552 805 Crs
6558 2772 Crs
6563 805 Crs
6569 2903 Crs
6574 805 Crs
6580 2772 Crs
6585 805 Crs
6590 2903 Crs
6596 805 Crs
6601 3297 Crs
6607 3297 Crs
6612 3166 Crs
6617 3166 Crs
6623 3428 Crs
6628 3428 Crs
6634 3428 Crs
6639 3428 Crs
6644 3166 Crs
6650 3166 Crs
6655 3297 Crs
6661 3297 Crs
6666 3297 Crs
6671 3297 Crs
6677 3297 Crs
6682 3035 Crs
6688 3166 Crs
6693 3166 Crs
6698 3166 Crs
6704 3166 Crs
6709 3428 Crs
6715 3428 Crs
6720 3428 Crs
6725 3297 Crs
6731 3297 Crs
6736 3297 Crs
6742 3035 Crs
6747 3035 Crs
6752 3035 Crs
6758 3035 Crs
6763 3035 Crs
6769 3035 Crs
6774 3035 Crs
6779 3035 Crs
6785 3035 Crs
6790 3035 Crs
6796 3035 Crs
6801 2772 Crs
6806 2772 Crs
6812 2772 Crs
6817 2772 Crs
6823 2772 Crs
6828 2772 Crs
6834 2772 Crs
6839 2772 Crs
6844 2772 Crs
6850 3035 Crs
6855 3035 Crs
6861 3166 Crs
6866 3166 Crs
6871 3166 Crs
6877 3035 Crs
6882 3035 Crs
6888 3035 Crs
6579 4598 Crs
% End plot #2
% Begin plot #3
1.000 UL
LTb
0.00 0.45 0.70 C LCb setrgbcolor
6296 4458 M
[ [(Helvetica) 140.0 0.0 true true 0 (original)]
] -46.7 MRshow
1.000 UL
LTb
0.00 0.45 0.70 C 6380 4458 M
399 0 V
462 1067 M
5 131 V
6 131 V
5 132 V
6 131 V
5 131 V
5 131 V
6 131 V
5 131 V
6 132 V
5 -132 V
5 132 V
6 131 V
5 131 V
6 131 V
5 131 V
5 131 V
6 132 V
5 131 V
6 131 V
5 131 V
5 -131 V
6 131 V
5 131 V
6 131 V
5 132 V
6 131 V
5 131 V
5 131 V
6 131 V
5 131 V
6 132 V
5 -132 V
5 132 V
6 131 V
5 131 V
6 -131 V
5 131 V
5 -131 V
6 131 V
5 -131 V
6 131 V
5 -131 V
5 131 V
6 -131 V
5 131 V
6 -131 V
5 131 V
5 -131 V
6 131 V
5 -131 V
6 131 V
5 -131 V
5 131 V
6 -131 V
5 131 V
6 -131 V
5 131 V
5 -131 V
6 131 V
5 -131 V
6 131 V
5 -131 V
5 131 V
6 -131 V
5 131 V
6 -131 V
5 131 V
5 -131 V
6 131 V
5 -131 V
6 131 V
5 -131 V
6 131 V
5 -131 V
5 131 V
6 -131 V
5 131 V
6 -131 V
5 131 V
5 -131 V
6 131 V
5 -131 V
6 131 V
5 -131 V
5 131 V
6 -131 V
5 131 V
6 -131 V
5 131 V
5 -131 V
6 131 V
5 -131 V
6 131 V
5 -131 V
5 131 V
6 -131 V
5 131 V
6 -131 V
5 131 V
5 -131 V
6 131 V
5 -131 V
stroke 1013 4740 M
6 131 V
5 -131 V
5 131 V
6 -131 V
5 131 V
6 -131 V
5 131 V
5 -131 V
6 131 V
5 -131 V
6 131 V
5 -131 V
5 131 V
6 -131 V
5 131 V
6 -131 V
5 131 V
6 -131 V
5 131 V
5 -131 V
6 131 V
5 -131 V
6 131 V
5 -131 V
5 131 V
6 -131 V
5 131 V
6 -131 V
5 131 V
5 -131 V
6 131 V
5 -131 V
6 131 V
5 -131 V
5 131 V
6 -131 V
5 131 V
6 -131 V
5 131 V
5 -131 V
6 131 V
5 -131 V
6 131 V
5 -131 V
5 131 V
6 -131 V
5 131 V
6 -131 V
5 131 V
5 -131 V
6 131 V
5 -131 V
6 131 V
5 -131 V
5 131 V
6 -131 V
5 131 V
6 -131 V
5 131 V
5 -131 V
6 131 V
5 -131 V
6 131 V
5 -131 V
5 131 V
6 -131 V
5 131 V
6 -131 V
5 131 V
6 -131 V
5 131 V
5 -131 V
6 131 V
5 -131 V
6 131 V
5 -131 V
5 131 V
6 -131 V
5 131 V
6 -131 V
5 131 V
5 -131 V
6 131 V
5 -131 V
6 131 V
5 -131 V
5 131 V
6 -131 V
5 131 V
6 -131 V
5 131 V
5 -131 V
6 131 V
5 -131 V
6 131 V
5 -131 V
5 131 V
6 -131 V
5 131 V
6 -131 V
5 131 V
5 -131 V
6 131 V
5 -131 V
stroke 1575 4740 M
6 131 V
5 -131 V
5 131 V
6 -131 V
5 131 V
6 -131 V
5 131 V
5 -131 V
6 131 V
5 -131 V
6 131 V
5 -131 V
6 131 V
5 -131 V
5 131 V
6 -131 V
5 131 V
6 -131 V
5 131 V
5 -131 V
6 131 V
5 -131 V
6 131 V
5 -131 V
5 131 V
6 -131 V
5 131 V
6 -131 V
5 131 V
5 -131 V
6 131 V
5 -131 V
6 131 V
5 -131 V
5 131 V
6 -131 V
5 131 V
6 -131 V
5 131 V
5 -131 V
6 131 V
5 -131 V
6 131 V
5 -131 V
5 131 V
6 -131 V
5 131 V
6 -131 V
5 131 V
5 -131 V
6 131 V
5 -131 V
6 131 V
5 -131 V
5 131 V
6 -131 V
5 131 V
6 -131 V
5 131 V
6 -131 V
5 131 V
5 -131 V
6 131 V
5 -131 V
6 131 V
5 -131 V
5 131 V
6 -131 V
5 131 V
6 -131 V
5 131 V
5 -131 V
6 131 V
5 -131 V
6 131 V
5 -131 V
5 131 V
6 -131 V
5 131 V
6 -131 V
5 131 V
5 -131 V
6 131 V
5 -131 V
6 131 V
5 -131 V
5 131 V
6 -131 V
5 131 V
6 -131 V
5 131 V
5 -131 V
6 131 V
5 -131 V
6 131 V
5 -131 V
5 131 V
6 -131 V
5 131 V
6 -131 V
5 131 V
5 -131 V
6 131 V
5 -131 V
stroke 2137 4740 M
6 131 V
5 -131 V
6 131 V
5 -131 V
5 131 V
6 -131 V
5 131 V
6 -131 V
5 131 V
5 -131 V
6 131 V
5 -131 V
6 131 V
5 -131 V
5 131 V
6 -131 V
5 131 V
6 -131 V
5 131 V
5 -131 V
6 131 V
5 -131 V
6 131 V
5 -131 V
5 131 V
6 -131 V
5 131 V
6 -131 V
5 131 V
5 -131 V
6 131 V
5 -131 V
6 131 V
5 -131 V
5 131 V
6 -131 V
5 131 V
6 -131 V
5 131 V
5 -131 V
6 131 V
5 -131 V
6 131 V
5 -131 V
5 131 V
6 -131 V
5 131 V
6 -131 V
5 131 V
6 -131 V
5 131 V
5 -131 V
6 131 V
5 -131 V
6 131 V
5 -131 V
5 131 V
6 -131 V
5 131 V
6 -131 V
5 131 V
5 -131 V
6 131 V
5 -131 V
6 131 V
5 -131 V
5 131 V
6 -131 V
5 131 V
6 -131 V
5 131 V
5 -131 V
6 131 V
5 -131 V
6 131 V
5 -131 V
5 131 V
6 -131 V
5 131 V
6 -131 V
5 131 V
5 -131 V
6 131 V
5 -131 V
6 131 V
5 -131 V
5 131 V
6 -131 V
5 131 V
6 -131 V
5 131 V
5 -131 V
6 131 V
5 -131 V
6 131 V
5 -131 V
5 131 V
6 -131 V
5 131 V
6 -131 V
5 131 V
6 -131 V
5 131 V
5 -131 V
stroke 2699 4740 M
6 131 V
5 -131 V
6 131 V
5 -131 V
5 131 V
6 -131 V
5 131 V
6 -131 V
5 131 V
5 -131 V
6 131 V
5 -131 V
6 131 V
5 -131 V
5 131 V
6 -131 V
5 131 V
6 -131 V
5 131 V
5 -131 V
6 131 V
5 -131 V
6 131 V
5 -131 V
5 131 V
6 -131 V
5 131 V
6 -131 V
5 131 V
5 -131 V
6 131 V
5 -131 V
6 131 V
5 -131 V
5 131 V
6 -131 V
5 131 V
6 -131 V
5 131 V
5 -131 V
6 131 V
5 -131 V
6 131 V
5 -131 V
6 131 V
5 -131 V
5 131 V
6 -131 V
5 131 V
6 -131 V
5 131 V
5 -131 V
6 131 V
5 -131 V
6 131 V
5 -131 V
5 131 V
6 -131 V
5 131 V
6 -131 V
5 131 V
5 -131 V
6 131 V
5 -131 V
6 131 V
5 -131 V
5 131 V
6 -131 V
5 131 V
6 -131 V
5 131 V
5 -131 V
6 131 V
5 -131 V
6 131 V
5 -131 V
5 131 V
6 -131 V
5 131 V
6 -131 V
5 131 V
5 -131 V
6 131 V
5 -131 V
6 131 V
5 -131 V
5 131 V
6 -131 V
5 131 V
6 -131 V
5 131 V
6 -131 V
5 131 V
5 -131 V
6 131 V
5 -131 V
6 131 V
5 -131 V
5 131 V
6 -131 V
5 131 V
6 -131 V
5 131 V
5 -131 V
stroke 3261 4740 M
6 131 V
5 -131 V
6 131 V
5 -131 V
5 131 V
6 -131 V
5 131 V
6 -131 V
5 131 V
5 -131 V
6 131 V
5 -131 V
6 131 V
5 -131 V
5 131 V
6 -131 V
5 131 V
6 -131 V
5 131 V
5 -131 V
6 131 V
5 -131 V
6 131 V
5 -131 V
5 131 V
6 -131 V
5 131 V
6 -131 V
5 131 V
5 -131 V
6 131 V
5 -131 V
6 131 V
5 -131 V
6 131 V
5 -131 V
5 131 V
6 -131 V
5 131 V
6 -131 V
5 131 V
5 -131 V
6 131 V
5 -131 V
6 131 V
5 -131 V
5 131 V
6 -131 V
5 131 V
6 -131 V
5 131 V
5 -131 V
6 131 V
5 -131 V
6 131 V
5 -131 V
5 131 V
6 -131 V
5 131 V
6 -131 V
5 131 V
5 -131 V
6 131 V
5 -131 V
6 131 V
5 -131 V
5 131 V
6 -131 V
5 131 V
6 -131 V
5 131 V
5 -131 V
6 131 V
5 -131 V
6 131 V
5 -131 V
5 131 V
6 -131 V
5 131 V
6 -131 V
5 131 V
6 -131 V
5 131 V
5 -131 V
6 131 V
5 -131 V
6 131 V
5 -131 V
5 131 V
6 -131 V
5 131 V
6 -131 V
5 131 V
5 -131 V
6 131 V
5 -131 V
6 131 V
5 -131 V
5 131 V
6 -131 V
5 131 V
6 -131 V
5 131 V
5 -131 V
stroke 3823 4740 M
6 131 V
5 -131 V
6 131 V
5 -131 V
5 131 V
6 -131 V
5 131 V
6 -131 V
5 131 V
5 -131 V
6 131 V
5 -131 V
6 131 V
5 -131 V
5 131 V
6 -131 V
5 131 V
6 -131 V
5 131 V
5 -131 V
6 131 V
5 -131 V
6 131 V
5 -131 V
5 131 V
6 -131 V
5 131 V
6 -131 V
5 131 V
6 -131 V
5 131 V
5 -131 V
6 131 V
5 -131 V
6 131 V
5 -131 V
5 131 V
6 -131 V
5 131 V
6 -131 V
5 131 V
5 -131 V
6 131 V
5 -131 V
6 131 V
5 -131 V
5 131 V
6 -131 V
5 131 V
6 -131 V
5 131 V
5 -131 V
6 131 V
5 -131 V
6 131 V
5 -131 V
5 131 V
6 -131 V
5 131 V
6 -131 V
5 131 V
5 -131 V
6 131 V
5 -131 V
6 131 V
5 -131 V
5 131 V
6 -131 V
5 131 V
6 -131 V
5 131 V
5 -131 V
6 131 V
5 -131 V
6 131 V
5 -131 V
6 131 V
5 -131 V
5 131 V
6 -131 V
5 131 V
6 -131 V
5 131 V
5 -131 V
6 131 V
5 -131 V
6 131 V
5 -131 V
5 131 V
6 -131 V
5 131 V
6 -131 V
5 131 V
5 -131 V
6 131 V
5 -131 V
6 131 V
5 -131 V
5 131 V
6 -131 V
5 131 V
6 -131 V
5 131 V
5 -131 V
stroke 4385 4740 M
6 131 V
5 -131 V
6 131 V
5 -131 V
5 131 V
6 -131 V
5 131 V
6 -131 V
5 131 V
5 -131 V
6 131 V
5 -131 V
6 131 V
5 -131 V
5 131 V
6 -131 V
5 131 V
6 -131 V
5 131 V
6 -131 V
5 131 V
5 -131 V
6 131 V
5 -131 V
6 131 V
5 -131 V
5 131 V
6 -131 V
5 131 V
6 -131 V
5 131 V
5 -131 V
6 131 V
5 -131 V
6 131 V
5 -131 V
5 131 V
6 -131 V
5 131 V
6 -131 V
5 131 V
5 -131 V
6 131 V
5 -131 V
6 131 V
5 -131 V
5 131 V
6 -131 V
5 131 V
6 -131 V
5 131 V
5 -131 V
6 131 V
5 -131 V
6 131 V
5 -131 V
5 131 V
6 -131 V
5 131 V
6 -131 V
5 131 V
5 -131 V
6 131 V
5 -131 V
6 131 V
5 -131 V
6 131 V
5 -131 V
5 131 V
6 -131 V
5 131 V
6 -131 V
5 131 V
5 -131 V
6 131 V
5 -131 V
6 131 V
5 -131 V
5 131 V
6 -131 V
5 131 V
6 -131 V
5 131 V
5 -131 V
6 131 V
5 -131 V
6 131 V
5 -131 V
5 131 V
6 -131 V
5 131 V
6 -131 V
5 131 V
5 -131 V
6 131 V
5 -131 V
6 131 V
5 -131 V
5 131 V
6 -131 V
5 131 V
6 -131 V
5 131 V
5 -131 V
stroke 4947 4740 M
6 131 V
5 -131 V
6 131 V
5 -131 V
5 131 V
6 -131 V
5 131 V
6 -131 V
5 131 V
6 -131 V
5 131 V
5 -131 V
6 131 V
5 -131 V
6 131 V
5 -131 V
5 131 V
6 -131 V
5 131 V
6 -131 V
5 131 V
5 -131 V
6 131 V
5 -131 V
6 131 V
5 -131 V
5 131 V
6 -131 V
5 131 V
6 -131 V
5 131 V
5 -131 V
6 131 V
5 -131 V
6 131 V
5 -131 V
5 131 V
6 -131 V
5 131 V
6 -131 V
5 131 V
5 -131 V
6 131 V
5 -131 V
6 131 V
5 -131 V
5 131 V
6 -131 V
5 131 V
6 -131 V
5 131 V
5 -131 V
6 131 V
5 -131 V
6 131 V
5 -131 V
5 131 V
6 -131 V
5 131 V
6 -131 V
5 131 V
6 -131 V
5 131 V
5 -131 V
6 131 V
5 -131 V
6 131 V
5 -131 V
5 131 V
6 -131 V
5 131 V
6 -131 V
5 131 V
5 -131 V
6 131 V
5 -131 V
6 131 V
5 -131 V
5 131 V
6 -131 V
5 131 V
6 -131 V
5 131 V
5 -131 V
6 131 V
5 -131 V
6 131 V
5 -131 V
5 131 V
6 -131 V
5 131 V
6 -131 V
5 131 V
5 -131 V
6 131 V
5 -131 V
6 131 V
5 -131 V
5 131 V
6 -131 V
5 131 V
6 -131 V
5 131 V
5 -131 V
stroke 5509 4740 M
6 131 V
5 -131 V
6 131 V
5 -131 V
6 131 V
5 -131 V
5 131 V
6 -131 V
5 131 V
6 -131 V
5 131 V
5 -131 V
6 131 V
5 -131 V
6 131 V
5 -131 V
5 131 V
6 -131 V
5 131 V
6 -131 V
5 131 V
5 -131 V
6 131 V
5 -131 V
6 131 V
5 -131 V
5 131 V
6 -131 V
5 131 V
6 -131 V
5 131 V
5 -131 V
6 131 V
5 -131 V
6 131 V
5 -131 V
5 131 V
6 -131 V
5 131 V
6 -131 V
5 131 V
5 -131 V
6 131 V
5 -131 V
6 131 V
5 -131 V
5 131 V
6 -131 V
5 131 V
6 -131 V
5 131 V
6 -131 V
5 131 V
5 -131 V
6 131 V
5 -131 V
6 131 V
5 -131 V
5 131 V
6 -131 V
5 131 V
6 -131 V
5 131 V
5 -131 V
6 131 V
5 -131 V
6 131 V
5 -131 V
5 131 V
6 -131 V
5 131 V
6 -131 V
5 131 V
5 -131 V
6 131 V
5 -131 V
6 131 V
5 -131 V
5 131 V
6 -131 V
5 131 V
6 -131 V
5 131 V
5 -131 V
6 131 V
5 -131 V
6 131 V
5 -131 V
5 131 V
6 -131 V
5 131 V
6 -131 V
5 131 V
5 -131 V
6 131 V
5 -131 V
6 131 V
5 -131 V
6 131 V
5 -131 V
5 131 V
6 -131 V
5 131 V
6 -131 V
stroke 6072 4740 M
5 131 V
5 -131 V
6 131 V
5 -131 V
6 131 V
5 -131 V
5 131 V
6 -131 V
5 131 V
6 -131 V
5 131 V
5 -131 V
6 131 V
5 -131 V
6 131 V
5 -131 V
5 131 V
6 -131 V
5 131 V
6 -131 V
5 131 V
5 -131 V
6 131 V
5 -131 V
6 131 V
5 -131 V
5 131 V
6 -131 V
5 131 V
6 -131 V
5 131 V
5 -131 V
6 131 V
5 -131 V
6 131 V
5 -131 V
5 131 V
6 -131 V
5 131 V
6 -131 V
5 131 V
6 -131 V
5 131 V
5 -131 V
6 131 V
5 -131 V
6 131 V
5 -131 V
5 131 V
6 -131 V
5 131 V
6 -131 V
5 131 V
5 -131 V
6 131 V
5 -131 V
6 131 V
5 -131 V
5 131 V
6 -131 V
5 131 V
6 -131 V
5 131 V
5 -131 V
6 131 V
5 -131 V
6 131 V
5 -131 V
5 131 V
6 -131 V
5 131 V
6 -131 V
5 131 V
5 -131 V
6 131 V
5 -131 V
6 131 V
5 -131 V
5 131 V
6 -131 V
5 131 V
6 -131 V
5 131 V
5 -131 V
6 131 V
5 -131 V
6 131 V
5 -131 V
5 131 V
6 -131 V
5 131 V
6 -131 V
5 131 V
6 -131 V
5 131 V
5 -131 V
6 131 V
5 -131 V
6 131 V
5 -131 V
5 131 V
6 -131 V
5 131 V
6 -131 V
stroke 6634 4740 M
5 131 V
5 -131 V
6 131 V
5 -131 V
6 131 V
5 -131 V
5 131 V
6 -131 V
5 131 V
6 -131 V
5 131 V
5 -131 V
6 131 V
5 -131 V
6 131 V
5 -131 V
5 131 V
6 -131 V
5 131 V
6 -131 V
5 -131 V
5 0 V
6 -132 V
5 -131 V
6 -131 V
5 -131 V
5 -131 V
6 -131 V
5 -132 V
6 -131 V
5 -131 V
5 -131 V
6 -131 V
5 -131 V
6 -132 V
5 -131 V
6 -131 V
5 -131 V
5 -131 V
6 -131 V
5 -132 V
6 -131 V
5 -131 V
5 -131 V
6 -131 V
5 -131 V
6 -132 V
5 -131 V
5 -131 V
% End plot #3
% Begin plot #4
1.000 UP
stroke
LTb
0.90 0.62 0.00 C LCb setrgbcolor
6296 4318 M
[ [(Helvetica) 140.0 0.0 true true 0 (oracolo)]
] -46.7 MRshow
1.000 UP
1.000 UL
LTb
0.90 0.62 0.00 C 6380 4318 M
399 0 V
462 1067 M
5 131 V
6 -131 V
5 -131 V
6 131 V
5 -131 V
5 131 V
6 -131 V
5 131 V
6 -131 V
5 131 V
5 -131 V
6 131 V
5 -131 V
6 131 V
5 -131 V
5 131 V
6 131 V
5 -131 V
6 -131 V
5 131 V
5 -131 V
6 131 V
5 -131 V
6 131 V
5 -131 V
6 131 V
5 -131 V
5 131 V
6 -131 V
5 131 V
6 -131 V
5 131 V
5 -131 V
6 131 V
5 131 V
6 -131 V
5 -131 V
5 131 V
6 131 V
5 -131 V
6 131 V
5 -131 V
5 131 V
6 -131 V
5 -131 V
6 131 V
5 -131 V
5 131 V
6 -131 V
5 131 V
6 -131 V
5 131 V
5 -131 V
6 131 V
5 -131 V
6 131 V
5 -131 V
5 131 V
6 -131 V
5 131 V
6 -131 V
5 131 V
5 -131 V
6 131 V
5 -131 V
6 131 V
5 -131 V
5 131 V
6 -131 V
5 131 V
6 131 V
5 -131 V
6 -131 V
5 131 V
5 -131 V
6 131 V
5 -131 V
6 131 V
5 -131 V
5 131 V
6 -131 V
5 131 V
6 -131 V
5 131 V
5 -131 V
6 131 V
5 -131 V
6 131 V
5 -131 V
5 131 V
6 -131 V
5 131 V
6 131 V
5 -131 V
5 -131 V
6 131 V
5 -131 V
6 131 V
5 -131 V
5 131 V
6 -131 V
5 131 V
stroke 1013 1067 M
6 -131 V
5 131 V
5 -131 V
6 131 V
5 -131 V
6 131 V
5 -131 V
5 131 V
6 131 V
5 -131 V
6 131 V
5 -131 V
5 131 V
6 131 V
5 -131 V
6 131 V
5 -131 V
6 131 V
5 -131 V
5 131 V
6 -131 V
5 -131 V
6 131 V
5 -131 V
5 131 V
6 -131 V
5 -131 V
6 131 V
5 131 V
5 -131 V
6 -131 V
5 131 V
6 -131 V
5 131 V
5 131 V
6 -131 V
5 -131 V
6 131 V
5 -131 V
5 131 V
6 131 V
5 -131 V
6 -131 V
5 131 V
5 -131 V
6 131 V
5 -131 V
6 131 V
5 -131 V
5 131 V
6 -131 V
5 131 V
6 -131 V
5 131 V
5 131 V
6 -131 V
5 -131 V
6 131 V
5 -131 V
5 131 V
6 -131 V
5 131 V
6 131 V
5 -131 V
5 131 V
6 -131 V
5 131 V
6 -131 V
5 131 V
6 131 V
5 -131 V
5 131 V
6 -131 V
5 -131 V
6 131 V
5 -131 V
5 131 V
6 -131 V
5 131 V
6 131 V
5 -131 V
5 131 V
6 -131 V
5 131 V
6 -131 V
5 131 V
5 -131 V
6 131 V
5 132 V
6 -132 V
5 132 V
5 -132 V
6 -131 V
5 131 V
6 -131 V
5 -131 V
5 131 V
6 -131 V
5 131 V
6 -131 V
5 -131 V
5 131 V
6 131 V
5 -131 V
stroke 1575 1067 M
6 131 V
5 -131 V
5 131 V
6 -131 V
5 131 V
6 -131 V
5 131 V
5 131 V
6 -131 V
5 131 V
6 -131 V
5 131 V
6 -131 V
5 131 V
5 -131 V
6 -131 V
5 131 V
6 -131 V
5 131 V
5 -131 V
6 -131 V
5 131 V
6 -131 V
5 131 V
5 -131 V
6 131 V
5 -131 V
6 131 V
5 -131 V
5 131 V
6 -131 V
5 131 V
6 -131 V
5 131 V
5 -131 V
6 131 V
5 -131 V
6 131 V
5 -131 V
5 131 V
6 -131 V
5 131 V
6 -131 V
5 131 V
5 -131 V
6 131 V
5 131 V
6 -131 V
5 -131 V
5 131 V
6 -131 V
5 131 V
6 -131 V
5 131 V
5 -131 V
6 131 V
5 131 V
6 -131 V
5 -131 V
6 131 V
5 -131 V
5 131 V
6 -131 V
5 131 V
6 -131 V
5 131 V
5 -131 V
6 131 V
5 -131 V
6 131 V
5 -131 V
5 131 V
6 -131 V
5 131 V
6 -131 V
5 131 V
5 -131 V
6 131 V
5 131 V
6 -131 V
5 -131 V
5 131 V
6 131 V
5 -131 V
6 -131 V
5 131 V
5 -131 V
6 131 V
5 -131 V
6 131 V
5 -131 V
5 131 V
6 131 V
5 -131 V
6 -131 V
5 131 V
5 -131 V
6 131 V
5 -131 V
6 131 V
5 -131 V
5 131 V
6 -131 V
5 131 V
stroke 2137 1067 M
6 -131 V
5 131 V
6 -131 V
5 131 V
5 -131 V
6 131 V
5 131 V
6 -131 V
5 -131 V
5 131 V
6 -131 V
5 131 V
6 131 V
5 -131 V
5 -131 V
6 131 V
5 -131 V
6 131 V
5 -131 V
5 131 V
6 131 V
5 -131 V
6 -131 V
5 131 V
5 -131 V
6 131 V
5 131 V
6 -131 V
5 131 V
5 131 V
6 -131 V
5 131 V
6 -131 V
5 131 V
5 -131 V
6 131 V
5 -131 V
6 131 V
5 -131 V
5 -131 V
6 131 V
5 -131 V
6 131 V
5 -131 V
5 -131 V
6 131 V
5 -131 V
6 131 V
5 -131 V
6 131 V
5 131 V
5 -131 V
6 -131 V
5 131 V
6 -131 V
5 131 V
5 -131 V
6 131 V
5 -131 V
6 131 V
5 -131 V
5 131 V
6 -131 V
5 131 V
6 131 V
5 -131 V
5 131 V
6 -131 V
5 131 V
6 -131 V
5 -131 V
5 131 V
6 -131 V
5 131 V
6 131 V
5 -131 V
5 -131 V
6 131 V
5 -131 V
6 131 V
5 131 V
5 -131 V
6 131 V
5 -131 V
6 131 V
5 -131 V
5 131 V
6 -131 V
5 -131 V
6 131 V
5 -131 V
5 131 V
6 -131 V
5 131 V
6 -131 V
5 131 V
5 131 V
6 -131 V
5 -131 V
6 131 V
5 -131 V
6 131 V
5 -131 V
5 131 V
stroke 2699 1067 M
6 131 V
5 -131 V
6 -131 V
5 131 V
5 -131 V
6 131 V
5 -131 V
6 131 V
5 -131 V
5 131 V
6 -131 V
5 131 V
6 -131 V
5 131 V
5 -131 V
6 131 V
5 -131 V
6 131 V
5 -131 V
5 131 V
6 -131 V
5 131 V
6 -131 V
5 131 V
5 -131 V
6 131 V
5 131 V
6 -131 V
5 131 V
5 -131 V
6 -131 V
5 131 V
6 -131 V
5 131 V
5 -131 V
6 131 V
5 -131 V
6 131 V
5 -131 V
5 131 V
6 131 V
5 -131 V
6 -131 V
5 131 V
6 131 V
5 -131 V
5 -131 V
6 131 V
5 -131 V
6 131 V
5 -131 V
5 131 V
6 -131 V
5 131 V
6 -131 V
5 131 V
5 131 V
6 -131 V
5 131 V
6 -131 V
5 131 V
5 -131 V
6 131 V
5 -131 V
6 131 V
5 -131 V
5 -131 V
6 131 V
5 -131 V
6 131 V
5 -131 V
5 131 V
6 131 V
5 -131 V
6 -131 V
5 131 V
5 -131 V
6 131 V
5 -131 V
6 131 V
5 -131 V
5 131 V
6 -131 V
5 131 V
6 -131 V
5 131 V
5 -131 V
6 131 V
5 -131 V
6 131 V
5 -131 V
6 131 V
5 -131 V
5 131 V
6 131 V
5 -131 V
6 -131 V
5 131 V
5 131 V
6 -131 V
5 -131 V
6 131 V
5 -131 V
5 131 V
stroke 3261 1067 M
6 -131 V
5 131 V
6 -131 V
5 131 V
5 -131 V
6 131 V
5 131 V
6 -131 V
5 131 V
5 -131 V
6 -131 V
5 131 V
6 -131 V
5 131 V
5 -131 V
6 131 V
5 131 V
6 -131 V
5 -131 V
5 131 V
6 -131 V
5 131 V
6 -131 V
5 131 V
5 -131 V
6 131 V
5 -131 V
6 131 V
5 -131 V
5 131 V
6 -131 V
5 131 V
6 -131 V
5 131 V
6 -131 V
5 131 V
5 -131 V
6 131 V
5 -131 V
6 131 V
5 -131 V
5 131 V
6 131 V
5 -131 V
6 -131 V
5 131 V
5 -131 V
6 131 V
5 -131 V
6 131 V
5 131 V
5 -131 V
6 -131 V
5 131 V
6 -131 V
5 131 V
5 -131 V
6 131 V
5 131 V
6 -131 V
5 -131 V
5 131 V
6 -131 V
5 131 V
6 -131 V
5 131 V
5 131 V
6 -131 V
5 -131 V
6 131 V
5 -131 V
5 131 V
6 -131 V
5 131 V
6 -131 V
5 131 V
5 131 V
6 -131 V
5 -131 V
6 131 V
5 -131 V
6 131 V
5 -131 V
5 131 V
6 131 V
5 -131 V
6 -131 V
5 131 V
5 -131 V
6 131 V
5 -131 V
6 131 V
5 -131 V
5 131 V
6 -131 V
5 131 V
6 -131 V
5 131 V
5 -131 V
6 131 V
5 -131 V
6 131 V
5 -131 V
5 131 V
stroke 3823 1067 M
6 131 V
5 -131 V
6 -131 V
5 131 V
5 -131 V
6 131 V
5 -131 V
6 131 V
5 -131 V
5 131 V
6 -131 V
5 131 V
6 -131 V
5 131 V
5 131 V
6 -131 V
5 -131 V
6 131 V
5 -131 V
5 131 V
6 -131 V
5 131 V
6 -131 V
5 131 V
5 -131 V
6 131 V
5 -131 V
6 131 V
5 -131 V
6 131 V
5 -131 V
5 131 V
6 -131 V
5 131 V
6 -131 V
5 131 V
5 131 V
6 -131 V
5 -131 V
6 131 V
5 -131 V
5 131 V
6 131 V
5 -131 V
6 -131 V
5 131 V
5 -131 V
6 131 V
5 -131 V
6 131 V
5 131 V
5 -131 V
6 131 V
5 -131 V
6 -131 V
5 131 V
5 -131 V
6 131 V
5 131 V
6 -131 V
5 -131 V
5 131 V
6 -131 V
5 131 V
6 -131 V
5 131 V
5 -131 V
6 131 V
5 -131 V
6 131 V
5 -131 V
5 131 V
6 -131 V
5 131 V
6 -131 V
5 131 V
6 -131 V
5 131 V
5 131 V
6 -131 V
5 -131 V
6 131 V
5 -131 V
5 131 V
6 -131 V
5 131 V
6 -131 V
5 131 V
5 -131 V
6 131 V
5 -131 V
6 131 V
5 -131 V
5 131 V
6 -131 V
5 131 V
6 131 V
5 -131 V
5 -131 V
6 131 V
5 -131 V
6 131 V
5 -131 V
5 131 V
stroke 4385 1067 M
6 -131 V
5 131 V
6 -131 V
5 131 V
5 -131 V
6 131 V
5 -131 V
6 131 V
5 -131 V
5 131 V
6 -131 V
5 131 V
6 -131 V
5 131 V
5 -131 V
6 131 V
5 -131 V
6 131 V
5 -131 V
6 131 V
5 131 V
5 -131 V
6 -131 V
5 131 V
6 -131 V
5 131 V
5 -131 V
6 131 V
5 -131 V
6 131 V
5 -131 V
5 131 V
6 -131 V
5 131 V
6 131 V
5 -131 V
5 131 V
6 -131 V
5 131 V
6 -131 V
5 131 V
5 131 V
6 -131 V
5 131 V
6 -131 V
5 131 V
5 -131 V
6 131 V
5 -131 V
6 131 V
5 -131 V
5 131 V
6 -131 V
5 131 V
6 -131 V
5 -131 V
5 131 V
6 -131 V
5 131 V
6 -131 V
5 131 V
5 -131 V
6 131 V
5 -131 V
6 131 V
5 -131 V
6 131 V
5 -131 V
5 -131 V
6 131 V
5 131 V
6 -131 V
5 131 V
5 131 V
6 -131 V
5 131 V
6 -131 V
5 131 V
5 -131 V
6 -131 V
5 131 V
6 -131 V
5 131 V
5 -131 V
6 -131 V
5 131 V
6 -131 V
5 131 V
5 131 V
6 -131 V
5 -131 V
6 131 V
5 -131 V
5 131 V
6 131 V
5 -131 V
6 -131 V
5 131 V
5 -131 V
6 131 V
5 131 V
6 -131 V
5 -131 V
5 131 V
stroke 4947 1067 M
6 -131 V
5 131 V
6 -131 V
5 131 V
5 131 V
6 -131 V
5 -131 V
6 131 V
5 -131 V
6 131 V
5 -131 V
5 131 V
6 -131 V
5 131 V
6 -131 V
5 131 V
5 131 V
6 -131 V
5 -131 V
6 131 V
5 -131 V
5 131 V
6 -131 V
5 131 V
6 -131 V
5 131 V
5 -131 V
6 131 V
5 -131 V
6 131 V
5 -131 V
5 131 V
6 131 V
5 -131 V
6 131 V
5 -131 V
5 -131 V
6 131 V
5 -131 V
6 131 V
5 -131 V
5 131 V
6 -131 V
5 131 V
6 -131 V
5 131 V
5 131 V
6 -131 V
5 131 V
6 -131 V
5 -131 V
5 131 V
6 -131 V
5 131 V
6 -131 V
5 131 V
5 -131 V
6 131 V
5 -131 V
6 131 V
5 131 V
6 -131 V
5 131 V
5 -131 V
6 131 V
5 -131 V
6 131 V
5 -131 V
5 -131 V
6 131 V
5 131 V
6 -131 V
5 -131 V
5 131 V
6 131 V
5 -131 V
6 131 V
5 -131 V
5 131 V
6 -131 V
5 131 V
6 -131 V
5 131 V
5 -131 V
6 -131 V
5 131 V
6 131 V
5 -131 V
5 131 V
6 -131 V
5 131 V
6 -131 V
5 -131 V
5 131 V
6 -131 V
5 131 V
6 -131 V
5 131 V
5 -131 V
6 131 V
5 -131 V
6 131 V
5 -131 V
5 131 V
stroke 5509 1067 M
6 -131 V
5 131 V
6 -131 V
5 131 V
6 -131 V
5 131 V
5 131 V
6 -131 V
5 131 V
6 -131 V
5 -131 V
5 131 V
6 131 V
5 -131 V
6 -131 V
5 131 V
5 131 V
6 -131 V
5 -131 V
6 131 V
5 -131 V
5 131 V
6 131 V
5 -131 V
6 131 V
5 -131 V
5 131 V
6 131 V
5 -131 V
6 131 V
5 -131 V
5 131 V
6 -131 V
5 131 V
6 -131 V
5 131 V
5 -131 V
6 131 V
5 -131 V
6 131 V
5 -131 V
5 131 V
6 -131 V
5 -131 V
6 131 V
5 -131 V
5 131 V
6 -131 V
5 131 V
6 -131 V
5 131 V
6 -131 V
5 131 V
5 -131 V
6 131 V
5 -131 V
6 131 V
5 -131 V
5 131 V
6 -131 V
5 131 V
6 -131 V
5 131 V
5 -131 V
6 131 V
5 -131 V
6 -131 V
5 131 V
5 -131 V
6 131 V
5 -131 V
6 131 V
5 -131 V
5 131 V
6 -131 V
5 131 V
6 -131 V
5 131 V
5 131 V
6 -131 V
5 -131 V
6 131 V
5 -131 V
5 131 V
6 -131 V
5 131 V
6 -131 V
5 131 V
5 -131 V
6 131 V
5 -131 V
6 131 V
5 -131 V
5 131 V
6 -131 V
5 131 V
6 -131 V
5 131 V
6 -131 V
5 131 V
5 -131 V
6 131 V
5 -131 V
6 131 V
stroke 6072 1067 M
5 -131 V
5 131 V
6 131 V
5 -131 V
6 -131 V
5 131 V
5 -131 V
6 131 V
5 -131 V
6 131 V
5 -131 V
5 131 V
6 -131 V
5 131 V
6 -131 V
5 131 V
5 -131 V
6 131 V
5 -131 V
6 131 V
5 -131 V
5 131 V
6 -131 V
5 131 V
6 -131 V
5 131 V
5 -131 V
6 131 V
5 -131 V
6 131 V
5 131 V
5 -131 V
6 -131 V
5 131 V
6 -131 V
5 131 V
5 -131 V
6 131 V
5 -131 V
6 131 V
5 -131 V
6 131 V
5 -131 V
5 131 V
6 -131 V
5 131 V
6 -131 V
5 131 V
5 -131 V
6 131 V
5 -131 V
6 131 V
5 -131 V
5 131 V
6 -131 V
5 131 V
6 -131 V
5 131 V
5 131 V
6 -131 V
5 -131 V
6 131 V
5 -131 V
5 131 V
6 -131 V
5 131 V
6 -131 V
5 131 V
5 -131 V
6 131 V
5 -131 V
6 131 V
5 -131 V
5 131 V
6 -131 V
5 131 V
6 -131 V
5 131 V
5 -131 V
6 131 V
5 -131 V
6 131 V
5 131 V
5 -131 V
6 -131 V
5 131 V
6 -131 V
5 131 V
5 -131 V
6 131 V
5 -131 V
6 131 V
5 -131 V
6 131 V
5 -131 V
5 131 V
6 -131 V
5 131 V
6 131 V
5 -131 V
5 131 V
6 -131 V
5 131 V
6 -131 V
stroke 6634 1067 M
5 131 V
5 -131 V
6 131 V
5 -131 V
6 131 V
5 -131 V
5 131 V
6 131 V
5 -131 V
6 -131 V
5 131 V
5 131 V
6 132 V
5 -132 V
6 132 V
5 131 V
5 -131 V
6 131 V
5 131 V
6 -131 V
5 131 V
5 131 V
6 131 V
5 -131 V
6 131 V
5 -131 V
5 131 V
6 131 V
5 -131 V
6 131 V
5 -131 V
5 131 V
6 132 V
5 -132 V
6 132 V
5 131 V
6 -131 V
5 0 V
5 -132 V
6 -131 V
5 -131 V
6 -131 V
5 -131 V
5 -131 V
6 -132 V
5 -131 V
6 -131 V
462 1067 Box
467 1198 Box
473 1067 Box
478 936 Box
484 1067 Box
489 936 Box
494 1067 Box
500 936 Box
505 1067 Box
511 936 Box
516 1067 Box
521 936 Box
527 1067 Box
532 936 Box
538 1067 Box
543 936 Box
548 1067 Box
554 1198 Box
559 1067 Box
565 936 Box
570 1067 Box
575 936 Box
581 1067 Box
586 936 Box
592 1067 Box
597 936 Box
603 1067 Box
608 936 Box
613 1067 Box
619 936 Box
624 1067 Box
630 936 Box
635 1067 Box
640 936 Box
646 1067 Box
651 1198 Box
657 1067 Box
662 936 Box
667 1067 Box
673 1198 Box
678 1067 Box
684 1198 Box
689 1067 Box
694 1198 Box
700 1067 Box
705 936 Box
711 1067 Box
716 936 Box
721 1067 Box
727 936 Box
732 1067 Box
738 936 Box
743 1067 Box
748 936 Box
754 1067 Box
759 936 Box
765 1067 Box
770 936 Box
775 1067 Box
781 936 Box
786 1067 Box
792 936 Box
797 1067 Box
802 936 Box
808 1067 Box
813 936 Box
819 1067 Box
824 936 Box
829 1067 Box
835 936 Box
840 1067 Box
846 1198 Box
851 1067 Box
857 936 Box
862 1067 Box
867 936 Box
873 1067 Box
878 936 Box
884 1067 Box
889 936 Box
894 1067 Box
900 936 Box
905 1067 Box
911 936 Box
916 1067 Box
921 936 Box
927 1067 Box
932 936 Box
938 1067 Box
943 936 Box
948 1067 Box
954 936 Box
959 1067 Box
965 1198 Box
970 1067 Box
975 936 Box
981 1067 Box
986 936 Box
992 1067 Box
997 936 Box
1002 1067 Box
1008 936 Box
1013 1067 Box
1019 936 Box
1024 1067 Box
1029 936 Box
1035 1067 Box
1040 936 Box
1046 1067 Box
1051 936 Box
1056 1067 Box
1062 1198 Box
1067 1067 Box
1073 1198 Box
1078 1067 Box
1083 1198 Box
1089 1329 Box
1094 1198 Box
1100 1329 Box
1105 1198 Box
1111 1329 Box
1116 1198 Box
1121 1329 Box
1127 1198 Box
1132 1067 Box
1138 1198 Box
1143 1067 Box
1148 1198 Box
1154 1067 Box
1159 936 Box
1165 1067 Box
1170 1198 Box
1175 1067 Box
1181 936 Box
1186 1067 Box
1192 936 Box
1197 1067 Box
1202 1198 Box
1208 1067 Box
1213 936 Box
1219 1067 Box
1224 936 Box
1229 1067 Box
1235 1198 Box
1240 1067 Box
1246 936 Box
1251 1067 Box
1256 936 Box
1262 1067 Box
1267 936 Box
1273 1067 Box
1278 936 Box
1283 1067 Box
1289 936 Box
1294 1067 Box
1300 936 Box
1305 1067 Box
1310 1198 Box
1316 1067 Box
1321 936 Box
1327 1067 Box
1332 936 Box
1337 1067 Box
1343 936 Box
1348 1067 Box
1354 1198 Box
1359 1067 Box
1364 1198 Box
1370 1067 Box
1375 1198 Box
1381 1067 Box
1386 1198 Box
1392 1329 Box
1397 1198 Box
1402 1329 Box
1408 1198 Box
1413 1067 Box
1419 1198 Box
1424 1067 Box
1429 1198 Box
1435 1067 Box
1440 1198 Box
1446 1329 Box
1451 1198 Box
1456 1329 Box
1462 1198 Box
1467 1329 Box
1473 1198 Box
1478 1329 Box
1483 1198 Box
1489 1329 Box
1494 1461 Box
1500 1329 Box
1505 1461 Box
1510 1329 Box
1516 1198 Box
1521 1329 Box
1527 1198 Box
1532 1067 Box
1537 1198 Box
1543 1067 Box
1548 1198 Box
1554 1067 Box
1559 936 Box
1564 1067 Box
1570 1198 Box
1575 1067 Box
1581 1198 Box
1586 1067 Box
1591 1198 Box
1597 1067 Box
1602 1198 Box
1608 1067 Box
1613 1198 Box
1618 1329 Box
1624 1198 Box
1629 1329 Box
1635 1198 Box
1640 1329 Box
1646 1198 Box
1651 1329 Box
1656 1198 Box
1662 1067 Box
1667 1198 Box
1673 1067 Box
1678 1198 Box
1683 1067 Box
1689 936 Box
1694 1067 Box
1700 936 Box
1705 1067 Box
1710 936 Box
1716 1067 Box
1721 936 Box
1727 1067 Box
1732 936 Box
1737 1067 Box
1743 936 Box
1748 1067 Box
1754 936 Box
1759 1067 Box
1764 936 Box
1770 1067 Box
1775 936 Box
1781 1067 Box
1786 936 Box
1791 1067 Box
1797 936 Box
1802 1067 Box
1808 936 Box
1813 1067 Box
1818 936 Box
1824 1067 Box
1829 1198 Box
1835 1067 Box
1840 936 Box
1845 1067 Box
1851 936 Box
1856 1067 Box
1862 936 Box
1867 1067 Box
1872 936 Box
1878 1067 Box
1883 1198 Box
1889 1067 Box
1894 936 Box
1900 1067 Box
1905 936 Box
1910 1067 Box
1916 936 Box
1921 1067 Box
1927 936 Box
1932 1067 Box
1937 936 Box
1943 1067 Box
1948 936 Box
1954 1067 Box
1959 936 Box
1964 1067 Box
1970 936 Box
1975 1067 Box
1981 936 Box
1986 1067 Box
1991 936 Box
1997 1067 Box
2002 1198 Box
2008 1067 Box
2013 936 Box
2018 1067 Box
2024 1198 Box
2029 1067 Box
2035 936 Box
2040 1067 Box
2045 936 Box
2051 1067 Box
2056 936 Box
2062 1067 Box
2067 936 Box
2072 1067 Box
2078 1198 Box
2083 1067 Box
2089 936 Box
2094 1067 Box
2099 936 Box
2105 1067 Box
2110 936 Box
2116 1067 Box
2121 936 Box
2126 1067 Box
2132 936 Box
2137 1067 Box
2143 936 Box
2148 1067 Box
2154 936 Box
2159 1067 Box
2164 936 Box
2170 1067 Box
2175 1198 Box
2181 1067 Box
2186 936 Box
2191 1067 Box
2197 936 Box
2202 1067 Box
2208 1198 Box
2213 1067 Box
2218 936 Box
2224 1067 Box
2229 936 Box
2235 1067 Box
2240 936 Box
2245 1067 Box
2251 1198 Box
2256 1067 Box
2262 936 Box
2267 1067 Box
2272 936 Box
2278 1067 Box
2283 1198 Box
2289 1067 Box
2294 1198 Box
2299 1329 Box
2305 1198 Box
2310 1329 Box
2316 1198 Box
2321 1329 Box
2326 1198 Box
2332 1329 Box
2337 1198 Box
2343 1329 Box
2348 1198 Box
2353 1067 Box
2359 1198 Box
2364 1067 Box
2370 1198 Box
2375 1067 Box
2380 936 Box
2386 1067 Box
2391 936 Box
2397 1067 Box
2402 936 Box
2408 1067 Box
2413 1198 Box
2418 1067 Box
2424 936 Box
2429 1067 Box
2435 936 Box
2440 1067 Box
2445 936 Box
2451 1067 Box
2456 936 Box
2462 1067 Box
2467 936 Box
2472 1067 Box
2478 936 Box
2483 1067 Box
2489 1198 Box
2494 1067 Box
2499 1198 Box
2505 1067 Box
2510 1198 Box
2516 1067 Box
2521 936 Box
2526 1067 Box
2532 936 Box
2537 1067 Box
2543 1198 Box
2548 1067 Box
2553 936 Box
2559 1067 Box
2564 936 Box
2570 1067 Box
2575 1198 Box
2580 1067 Box
2586 1198 Box
2591 1067 Box
2597 1198 Box
2602 1067 Box
2607 1198 Box
2613 1067 Box
2618 936 Box
2624 1067 Box
2629 936 Box
2634 1067 Box
2640 936 Box
2645 1067 Box
2651 936 Box
2656 1067 Box
2661 1198 Box
2667 1067 Box
2672 936 Box
2678 1067 Box
2683 936 Box
2689 1067 Box
2694 936 Box
2699 1067 Box
2705 1198 Box
2710 1067 Box
2716 936 Box
2721 1067 Box
2726 936 Box
2732 1067 Box
2737 936 Box
2743 1067 Box
2748 936 Box
2753 1067 Box
2759 936 Box
2764 1067 Box
2770 936 Box
2775 1067 Box
2780 936 Box
2786 1067 Box
2791 936 Box
2797 1067 Box
2802 936 Box
2807 1067 Box
2813 936 Box
2818 1067 Box
2824 936 Box
2829 1067 Box
2834 936 Box
2840 1067 Box
2845 1198 Box
2851 1067 Box
2856 1198 Box
2861 1067 Box
2867 936 Box
2872 1067 Box
2878 936 Box
2883 1067 Box
2888 936 Box
2894 1067 Box
2899 936 Box
2905 1067 Box
2910 936 Box
2915 1067 Box
2921 1198 Box
2926 1067 Box
2932 936 Box
2937 1067 Box
2943 1198 Box
2948 1067 Box
2953 936 Box
2959 1067 Box
2964 936 Box
2970 1067 Box
2975 936 Box
2980 1067 Box
2986 936 Box
2991 1067 Box
2997 936 Box
3002 1067 Box
3007 1198 Box
3013 1067 Box
3018 1198 Box
3024 1067 Box
3029 1198 Box
3034 1067 Box
3040 1198 Box
3045 1067 Box
3051 1198 Box
3056 1067 Box
3061 936 Box
3067 1067 Box
3072 936 Box
3078 1067 Box
3083 936 Box
3088 1067 Box
3094 1198 Box
3099 1067 Box
3105 936 Box
3110 1067 Box
3115 936 Box
3121 1067 Box
3126 936 Box
3132 1067 Box
3137 936 Box
3142 1067 Box
3148 936 Box
3153 1067 Box
3159 936 Box
3164 1067 Box
3169 936 Box
3175 1067 Box
3180 936 Box
3186 1067 Box
3191 936 Box
3197 1067 Box
3202 936 Box
3207 1067 Box
3213 1198 Box
3218 1067 Box
3224 936 Box
3229 1067 Box
3234 1198 Box
3240 1067 Box
3245 936 Box
3251 1067 Box
3256 936 Box
3261 1067 Box
3267 936 Box
3272 1067 Box
3278 936 Box
3283 1067 Box
3288 936 Box
3294 1067 Box
3299 1198 Box
3305 1067 Box
3310 1198 Box
3315 1067 Box
3321 936 Box
3326 1067 Box
3332 936 Box
3337 1067 Box
3342 936 Box
3348 1067 Box
3353 1198 Box
3359 1067 Box
3364 936 Box
3369 1067 Box
3375 936 Box
3380 1067 Box
3386 936 Box
3391 1067 Box
3396 936 Box
3402 1067 Box
3407 936 Box
3413 1067 Box
3418 936 Box
3423 1067 Box
3429 936 Box
3434 1067 Box
3440 936 Box
3445 1067 Box
3451 936 Box
3456 1067 Box
3461 936 Box
3467 1067 Box
3472 936 Box
3478 1067 Box
3483 936 Box
3488 1067 Box
3494 1198 Box
3499 1067 Box
3505 936 Box
3510 1067 Box
3515 936 Box
3521 1067 Box
3526 936 Box
3532 1067 Box
3537 1198 Box
3542 1067 Box
3548 936 Box
3553 1067 Box
3559 936 Box
3564 1067 Box
3569 936 Box
3575 1067 Box
3580 1198 Box
3586 1067 Box
3591 936 Box
3596 1067 Box
3602 936 Box
3607 1067 Box
3613 936 Box
3618 1067 Box
3623 1198 Box
3629 1067 Box
3634 936 Box
3640 1067 Box
3645 936 Box
3650 1067 Box
3656 936 Box
3661 1067 Box
3667 936 Box
3672 1067 Box
3677 1198 Box
3683 1067 Box
3688 936 Box
3694 1067 Box
3699 936 Box
3705 1067 Box
3710 936 Box
3715 1067 Box
3721 1198 Box
3726 1067 Box
3732 936 Box
3737 1067 Box
3742 936 Box
3748 1067 Box
3753 936 Box
3759 1067 Box
3764 936 Box
3769 1067 Box
3775 936 Box
3780 1067 Box
3786 936 Box
3791 1067 Box
3796 936 Box
3802 1067 Box
3807 936 Box
3813 1067 Box
3818 936 Box
3823 1067 Box
3829 1198 Box
3834 1067 Box
3840 936 Box
3845 1067 Box
3850 936 Box
3856 1067 Box
3861 936 Box
3867 1067 Box
3872 936 Box
3877 1067 Box
3883 936 Box
3888 1067 Box
3894 936 Box
3899 1067 Box
3904 1198 Box
3910 1067 Box
3915 936 Box
3921 1067 Box
3926 936 Box
3931 1067 Box
3937 936 Box
3942 1067 Box
3948 936 Box
3953 1067 Box
3958 936 Box
3964 1067 Box
3969 936 Box
3975 1067 Box
3980 936 Box
3986 1067 Box
3991 936 Box
3996 1067 Box
4002 936 Box
4007 1067 Box
4013 936 Box
4018 1067 Box
4023 1198 Box
4029 1067 Box
4034 936 Box
4040 1067 Box
4045 936 Box
4050 1067 Box
4056 1198 Box
4061 1067 Box
4067 936 Box
4072 1067 Box
4077 936 Box
4083 1067 Box
4088 936 Box
4094 1067 Box
4099 1198 Box
4104 1067 Box
4110 1198 Box
4115 1067 Box
4121 936 Box
4126 1067 Box
4131 936 Box
4137 1067 Box
4142 1198 Box
4148 1067 Box
4153 936 Box
4158 1067 Box
4164 936 Box
4169 1067 Box
4175 936 Box
4180 1067 Box
4185 936 Box
4191 1067 Box
4196 936 Box
4202 1067 Box
4207 936 Box
4212 1067 Box
4218 936 Box
4223 1067 Box
4229 936 Box
4234 1067 Box
4240 936 Box
4245 1067 Box
4250 1198 Box
4256 1067 Box
4261 936 Box
4267 1067 Box
4272 936 Box
4277 1067 Box
4283 936 Box
4288 1067 Box
4294 936 Box
4299 1067 Box
4304 936 Box
4310 1067 Box
4315 936 Box
4321 1067 Box
4326 936 Box
4331 1067 Box
4337 936 Box
4342 1067 Box
4348 1198 Box
4353 1067 Box
4358 936 Box
4364 1067 Box
4369 936 Box
4375 1067 Box
4380 936 Box
4385 1067 Box
4391 936 Box
4396 1067 Box
4402 936 Box
4407 1067 Box
4412 936 Box
4418 1067 Box
4423 936 Box
4429 1067 Box
4434 936 Box
4439 1067 Box
4445 936 Box
4450 1067 Box
4456 936 Box
4461 1067 Box
4466 936 Box
4472 1067 Box
4477 936 Box
4483 1067 Box
4488 936 Box
4494 1067 Box
4499 1198 Box
4504 1067 Box
4510 936 Box
4515 1067 Box
4521 936 Box
4526 1067 Box
4531 936 Box
4537 1067 Box
4542 936 Box
4548 1067 Box
4553 936 Box
4558 1067 Box
4564 936 Box
4569 1067 Box
4575 1198 Box
4580 1067 Box
4585 1198 Box
4591 1067 Box
4596 1198 Box
4602 1067 Box
4607 1198 Box
4612 1329 Box
4618 1198 Box
4623 1329 Box
4629 1198 Box
4634 1329 Box
4639 1198 Box
4645 1329 Box
4650 1198 Box
4656 1329 Box
4661 1198 Box
4666 1329 Box
4672 1198 Box
4677 1329 Box
4683 1198 Box
4688 1067 Box
4693 1198 Box
4699 1067 Box
4704 1198 Box
4710 1067 Box
4715 1198 Box
4720 1067 Box
4726 1198 Box
4731 1067 Box
4737 1198 Box
4742 1067 Box
4748 1198 Box
4753 1067 Box
4758 936 Box
4764 1067 Box
4769 1198 Box
4775 1067 Box
4780 1198 Box
4785 1329 Box
4791 1198 Box
4796 1329 Box
4802 1198 Box
4807 1329 Box
4812 1198 Box
4818 1067 Box
4823 1198 Box
4829 1067 Box
4834 1198 Box
4839 1067 Box
4845 936 Box
4850 1067 Box
4856 936 Box
4861 1067 Box
4866 1198 Box
4872 1067 Box
4877 936 Box
4883 1067 Box
4888 936 Box
4893 1067 Box
4899 1198 Box
4904 1067 Box
4910 936 Box
4915 1067 Box
4920 936 Box
4926 1067 Box
4931 1198 Box
4937 1067 Box
4942 936 Box
4947 1067 Box
4953 936 Box
4958 1067 Box
4964 936 Box
4969 1067 Box
4974 1198 Box
4980 1067 Box
4985 936 Box
4991 1067 Box
4996 936 Box
5002 1067 Box
5007 936 Box
5012 1067 Box
5018 936 Box
5023 1067 Box
5029 936 Box
5034 1067 Box
5039 1198 Box
5045 1067 Box
5050 936 Box
5056 1067 Box
5061 936 Box
5066 1067 Box
5072 936 Box
5077 1067 Box
5083 936 Box
5088 1067 Box
5093 936 Box
5099 1067 Box
5104 936 Box
5110 1067 Box
5115 936 Box
5120 1067 Box
5126 1198 Box
5131 1067 Box
5137 1198 Box
5142 1067 Box
5147 936 Box
5153 1067 Box
5158 936 Box
5164 1067 Box
5169 936 Box
5174 1067 Box
5180 936 Box
5185 1067 Box
5191 936 Box
5196 1067 Box
5201 1198 Box
5207 1067 Box
5212 1198 Box
5218 1067 Box
5223 936 Box
5228 1067 Box
5234 936 Box
5239 1067 Box
5245 936 Box
5250 1067 Box
5255 936 Box
5261 1067 Box
5266 936 Box
5272 1067 Box
5277 1198 Box
5283 1067 Box
5288 1198 Box
5293 1067 Box
5299 1198 Box
5304 1067 Box
5310 1198 Box
5315 1067 Box
5320 936 Box
5326 1067 Box
5331 1198 Box
5337 1067 Box
5342 936 Box
5347 1067 Box
5353 1198 Box
5358 1067 Box
5364 1198 Box
5369 1067 Box
5374 1198 Box
5380 1067 Box
5385 1198 Box
5391 1067 Box
5396 1198 Box
5401 1067 Box
5407 936 Box
5412 1067 Box
5418 1198 Box
5423 1067 Box
5428 1198 Box
5434 1067 Box
5439 1198 Box
5445 1067 Box
5450 936 Box
5455 1067 Box
5461 936 Box
5466 1067 Box
5472 936 Box
5477 1067 Box
5482 936 Box
5488 1067 Box
5493 936 Box
5499 1067 Box
5504 936 Box
5509 1067 Box
5515 936 Box
5520 1067 Box
5526 936 Box
5531 1067 Box
5537 936 Box
5542 1067 Box
5547 1198 Box
5553 1067 Box
5558 1198 Box
5564 1067 Box
5569 936 Box
5574 1067 Box
5580 1198 Box
5585 1067 Box
5591 936 Box
5596 1067 Box
5601 1198 Box
5607 1067 Box
5612 936 Box
5618 1067 Box
5623 936 Box
5628 1067 Box
5634 1198 Box
5639 1067 Box
5645 1198 Box
5650 1067 Box
5655 1198 Box
5661 1329 Box
5666 1198 Box
5672 1329 Box
5677 1198 Box
5682 1329 Box
5688 1198 Box
5693 1329 Box
5699 1198 Box
5704 1329 Box
5709 1198 Box
5715 1329 Box
5720 1198 Box
5726 1329 Box
5731 1198 Box
5736 1329 Box
5742 1198 Box
5747 1067 Box
5753 1198 Box
5758 1067 Box
5763 1198 Box
5769 1067 Box
5774 1198 Box
5780 1067 Box
5785 1198 Box
5791 1067 Box
5796 1198 Box
5801 1067 Box
5807 1198 Box
5812 1067 Box
5818 1198 Box
5823 1067 Box
5828 1198 Box
5834 1067 Box
5839 1198 Box
5845 1067 Box
5850 1198 Box
5855 1067 Box
5861 1198 Box
5866 1067 Box
5872 936 Box
5877 1067 Box
5882 936 Box
5888 1067 Box
5893 936 Box
5899 1067 Box
5904 936 Box
5909 1067 Box
5915 936 Box
5920 1067 Box
5926 936 Box
5931 1067 Box
5936 1198 Box
5942 1067 Box
5947 936 Box
5953 1067 Box
5958 936 Box
5963 1067 Box
5969 936 Box
5974 1067 Box
5980 936 Box
5985 1067 Box
5990 936 Box
5996 1067 Box
6001 936 Box
6007 1067 Box
6012 936 Box
6017 1067 Box
6023 936 Box
6028 1067 Box
6034 936 Box
6039 1067 Box
6045 936 Box
6050 1067 Box
6055 936 Box
6061 1067 Box
6066 936 Box
6072 1067 Box
6077 936 Box
6082 1067 Box
6088 1198 Box
6093 1067 Box
6099 936 Box
6104 1067 Box
6109 936 Box
6115 1067 Box
6120 936 Box
6126 1067 Box
6131 936 Box
6136 1067 Box
6142 936 Box
6147 1067 Box
6153 936 Box
6158 1067 Box
6163 936 Box
6169 1067 Box
6174 936 Box
6180 1067 Box
6185 936 Box
6190 1067 Box
6196 936 Box
6201 1067 Box
6207 936 Box
6212 1067 Box
6217 936 Box
6223 1067 Box
6228 936 Box
6234 1067 Box
6239 1198 Box
6244 1067 Box
6250 936 Box
6255 1067 Box
6261 936 Box
6266 1067 Box
6271 936 Box
6277 1067 Box
6282 936 Box
6288 1067 Box
6293 936 Box
6299 1067 Box
6304 936 Box
6309 1067 Box
6315 936 Box
6320 1067 Box
6326 936 Box
6331 1067 Box
6336 936 Box
6342 1067 Box
6347 936 Box
6353 1067 Box
6358 936 Box
6363 1067 Box
6369 936 Box
6374 1067 Box
6380 936 Box
6385 1067 Box
6390 1198 Box
6396 1067 Box
6401 936 Box
6407 1067 Box
6412 936 Box
6417 1067 Box
6423 936 Box
6428 1067 Box
6434 936 Box
6439 1067 Box
6444 936 Box
6450 1067 Box
6455 936 Box
6461 1067 Box
6466 936 Box
6471 1067 Box
6477 936 Box
6482 1067 Box
6488 936 Box
6493 1067 Box
6498 936 Box
6504 1067 Box
6509 936 Box
6515 1067 Box
6520 1198 Box
6525 1067 Box
6531 936 Box
6536 1067 Box
6542 936 Box
6547 1067 Box
6552 936 Box
6558 1067 Box
6563 936 Box
6569 1067 Box
6574 936 Box
6580 1067 Box
6585 936 Box
6590 1067 Box
6596 936 Box
6601 1067 Box
6607 1198 Box
6612 1067 Box
6617 1198 Box
6623 1067 Box
6628 1198 Box
6634 1067 Box
6639 1198 Box
6644 1067 Box
6650 1198 Box
6655 1067 Box
6661 1198 Box
6666 1067 Box
6671 1198 Box
6677 1329 Box
6682 1198 Box
6688 1067 Box
6693 1198 Box
6698 1329 Box
6704 1461 Box
6709 1329 Box
6715 1461 Box
6720 1592 Box
6725 1461 Box
6731 1592 Box
6736 1723 Box
6742 1592 Box
6747 1723 Box
6752 1854 Box
6758 1985 Box
6763 1854 Box
6769 1985 Box
6774 1854 Box
6779 1985 Box
6785 2116 Box
6790 1985 Box
6796 2116 Box
6801 1985 Box
6806 2116 Box
6812 2248 Box
6817 2116 Box
6823 2248 Box
6828 2379 Box
6834 2248 Box
6839 2248 Box
6844 2116 Box
6850 1985 Box
6855 1854 Box
6861 1723 Box
6866 1592 Box
6871 1461 Box
6877 1329 Box
6882 1198 Box
6888 1067 Box
6579 4318 Box
% End plot #4
2.000 UL
LTb
LCb setrgbcolor
1.000 UL
LTB
LCb setrgbcolor
462 4871 N
462 280 L
6485 0 V
0 4591 V
-6485 0 V
Z stroke
1.000 UP
1.000 UL
LTb
LCb setrgbcolor
stroke
grestore
end
showpage
%%Trailer
%%DocumentFonts: Helvetica
