%!PS-Adobe-2.0 EPSF-2.0
%%Title: chartSS4.eps
%%Creator: gnuplot 5.0 patchlevel 5
%%CreationDate: Fri Mar 31 16:25:04 2017
%%DocumentFonts: (atend)
%%BoundingBox: 50 50 410 302
%%EndComments
%%BeginProlog
/gnudict 256 dict def
gnudict begin
%
% The following true/false flags may be edited by hand if desired.
% The unit line width and grayscale image gamma correction may also be changed.
%
/Color true def
/Blacktext false def
/Solid false def
/Dashlength 1 def
/Landscape false def
/Level1 false def
/Level3 false def
/Rounded false def
/ClipToBoundingBox false def
/SuppressPDFMark false def
/TransparentPatterns false def
/gnulinewidth 5.000 def
/userlinewidth gnulinewidth def
/Gamma 1.0 def
/BackgroundColor {-1.000 -1.000 -1.000} def
%
/vshift -46 def
/dl1 {
  10.0 Dashlength userlinewidth gnulinewidth div mul mul mul
  Rounded { currentlinewidth 0.75 mul sub dup 0 le { pop 0.01 } if } if
} def
/dl2 {
  10.0 Dashlength userlinewidth gnulinewidth div mul mul mul
  Rounded { currentlinewidth 0.75 mul add } if
} def
/hpt_ 31.5 def
/vpt_ 31.5 def
/hpt hpt_ def
/vpt vpt_ def
/doclip {
  ClipToBoundingBox {
    newpath 50 50 moveto 410 50 lineto 410 302 lineto 50 302 lineto closepath
    clip
  } if
} def
%
% Gnuplot Prolog Version 5.1 (Oct 2015)
%
%/SuppressPDFMark true def
%
/M {moveto} bind def
/L {lineto} bind def
/R {rmoveto} bind def
/V {rlineto} bind def
/N {newpath moveto} bind def
/Z {closepath} bind def
/C {setrgbcolor} bind def
/f {rlineto fill} bind def
/g {setgray} bind def
/Gshow {show} def   % May be redefined later in the file to support UTF-8
/vpt2 vpt 2 mul def
/hpt2 hpt 2 mul def
/Lshow {currentpoint stroke M 0 vshift R 
	Blacktext {gsave 0 setgray textshow grestore} {textshow} ifelse} def
/Rshow {currentpoint stroke M dup stringwidth pop neg vshift R
	Blacktext {gsave 0 setgray textshow grestore} {textshow} ifelse} def
/Cshow {currentpoint stroke M dup stringwidth pop -2 div vshift R 
	Blacktext {gsave 0 setgray textshow grestore} {textshow} ifelse} def
/UP {dup vpt_ mul /vpt exch def hpt_ mul /hpt exch def
  /hpt2 hpt 2 mul def /vpt2 vpt 2 mul def} def
/DL {Color {setrgbcolor Solid {pop []} if 0 setdash}
 {pop pop pop 0 setgray Solid {pop []} if 0 setdash} ifelse} def
/BL {stroke userlinewidth 2 mul setlinewidth
	Rounded {1 setlinejoin 1 setlinecap} if} def
/AL {stroke userlinewidth 2 div setlinewidth
	Rounded {1 setlinejoin 1 setlinecap} if} def
/UL {dup gnulinewidth mul /userlinewidth exch def
	dup 1 lt {pop 1} if 10 mul /udl exch def} def
/PL {stroke userlinewidth setlinewidth
	Rounded {1 setlinejoin 1 setlinecap} if} def
3.8 setmiterlimit
% Classic Line colors (version 5.0)
/LCw {1 1 1} def
/LCb {0 0 0} def
/LCa {0 0 0} def
/LC0 {1 0 0} def
/LC1 {0 1 0} def
/LC2 {0 0 1} def
/LC3 {1 0 1} def
/LC4 {0 1 1} def
/LC5 {1 1 0} def
/LC6 {0 0 0} def
/LC7 {1 0.3 0} def
/LC8 {0.5 0.5 0.5} def
% Default dash patterns (version 5.0)
/LTB {BL [] LCb DL} def
/LTw {PL [] 1 setgray} def
/LTb {PL [] LCb DL} def
/LTa {AL [1 udl mul 2 udl mul] 0 setdash LCa setrgbcolor} def
/LT0 {PL [] LC0 DL} def
/LT1 {PL [2 dl1 3 dl2] LC1 DL} def
/LT2 {PL [1 dl1 1.5 dl2] LC2 DL} def
/LT3 {PL [6 dl1 2 dl2 1 dl1 2 dl2] LC3 DL} def
/LT4 {PL [1 dl1 2 dl2 6 dl1 2 dl2 1 dl1 2 dl2] LC4 DL} def
/LT5 {PL [4 dl1 2 dl2] LC5 DL} def
/LT6 {PL [1.5 dl1 1.5 dl2 1.5 dl1 1.5 dl2 1.5 dl1 6 dl2] LC6 DL} def
/LT7 {PL [3 dl1 3 dl2 1 dl1 3 dl2] LC7 DL} def
/LT8 {PL [2 dl1 2 dl2 2 dl1 6 dl2] LC8 DL} def
/SL {[] 0 setdash} def
/Pnt {stroke [] 0 setdash gsave 1 setlinecap M 0 0 V stroke grestore} def
/Dia {stroke [] 0 setdash 2 copy vpt add M
  hpt neg vpt neg V hpt vpt neg V
  hpt vpt V hpt neg vpt V closepath stroke
  Pnt} def
/Pls {stroke [] 0 setdash vpt sub M 0 vpt2 V
  currentpoint stroke M
  hpt neg vpt neg R hpt2 0 V stroke
 } def
/Box {stroke [] 0 setdash 2 copy exch hpt sub exch vpt add M
  0 vpt2 neg V hpt2 0 V 0 vpt2 V
  hpt2 neg 0 V closepath stroke
  Pnt} def
/Crs {stroke [] 0 setdash exch hpt sub exch vpt add M
  hpt2 vpt2 neg V currentpoint stroke M
  hpt2 neg 0 R hpt2 vpt2 V stroke} def
/TriU {stroke [] 0 setdash 2 copy vpt 1.12 mul add M
  hpt neg vpt -1.62 mul V
  hpt 2 mul 0 V
  hpt neg vpt 1.62 mul V closepath stroke
  Pnt} def
/Star {2 copy Pls Crs} def
/BoxF {stroke [] 0 setdash exch hpt sub exch vpt add M
  0 vpt2 neg V hpt2 0 V 0 vpt2 V
  hpt2 neg 0 V closepath fill} def
/TriUF {stroke [] 0 setdash vpt 1.12 mul add M
  hpt neg vpt -1.62 mul V
  hpt 2 mul 0 V
  hpt neg vpt 1.62 mul V closepath fill} def
/TriD {stroke [] 0 setdash 2 copy vpt 1.12 mul sub M
  hpt neg vpt 1.62 mul V
  hpt 2 mul 0 V
  hpt neg vpt -1.62 mul V closepath stroke
  Pnt} def
/TriDF {stroke [] 0 setdash vpt 1.12 mul sub M
  hpt neg vpt 1.62 mul V
  hpt 2 mul 0 V
  hpt neg vpt -1.62 mul V closepath fill} def
/DiaF {stroke [] 0 setdash vpt add M
  hpt neg vpt neg V hpt vpt neg V
  hpt vpt V hpt neg vpt V closepath fill} def
/Pent {stroke [] 0 setdash 2 copy gsave
  translate 0 hpt M 4 {72 rotate 0 hpt L} repeat
  closepath stroke grestore Pnt} def
/PentF {stroke [] 0 setdash gsave
  translate 0 hpt M 4 {72 rotate 0 hpt L} repeat
  closepath fill grestore} def
/Circle {stroke [] 0 setdash 2 copy
  hpt 0 360 arc stroke Pnt} def
/CircleF {stroke [] 0 setdash hpt 0 360 arc fill} def
/C0 {BL [] 0 setdash 2 copy moveto vpt 90 450 arc} bind def
/C1 {BL [] 0 setdash 2 copy moveto
	2 copy vpt 0 90 arc closepath fill
	vpt 0 360 arc closepath} bind def
/C2 {BL [] 0 setdash 2 copy moveto
	2 copy vpt 90 180 arc closepath fill
	vpt 0 360 arc closepath} bind def
/C3 {BL [] 0 setdash 2 copy moveto
	2 copy vpt 0 180 arc closepath fill
	vpt 0 360 arc closepath} bind def
/C4 {BL [] 0 setdash 2 copy moveto
	2 copy vpt 180 270 arc closepath fill
	vpt 0 360 arc closepath} bind def
/C5 {BL [] 0 setdash 2 copy moveto
	2 copy vpt 0 90 arc
	2 copy moveto
	2 copy vpt 180 270 arc closepath fill
	vpt 0 360 arc} bind def
/C6 {BL [] 0 setdash 2 copy moveto
	2 copy vpt 90 270 arc closepath fill
	vpt 0 360 arc closepath} bind def
/C7 {BL [] 0 setdash 2 copy moveto
	2 copy vpt 0 270 arc closepath fill
	vpt 0 360 arc closepath} bind def
/C8 {BL [] 0 setdash 2 copy moveto
	2 copy vpt 270 360 arc closepath fill
	vpt 0 360 arc closepath} bind def
/C9 {BL [] 0 setdash 2 copy moveto
	2 copy vpt 270 450 arc closepath fill
	vpt 0 360 arc closepath} bind def
/C10 {BL [] 0 setdash 2 copy 2 copy moveto vpt 270 360 arc closepath fill
	2 copy moveto
	2 copy vpt 90 180 arc closepath fill
	vpt 0 360 arc closepath} bind def
/C11 {BL [] 0 setdash 2 copy moveto
	2 copy vpt 0 180 arc closepath fill
	2 copy moveto
	2 copy vpt 270 360 arc closepath fill
	vpt 0 360 arc closepath} bind def
/C12 {BL [] 0 setdash 2 copy moveto
	2 copy vpt 180 360 arc closepath fill
	vpt 0 360 arc closepath} bind def
/C13 {BL [] 0 setdash 2 copy moveto
	2 copy vpt 0 90 arc closepath fill
	2 copy moveto
	2 copy vpt 180 360 arc closepath fill
	vpt 0 360 arc closepath} bind def
/C14 {BL [] 0 setdash 2 copy moveto
	2 copy vpt 90 360 arc closepath fill
	vpt 0 360 arc} bind def
/C15 {BL [] 0 setdash 2 copy vpt 0 360 arc closepath fill
	vpt 0 360 arc closepath} bind def
/Rec {newpath 4 2 roll moveto 1 index 0 rlineto 0 exch rlineto
	neg 0 rlineto closepath} bind def
/Square {dup Rec} bind def
/Bsquare {vpt sub exch vpt sub exch vpt2 Square} bind def
/S0 {BL [] 0 setdash 2 copy moveto 0 vpt rlineto BL Bsquare} bind def
/S1 {BL [] 0 setdash 2 copy vpt Square fill Bsquare} bind def
/S2 {BL [] 0 setdash 2 copy exch vpt sub exch vpt Square fill Bsquare} bind def
/S3 {BL [] 0 setdash 2 copy exch vpt sub exch vpt2 vpt Rec fill Bsquare} bind def
/S4 {BL [] 0 setdash 2 copy exch vpt sub exch vpt sub vpt Square fill Bsquare} bind def
/S5 {BL [] 0 setdash 2 copy 2 copy vpt Square fill
	exch vpt sub exch vpt sub vpt Square fill Bsquare} bind def
/S6 {BL [] 0 setdash 2 copy exch vpt sub exch vpt sub vpt vpt2 Rec fill Bsquare} bind def
/S7 {BL [] 0 setdash 2 copy exch vpt sub exch vpt sub vpt vpt2 Rec fill
	2 copy vpt Square fill Bsquare} bind def
/S8 {BL [] 0 setdash 2 copy vpt sub vpt Square fill Bsquare} bind def
/S9 {BL [] 0 setdash 2 copy vpt sub vpt vpt2 Rec fill Bsquare} bind def
/S10 {BL [] 0 setdash 2 copy vpt sub vpt Square fill 2 copy exch vpt sub exch vpt Square fill
	Bsquare} bind def
/S11 {BL [] 0 setdash 2 copy vpt sub vpt Square fill 2 copy exch vpt sub exch vpt2 vpt Rec fill
	Bsquare} bind def
/S12 {BL [] 0 setdash 2 copy exch vpt sub exch vpt sub vpt2 vpt Rec fill Bsquare} bind def
/S13 {BL [] 0 setdash 2 copy exch vpt sub exch vpt sub vpt2 vpt Rec fill
	2 copy vpt Square fill Bsquare} bind def
/S14 {BL [] 0 setdash 2 copy exch vpt sub exch vpt sub vpt2 vpt Rec fill
	2 copy exch vpt sub exch vpt Square fill Bsquare} bind def
/S15 {BL [] 0 setdash 2 copy Bsquare fill Bsquare} bind def
/D0 {gsave translate 45 rotate 0 0 S0 stroke grestore} bind def
/D1 {gsave translate 45 rotate 0 0 S1 stroke grestore} bind def
/D2 {gsave translate 45 rotate 0 0 S2 stroke grestore} bind def
/D3 {gsave translate 45 rotate 0 0 S3 stroke grestore} bind def
/D4 {gsave translate 45 rotate 0 0 S4 stroke grestore} bind def
/D5 {gsave translate 45 rotate 0 0 S5 stroke grestore} bind def
/D6 {gsave translate 45 rotate 0 0 S6 stroke grestore} bind def
/D7 {gsave translate 45 rotate 0 0 S7 stroke grestore} bind def
/D8 {gsave translate 45 rotate 0 0 S8 stroke grestore} bind def
/D9 {gsave translate 45 rotate 0 0 S9 stroke grestore} bind def
/D10 {gsave translate 45 rotate 0 0 S10 stroke grestore} bind def
/D11 {gsave translate 45 rotate 0 0 S11 stroke grestore} bind def
/D12 {gsave translate 45 rotate 0 0 S12 stroke grestore} bind def
/D13 {gsave translate 45 rotate 0 0 S13 stroke grestore} bind def
/D14 {gsave translate 45 rotate 0 0 S14 stroke grestore} bind def
/D15 {gsave translate 45 rotate 0 0 S15 stroke grestore} bind def
/DiaE {stroke [] 0 setdash vpt add M
  hpt neg vpt neg V hpt vpt neg V
  hpt vpt V hpt neg vpt V closepath stroke} def
/BoxE {stroke [] 0 setdash exch hpt sub exch vpt add M
  0 vpt2 neg V hpt2 0 V 0 vpt2 V
  hpt2 neg 0 V closepath stroke} def
/TriUE {stroke [] 0 setdash vpt 1.12 mul add M
  hpt neg vpt -1.62 mul V
  hpt 2 mul 0 V
  hpt neg vpt 1.62 mul V closepath stroke} def
/TriDE {stroke [] 0 setdash vpt 1.12 mul sub M
  hpt neg vpt 1.62 mul V
  hpt 2 mul 0 V
  hpt neg vpt -1.62 mul V closepath stroke} def
/PentE {stroke [] 0 setdash gsave
  translate 0 hpt M 4 {72 rotate 0 hpt L} repeat
  closepath stroke grestore} def
/CircE {stroke [] 0 setdash 
  hpt 0 360 arc stroke} def
/Opaque {gsave closepath 1 setgray fill grestore 0 setgray closepath} def
/DiaW {stroke [] 0 setdash vpt add M
  hpt neg vpt neg V hpt vpt neg V
  hpt vpt V hpt neg vpt V Opaque stroke} def
/BoxW {stroke [] 0 setdash exch hpt sub exch vpt add M
  0 vpt2 neg V hpt2 0 V 0 vpt2 V
  hpt2 neg 0 V Opaque stroke} def
/TriUW {stroke [] 0 setdash vpt 1.12 mul add M
  hpt neg vpt -1.62 mul V
  hpt 2 mul 0 V
  hpt neg vpt 1.62 mul V Opaque stroke} def
/TriDW {stroke [] 0 setdash vpt 1.12 mul sub M
  hpt neg vpt 1.62 mul V
  hpt 2 mul 0 V
  hpt neg vpt -1.62 mul V Opaque stroke} def
/PentW {stroke [] 0 setdash gsave
  translate 0 hpt M 4 {72 rotate 0 hpt L} repeat
  Opaque stroke grestore} def
/CircW {stroke [] 0 setdash 
  hpt 0 360 arc Opaque stroke} def
/BoxFill {gsave Rec 1 setgray fill grestore} def
/Density {
  /Fillden exch def
  currentrgbcolor
  /ColB exch def /ColG exch def /ColR exch def
  /ColR ColR Fillden mul Fillden sub 1 add def
  /ColG ColG Fillden mul Fillden sub 1 add def
  /ColB ColB Fillden mul Fillden sub 1 add def
  ColR ColG ColB setrgbcolor} def
/BoxColFill {gsave Rec PolyFill} def
/PolyFill {gsave Density fill grestore grestore} def
/h {rlineto rlineto rlineto gsave closepath fill grestore} bind def
%
% PostScript Level 1 Pattern Fill routine for rectangles
% Usage: x y w h s a XX PatternFill
%	x,y = lower left corner of box to be filled
%	w,h = width and height of box
%	  a = angle in degrees between lines and x-axis
%	 XX = 0/1 for no/yes cross-hatch
%
/PatternFill {gsave /PFa [ 9 2 roll ] def
  PFa 0 get PFa 2 get 2 div add PFa 1 get PFa 3 get 2 div add translate
  PFa 2 get -2 div PFa 3 get -2 div PFa 2 get PFa 3 get Rec
  TransparentPatterns {} {gsave 1 setgray fill grestore} ifelse
  clip
  currentlinewidth 0.5 mul setlinewidth
  /PFs PFa 2 get dup mul PFa 3 get dup mul add sqrt def
  0 0 M PFa 5 get rotate PFs -2 div dup translate
  0 1 PFs PFa 4 get div 1 add floor cvi
	{PFa 4 get mul 0 M 0 PFs V} for
  0 PFa 6 get ne {
	0 1 PFs PFa 4 get div 1 add floor cvi
	{PFa 4 get mul 0 2 1 roll M PFs 0 V} for
 } if
  stroke grestore} def
%
/languagelevel where
 {pop languagelevel} {1} ifelse
dup 2 lt
	{/InterpretLevel1 true def
	 /InterpretLevel3 false def}
	{/InterpretLevel1 Level1 def
	 2 gt
	    {/InterpretLevel3 Level3 def}
	    {/InterpretLevel3 false def}
	 ifelse }
 ifelse
%
% PostScript level 2 pattern fill definitions
%
/Level2PatternFill {
/Tile8x8 {/PaintType 2 /PatternType 1 /TilingType 1 /BBox [0 0 8 8] /XStep 8 /YStep 8}
	bind def
/KeepColor {currentrgbcolor [/Pattern /DeviceRGB] setcolorspace} bind def
<< Tile8x8
 /PaintProc {0.5 setlinewidth pop 0 0 M 8 8 L 0 8 M 8 0 L stroke} 
>> matrix makepattern
/Pat1 exch def
<< Tile8x8
 /PaintProc {0.5 setlinewidth pop 0 0 M 8 8 L 0 8 M 8 0 L stroke
	0 4 M 4 8 L 8 4 L 4 0 L 0 4 L stroke}
>> matrix makepattern
/Pat2 exch def
<< Tile8x8
 /PaintProc {0.5 setlinewidth pop 0 0 M 0 8 L
	8 8 L 8 0 L 0 0 L fill}
>> matrix makepattern
/Pat3 exch def
<< Tile8x8
 /PaintProc {0.5 setlinewidth pop -4 8 M 8 -4 L
	0 12 M 12 0 L stroke}
>> matrix makepattern
/Pat4 exch def
<< Tile8x8
 /PaintProc {0.5 setlinewidth pop -4 0 M 8 12 L
	0 -4 M 12 8 L stroke}
>> matrix makepattern
/Pat5 exch def
<< Tile8x8
 /PaintProc {0.5 setlinewidth pop -2 8 M 4 -4 L
	0 12 M 8 -4 L 4 12 M 10 0 L stroke}
>> matrix makepattern
/Pat6 exch def
<< Tile8x8
 /PaintProc {0.5 setlinewidth pop -2 0 M 4 12 L
	0 -4 M 8 12 L 4 -4 M 10 8 L stroke}
>> matrix makepattern
/Pat7 exch def
<< Tile8x8
 /PaintProc {0.5 setlinewidth pop 8 -2 M -4 4 L
	12 0 M -4 8 L 12 4 M 0 10 L stroke}
>> matrix makepattern
/Pat8 exch def
<< Tile8x8
 /PaintProc {0.5 setlinewidth pop 0 -2 M 12 4 L
	-4 0 M 12 8 L -4 4 M 8 10 L stroke}
>> matrix makepattern
/Pat9 exch def
/Pattern1 {PatternBgnd KeepColor Pat1 setpattern} bind def
/Pattern2 {PatternBgnd KeepColor Pat2 setpattern} bind def
/Pattern3 {PatternBgnd KeepColor Pat3 setpattern} bind def
/Pattern4 {PatternBgnd KeepColor Landscape {Pat5} {Pat4} ifelse setpattern} bind def
/Pattern5 {PatternBgnd KeepColor Landscape {Pat4} {Pat5} ifelse setpattern} bind def
/Pattern6 {PatternBgnd KeepColor Landscape {Pat9} {Pat6} ifelse setpattern} bind def
/Pattern7 {PatternBgnd KeepColor Landscape {Pat8} {Pat7} ifelse setpattern} bind def
} def
%
%
%End of PostScript Level 2 code
%
/PatternBgnd {
  TransparentPatterns {} {gsave 1 setgray fill grestore} ifelse
} def
%
% Substitute for Level 2 pattern fill codes with
% grayscale if Level 2 support is not selected.
%
/Level1PatternFill {
/Pattern1 {0.250 Density} bind def
/Pattern2 {0.500 Density} bind def
/Pattern3 {0.750 Density} bind def
/Pattern4 {0.125 Density} bind def
/Pattern5 {0.375 Density} bind def
/Pattern6 {0.625 Density} bind def
/Pattern7 {0.875 Density} bind def
} def
%
% Now test for support of Level 2 code
%
Level1 {Level1PatternFill} {Level2PatternFill} ifelse
%
/Symbol-Oblique /Symbol findfont [1 0 .167 1 0 0] makefont
dup length dict begin {1 index /FID eq {pop pop} {def} ifelse} forall
currentdict end definefont pop
%
/MFshow {
   { dup 5 get 3 ge
     { 5 get 3 eq {gsave} {grestore} ifelse }
     {dup dup 0 get findfont exch 1 get scalefont setfont
     [ currentpoint ] exch dup 2 get 0 exch R dup 5 get 2 ne {dup dup 6
     get exch 4 get {textshow} {stringwidth pop 0 R} ifelse }if dup 5 get 0 eq
     {dup 3 get {2 get neg 0 exch R pop} {pop aload pop M} ifelse} {dup 5
     get 1 eq {dup 2 get exch dup 3 get exch 6 get stringwidth pop -2 div
     dup 0 R} {dup 6 get stringwidth pop -2 div 0 R 6 get
     textshow 2 index {aload pop M neg 3 -1 roll neg R pop pop} {pop pop pop
     pop aload pop M} ifelse }ifelse }ifelse }
     ifelse }
   forall} def
/Gswidth {dup type /stringtype eq {stringwidth} {pop (n) stringwidth} ifelse} def
/MFwidth {0 exch { dup 5 get 3 ge { 5 get 3 eq { 0 } { pop } ifelse }
 {dup 3 get{dup dup 0 get findfont exch 1 get scalefont setfont
     6 get Gswidth pop add} {pop} ifelse} ifelse} forall} def
/MLshow { currentpoint stroke M
  0 exch R
  Blacktext {gsave 0 setgray MFshow grestore} {MFshow} ifelse } bind def
/MRshow { currentpoint stroke M
  exch dup MFwidth neg 3 -1 roll R
  Blacktext {gsave 0 setgray MFshow grestore} {MFshow} ifelse } bind def
/MCshow { currentpoint stroke M
  exch dup MFwidth -2 div 3 -1 roll R
  Blacktext {gsave 0 setgray MFshow grestore} {MFshow} ifelse } bind def
/XYsave    { [( ) 1 2 true false 3 ()] } bind def
/XYrestore { [( ) 1 2 true false 4 ()] } bind def
Level1 SuppressPDFMark or 
{} {
/SDict 10 dict def
systemdict /pdfmark known not {
  userdict /pdfmark systemdict /cleartomark get put
} if
SDict begin [
  /Title (chartSS4.eps)
  /Subject (gnuplot plot)
  /Creator (gnuplot 5.0 patchlevel 5)
  /Author (steve)
%  /Producer (gnuplot)
%  /Keywords ()
  /CreationDate (Fri Mar 31 16:25:04 2017)
  /DOCINFO pdfmark
end
} ifelse
%
% Support for boxed text - Ethan A Merritt May 2005
%
/InitTextBox { userdict /TBy2 3 -1 roll put userdict /TBx2 3 -1 roll put
           userdict /TBy1 3 -1 roll put userdict /TBx1 3 -1 roll put
	   /Boxing true def } def
/ExtendTextBox { Boxing
    { gsave dup false charpath pathbbox
      dup TBy2 gt {userdict /TBy2 3 -1 roll put} {pop} ifelse
      dup TBx2 gt {userdict /TBx2 3 -1 roll put} {pop} ifelse
      dup TBy1 lt {userdict /TBy1 3 -1 roll put} {pop} ifelse
      dup TBx1 lt {userdict /TBx1 3 -1 roll put} {pop} ifelse
      grestore } if } def
/PopTextBox { newpath TBx1 TBxmargin sub TBy1 TBymargin sub M
               TBx1 TBxmargin sub TBy2 TBymargin add L
	       TBx2 TBxmargin add TBy2 TBymargin add L
	       TBx2 TBxmargin add TBy1 TBymargin sub L closepath } def
/DrawTextBox { PopTextBox stroke /Boxing false def} def
/FillTextBox { gsave PopTextBox 1 1 1 setrgbcolor fill grestore /Boxing false def} def
0 0 0 0 InitTextBox
/TBxmargin 20 def
/TBymargin 20 def
/Boxing false def
/textshow { ExtendTextBox Gshow } def
%
% redundant definitions for compatibility with prologue.ps older than 5.0.2
/LTB {BL [] LCb DL} def
/LTb {PL [] LCb DL} def
end
%%EndProlog
%%Page: 1 1
gnudict begin
gsave
doclip
50 50 translate
0.050 0.050 scale
0 setgray
newpath
(Helvetica) findfont 140 scalefont setfont
BackgroundColor 0 lt 3 1 roll 0 lt exch 0 lt or or not {BackgroundColor C 1.000 0 0 7200.00 5040.00 BoxColFill} if
1.000 UL
LTb
LCb setrgbcolor
462 280 M
63 0 V
6422 0 R
-63 0 V
stroke
378 280 M
[ [(Helvetica) 140.0 0.0 true true 0 (-5)]
] -46.7 MRshow
1.000 UL
LTb
LCb setrgbcolor
462 854 M
63 0 V
6422 0 R
-63 0 V
stroke
378 854 M
[ [(Helvetica) 140.0 0.0 true true 0 ( 0)]
] -46.7 MRshow
1.000 UL
LTb
LCb setrgbcolor
462 1428 M
63 0 V
6422 0 R
-63 0 V
stroke
378 1428 M
[ [(Helvetica) 140.0 0.0 true true 0 ( 5)]
] -46.7 MRshow
1.000 UL
LTb
LCb setrgbcolor
462 2002 M
63 0 V
6422 0 R
-63 0 V
stroke
378 2002 M
[ [(Helvetica) 140.0 0.0 true true 0 ( 10)]
] -46.7 MRshow
1.000 UL
LTb
LCb setrgbcolor
462 2576 M
63 0 V
6422 0 R
-63 0 V
stroke
378 2576 M
[ [(Helvetica) 140.0 0.0 true true 0 ( 15)]
] -46.7 MRshow
1.000 UL
LTb
LCb setrgbcolor
462 3149 M
63 0 V
6422 0 R
-63 0 V
stroke
378 3149 M
[ [(Helvetica) 140.0 0.0 true true 0 ( 20)]
] -46.7 MRshow
1.000 UL
LTb
LCb setrgbcolor
462 3723 M
63 0 V
6422 0 R
-63 0 V
stroke
378 3723 M
[ [(Helvetica) 140.0 0.0 true true 0 ( 25)]
] -46.7 MRshow
1.000 UL
LTb
LCb setrgbcolor
462 4297 M
63 0 V
6422 0 R
-63 0 V
stroke
378 4297 M
[ [(Helvetica) 140.0 0.0 true true 0 ( 30)]
] -46.7 MRshow
1.000 UL
LTb
LCb setrgbcolor
462 4871 M
63 0 V
6422 0 R
-63 0 V
stroke
378 4871 M
[ [(Helvetica) 140.0 0.0 true true 0 ( 35)]
] -46.7 MRshow
1.000 UL
LTb
LCb setrgbcolor
462 280 M
0 63 V
0 4528 R
0 -63 V
stroke
462 140 M
[ [(Helvetica) 140.0 0.0 true true 0 ( 0)]
] -46.7 MCshow
1.000 UL
LTb
LCb setrgbcolor
1273 280 M
0 63 V
0 4528 R
0 -63 V
stroke
1273 140 M
[ [(Helvetica) 140.0 0.0 true true 0 ( 100)]
] -46.7 MCshow
1.000 UL
LTb
LCb setrgbcolor
2083 280 M
0 63 V
0 4528 R
0 -63 V
stroke
2083 140 M
[ [(Helvetica) 140.0 0.0 true true 0 ( 200)]
] -46.7 MCshow
1.000 UL
LTb
LCb setrgbcolor
2894 280 M
0 63 V
0 4528 R
0 -63 V
stroke
2894 140 M
[ [(Helvetica) 140.0 0.0 true true 0 ( 300)]
] -46.7 MCshow
1.000 UL
LTb
LCb setrgbcolor
3704 280 M
0 63 V
0 4528 R
0 -63 V
stroke
3704 140 M
[ [(Helvetica) 140.0 0.0 true true 0 ( 400)]
] -46.7 MCshow
1.000 UL
LTb
LCb setrgbcolor
4515 280 M
0 63 V
0 4528 R
0 -63 V
stroke
4515 140 M
[ [(Helvetica) 140.0 0.0 true true 0 ( 500)]
] -46.7 MCshow
1.000 UL
LTb
LCb setrgbcolor
5326 280 M
0 63 V
0 4528 R
0 -63 V
stroke
5326 140 M
[ [(Helvetica) 140.0 0.0 true true 0 ( 600)]
] -46.7 MCshow
1.000 UL
LTb
LCb setrgbcolor
6136 280 M
0 63 V
0 4528 R
0 -63 V
stroke
6136 140 M
[ [(Helvetica) 140.0 0.0 true true 0 ( 700)]
] -46.7 MCshow
1.000 UL
LTb
LCb setrgbcolor
6947 280 M
0 63 V
0 4528 R
0 -63 V
stroke
6947 140 M
[ [(Helvetica) 140.0 0.0 true true 0 ( 800)]
] -46.7 MCshow
1.000 UL
LTb
LCb setrgbcolor
1.000 UL
LTB
LCb setrgbcolor
462 4871 N
462 280 L
6485 0 V
0 4591 V
-6485 0 V
Z stroke
1.000 UP
1.000 UL
LTb
LCb setrgbcolor
% Begin plot #1
1.000 UL
LTb
0.58 0.00 0.83 C LCb setrgbcolor
6296 4738 M
[ [(Helvetica) 140.0 0.0 true true 0 (original)]
] -46.7 MRshow
1.000 UL
LTb
0.58 0.00 0.83 C 6380 4738 M
399 0 V
462 2002 M
8 0 V
8 0 V
8 0 V
8 0 V
9 0 V
8 0 V
8 0 V
8 0 V
8 0 V
8 0 V
8 0 V
8 0 V
8 0 V
8 0 V
9 0 V
8 0 V
8 0 V
8 0 V
8 0 V
8 0 V
8 0 V
8 0 V
8 0 V
9 0 V
8 0 V
8 0 V
8 0 V
8 0 V
8 0 V
8 0 V
8 0 V
8 0 V
9 0 V
8 0 V
8 0 V
8 0 V
8 0 V
8 0 V
8 0 V
8 0 V
8 0 V
8 0 V
9 0 V
8 0 V
8 0 V
8 0 V
8 0 V
8 0 V
8 0 V
8 0 V
8 0 V
9 0 V
8 0 V
8 0 V
8 0 V
8 0 V
8 0 V
8 0 V
8 0 V
8 0 V
8 0 V
9 0 V
8 0 V
8 0 V
8 0 V
8 0 V
8 0 V
8 0 V
8 0 V
8 0 V
9 0 V
8 0 V
8 0 V
8 0 V
8 0 V
8 0 V
8 0 V
8 0 V
8 0 V
9 0 V
8 0 V
8 0 V
8 0 V
8 0 V
8 0 V
8 0 V
8 0 V
8 0 V
8 0 V
9 0 V
8 0 V
8 0 V
8 0 V
8 0 V
8 0 V
8 0 V
8 0 V
8 0 V
9 0 V
8 0 V
8 0 V
8 0 V
stroke 1289 2002 M
8 0 V
8 0 V
8 0 V
8 0 V
8 0 V
8 0 V
9 0 V
8 0 V
8 0 V
8 0 V
8 0 V
8 0 V
8 0 V
8 0 V
8 0 V
9 0 V
8 0 V
8 0 V
8 0 V
8 0 V
8 0 V
8 0 V
8 0 V
8 0 V
8 0 V
9 0 V
8 0 V
8 0 V
8 0 V
8 0 V
8 0 V
8 0 V
8 0 V
8 0 V
9 0 V
8 0 V
8 0 V
8 0 V
8 0 V
8 0 V
8 0 V
8 0 V
8 0 V
9 0 V
8 0 V
8 0 V
8 0 V
8 0 V
8 0 V
8 0 V
8 0 V
8 0 V
8 0 V
9 0 V
8 0 V
8 0 V
8 0 V
8 0 V
8 0 V
8 0 V
8 0 V
8 0 V
9 0 V
8 0 V
8 0 V
8 0 V
8 0 V
8 0 V
8 0 V
8 0 V
8 0 V
8 0 V
9 0 V
8 0 V
8 0 V
8 0 V
8 0 V
8 0 V
8 0 V
8 0 V
8 0 V
9 0 V
8 0 V
8 0 V
8 0 V
8 0 V
8 0 V
8 0 V
8 0 V
8 0 V
9 0 V
8 0 V
8 0 V
8 0 V
8 0 V
8 0 V
8 0 V
8 0 V
8 0 V
8 0 V
9 0 V
8 0 V
8 0 V
8 0 V
stroke 2132 2002 M
8 0 V
8 0 V
8 0 V
8 0 V
8 0 V
9 0 V
8 0 V
8 0 V
8 0 V
8 0 V
8 0 V
8 0 V
8 0 V
8 0 V
8 0 V
9 0 V
8 0 V
8 0 V
8 0 V
8 0 V
8 0 V
8 0 V
8 0 V
8 0 V
9 0 V
8 0 V
8 0 V
8 0 V
8 0 V
8 0 V
8 0 V
8 0 V
8 0 V
9 0 V
8 0 V
8 0 V
8 0 V
8 0 V
8 0 V
8 0 V
8 0 V
8 0 V
8 0 V
9 0 V
8 0 V
8 0 V
8 0 V
8 0 V
8 0 V
8 0 V
8 0 V
8 0 V
9 0 V
8 0 V
8 0 V
8 0 V
8 0 V
8 0 V
8 0 V
8 0 V
8 0 V
8 0 V
9 0 V
8 0 V
8 0 V
8 0 V
8 0 V
8 0 V
8 0 V
8 0 V
8 0 V
9 0 V
8 0 V
8 0 V
8 0 V
8 0 V
8 0 V
8 0 V
8 0 V
8 0 V
8 0 V
9 0 V
8 0 V
8 0 V
8 0 V
8 0 V
8 0 V
8 0 V
8 0 V
8 0 V
9 0 V
8 0 V
8 0 V
8 0 V
8 0 V
8 0 V
8 0 V
8 0 V
8 0 V
9 0 V
8 0 V
8 0 V
8 0 V
8 0 V
stroke 2975 2002 M
8 0 V
8 0 V
8 0 V
8 0 V
8 0 V
9 0 V
8 0 V
8 0 V
8 0 V
8 0 V
8 0 V
8 0 V
8 0 V
8 0 V
9 0 V
8 0 V
8 0 V
8 0 V
8 0 V
8 0 V
8 0 V
8 0 V
8 0 V
8 0 V
9 0 V
8 0 V
8 0 V
8 0 V
8 0 V
8 0 V
8 0 V
8 0 V
8 0 V
9 0 V
8 0 V
8 0 V
8 0 V
8 0 V
8 0 V
8 0 V
8 0 V
8 0 V
9 0 V
8 0 V
8 0 V
8 0 V
8 0 V
8 0 V
8 0 V
8 0 V
8 0 V
8 0 V
9 0 V
8 0 V
8 0 V
8 0 V
8 0 V
8 0 V
8 0 V
8 0 V
8 0 V
9 0 V
8 0 V
8 0 V
8 0 V
8 0 V
8 0 V
8 0 V
8 0 V
8 0 V
8 0 V
9 0 V
8 0 V
8 0 V
8 0 V
8 0 V
8 0 V
8 0 V
8 0 V
8 0 V
9 0 V
8 0 V
8 0 V
8 0 V
8 0 V
8 0 V
8 0 V
8 0 V
8 0 V
8 0 V
9 0 V
8 0 V
8 0 V
8 0 V
8 0 V
8 0 V
8 0 V
8 0 V
8 0 V
9 0 V
8 0 V
8 0 V
8 0 V
8 0 V
stroke 3818 2002 M
8 0 V
8 0 V
8 0 V
8 0 V
9 0 V
8 0 V
8 0 V
8 0 V
8 0 V
8 0 V
8 0 V
8 0 V
8 0 V
8 0 V
9 0 V
8 0 V
8 0 V
8 0 V
8 0 V
8 0 V
8 0 V
8 0 V
8 0 V
9 0 V
8 0 V
8 0 V
8 0 V
8 0 V
8 0 V
8 0 V
8 0 V
8 0 V
8 0 V
9 0 V
8 0 V
8 0 V
8 0 V
8 0 V
8 0 V
8 0 V
8 0 V
8 0 V
9 0 V
8 0 V
8 0 V
8 0 V
8 0 V
8 0 V
8 0 V
8 0 V
8 0 V
9 0 V
8 0 V
8 0 V
8 0 V
8 0 V
8 0 V
8 0 V
8 0 V
8 0 V
8 0 V
9 0 V
8 0 V
8 0 V
8 0 V
8 0 V
8 0 V
8 0 V
8 0 V
8 0 V
9 0 V
8 0 V
8 0 V
8 0 V
8 0 V
8 0 V
8 0 V
8 0 V
8 0 V
8 0 V
9 0 V
8 0 V
8 0 V
8 0 V
8 0 V
8 0 V
8 0 V
8 0 V
8 0 V
9 0 V
8 0 V
8 0 V
8 0 V
8 0 V
8 0 V
8 0 V
8 0 V
8 0 V
9 0 V
8 0 V
8 0 V
8 0 V
8 0 V
8 0 V
stroke 4661 2002 M
8 0 V
8 0 V
8 0 V
8 0 V
9 0 V
8 0 V
8 0 V
8 0 V
8 0 V
8 0 V
8 0 V
8 0 V
8 0 V
9 0 V
8 0 V
8 0 V
8 0 V
8 0 V
8 0 V
8 0 V
8 0 V
8 0 V
8 0 V
9 0 V
8 0 V
8 0 V
8 0 V
8 0 V
8 0 V
8 0 V
8 0 V
8 0 V
9 0 V
8 0 V
8 0 V
8 0 V
8 0 V
8 0 V
8 0 V
8 0 V
8 0 V
9 0 V
8 0 V
8 0 V
8 0 V
8 0 V
8 0 V
8 0 V
8 0 V
8 0 V
8 0 V
9 0 V
8 0 V
8 0 V
8 0 V
8 0 V
8 0 V
8 0 V
8 0 V
8 0 V
9 0 V
8 0 V
8 0 V
8 0 V
8 0 V
8 0 V
8 0 V
8 0 V
8 0 V
8 0 V
9 0 V
8 0 V
8 0 V
8 0 V
8 0 V
8 0 V
8 0 V
8 0 V
8 0 V
9 0 V
8 0 V
8 0 V
8 0 V
8 0 V
8 0 V
8 0 V
8 0 V
8 0 V
8 0 V
9 0 V
8 0 V
8 0 V
8 0 V
8 0 V
8 0 V
8 0 V
8 0 V
8 0 V
9 0 V
8 0 V
8 0 V
8 0 V
8 0 V
8 0 V
stroke 5504 2002 M
8 0 V
8 0 V
8 0 V
9 0 V
8 0 V
8 0 V
8 0 V
8 0 V
8 0 V
8 0 V
8 0 V
8 0 V
8 0 V
9 0 V
8 0 V
8 0 V
8 0 V
8 0 V
8 0 V
8 0 V
8 0 V
8 0 V
9 0 V
8 0 V
8 0 V
8 0 V
8 0 V
8 0 V
8 0 V
8 0 V
8 0 V
8 0 V
9 0 V
8 0 V
8 0 V
8 0 V
8 0 V
8 0 V
8 0 V
8 0 V
8 0 V
9 0 V
8 0 V
8 0 V
8 0 V
8 0 V
8 0 V
8 0 V
8 0 V
8 0 V
9 0 V
8 0 V
8 0 V
8 0 V
8 0 V
8 0 V
8 0 V
8 0 V
8 0 V
8 0 V
9 0 V
8 0 V
8 0 V
8 0 V
8 0 V
8 0 V
8 0 V
8 0 V
8 0 V
9 0 V
8 0 V
8 0 V
8 0 V
8 0 V
8 0 V
8 0 V
8 0 V
8 0 V
8 0 V
9 0 V
8 0 V
8 0 V
8 0 V
8 0 V
8 0 V
8 0 V
8 0 V
8 0 V
9 0 V
8 0 V
8 0 V
8 0 V
8 0 V
8 0 V
8 0 V
8 0 V
8 0 V
8 0 V
9 0 V
8 0 V
8 0 V
8 0 V
8 0 V
8 0 V
stroke 6347 2002 M
8 0 V
8 0 V
8 0 V
9 0 V
8 0 V
8 0 V
8 0 V
8 0 V
8 0 V
8 0 V
8 0 V
8 0 V
9 0 V
8 0 V
8 0 V
8 0 V
8 0 V
8 0 V
8 0 V
8 0 V
8 0 V
8 0 V
9 0 V
% End plot #1
% Begin plot #2
1.000 UP
stroke
LTb
0.00 0.62 0.45 C LCb setrgbcolor
6296 4598 M
[ [(Helvetica) 140.0 0.0 true true 0 (oracolo)]
] -46.7 MRshow
1.000 UP
1.000 UL
LTb
0.00 0.62 0.45 C 6380 4598 M
399 0 V
462 854 M
8 0 V
8 0 V
8 0 V
8 0 V
9 1722 V
8 0 V
8 0 V
8 0 V
8 0 V
8 0 V
8 0 V
8 0 V
8 0 V
8 0 V
9 114 V
8 0 V
8 0 V
8 0 V
8 0 V
8 345 V
8 0 V
8 0 V
8 0 V
9 0 V
8 -230 V
8 0 V
8 0 V
8 0 V
8 0 V
8 -229 V
8 0 V
8 0 V
9 0 V
738 739 L
8 1951 V
8 0 V
8 0 V
8 0 V
8 0 V
8 -114 V
8 0 V
8 0 V
9 0 V
819 739 L
8 1951 V
8 0 V
8 0 V
8 0 V
859 739 L
8 1837 V
8 0 V
9 0 V
8 0 V
8 0 V
8 0 V
8 0 V
8 0 V
8 0 V
8 0 V
8 0 V
8 0 V
9 0 V
8 0 V
8 0 V
8 459 V
8 0 V
8 0 V
8 0 V
8 0 V
8 0 V
9 0 V
8 0 V
8 0 V
8 0 V
8 -230 V
8 0 V
8 0 V
8 0 V
8 0 V
9 115 V
8 0 V
8 0 V
8 0 V
8 0 V
8 115 V
8 0 V
8 0 V
8 0 V
8 0 V
9 -230 V
8 0 V
8 0 V
8 0 V
8 0 V
8 0 V
8 0 V
8 0 V
8 0 V
9 0 V
8 115 V
8 0 V
8 0 V
8 0 V
8 0 V
8 0 V
8 0 V
8 0 V
8 0 V
9 0 V
8 0 V
8 0 V
8 115 V
8 0 V
8 0 V
8 0 V
8 0 V
8 0 V
9 0 V
8 0 V
8 0 V
8 0 V
8 -230 V
8 0 V
8 0 V
8 0 V
8 0 V
8 115 V
9 0 V
8 0 V
8 0 V
8 0 V
8 0 V
8 0 V
8 0 V
8 0 V
8 115 V
9 0 V
8 0 V
8 0 V
8 0 V
8 0 V
8 0 V
8 0 V
8 0 V
8 0 V
9 0 V
8 0 V
8 0 V
8 0 V
8 0 V
8 0 V
8 -115 V
8 0 V
stroke 1702 2920 M
8 0 V
8 0 V
9 -230 V
8 0 V
8 0 V
8 0 V
8 0 V
8 0 V
8 0 V
8 0 V
8 0 V
9 0 V
8 0 V
8 0 V
8 0 V
8 0 V
8 0 V
8 115 V
8 0 V
8 0 V
8 0 V
9 0 V
8 115 V
8 0 V
8 0 V
8 0 V
8 0 V
8 0 V
8 -115 V
8 0 V
9 0 V
8 0 V
8 0 V
8 115 V
8 0 V
8 0 V
8 0 V
8 0 V
8 115 V
9 0 V
8 0 V
8 0 V
8 0 V
8 0 V
8 0 V
8 0 V
8 0 V
8 0 V
8 -115 V
9 0 V
8 0 V
8 0 V
8 0 V
8 0 V
8 0 V
8 0 V
8 0 V
8 0 V
9 -230 V
8 0 V
8 0 V
8 0 V
8 0 V
8 345 V
8 0 V
8 0 V
8 0 V
8 0 V
9 -115 V
8 0 V
8 0 V
8 0 V
8 0 V
8 0 V
8 0 V
8 0 V
8 0 V
9 0 V
8 -115 V
8 0 V
8 0 V
8 0 V
8 0 V
8 230 V
8 0 V
8 0 V
9 0 V
8 0 V
8 -115 V
8 0 V
8 0 V
8 0 V
8 0 V
8 -115 V
8 0 V
8 0 V
9 0 V
8 -115 V
8 0 V
8 0 V
8 0 V
8 0 V
8 345 V
8 0 V
stroke 2545 3035 M
8 0 V
9 0 V
8 0 V
8 0 V
8 0 V
8 0 V
8 0 V
8 0 V
8 -345 V
8 0 V
8 0 V
9 0 V
8 0 V
8 345 V
8 0 V
8 0 V
8 0 V
8 0 V
8 0 V
8 0 V
9 0 V
8 0 V
8 0 V
8 0 V
8 -230 V
8 0 V
8 0 V
8 0 V
8 230 V
8 0 V
9 0 V
8 0 V
8 0 V
8 0 V
8 0 V
8 0 V
8 0 V
8 0 V
8 0 V
9 0 V
8 0 V
8 0 V
8 0 V
8 0 V
8 0 V
8 0 V
8 0 V
8 0 V
9 -230 V
8 0 V
8 0 V
8 0 V
8 115 V
8 0 V
8 0 V
8 0 V
8 0 V
8 115 V
9 0 V
8 0 V
8 0 V
8 0 V
8 0 V
8 0 V
8 0 V
8 0 V
8 0 V
9 -230 V
8 0 V
8 0 V
8 0 V
8 0 V
8 230 V
8 0 V
8 0 V
8 0 V
8 -2296 V
9 2066 V
8 0 V
8 0 V
8 0 V
8 0 V
8 -229 V
8 0 V
8 0 V
8 0 V
9 -1837 V
8 1951 V
8 0 V
8 0 V
8 0 V
8 -1951 V
8 2181 V
8 0 V
8 0 V
9 0 V
8 0 V
8 -230 V
8 0 V
8 0 V
8 0 V
8 0 V
8 230 V
8 0 V
stroke 3388 2920 M
8 0 V
9 0 V
8 0 V
8 115 V
8 0 V
8 0 V
8 0 V
8 -2296 V
8 2066 V
8 0 V
9 0 V
8 0 V
8 -2066 V
8 1837 V
8 0 V
8 0 V
8 0 V
8 0 V
8 0 V
8 0 V
9 0 V
8 0 V
8 0 V
8 0 V
8 0 V
8 0 V
8 0 V
8 -1837 V
8 2296 V
9 0 V
8 0 V
8 0 V
8 0 V
8 -459 V
8 0 V
8 0 V
8 0 V
8 -1837 V
8 1951 V
9 0 V
8 0 V
8 0 V
8 -1951 V
8 1837 V
8 0 V
8 0 V
8 0 V
8 0 V
9 0 V
8 0 V
8 0 V
8 0 V
8 0 V
8 344 V
8 0 V
8 0 V
8 0 V
9 -2181 V
8 2296 V
8 0 V
8 0 V
8 0 V
8 0 V
8 -459 V
8 0 V
8 0 V
8 0 V
9 0 V
8 0 V
8 0 V
8 0 V
8 0 V
8 -1837 V
8 1951 V
8 0 V
8 0 V
9 0 V
8 -1951 V
8 1837 V
8 0 V
8 0 V
8 0 V
8 0 V
8 0 V
8 0 V
8 0 V
9 0 V
8 0 V
8 0 V
8 0 V
8 0 V
8 0 V
8 0 V
8 114 V
8 0 V
9 0 V
8 0 V
8 -1951 V
8 2296 V
8 0 V
8 0 V
8 0 V
8 0 V
8 -345 V
stroke 4231 2690 M
9 0 V
8 0 V
8 0 V
8 0 V
8 230 V
8 0 V
8 0 V
8 0 V
8 0 V
8 0 V
9 -115 V
8 0 V
8 0 V
8 0 V
8 0 V
8 0 V
8 0 V
8 0 V
8 0 V
9 0 V
8 -115 V
8 0 V
8 0 V
8 0 V
8 0 V
8 0 V
8 345 V
8 0 V
8 0 V
9 0 V
8 0 V
8 0 V
8 0 V
8 0 V
8 0 V
8 0 V
8 -230 V
8 0 V
9 0 V
8 0 V
8 0 V
8 115 V
8 0 V
8 0 V
8 0 V
8 -230 V
8 0 V
9 0 V
8 0 V
8 0 V
8 0 V
8 0 V
8 0 V
8 0 V
8 345 V
8 0 V
8 0 V
9 0 V
8 0 V
8 0 V
8 0 V
8 0 V
8 0 V
8 -2296 V
8 2181 V
8 0 V
9 0 V
8 0 V
8 0 V
8 -344 V
8 0 V
8 0 V
8 0 V
8 0 V
8 344 V
8 0 V
9 0 V
8 0 V
8 -2181 V
8 2296 V
8 0 V
8 0 V
8 0 V
8 -2296 V
8 2066 V
9 0 V
8 0 V
8 0 V
8 0 V
8 230 V
8 0 V
8 0 V
8 0 V
8 0 V
9 0 V
8 0 V
8 0 V
8 0 V
8 0 V
8 -115 V
8 0 V
8 0 V
8 0 V
8 0 V
stroke 5074 2920 M
9 115 V
8 0 V
8 0 V
8 0 V
8 0 V
8 -345 V
8 0 V
8 0 V
8 0 V
9 -1951 V
8 1951 V
8 0 V
8 0 V
8 0 V
8 0 V
8 115 V
8 0 V
8 0 V
8 0 V
9 0 V
8 -115 V
8 0 V
8 0 V
8 0 V
8 0 V
8 0 V
8 345 V
8 0 V
9 0 V
8 0 V
8 0 V
8 -459 V
8 0 V
8 0 V
8 0 V
8 0 V
8 459 V
8 0 V
9 0 V
8 0 V
8 0 V
8 -230 V
8 0 V
8 0 V
8 0 V
8 0 V
8 -229 V
9 0 V
8 0 V
8 0 V
8 114 V
8 0 V
8 0 V
8 0 V
8 0 V
8 345 V
9 0 V
8 0 V
8 0 V
8 -2296 V
8 2296 V
8 0 V
8 0 V
8 0 V
8 -2296 V
8 1837 V
9 0 V
8 0 V
8 0 V
8 -1837 V
8 1837 V
8 0 V
8 0 V
8 0 V
8 0 V
9 0 V
8 0 V
8 0 V
8 0 V
8 -1837 V
8 1951 V
8 0 V
8 0 V
8 0 V
8 0 V
9 -114 V
8 0 V
8 0 V
8 0 V
8 -1837 V
8 1951 V
8 0 V
8 0 V
8 0 V
9 -1951 V
8 1837 V
8 0 V
8 0 V
8 0 V
8 0 V
8 0 V
8 0 V
8 0 V
9 0 V
stroke 5918 2576 M
8 0 V
8 0 V
8 0 V
8 0 V
8 0 V
8 0 V
8 0 V
8 0 V
8 0 V
9 0 V
8 0 V
8 0 V
8 0 V
8 0 V
8 0 V
8 0 V
8 0 V
8 0 V
9 0 V
8 0 V
8 0 V
8 114 V
8 0 V
8 0 V
8 0 V
8 0 V
8 -114 V
8 0 V
9 0 V
8 0 V
8 0 V
8 114 V
8 0 V
8 0 V
8 0 V
8 0 V
8 -229 V
9 0 V
8 0 V
8 0 V
8 0 V
8 0 V
8 459 V
8 0 V
8 0 V
8 0 V
8 0 V
9 0 V
8 0 V
8 0 V
8 0 V
8 0 V
8 0 V
8 0 V
8 0 V
8 115 V
9 0 V
8 0 V
8 0 V
8 -115 V
8 0 V
8 0 V
8 0 V
8 -115 V
8 0 V
9 0 V
8 0 V
8 0 V
8 0 V
8 0 V
8 0 V
462 854 Crs
470 854 Crs
478 854 Crs
486 854 Crs
494 854 Crs
503 2576 Crs
511 2576 Crs
519 2576 Crs
527 2576 Crs
535 2576 Crs
543 2576 Crs
551 2576 Crs
559 2576 Crs
567 2576 Crs
575 2576 Crs
584 2690 Crs
592 2690 Crs
600 2690 Crs
608 2690 Crs
616 2690 Crs
624 3035 Crs
632 3035 Crs
640 3035 Crs
648 3035 Crs
657 3035 Crs
665 2805 Crs
673 2805 Crs
681 2805 Crs
689 2805 Crs
697 2805 Crs
705 2576 Crs
713 2576 Crs
721 2576 Crs
730 2576 Crs
738 739 Crs
746 2690 Crs
754 2690 Crs
762 2690 Crs
770 2690 Crs
778 2690 Crs
786 2576 Crs
794 2576 Crs
802 2576 Crs
811 2576 Crs
819 739 Crs
827 2690 Crs
835 2690 Crs
843 2690 Crs
851 2690 Crs
859 739 Crs
867 2576 Crs
875 2576 Crs
884 2576 Crs
892 2576 Crs
900 2576 Crs
908 2576 Crs
916 2576 Crs
924 2576 Crs
932 2576 Crs
940 2576 Crs
948 2576 Crs
956 2576 Crs
965 2576 Crs
973 2576 Crs
981 2576 Crs
989 3035 Crs
997 3035 Crs
1005 3035 Crs
1013 3035 Crs
1021 3035 Crs
1029 3035 Crs
1038 3035 Crs
1046 3035 Crs
1054 3035 Crs
1062 3035 Crs
1070 2805 Crs
1078 2805 Crs
1086 2805 Crs
1094 2805 Crs
1102 2805 Crs
1111 2920 Crs
1119 2920 Crs
1127 2920 Crs
1135 2920 Crs
1143 2920 Crs
1151 3035 Crs
1159 3035 Crs
1167 3035 Crs
1175 3035 Crs
1183 3035 Crs
1192 2805 Crs
1200 2805 Crs
1208 2805 Crs
1216 2805 Crs
1224 2805 Crs
1232 2805 Crs
1240 2805 Crs
1248 2805 Crs
1256 2805 Crs
1265 2805 Crs
1273 2920 Crs
1281 2920 Crs
1289 2920 Crs
1297 2920 Crs
1305 2920 Crs
1313 2920 Crs
1321 2920 Crs
1329 2920 Crs
1337 2920 Crs
1346 2920 Crs
1354 2920 Crs
1362 2920 Crs
1370 3035 Crs
1378 3035 Crs
1386 3035 Crs
1394 3035 Crs
1402 3035 Crs
1410 3035 Crs
1419 3035 Crs
1427 3035 Crs
1435 3035 Crs
1443 3035 Crs
1451 2805 Crs
1459 2805 Crs
1467 2805 Crs
1475 2805 Crs
1483 2805 Crs
1491 2920 Crs
1500 2920 Crs
1508 2920 Crs
1516 2920 Crs
1524 2920 Crs
1532 2920 Crs
1540 2920 Crs
1548 2920 Crs
1556 2920 Crs
1564 3035 Crs
1573 3035 Crs
1581 3035 Crs
1589 3035 Crs
1597 3035 Crs
1605 3035 Crs
1613 3035 Crs
1621 3035 Crs
1629 3035 Crs
1637 3035 Crs
1646 3035 Crs
1654 3035 Crs
1662 3035 Crs
1670 3035 Crs
1678 3035 Crs
1686 3035 Crs
1694 2920 Crs
1702 2920 Crs
1710 2920 Crs
1718 2920 Crs
1727 2690 Crs
1735 2690 Crs
1743 2690 Crs
1751 2690 Crs
1759 2690 Crs
1767 2690 Crs
1775 2690 Crs
1783 2690 Crs
1791 2690 Crs
1800 2690 Crs
1808 2690 Crs
1816 2690 Crs
1824 2690 Crs
1832 2690 Crs
1840 2690 Crs
1848 2805 Crs
1856 2805 Crs
1864 2805 Crs
1872 2805 Crs
1881 2805 Crs
1889 2920 Crs
1897 2920 Crs
1905 2920 Crs
1913 2920 Crs
1921 2920 Crs
1929 2920 Crs
1937 2805 Crs
1945 2805 Crs
1954 2805 Crs
1962 2805 Crs
1970 2805 Crs
1978 2920 Crs
1986 2920 Crs
1994 2920 Crs
2002 2920 Crs
2010 2920 Crs
2018 3035 Crs
2027 3035 Crs
2035 3035 Crs
2043 3035 Crs
2051 3035 Crs
2059 3035 Crs
2067 3035 Crs
2075 3035 Crs
2083 3035 Crs
2091 3035 Crs
2099 2920 Crs
2108 2920 Crs
2116 2920 Crs
2124 2920 Crs
2132 2920 Crs
2140 2920 Crs
2148 2920 Crs
2156 2920 Crs
2164 2920 Crs
2172 2920 Crs
2181 2690 Crs
2189 2690 Crs
2197 2690 Crs
2205 2690 Crs
2213 2690 Crs
2221 3035 Crs
2229 3035 Crs
2237 3035 Crs
2245 3035 Crs
2253 3035 Crs
2262 2920 Crs
2270 2920 Crs
2278 2920 Crs
2286 2920 Crs
2294 2920 Crs
2302 2920 Crs
2310 2920 Crs
2318 2920 Crs
2326 2920 Crs
2335 2920 Crs
2343 2805 Crs
2351 2805 Crs
2359 2805 Crs
2367 2805 Crs
2375 2805 Crs
2383 3035 Crs
2391 3035 Crs
2399 3035 Crs
2408 3035 Crs
2416 3035 Crs
2424 2920 Crs
2432 2920 Crs
2440 2920 Crs
2448 2920 Crs
2456 2920 Crs
2464 2805 Crs
2472 2805 Crs
2480 2805 Crs
2489 2805 Crs
2497 2690 Crs
2505 2690 Crs
2513 2690 Crs
2521 2690 Crs
2529 2690 Crs
2537 3035 Crs
2545 3035 Crs
2553 3035 Crs
2562 3035 Crs
2570 3035 Crs
2578 3035 Crs
2586 3035 Crs
2594 3035 Crs
2602 3035 Crs
2610 3035 Crs
2618 2690 Crs
2626 2690 Crs
2634 2690 Crs
2643 2690 Crs
2651 2690 Crs
2659 3035 Crs
2667 3035 Crs
2675 3035 Crs
2683 3035 Crs
2691 3035 Crs
2699 3035 Crs
2707 3035 Crs
2716 3035 Crs
2724 3035 Crs
2732 3035 Crs
2740 3035 Crs
2748 2805 Crs
2756 2805 Crs
2764 2805 Crs
2772 2805 Crs
2780 3035 Crs
2788 3035 Crs
2797 3035 Crs
2805 3035 Crs
2813 3035 Crs
2821 3035 Crs
2829 3035 Crs
2837 3035 Crs
2845 3035 Crs
2853 3035 Crs
2861 3035 Crs
2870 3035 Crs
2878 3035 Crs
2886 3035 Crs
2894 3035 Crs
2902 3035 Crs
2910 3035 Crs
2918 3035 Crs
2926 3035 Crs
2934 3035 Crs
2943 2805 Crs
2951 2805 Crs
2959 2805 Crs
2967 2805 Crs
2975 2920 Crs
2983 2920 Crs
2991 2920 Crs
2999 2920 Crs
3007 2920 Crs
3015 3035 Crs
3024 3035 Crs
3032 3035 Crs
3040 3035 Crs
3048 3035 Crs
3056 3035 Crs
3064 3035 Crs
3072 3035 Crs
3080 3035 Crs
3088 3035 Crs
3097 2805 Crs
3105 2805 Crs
3113 2805 Crs
3121 2805 Crs
3129 2805 Crs
3137 3035 Crs
3145 3035 Crs
3153 3035 Crs
3161 3035 Crs
3169 739 Crs
3178 2805 Crs
3186 2805 Crs
3194 2805 Crs
3202 2805 Crs
3210 2805 Crs
3218 2576 Crs
3226 2576 Crs
3234 2576 Crs
3242 2576 Crs
3251 739 Crs
3259 2690 Crs
3267 2690 Crs
3275 2690 Crs
3283 2690 Crs
3291 739 Crs
3299 2920 Crs
3307 2920 Crs
3315 2920 Crs
3324 2920 Crs
3332 2920 Crs
3340 2690 Crs
3348 2690 Crs
3356 2690 Crs
3364 2690 Crs
3372 2690 Crs
3380 2920 Crs
3388 2920 Crs
3396 2920 Crs
3405 2920 Crs
3413 2920 Crs
3421 3035 Crs
3429 3035 Crs
3437 3035 Crs
3445 3035 Crs
3453 739 Crs
3461 2805 Crs
3469 2805 Crs
3478 2805 Crs
3486 2805 Crs
3494 739 Crs
3502 2576 Crs
3510 2576 Crs
3518 2576 Crs
3526 2576 Crs
3534 2576 Crs
3542 2576 Crs
3550 2576 Crs
3559 2576 Crs
3567 2576 Crs
3575 2576 Crs
3583 2576 Crs
3591 2576 Crs
3599 2576 Crs
3607 2576 Crs
3615 739 Crs
3623 3035 Crs
3632 3035 Crs
3640 3035 Crs
3648 3035 Crs
3656 3035 Crs
3664 2576 Crs
3672 2576 Crs
3680 2576 Crs
3688 2576 Crs
3696 739 Crs
3704 2690 Crs
3713 2690 Crs
3721 2690 Crs
3729 2690 Crs
3737 739 Crs
3745 2576 Crs
3753 2576 Crs
3761 2576 Crs
3769 2576 Crs
3777 2576 Crs
3786 2576 Crs
3794 2576 Crs
3802 2576 Crs
3810 2576 Crs
3818 2576 Crs
3826 2920 Crs
3834 2920 Crs
3842 2920 Crs
3850 2920 Crs
3859 739 Crs
3867 3035 Crs
3875 3035 Crs
3883 3035 Crs
3891 3035 Crs
3899 3035 Crs
3907 2576 Crs
3915 2576 Crs
3923 2576 Crs
3931 2576 Crs
3940 2576 Crs
3948 2576 Crs
3956 2576 Crs
3964 2576 Crs
3972 2576 Crs
3980 739 Crs
3988 2690 Crs
3996 2690 Crs
4004 2690 Crs
4013 2690 Crs
4021 739 Crs
4029 2576 Crs
4037 2576 Crs
4045 2576 Crs
4053 2576 Crs
4061 2576 Crs
4069 2576 Crs
4077 2576 Crs
4085 2576 Crs
4094 2576 Crs
4102 2576 Crs
4110 2576 Crs
4118 2576 Crs
4126 2576 Crs
4134 2576 Crs
4142 2576 Crs
4150 2690 Crs
4158 2690 Crs
4167 2690 Crs
4175 2690 Crs
4183 739 Crs
4191 3035 Crs
4199 3035 Crs
4207 3035 Crs
4215 3035 Crs
4223 3035 Crs
4231 2690 Crs
4240 2690 Crs
4248 2690 Crs
4256 2690 Crs
4264 2690 Crs
4272 2920 Crs
4280 2920 Crs
4288 2920 Crs
4296 2920 Crs
4304 2920 Crs
4312 2920 Crs
4321 2805 Crs
4329 2805 Crs
4337 2805 Crs
4345 2805 Crs
4353 2805 Crs
4361 2805 Crs
4369 2805 Crs
4377 2805 Crs
4385 2805 Crs
4394 2805 Crs
4402 2690 Crs
4410 2690 Crs
4418 2690 Crs
4426 2690 Crs
4434 2690 Crs
4442 2690 Crs
4450 3035 Crs
4458 3035 Crs
4466 3035 Crs
4475 3035 Crs
4483 3035 Crs
4491 3035 Crs
4499 3035 Crs
4507 3035 Crs
4515 3035 Crs
4523 3035 Crs
4531 2805 Crs
4539 2805 Crs
4548 2805 Crs
4556 2805 Crs
4564 2805 Crs
4572 2920 Crs
4580 2920 Crs
4588 2920 Crs
4596 2920 Crs
4604 2690 Crs
4612 2690 Crs
4621 2690 Crs
4629 2690 Crs
4637 2690 Crs
4645 2690 Crs
4653 2690 Crs
4661 2690 Crs
4669 2690 Crs
4677 3035 Crs
4685 3035 Crs
4693 3035 Crs
4702 3035 Crs
4710 3035 Crs
4718 3035 Crs
4726 3035 Crs
4734 3035 Crs
4742 3035 Crs
4750 739 Crs
4758 2920 Crs
4766 2920 Crs
4775 2920 Crs
4783 2920 Crs
4791 2920 Crs
4799 2576 Crs
4807 2576 Crs
4815 2576 Crs
4823 2576 Crs
4831 2576 Crs
4839 2920 Crs
4847 2920 Crs
4856 2920 Crs
4864 2920 Crs
4872 739 Crs
4880 3035 Crs
4888 3035 Crs
4896 3035 Crs
4904 3035 Crs
4912 739 Crs
4920 2805 Crs
4929 2805 Crs
4937 2805 Crs
4945 2805 Crs
4953 2805 Crs
4961 3035 Crs
4969 3035 Crs
4977 3035 Crs
4985 3035 Crs
4993 3035 Crs
5002 3035 Crs
5010 3035 Crs
5018 3035 Crs
5026 3035 Crs
5034 3035 Crs
5042 2920 Crs
5050 2920 Crs
5058 2920 Crs
5066 2920 Crs
5074 2920 Crs
5083 3035 Crs
5091 3035 Crs
5099 3035 Crs
5107 3035 Crs
5115 3035 Crs
5123 2690 Crs
5131 2690 Crs
5139 2690 Crs
5147 2690 Crs
5156 739 Crs
5164 2690 Crs
5172 2690 Crs
5180 2690 Crs
5188 2690 Crs
5196 2690 Crs
5204 2805 Crs
5212 2805 Crs
5220 2805 Crs
5228 2805 Crs
5237 2805 Crs
5245 2690 Crs
5253 2690 Crs
5261 2690 Crs
5269 2690 Crs
5277 2690 Crs
5285 2690 Crs
5293 3035 Crs
5301 3035 Crs
5310 3035 Crs
5318 3035 Crs
5326 3035 Crs
5334 2576 Crs
5342 2576 Crs
5350 2576 Crs
5358 2576 Crs
5366 2576 Crs
5374 3035 Crs
5382 3035 Crs
5391 3035 Crs
5399 3035 Crs
5407 3035 Crs
5415 2805 Crs
5423 2805 Crs
5431 2805 Crs
5439 2805 Crs
5447 2805 Crs
5455 2576 Crs
5464 2576 Crs
5472 2576 Crs
5480 2576 Crs
5488 2690 Crs
5496 2690 Crs
5504 2690 Crs
5512 2690 Crs
5520 2690 Crs
5528 3035 Crs
5537 3035 Crs
5545 3035 Crs
5553 3035 Crs
5561 739 Crs
5569 3035 Crs
5577 3035 Crs
5585 3035 Crs
5593 3035 Crs
5601 739 Crs
5609 2576 Crs
5618 2576 Crs
5626 2576 Crs
5634 2576 Crs
5642 739 Crs
5650 2576 Crs
5658 2576 Crs
5666 2576 Crs
5674 2576 Crs
5682 2576 Crs
5691 2576 Crs
5699 2576 Crs
5707 2576 Crs
5715 2576 Crs
5723 739 Crs
5731 2690 Crs
5739 2690 Crs
5747 2690 Crs
5755 2690 Crs
5763 2690 Crs
5772 2576 Crs
5780 2576 Crs
5788 2576 Crs
5796 2576 Crs
5804 739 Crs
5812 2690 Crs
5820 2690 Crs
5828 2690 Crs
5836 2690 Crs
5845 739 Crs
5853 2576 Crs
5861 2576 Crs
5869 2576 Crs
5877 2576 Crs
5885 2576 Crs
5893 2576 Crs
5901 2576 Crs
5909 2576 Crs
5918 2576 Crs
5926 2576 Crs
5934 2576 Crs
5942 2576 Crs
5950 2576 Crs
5958 2576 Crs
5966 2576 Crs
5974 2576 Crs
5982 2576 Crs
5990 2576 Crs
5999 2576 Crs
6007 2576 Crs
6015 2576 Crs
6023 2576 Crs
6031 2576 Crs
6039 2576 Crs
6047 2576 Crs
6055 2576 Crs
6063 2576 Crs
6072 2576 Crs
6080 2576 Crs
6088 2576 Crs
6096 2690 Crs
6104 2690 Crs
6112 2690 Crs
6120 2690 Crs
6128 2690 Crs
6136 2576 Crs
6144 2576 Crs
6153 2576 Crs
6161 2576 Crs
6169 2576 Crs
6177 2690 Crs
6185 2690 Crs
6193 2690 Crs
6201 2690 Crs
6209 2690 Crs
6217 2461 Crs
6226 2461 Crs
6234 2461 Crs
6242 2461 Crs
6250 2461 Crs
6258 2461 Crs
6266 2920 Crs
6274 2920 Crs
6282 2920 Crs
6290 2920 Crs
6298 2920 Crs
6307 2920 Crs
6315 2920 Crs
6323 2920 Crs
6331 2920 Crs
6339 2920 Crs
6347 2920 Crs
6355 2920 Crs
6363 2920 Crs
6371 3035 Crs
6380 3035 Crs
6388 3035 Crs
6396 3035 Crs
6404 2920 Crs
6412 2920 Crs
6420 2920 Crs
6428 2920 Crs
6436 2805 Crs
6444 2805 Crs
6453 2805 Crs
6461 2805 Crs
6469 2805 Crs
6477 2805 Crs
6485 2805 Crs
6493 2805 Crs
6579 4598 Crs
% End plot #2
% Begin plot #3
1.000 UL
LTb
0.00 0.45 0.70 C LCb setrgbcolor
6296 4458 M
[ [(Helvetica) 140.0 0.0 true true 0 (original)]
] -46.7 MRshow
1.000 UL
LTb
0.00 0.45 0.70 C 6380 4458 M
399 0 V
462 1313 M
8 459 V
8 -115 V
8 459 V
8 460 V
9 459 V
8 -115 V
8 459 V
8 459 V
8 -115 V
8 459 V
8 459 V
8 -114 V
8 -115 V
8 -115 V
9 -115 V
8 459 V
8 -114 V
8 -115 V
8 -115 V
8 -115 V
8 459 V
8 -114 V
8 -115 V
9 -115 V
8 -115 V
8 459 V
8 -114 V
8 -115 V
8 -115 V
8 -115 V
8 459 V
8 -114 V
9 -115 V
8 -115 V
8 -115 V
8 459 V
8 -114 V
8 -115 V
8 -115 V
8 -115 V
8 459 V
8 -114 V
9 -115 V
8 -115 V
8 -115 V
8 459 V
8 -114 V
8 -115 V
8 -115 V
8 -115 V
8 459 V
9 -114 V
8 -115 V
8 -115 V
8 -115 V
8 459 V
8 -114 V
8 -115 V
8 -115 V
8 -115 V
8 459 V
9 -114 V
8 -115 V
8 -115 V
8 -115 V
8 459 V
8 -114 V
8 -115 V
8 -115 V
8 -115 V
9 459 V
8 -114 V
8 -115 V
8 -115 V
8 -115 V
8 459 V
8 -114 V
8 -115 V
8 -115 V
9 -115 V
8 459 V
8 -114 V
8 -115 V
8 -115 V
8 -115 V
8 459 V
8 -114 V
8 -115 V
8 -115 V
9 -115 V
8 459 V
8 -114 V
8 -115 V
8 -115 V
8 -115 V
8 459 V
8 -114 V
8 -115 V
9 -115 V
8 -115 V
8 459 V
8 -114 V
stroke 1289 4527 M
8 -115 V
8 -115 V
8 -115 V
8 459 V
8 -114 V
8 -115 V
9 -115 V
8 -115 V
8 459 V
8 -114 V
8 -115 V
8 -115 V
8 -115 V
8 459 V
8 -114 V
9 -115 V
8 -115 V
8 -115 V
8 459 V
8 -114 V
8 -115 V
8 -115 V
8 -115 V
8 459 V
8 -114 V
9 -115 V
8 -115 V
8 -115 V
8 459 V
8 -114 V
8 -115 V
8 -115 V
8 -115 V
8 459 V
9 -114 V
8 -115 V
8 -115 V
8 -115 V
8 459 V
8 -114 V
8 -115 V
8 -115 V
8 -115 V
9 459 V
8 -114 V
8 -115 V
8 -115 V
8 -115 V
8 459 V
8 -114 V
8 -115 V
8 -115 V
8 -115 V
9 459 V
8 -114 V
8 -115 V
8 -115 V
8 -115 V
8 459 V
8 -114 V
8 -115 V
8 -115 V
9 -115 V
8 459 V
8 -114 V
8 -115 V
8 -115 V
8 -115 V
8 459 V
8 -114 V
8 -115 V
8 -115 V
9 -115 V
8 459 V
8 -114 V
8 -115 V
8 -115 V
8 -115 V
8 459 V
8 -114 V
8 -115 V
9 -115 V
8 -115 V
8 459 V
8 -114 V
8 -115 V
8 -115 V
8 -115 V
8 459 V
8 -114 V
9 -115 V
8 -115 V
8 -115 V
8 459 V
8 -114 V
8 -115 V
8 -115 V
8 -115 V
8 459 V
8 -114 V
9 -115 V
8 -115 V
8 -115 V
8 459 V
stroke 2132 4641 M
8 -114 V
8 -115 V
8 -115 V
8 -115 V
8 459 V
9 -114 V
8 -115 V
8 -115 V
8 -115 V
8 459 V
8 -114 V
8 -115 V
8 -115 V
8 -115 V
8 459 V
9 -114 V
8 -115 V
8 -115 V
8 -115 V
8 459 V
8 -114 V
8 -115 V
8 -115 V
8 -115 V
9 459 V
8 -114 V
8 -115 V
8 -115 V
8 -115 V
8 459 V
8 -114 V
8 -115 V
8 -115 V
9 -115 V
8 459 V
8 -114 V
8 -115 V
8 -115 V
8 -115 V
8 459 V
8 -114 V
8 -115 V
8 -115 V
9 -115 V
8 459 V
8 -114 V
8 -115 V
8 -115 V
8 -115 V
8 459 V
8 -114 V
8 -115 V
9 -115 V
8 -115 V
8 459 V
8 -114 V
8 -115 V
8 -115 V
8 -115 V
8 459 V
8 -114 V
8 -115 V
9 -115 V
8 -115 V
8 459 V
8 -114 V
8 -115 V
8 -115 V
8 -115 V
8 459 V
8 -114 V
9 -115 V
8 -115 V
8 -115 V
8 459 V
8 -114 V
8 -115 V
8 -115 V
8 -115 V
8 459 V
8 -114 V
9 -115 V
8 -115 V
8 -115 V
8 459 V
8 -114 V
8 -115 V
8 -115 V
8 -115 V
8 459 V
9 -114 V
8 -115 V
8 -115 V
8 -115 V
8 459 V
8 -114 V
8 -115 V
8 -115 V
8 -115 V
9 459 V
8 -114 V
8 -115 V
8 -115 V
8 -115 V
stroke 2975 4182 M
8 459 V
8 -114 V
8 -115 V
8 -115 V
8 -115 V
9 459 V
8 -114 V
8 -115 V
8 -115 V
8 -115 V
8 459 V
8 -114 V
8 -115 V
8 -115 V
9 -115 V
8 459 V
8 -114 V
8 -115 V
8 -115 V
8 -115 V
8 459 V
8 -114 V
8 -115 V
8 -115 V
9 -115 V
8 459 V
8 -114 V
8 -115 V
8 -115 V
8 -115 V
8 459 V
8 -114 V
8 -115 V
9 -115 V
8 -115 V
8 459 V
8 -114 V
8 -115 V
8 -115 V
8 -115 V
8 459 V
8 -114 V
9 -115 V
8 -115 V
8 -115 V
8 459 V
8 -114 V
8 -115 V
8 -115 V
8 -115 V
8 459 V
8 -114 V
9 -115 V
8 -115 V
8 -115 V
8 459 V
8 -114 V
8 -115 V
8 -115 V
8 -115 V
8 459 V
9 -114 V
8 -115 V
8 -115 V
8 -115 V
8 459 V
8 -114 V
8 -115 V
8 -115 V
8 -115 V
8 459 V
9 -114 V
8 -115 V
8 -115 V
8 -115 V
8 459 V
8 -114 V
8 -115 V
8 -115 V
8 -115 V
9 459 V
8 -114 V
8 -115 V
8 -115 V
8 -115 V
8 459 V
8 -114 V
8 -115 V
8 -115 V
8 -115 V
9 459 V
8 -114 V
8 -115 V
8 -115 V
8 -115 V
8 459 V
8 -114 V
8 -115 V
8 -115 V
9 -115 V
8 459 V
8 -114 V
8 -115 V
8 -115 V
stroke 3818 4297 M
8 -115 V
8 459 V
8 -114 V
8 -115 V
9 -115 V
8 -115 V
8 459 V
8 -114 V
8 -115 V
8 -115 V
8 -115 V
8 459 V
8 -114 V
8 -115 V
9 -115 V
8 -115 V
8 459 V
8 -114 V
8 -115 V
8 -115 V
8 -115 V
8 459 V
8 -114 V
9 -115 V
8 -115 V
8 -115 V
8 459 V
8 -114 V
8 -115 V
8 -115 V
8 -115 V
8 459 V
8 -114 V
9 -115 V
8 -115 V
8 -115 V
8 459 V
8 -114 V
8 -115 V
8 -115 V
8 -115 V
8 459 V
9 -114 V
8 -115 V
8 -115 V
8 -115 V
8 459 V
8 -114 V
8 -115 V
8 -115 V
8 -115 V
9 459 V
8 -114 V
8 -115 V
8 -115 V
8 -115 V
8 459 V
8 -114 V
8 -115 V
8 -115 V
8 -115 V
9 459 V
8 -114 V
8 -115 V
8 -115 V
8 -115 V
8 459 V
8 -114 V
8 -115 V
8 -115 V
9 -115 V
8 459 V
8 -114 V
8 -115 V
8 -115 V
8 -115 V
8 459 V
8 -114 V
8 -115 V
8 -115 V
9 -115 V
8 459 V
8 -114 V
8 -115 V
8 -115 V
8 -115 V
8 459 V
8 -114 V
8 -115 V
9 -115 V
8 -115 V
8 459 V
8 -114 V
8 -115 V
8 -115 V
8 -115 V
8 459 V
8 -114 V
9 -115 V
8 -115 V
8 -115 V
8 459 V
8 -114 V
8 -115 V
stroke 4661 4412 M
8 -115 V
8 -115 V
8 459 V
8 -114 V
9 -115 V
8 -115 V
8 -115 V
8 459 V
8 -114 V
8 -115 V
8 -115 V
8 -115 V
8 459 V
9 -114 V
8 -115 V
8 -115 V
8 -115 V
8 459 V
8 -114 V
8 -115 V
8 -115 V
8 -115 V
8 459 V
9 -114 V
8 -115 V
8 -115 V
8 -115 V
8 459 V
8 -114 V
8 -115 V
8 -115 V
8 -115 V
9 459 V
8 -114 V
8 -115 V
8 -115 V
8 -115 V
8 459 V
8 -114 V
8 -115 V
8 -115 V
9 -115 V
8 459 V
8 -114 V
8 -115 V
8 -115 V
8 -115 V
8 459 V
8 -114 V
8 -115 V
8 -115 V
9 -115 V
8 459 V
8 -114 V
8 -115 V
8 -115 V
8 -115 V
8 459 V
8 -114 V
8 -115 V
9 -115 V
8 -115 V
8 459 V
8 -114 V
8 -115 V
8 -115 V
8 -115 V
8 459 V
8 -114 V
8 -115 V
9 -115 V
8 -115 V
8 459 V
8 -114 V
8 -115 V
8 -115 V
8 -115 V
8 459 V
8 -114 V
9 -115 V
8 -115 V
8 -115 V
8 459 V
8 -114 V
8 -115 V
8 -115 V
8 -115 V
8 459 V
8 -114 V
9 -115 V
8 -115 V
8 -115 V
8 459 V
8 -114 V
8 -115 V
8 -115 V
8 -115 V
8 459 V
9 -114 V
8 -115 V
8 -115 V
8 -115 V
8 459 V
8 -114 V
stroke 5504 4527 M
8 -115 V
8 -115 V
8 -115 V
9 459 V
8 -114 V
8 -115 V
8 -115 V
8 -115 V
8 459 V
8 -114 V
8 -115 V
8 -115 V
8 -115 V
9 459 V
8 -114 V
8 -115 V
8 -115 V
8 -115 V
8 459 V
8 -114 V
8 -115 V
8 -115 V
9 -115 V
8 459 V
8 -114 V
8 -115 V
8 -115 V
8 -115 V
8 459 V
8 -114 V
8 -115 V
8 -115 V
9 -115 V
8 459 V
8 -114 V
8 -115 V
8 -115 V
8 -115 V
8 459 V
8 -114 V
8 -115 V
9 -115 V
8 -115 V
8 459 V
8 -114 V
8 -115 V
8 -115 V
8 -115 V
8 459 V
8 -114 V
9 -115 V
8 -115 V
8 -115 V
8 459 V
8 -114 V
8 -115 V
8 -115 V
8 -115 V
8 459 V
8 -114 V
9 -115 V
8 -115 V
8 -115 V
8 459 V
8 -114 V
8 -115 V
8 -115 V
8 -115 V
8 459 V
9 -114 V
8 -115 V
8 -115 V
8 -115 V
8 459 V
8 -114 V
8 -115 V
8 -115 V
8 -115 V
8 459 V
9 -114 V
8 -115 V
8 -115 V
8 -115 V
8 459 V
8 -114 V
8 -115 V
8 -115 V
8 -115 V
9 459 V
8 -114 V
8 -115 V
8 -115 V
8 -115 V
8 459 V
8 -114 V
8 -115 V
8 -115 V
8 -115 V
9 -114 V
8 0 V
8 -115 V
8 -115 V
8 -115 V
8 -115 V
stroke 6347 3608 M
8 -114 V
8 -115 V
8 -115 V
9 -115 V
8 -114 V
8 -115 V
8 -115 V
8 -115 V
8 -114 V
8 -115 V
8 -115 V
8 -115 V
9 -115 V
8 -114 V
8 -115 V
8 -115 V
8 -115 V
8 -114 V
8 -115 V
8 -115 V
8 -115 V
8 -115 V
9 -114 V
% End plot #3
% Begin plot #4
1.000 UP
stroke
LTb
0.90 0.62 0.00 C LCb setrgbcolor
6296 4318 M
[ [(Helvetica) 140.0 0.0 true true 0 (oracolo)]
] -46.7 MRshow
1.000 UP
1.000 UL
LTb
0.90 0.62 0.00 C 6380 4318 M
399 0 V
462 1313 M
8 -115 V
8 -115 V
8 -114 V
8 459 V
9 -115 V
8 -115 V
8 -115 V
8 -114 V
8 459 V
8 -115 V
8 -115 V
8 -115 V
8 460 V
8 -115 V
9 -115 V
8 -115 V
8 459 V
8 -114 V
8 -115 V
8 -115 V
8 -115 V
8 -115 V
8 -114 V
9 459 V
8 -115 V
8 -115 V
8 -115 V
8 -114 V
8 459 V
8 -115 V
8 -115 V
8 -115 V
9 -114 V
8 -115 V
8 459 V
8 -115 V
8 -115 V
8 -114 V
8 459 V
8 -115 V
8 -115 V
8 -115 V
9 -114 V
8 -115 V
8 459 V
8 -115 V
8 -115 V
8 -114 V
8 -115 V
8 459 V
8 -115 V
9 -115 V
8 -114 V
8 459 V
8 -115 V
8 -115 V
8 -115 V
8 -114 V
8 459 V
8 -115 V
8 -115 V
9 459 V
8 -114 V
8 -115 V
8 -115 V
8 459 V
8 -115 V
8 -114 V
8 -115 V
8 -115 V
9 459 V
8 -115 V
8 -114 V
8 -115 V
8 -115 V
8 459 V
8 -115 V
8 -114 V
8 -115 V
9 -115 V
8 -115 V
8 459 V
8 -114 V
8 -115 V
8 -115 V
8 -115 V
8 -115 V
8 -114 V
8 459 V
9 -115 V
8 -115 V
8 -115 V
8 -114 V
8 459 V
8 -115 V
8 -115 V
8 459 V
8 -114 V
9 -115 V
8 -115 V
8 459 V
8 -115 V
stroke 1289 1657 M
8 459 V
8 -114 V
8 -115 V
8 459 V
8 -115 V
8 -115 V
9 -114 V
8 -115 V
8 459 V
8 -115 V
8 -115 V
8 460 V
8 -115 V
8 -115 V
8 459 V
9 -115 V
8 -114 V
8 -115 V
8 -115 V
8 -115 V
8 459 V
8 -114 V
8 -115 V
8 -115 V
8 -115 V
9 -115 V
8 -114 V
8 -115 V
8 459 V
8 -115 V
8 -115 V
8 -114 V
8 -115 V
8 -115 V
9 459 V
8 -115 V
8 -114 V
8 -115 V
8 -115 V
8 459 V
8 -115 V
8 -114 V
8 -115 V
9 459 V
8 -115 V
8 -115 V
8 -114 V
8 -115 V
8 459 V
8 -115 V
8 -115 V
8 -114 V
8 -115 V
9 -115 V
8 459 V
8 -115 V
8 -114 V
8 -115 V
8 -115 V
8 459 V
8 -115 V
8 -114 V
9 -115 V
8 -115 V
8 459 V
8 -115 V
8 -114 V
8 -115 V
8 -115 V
8 459 V
8 -115 V
8 -114 V
9 -115 V
8 -115 V
8 459 V
8 -115 V
8 -114 V
8 459 V
8 -115 V
8 -115 V
8 -115 V
9 -114 V
8 -115 V
8 459 V
8 -115 V
8 -115 V
8 -114 V
8 459 V
8 -115 V
8 -115 V
9 -115 V
8 460 V
8 -115 V
8 -115 V
8 459 V
8 -115 V
8 -114 V
8 -115 V
8 -115 V
8 -115 V
9 459 V
8 -114 V
8 -115 V
8 -115 V
stroke 2132 2346 M
8 -115 V
8 -115 V
8 460 V
8 -115 V
8 -115 V
9 -115 V
8 -115 V
8 -114 V
8 -115 V
8 459 V
8 -115 V
8 -115 V
8 -114 V
8 459 V
8 -115 V
9 -115 V
8 -115 V
8 -114 V
8 -115 V
8 -115 V
8 459 V
8 -115 V
8 -114 V
8 -115 V
9 459 V
8 -115 V
8 -115 V
8 -114 V
8 459 V
8 -115 V
8 -115 V
8 -115 V
8 460 V
9 -115 V
8 -115 V
8 -115 V
8 -115 V
8 -114 V
8 -115 V
8 459 V
8 -115 V
8 -115 V
8 -114 V
9 -115 V
8 -115 V
8 459 V
8 -115 V
8 -114 V
8 -115 V
8 -115 V
8 459 V
8 -115 V
9 -114 V
8 459 V
8 -115 V
8 -115 V
8 -115 V
8 -114 V
8 -115 V
8 -115 V
8 459 V
8 -115 V
9 -114 V
8 -115 V
8 -115 V
8 459 V
8 -115 V
8 -114 V
8 -115 V
8 459 V
8 -115 V
9 -115 V
8 -114 V
8 459 V
8 -115 V
8 -115 V
8 -115 V
8 -114 V
8 -115 V
8 -115 V
8 459 V
9 -115 V
8 -114 V
8 -115 V
8 -115 V
8 -115 V
8 -114 V
8 459 V
8 -115 V
8 -115 V
9 -115 V
8 -114 V
8 459 V
8 -115 V
8 -115 V
8 -115 V
8 -114 V
8 -115 V
8 459 V
9 -115 V
8 -115 V
8 -114 V
8 -115 V
8 -115 V
stroke 2975 1313 M
8 459 V
8 -115 V
8 -114 V
8 -115 V
8 -115 V
9 459 V
8 -115 V
8 -114 V
8 -115 V
8 -115 V
8 459 V
8 -115 V
8 -114 V
8 -115 V
9 -115 V
8 -115 V
8 -115 V
8 460 V
8 -115 V
8 -115 V
8 -115 V
8 -115 V
8 -114 V
8 -115 V
9 459 V
8 -115 V
8 -115 V
8 -114 V
8 459 V
8 -115 V
8 -115 V
8 -115 V
8 -114 V
9 -115 V
8 459 V
8 -115 V
8 -115 V
8 -114 V
8 -115 V
8 459 V
8 -115 V
8 -115 V
9 460 V
8 -115 V
8 -115 V
8 -115 V
8 -115 V
8 -114 V
8 459 V
8 -115 V
8 -115 V
8 -115 V
9 -114 V
8 459 V
8 -115 V
8 -115 V
8 -115 V
8 -114 V
8 -115 V
8 459 V
8 -115 V
9 -115 V
8 -114 V
8 -115 V
8 459 V
8 -115 V
8 -115 V
8 -114 V
8 459 V
8 -115 V
8 -115 V
9 -115 V
8 460 V
8 -115 V
8 -115 V
8 -115 V
8 -115 V
8 -114 V
8 -115 V
8 459 V
9 -115 V
8 -115 V
8 -114 V
8 459 V
8 -115 V
8 -115 V
8 -115 V
8 -114 V
8 -115 V
8 459 V
9 -115 V
8 -115 V
8 -114 V
8 -115 V
8 459 V
8 -115 V
8 -115 V
8 -114 V
8 459 V
9 -115 V
8 -115 V
8 -115 V
8 460 V
8 -115 V
stroke 3818 1428 M
8 -115 V
8 -115 V
8 -115 V
8 -114 V
9 -115 V
8 459 V
8 -115 V
8 -115 V
8 -114 V
8 459 V
8 -115 V
8 -115 V
8 -115 V
8 -114 V
9 459 V
8 -115 V
8 -115 V
8 -115 V
8 -114 V
8 -115 V
8 459 V
8 -115 V
8 -115 V
9 -114 V
8 -115 V
8 459 V
8 -115 V
8 -115 V
8 -114 V
8 459 V
8 -115 V
8 -115 V
8 -115 V
9 -114 V
8 459 V
8 -115 V
8 -115 V
8 -115 V
8 -114 V
8 459 V
8 -115 V
8 -115 V
9 -115 V
8 -114 V
8 -115 V
8 459 V
8 -115 V
8 -115 V
8 -114 V
8 459 V
8 -115 V
9 -115 V
8 -115 V
8 460 V
8 -115 V
8 -115 V
8 459 V
8 -115 V
8 -114 V
8 -115 V
8 459 V
9 -115 V
8 -115 V
8 -114 V
8 459 V
8 -115 V
8 -115 V
8 -115 V
8 459 V
8 -114 V
9 -115 V
8 -115 V
8 459 V
8 -115 V
8 -114 V
8 -115 V
8 459 V
8 -115 V
8 -115 V
8 -114 V
9 -115 V
8 459 V
8 -115 V
8 -115 V
8 -114 V
8 -115 V
8 459 V
8 -115 V
8 -115 V
9 -114 V
8 459 V
8 -115 V
8 -115 V
8 -115 V
8 -114 V
8 -115 V
8 -115 V
8 -115 V
9 -114 V
8 -115 V
8 -115 V
8 459 V
8 -115 V
8 -114 V
stroke 4661 1543 M
8 -115 V
8 -115 V
8 -115 V
8 -115 V
9 -114 V
8 459 V
8 -115 V
8 -115 V
8 -115 V
8 -114 V
8 -115 V
8 459 V
8 -115 V
9 -115 V
8 -114 V
8 459 V
8 -115 V
8 -115 V
8 -115 V
8 -114 V
8 459 V
8 -115 V
8 -115 V
9 -115 V
8 -114 V
8 -115 V
8 459 V
8 -115 V
8 -115 V
8 -114 V
8 -115 V
8 459 V
9 -115 V
8 -115 V
8 460 V
8 -115 V
8 -115 V
8 459 V
8 -115 V
8 -114 V
8 -115 V
9 -115 V
8 459 V
8 -115 V
8 -114 V
8 -115 V
8 -115 V
8 -115 V
8 -115 V
8 460 V
8 -115 V
9 -115 V
8 -115 V
8 -115 V
8 -114 V
8 459 V
8 -115 V
8 -115 V
8 -115 V
8 -114 V
9 -115 V
8 459 V
8 -115 V
8 -115 V
8 -114 V
8 459 V
8 -115 V
8 -115 V
8 -115 V
8 460 V
9 -115 V
8 -115 V
8 459 V
8 -115 V
8 -114 V
8 -115 V
8 459 V
8 -115 V
8 -115 V
9 -114 V
8 -115 V
8 459 V
8 -115 V
8 -115 V
8 -114 V
8 -115 V
8 459 V
8 -115 V
8 -115 V
9 -114 V
8 459 V
8 -115 V
8 -115 V
8 -115 V
8 -114 V
8 -115 V
8 459 V
8 -115 V
9 -115 V
8 -114 V
8 -115 V
8 -115 V
8 -115 V
8 459 V
stroke 5504 1657 M
8 -114 V
8 -115 V
8 -115 V
9 -115 V
8 -115 V
8 -114 V
8 -115 V
8 459 V
8 -115 V
8 -115 V
8 -114 V
8 -115 V
8 459 V
9 -115 V
8 -115 V
8 -114 V
8 -115 V
8 459 V
8 -115 V
8 -115 V
8 -114 V
8 459 V
9 -115 V
8 -115 V
8 -115 V
8 -114 V
8 -115 V
8 459 V
8 -115 V
8 -115 V
8 -114 V
8 459 V
9 -115 V
8 -115 V
8 -115 V
8 -114 V
8 -115 V
8 459 V
8 -115 V
8 -115 V
8 -114 V
9 -115 V
8 459 V
8 -115 V
8 -115 V
8 -114 V
8 459 V
8 -115 V
8 -115 V
8 -115 V
9 -114 V
8 459 V
8 -115 V
8 -115 V
8 -115 V
8 -114 V
8 459 V
8 -115 V
8 -115 V
8 -115 V
9 -114 V
8 459 V
8 -115 V
8 -115 V
8 -115 V
8 460 V
8 -115 V
8 -115 V
8 -115 V
9 -115 V
8 -114 V
8 459 V
8 -115 V
8 -115 V
8 -115 V
8 -114 V
8 459 V
8 -115 V
8 -115 V
9 -115 V
8 -114 V
8 459 V
8 -115 V
8 -115 V
8 -115 V
8 460 V
8 -115 V
8 -115 V
9 -115 V
8 459 V
8 -114 V
8 459 V
8 -115 V
8 -115 V
8 459 V
8 -115 V
8 -114 V
8 459 V
9 -115 V
8 -115 V
8 459 V
8 -114 V
8 459 V
8 -115 V
stroke 6347 2920 M
8 0 V
8 -115 V
8 -115 V
9 -114 V
8 -115 V
8 -115 V
8 -115 V
8 -115 V
8 -114 V
8 -115 V
8 -115 V
8 -115 V
9 -114 V
8 -115 V
8 -115 V
8 -115 V
8 -115 V
8 -114 V
462 1313 Box
470 1198 Box
478 1083 Box
486 969 Box
494 1428 Box
503 1313 Box
511 1198 Box
519 1083 Box
527 969 Box
535 1428 Box
543 1313 Box
551 1198 Box
559 1083 Box
567 1543 Box
575 1428 Box
584 1313 Box
592 1198 Box
600 1657 Box
608 1543 Box
616 1428 Box
624 1313 Box
632 1198 Box
640 1083 Box
648 969 Box
657 1428 Box
665 1313 Box
673 1198 Box
681 1083 Box
689 969 Box
697 1428 Box
705 1313 Box
713 1198 Box
721 1083 Box
730 969 Box
738 854 Box
746 1313 Box
754 1198 Box
762 1083 Box
770 969 Box
778 1428 Box
786 1313 Box
794 1198 Box
802 1083 Box
811 969 Box
819 854 Box
827 1313 Box
835 1198 Box
843 1083 Box
851 969 Box
859 854 Box
867 1313 Box
875 1198 Box
884 1083 Box
892 969 Box
900 1428 Box
908 1313 Box
916 1198 Box
924 1083 Box
932 969 Box
940 1428 Box
948 1313 Box
956 1198 Box
965 1657 Box
973 1543 Box
981 1428 Box
989 1313 Box
997 1772 Box
1005 1657 Box
1013 1543 Box
1021 1428 Box
1029 1313 Box
1038 1772 Box
1046 1657 Box
1054 1543 Box
1062 1428 Box
1070 1313 Box
1078 1772 Box
1086 1657 Box
1094 1543 Box
1102 1428 Box
1111 1313 Box
1119 1198 Box
1127 1657 Box
1135 1543 Box
1143 1428 Box
1151 1313 Box
1159 1198 Box
1167 1083 Box
1175 969 Box
1183 1428 Box
1192 1313 Box
1200 1198 Box
1208 1083 Box
1216 969 Box
1224 1428 Box
1232 1313 Box
1240 1198 Box
1248 1657 Box
1256 1543 Box
1265 1428 Box
1273 1313 Box
1281 1772 Box
1289 1657 Box
1297 2116 Box
1305 2002 Box
1313 1887 Box
1321 2346 Box
1329 2231 Box
1337 2116 Box
1346 2002 Box
1354 1887 Box
1362 2346 Box
1370 2231 Box
1378 2116 Box
1386 2576 Box
1394 2461 Box
1402 2346 Box
1410 2805 Box
1419 2690 Box
1427 2576 Box
1435 2461 Box
1443 2346 Box
1451 2231 Box
1459 2690 Box
1467 2576 Box
1475 2461 Box
1483 2346 Box
1491 2231 Box
1500 2116 Box
1508 2002 Box
1516 1887 Box
1524 2346 Box
1532 2231 Box
1540 2116 Box
1548 2002 Box
1556 1887 Box
1564 1772 Box
1573 2231 Box
1581 2116 Box
1589 2002 Box
1597 1887 Box
1605 1772 Box
1613 2231 Box
1621 2116 Box
1629 2002 Box
1637 1887 Box
1646 2346 Box
1654 2231 Box
1662 2116 Box
1670 2002 Box
1678 1887 Box
1686 2346 Box
1694 2231 Box
1702 2116 Box
1710 2002 Box
1718 1887 Box
1727 1772 Box
1735 2231 Box
1743 2116 Box
1751 2002 Box
1759 1887 Box
1767 1772 Box
1775 2231 Box
1783 2116 Box
1791 2002 Box
1800 1887 Box
1808 1772 Box
1816 2231 Box
1824 2116 Box
1832 2002 Box
1840 1887 Box
1848 1772 Box
1856 2231 Box
1864 2116 Box
1872 2002 Box
1881 1887 Box
1889 1772 Box
1897 2231 Box
1905 2116 Box
1913 2002 Box
1921 2461 Box
1929 2346 Box
1937 2231 Box
1945 2116 Box
1954 2002 Box
1962 1887 Box
1970 2346 Box
1978 2231 Box
1986 2116 Box
1994 2002 Box
2002 2461 Box
2010 2346 Box
2018 2231 Box
2027 2116 Box
2035 2576 Box
2043 2461 Box
2051 2346 Box
2059 2805 Box
2067 2690 Box
2075 2576 Box
2083 2461 Box
2091 2346 Box
2099 2231 Box
2108 2690 Box
2116 2576 Box
2124 2461 Box
2132 2346 Box
2140 2231 Box
2148 2116 Box
2156 2576 Box
2164 2461 Box
2172 2346 Box
2181 2231 Box
2189 2116 Box
2197 2002 Box
2205 1887 Box
2213 2346 Box
2221 2231 Box
2229 2116 Box
2237 2002 Box
2245 2461 Box
2253 2346 Box
2262 2231 Box
2270 2116 Box
2278 2002 Box
2286 1887 Box
2294 1772 Box
2302 2231 Box
2310 2116 Box
2318 2002 Box
2326 1887 Box
2335 2346 Box
2343 2231 Box
2351 2116 Box
2359 2002 Box
2367 2461 Box
2375 2346 Box
2383 2231 Box
2391 2116 Box
2399 2576 Box
2408 2461 Box
2416 2346 Box
2424 2231 Box
2432 2116 Box
2440 2002 Box
2448 1887 Box
2456 2346 Box
2464 2231 Box
2472 2116 Box
2480 2002 Box
2489 1887 Box
2497 1772 Box
2505 2231 Box
2513 2116 Box
2521 2002 Box
2529 1887 Box
2537 1772 Box
2545 2231 Box
2553 2116 Box
2562 2002 Box
2570 2461 Box
2578 2346 Box
2586 2231 Box
2594 2116 Box
2602 2002 Box
2610 1887 Box
2618 1772 Box
2626 2231 Box
2634 2116 Box
2643 2002 Box
2651 1887 Box
2659 1772 Box
2667 2231 Box
2675 2116 Box
2683 2002 Box
2691 1887 Box
2699 2346 Box
2707 2231 Box
2716 2116 Box
2724 2002 Box
2732 2461 Box
2740 2346 Box
2748 2231 Box
2756 2116 Box
2764 2002 Box
2772 1887 Box
2780 1772 Box
2788 2231 Box
2797 2116 Box
2805 2002 Box
2813 1887 Box
2821 1772 Box
2829 1657 Box
2837 1543 Box
2845 2002 Box
2853 1887 Box
2861 1772 Box
2870 1657 Box
2878 1543 Box
2886 2002 Box
2894 1887 Box
2902 1772 Box
2910 1657 Box
2918 1543 Box
2926 1428 Box
2934 1887 Box
2943 1772 Box
2951 1657 Box
2959 1543 Box
2967 1428 Box
2975 1313 Box
2983 1772 Box
2991 1657 Box
2999 1543 Box
3007 1428 Box
3015 1313 Box
3024 1772 Box
3032 1657 Box
3040 1543 Box
3048 1428 Box
3056 1313 Box
3064 1772 Box
3072 1657 Box
3080 1543 Box
3088 1428 Box
3097 1313 Box
3105 1198 Box
3113 1083 Box
3121 1543 Box
3129 1428 Box
3137 1313 Box
3145 1198 Box
3153 1083 Box
3161 969 Box
3169 854 Box
3178 1313 Box
3186 1198 Box
3194 1083 Box
3202 969 Box
3210 1428 Box
3218 1313 Box
3226 1198 Box
3234 1083 Box
3242 969 Box
3251 854 Box
3259 1313 Box
3267 1198 Box
3275 1083 Box
3283 969 Box
3291 854 Box
3299 1313 Box
3307 1198 Box
3315 1083 Box
3324 1543 Box
3332 1428 Box
3340 1313 Box
3348 1198 Box
3356 1083 Box
3364 969 Box
3372 1428 Box
3380 1313 Box
3388 1198 Box
3396 1083 Box
3405 969 Box
3413 1428 Box
3421 1313 Box
3429 1198 Box
3437 1083 Box
3445 969 Box
3453 854 Box
3461 1313 Box
3469 1198 Box
3478 1083 Box
3486 969 Box
3494 854 Box
3502 1313 Box
3510 1198 Box
3518 1083 Box
3526 969 Box
3534 1428 Box
3542 1313 Box
3550 1198 Box
3559 1083 Box
3567 1543 Box
3575 1428 Box
3583 1313 Box
3591 1198 Box
3599 1083 Box
3607 969 Box
3615 854 Box
3623 1313 Box
3632 1198 Box
3640 1083 Box
3648 969 Box
3656 1428 Box
3664 1313 Box
3672 1198 Box
3680 1083 Box
3688 969 Box
3696 854 Box
3704 1313 Box
3713 1198 Box
3721 1083 Box
3729 969 Box
3737 854 Box
3745 1313 Box
3753 1198 Box
3761 1083 Box
3769 969 Box
3777 1428 Box
3786 1313 Box
3794 1198 Box
3802 1083 Box
3810 1543 Box
3818 1428 Box
3826 1313 Box
3834 1198 Box
3842 1083 Box
3850 969 Box
3859 854 Box
3867 1313 Box
3875 1198 Box
3883 1083 Box
3891 969 Box
3899 1428 Box
3907 1313 Box
3915 1198 Box
3923 1083 Box
3931 969 Box
3940 1428 Box
3948 1313 Box
3956 1198 Box
3964 1083 Box
3972 969 Box
3980 854 Box
3988 1313 Box
3996 1198 Box
4004 1083 Box
4013 969 Box
4021 854 Box
4029 1313 Box
4037 1198 Box
4045 1083 Box
4053 969 Box
4061 1428 Box
4069 1313 Box
4077 1198 Box
4085 1083 Box
4094 969 Box
4102 1428 Box
4110 1313 Box
4118 1198 Box
4126 1083 Box
4134 969 Box
4142 1428 Box
4150 1313 Box
4158 1198 Box
4167 1083 Box
4175 969 Box
4183 854 Box
4191 1313 Box
4199 1198 Box
4207 1083 Box
4215 969 Box
4223 1428 Box
4231 1313 Box
4240 1198 Box
4248 1083 Box
4256 1543 Box
4264 1428 Box
4272 1313 Box
4280 1772 Box
4288 1657 Box
4296 1543 Box
4304 1428 Box
4312 1887 Box
4321 1772 Box
4329 1657 Box
4337 1543 Box
4345 2002 Box
4353 1887 Box
4361 1772 Box
4369 1657 Box
4377 2116 Box
4385 2002 Box
4394 1887 Box
4402 1772 Box
4410 2231 Box
4418 2116 Box
4426 2002 Box
4434 1887 Box
4442 2346 Box
4450 2231 Box
4458 2116 Box
4466 2002 Box
4475 1887 Box
4483 2346 Box
4491 2231 Box
4499 2116 Box
4507 2002 Box
4515 1887 Box
4523 2346 Box
4531 2231 Box
4539 2116 Box
4548 2002 Box
4556 2461 Box
4564 2346 Box
4572 2231 Box
4580 2116 Box
4588 2002 Box
4596 1887 Box
4604 1772 Box
4612 1657 Box
4621 1543 Box
4629 1428 Box
4637 1313 Box
4645 1772 Box
4653 1657 Box
4661 1543 Box
4669 1428 Box
4677 1313 Box
4685 1198 Box
4693 1083 Box
4702 969 Box
4710 1428 Box
4718 1313 Box
4726 1198 Box
4734 1083 Box
4742 969 Box
4750 854 Box
4758 1313 Box
4766 1198 Box
4775 1083 Box
4783 969 Box
4791 1428 Box
4799 1313 Box
4807 1198 Box
4815 1083 Box
4823 969 Box
4831 1428 Box
4839 1313 Box
4847 1198 Box
4856 1083 Box
4864 969 Box
4872 854 Box
4880 1313 Box
4888 1198 Box
4896 1083 Box
4904 969 Box
4912 854 Box
4920 1313 Box
4929 1198 Box
4937 1083 Box
4945 1543 Box
4953 1428 Box
4961 1313 Box
4969 1772 Box
4977 1657 Box
4985 1543 Box
4993 1428 Box
5002 1313 Box
5010 1772 Box
5018 1657 Box
5026 1543 Box
5034 1428 Box
5042 1313 Box
5050 1198 Box
5058 1083 Box
5066 1543 Box
5074 1428 Box
5083 1313 Box
5091 1198 Box
5099 1083 Box
5107 969 Box
5115 1428 Box
5123 1313 Box
5131 1198 Box
5139 1083 Box
5147 969 Box
5156 854 Box
5164 1313 Box
5172 1198 Box
5180 1083 Box
5188 969 Box
5196 1428 Box
5204 1313 Box
5212 1198 Box
5220 1083 Box
5228 1543 Box
5237 1428 Box
5245 1313 Box
5253 1772 Box
5261 1657 Box
5269 1543 Box
5277 1428 Box
5285 1887 Box
5293 1772 Box
5301 1657 Box
5310 1543 Box
5318 1428 Box
5326 1887 Box
5334 1772 Box
5342 1657 Box
5350 1543 Box
5358 1428 Box
5366 1887 Box
5374 1772 Box
5382 1657 Box
5391 1543 Box
5399 2002 Box
5407 1887 Box
5415 1772 Box
5423 1657 Box
5431 1543 Box
5439 1428 Box
5447 1887 Box
5455 1772 Box
5464 1657 Box
5472 1543 Box
5480 1428 Box
5488 1313 Box
5496 1198 Box
5504 1657 Box
5512 1543 Box
5520 1428 Box
5528 1313 Box
5537 1198 Box
5545 1083 Box
5553 969 Box
5561 854 Box
5569 1313 Box
5577 1198 Box
5585 1083 Box
5593 969 Box
5601 854 Box
5609 1313 Box
5618 1198 Box
5626 1083 Box
5634 969 Box
5642 854 Box
5650 1313 Box
5658 1198 Box
5666 1083 Box
5674 969 Box
5682 1428 Box
5691 1313 Box
5699 1198 Box
5707 1083 Box
5715 969 Box
5723 854 Box
5731 1313 Box
5739 1198 Box
5747 1083 Box
5755 969 Box
5763 1428 Box
5772 1313 Box
5780 1198 Box
5788 1083 Box
5796 969 Box
5804 854 Box
5812 1313 Box
5820 1198 Box
5828 1083 Box
5836 969 Box
5845 854 Box
5853 1313 Box
5861 1198 Box
5869 1083 Box
5877 969 Box
5885 1428 Box
5893 1313 Box
5901 1198 Box
5909 1083 Box
5918 969 Box
5926 1428 Box
5934 1313 Box
5942 1198 Box
5950 1083 Box
5958 969 Box
5966 1428 Box
5974 1313 Box
5982 1198 Box
5990 1083 Box
5999 969 Box
6007 1428 Box
6015 1313 Box
6023 1198 Box
6031 1083 Box
6039 1543 Box
6047 1428 Box
6055 1313 Box
6063 1198 Box
6072 1083 Box
6080 969 Box
6088 1428 Box
6096 1313 Box
6104 1198 Box
6112 1083 Box
6120 969 Box
6128 1428 Box
6136 1313 Box
6144 1198 Box
6153 1083 Box
6161 969 Box
6169 1428 Box
6177 1313 Box
6185 1198 Box
6193 1083 Box
6201 1543 Box
6209 1428 Box
6217 1313 Box
6226 1198 Box
6234 1657 Box
6242 1543 Box
6250 2002 Box
6258 1887 Box
6266 1772 Box
6274 2231 Box
6282 2116 Box
6290 2002 Box
6298 2461 Box
6307 2346 Box
6315 2231 Box
6323 2690 Box
6331 2576 Box
6339 3035 Box
6347 2920 Box
6355 2920 Box
6363 2805 Box
6371 2690 Box
6380 2576 Box
6388 2461 Box
6396 2346 Box
6404 2231 Box
6412 2116 Box
6420 2002 Box
6428 1887 Box
6436 1772 Box
6444 1657 Box
6453 1543 Box
6461 1428 Box
6469 1313 Box
6477 1198 Box
6485 1083 Box
6493 969 Box
6579 4318 Box
% End plot #4
2.000 UL
LTb
LCb setrgbcolor
1.000 UL
LTB
LCb setrgbcolor
462 4871 N
462 280 L
6485 0 V
0 4591 V
-6485 0 V
Z stroke
1.000 UP
1.000 UL
LTb
LCb setrgbcolor
stroke
grestore
end
showpage
%%Trailer
%%DocumentFonts: Helvetica
